%!PS-Adobe-3.0 EPSF-3.0
%%Title: aacc-weakmag.eps
%%Creator: matplotlib version 1.3.1, http://matplotlib.org/
%%CreationDate: Mon Jul 14 16:12:27 2014
%%Orientation: portrait
%%BoundingBox: 18 180 594 612
%%EndComments
%%BeginProlog
/mpldict 11 dict def
mpldict begin
/m { moveto } bind def
/l { lineto } bind def
/r { rlineto } bind def
/c { curveto } bind def
/cl { closepath } bind def
/box {
m
1 index 0 r
0 exch r
neg 0 r
cl
} bind def
/clipbox {
box
clip
newpath
} bind def
%!PS-Adobe-3.0 Resource-Font
%%Title: cmmi10
%%Copyright: Copyright (C) 1994, Basil K. Malyshev. All Rights Reserved.012BaKoMa Fonts Collection, Level-B.
%%Creator: Converted from TrueType to type 3 by PPR
25 dict begin
/_d{bind def}bind def
/_m{moveto}_d
/_l{lineto}_d
/_cl{closepath eofill}_d
/_c{curveto}_d
/_sc{7 -1 roll{setcachedevice}{pop pop pop pop pop pop}ifelse}_d
/_e{exec}_d
/FontName /Cmmi10 def
/PaintType 0 def
/FontMatrix[.001 0 0 .001 0 0]def
/FontBBox[-34 -250 1048 750]def
/FontType 3 def
/Encoding [ /nu /a /c ] def
/FontInfo 10 dict dup begin
/FamilyName (cmmi10) def
/FullName (cmmi10) def
/Notice (Copyright (C) 1994, Basil K. Malyshev. All Rights Reserved.012BaKoMa Fonts Collection, Level-B. ) def
/Weight (Regular) def
/Version (1.1/12-Nov-94) def
/ItalicAngle 0.0 def
/isFixedPitch false def
/UnderlinePosition -133 def
/UnderlineThickness 20 def
end readonly def
/CharStrings 3 dict dup begin
/nu{{494 0 51 0 526 442 _sc
63 0 _m
55 0 51 4 51 13 _c
136 353 _l
138 364 140 373 141 380 _c
141 390 119 396 76 396 _c
69 396 66 400 66 409 _c
66 411 66 414 68 418 _c
69 422 70 425 72 427 _c
74 429 76 431 80 431 _c
215 442 _l
223 442 227 437 227 429 _c
129 37 _l
181 54 230 81 274 119 _c
318 157 356 201 387 252 _c
418 302 440 355 454 410 _c
}_e{456 419 461 427 469 433 _c
477 439 486 442 496 442 _c
504 442 511 439 517 434 _c
523 428 526 421 526 413 _c
526 402 521 386 513 364 _c
504 342 495 322 487 305 _c
460 253 425 205 382 161 _c
354 133 325 109 294 88 _c
262 67 229 49 195 34 _c
161 19 125 8 87 0 _c
63 0 _l
_cl}_e}_d
/a{{528 0 38 -10 501 442 _sc
174 -10 _m
132 -10 98 5 74 37 _c
50 68 38 105 38 149 _c
38 191 49 236 71 282 _c
93 328 122 366 160 396 _c
198 426 238 442 282 442 _c
302 442 319 436 335 426 _c
351 415 363 400 372 382 _c
379 408 394 422 416 422 _c
424 422 431 419 437 414 _c
443 409 446 402 446 394 _c
446 392 445 390 445 389 _c
445 388 445 387 445 386 _c
375 107 _l
}_e{370 87 368 70 368 58 _c
368 29 377 15 397 15 _c
417 15 433 28 444 55 _c
455 81 464 112 472 147 _c
473 151 476 153 480 153 _c
492 153 _l
494 153 496 151 498 149 _c
500 147 501 145 501 143 _c
489 96 476 59 462 31 _c
448 3 426 -10 395 -10 _c
372 -10 352 -3 335 9 _c
318 21 307 39 303 61 _c
260 13 217 -10 174 -10 _c
175 15 _m
199 15 222 24 245 42 _c
}_e{267 60 287 81 303 106 _c
303 106 304 107 304 109 _c
358 326 _l
359 329 _l
355 353 346 373 333 390 _c
319 407 302 416 280 416 _c
257 416 236 406 217 388 _c
197 370 181 348 168 323 _c
154 296 142 259 130 213 _c
118 167 113 131 113 105 _c
113 81 118 60 128 42 _c
138 24 153 15 175 15 _c
_cl}_e}_d
/c{{432 0 40 -10 430 442 _sc
117 119 _m
117 90 124 65 139 45 _c
154 25 175 15 203 15 _c
243 15 281 24 318 42 _c
354 60 384 86 407 118 _c
409 120 411 121 415 121 _c
418 121 421 119 425 115 _c
428 111 430 108 430 105 _c
430 102 429 100 428 99 _c
404 65 371 38 330 19 _c
288 0 245 -10 201 -10 _c
169 -10 140 -2 116 12 _c
92 26 73 46 60 72 _c
}_e{46 97 40 126 40 158 _c
40 203 52 248 77 292 _c
102 336 135 372 177 400 _c
219 428 263 442 309 442 _c
339 442 366 434 390 420 _c
414 405 426 384 426 356 _c
426 338 420 322 410 309 _c
399 296 385 290 367 290 _c
356 290 347 293 340 300 _c
332 306 329 315 329 326 _c
329 342 334 355 346 366 _c
357 377 370 383 386 383 _c
388 383 _l
380 394 368 402 354 408 _c
}_e{339 413 324 416 308 416 _c
269 416 235 399 206 366 _c
176 332 154 292 139 246 _c
124 200 117 157 117 119 _c
_cl}_e}_d
end readonly def

/BuildGlyph
 {exch begin
 CharStrings exch
 2 copy known not{pop /.notdef}if
 true 3 1 roll get exec
 end}_d

/BuildChar {
 1 index /Encoding get exch get
 1 index /BuildGlyph get exec
}_d

FontName currentdict end definefont pop
%!PS-Adobe-3.0 Resource-Font
%%Title: cmss10
%%Copyright: Copyright (C) 1994, Basil K. Malyshev. All Rights Reserved.012BaKoMa Fonts Collection, Level-B.
%%Creator: Converted from TrueType to type 3 by PPR
25 dict begin
/_d{bind def}bind def
/_m{moveto}_d
/_l{lineto}_d
/_cl{closepath eofill}_d
/_c{curveto}_d
/_sc{7 -1 roll{setcachedevice}{pop pop pop pop pop pop}ifelse}_d
/_e{exec}_d
/FontName /Cmss10 def
/PaintType 0 def
/FontMatrix[.001 0 0 .001 0 0]def
/FontBBox[-61 -250 999 760]def
/FontType 3 def
/Encoding [ /F ] def
/FontInfo 10 dict dup begin
/FamilyName (cmss10) def
/FullName (cmss10) def
/Notice (Copyright (C) 1994, Basil K. Malyshev. All Rights Reserved.012BaKoMa Fonts Collection, Level-B. ) def
/Weight (Regular) def
/Version (1.1/12-Nov-94) def
/ItalicAngle 0.0 def
/isFixedPitch false def
/UnderlinePosition -133 def
/UnderlineThickness 20 def
end readonly def
/CharStrings 1 dict dup begin
/F{569 0 92 0 526 694 _sc
92 0 _m
92 694 _l
526 694 _l
526 625 _l
185 626 _l
185 380 _l
485 380 _l
485 315 _l
185 315 _l
185 0 _l
92 0 _l
_cl}_d
end readonly def

/BuildGlyph
 {exch begin
 CharStrings exch
 2 copy known not{pop /.notdef}if
 true 3 1 roll get exec
 end}_d

/BuildChar {
 1 index /Encoding get exch get
 1 index /BuildGlyph get exec
}_d

FontName currentdict end definefont pop
%!PS-Adobe-3.0 Resource-Font
%%Title: Bitstream Vera Sans
%%Copyright: Copyright (c) 2003 by Bitstream, Inc. All Rights Reserved.
%%Creator: Converted from TrueType to type 3 by PPR
25 dict begin
/_d{bind def}bind def
/_m{moveto}_d
/_l{lineto}_d
/_cl{closepath eofill}_d
/_c{curveto}_d
/_sc{7 -1 roll{setcachedevice}{pop pop pop pop pop pop}ifelse}_d
/_e{exec}_d
/FontName /BitstreamVeraSans-Roman def
/PaintType 0 def
/FontMatrix[.001 0 0 .001 0 0]def
/FontBBox[-183 -236 1287 928]def
/FontType 3 def
/Encoding [ /space /hyphen /zero /one /two /three /four /five /six /eight /nine /G /H /J /R /V /X /bracketleft /bracketright /a /b /d /e /n /r /s /t /y /z ] def
/FontInfo 10 dict dup begin
/FamilyName (Bitstream Vera Sans) def
/FullName (Bitstream Vera Sans) def
/Notice (Copyright (c) 2003 by Bitstream, Inc. All Rights Reserved. Bitstream Vera is a trademark of Bitstream, Inc.) def
/Weight (Roman) def
/Version (Release 1.10) def
/ItalicAngle 0.0 def
/isFixedPitch false def
/UnderlinePosition -213 def
/UnderlineThickness 143 def
end readonly def
/CharStrings 29 dict dup begin
/space{318 0 0 0 0 0 _sc
}_d
/hyphen{361 0 49 234 312 314 _sc
49 314 _m
312 314 _l
312 234 _l
49 234 _l
49 314 _l
_cl}_d
/zero{636 0 66 -13 570 742 _sc
318 664 _m
267 664 229 639 203 589 _c
177 539 165 464 165 364 _c
165 264 177 189 203 139 _c
229 89 267 64 318 64 _c
369 64 407 89 433 139 _c
458 189 471 264 471 364 _c
471 464 458 539 433 589 _c
407 639 369 664 318 664 _c
318 742 _m
399 742 461 709 505 645 _c
548 580 570 486 570 364 _c
570 241 548 147 505 83 _c
461 19 399 -13 318 -13 _c
236 -13 173 19 130 83 _c
87 147 66 241 66 364 _c
66 486 87 580 130 645 _c
173 709 236 742 318 742 _c
_cl}_d
/one{636 0 110 0 544 729 _sc
124 83 _m
285 83 _l
285 639 _l
110 604 _l
110 694 _l
284 729 _l
383 729 _l
383 83 _l
544 83 _l
544 0 _l
124 0 _l
124 83 _l
_cl}_d
/two{{636 0 73 0 536 742 _sc
192 83 _m
536 83 _l
536 0 _l
73 0 _l
73 83 _l
110 121 161 173 226 239 _c
290 304 331 346 348 365 _c
380 400 402 430 414 455 _c
426 479 433 504 433 528 _c
433 566 419 598 392 622 _c
365 646 330 659 286 659 _c
255 659 222 653 188 643 _c
154 632 117 616 78 594 _c
78 694 _l
118 710 155 722 189 730 _c
223 738 255 742 284 742 _c
}_e{359 742 419 723 464 685 _c
509 647 532 597 532 534 _c
532 504 526 475 515 449 _c
504 422 484 390 454 354 _c
446 344 420 317 376 272 _c
332 227 271 164 192 83 _c
_cl}_e}_d
/three{{636 0 76 -13 556 742 _sc
406 393 _m
453 383 490 362 516 330 _c
542 298 556 258 556 212 _c
556 140 531 84 482 45 _c
432 6 362 -13 271 -13 _c
240 -13 208 -10 176 -4 _c
144 1 110 10 76 22 _c
76 117 _l
103 101 133 89 166 81 _c
198 73 232 69 268 69 _c
330 69 377 81 409 105 _c
441 129 458 165 458 212 _c
458 254 443 288 413 312 _c
383 336 341 349 287 349 _c
}_e{202 349 _l
202 430 _l
291 430 _l
339 430 376 439 402 459 _c
428 478 441 506 441 543 _c
441 580 427 609 401 629 _c
374 649 336 659 287 659 _c
260 659 231 656 200 650 _c
169 644 135 635 98 623 _c
98 711 _l
135 721 170 729 203 734 _c
235 739 266 742 296 742 _c
370 742 429 725 473 691 _c
517 657 539 611 539 553 _c
539 513 527 479 504 451 _c
481 423 448 403 406 393 _c
_cl}_e}_d
/four{636 0 49 0 580 729 _sc
378 643 _m
129 254 _l
378 254 _l
378 643 _l
352 729 _m
476 729 _l
476 254 _l
580 254 _l
580 172 _l
476 172 _l
476 0 _l
378 0 _l
378 172 _l
49 172 _l
49 267 _l
352 729 _l
_cl}_d
/five{{636 0 77 -13 549 729 _sc
108 729 _m
495 729 _l
495 646 _l
198 646 _l
198 467 _l
212 472 227 476 241 478 _c
255 480 270 482 284 482 _c
365 482 429 459 477 415 _c
525 370 549 310 549 234 _c
549 155 524 94 475 51 _c
426 8 357 -13 269 -13 _c
238 -13 207 -10 175 -6 _c
143 -1 111 6 77 17 _c
77 116 _l
106 100 136 88 168 80 _c
199 72 232 69 267 69 _c
}_e{323 69 368 83 401 113 _c
433 143 450 183 450 234 _c
450 284 433 324 401 354 _c
368 384 323 399 267 399 _c
241 399 214 396 188 390 _c
162 384 135 375 108 363 _c
108 729 _l
_cl}_e}_d
/six{{636 0 70 -13 573 742 _sc
330 404 _m
286 404 251 388 225 358 _c
199 328 186 286 186 234 _c
186 181 199 139 225 109 _c
251 79 286 64 330 64 _c
374 64 409 79 435 109 _c
461 139 474 181 474 234 _c
474 286 461 328 435 358 _c
409 388 374 404 330 404 _c
526 713 _m
526 623 _l
501 635 476 644 451 650 _c
425 656 400 659 376 659 _c
310 659 260 637 226 593 _c
}_e{192 549 172 482 168 394 _c
187 422 211 444 240 459 _c
269 474 301 482 336 482 _c
409 482 467 459 509 415 _c
551 371 573 310 573 234 _c
573 159 550 99 506 54 _c
462 9 403 -13 330 -13 _c
246 -13 181 19 137 83 _c
92 147 70 241 70 364 _c
70 479 97 571 152 639 _c
206 707 280 742 372 742 _c
396 742 421 739 447 735 _c
472 730 498 723 526 713 _c
_cl}_e}_d
/eight{{636 0 68 -13 568 742 _sc
318 346 _m
271 346 234 333 207 308 _c
180 283 167 249 167 205 _c
167 161 180 126 207 101 _c
234 76 271 64 318 64 _c
364 64 401 76 428 102 _c
455 127 469 161 469 205 _c
469 249 455 283 429 308 _c
402 333 365 346 318 346 _c
219 388 _m
177 398 144 418 120 447 _c
96 476 85 511 85 553 _c
85 611 105 657 147 691 _c
188 725 245 742 318 742 _c
}_e{390 742 447 725 489 691 _c
530 657 551 611 551 553 _c
551 511 539 476 515 447 _c
491 418 459 398 417 388 _c
464 377 501 355 528 323 _c
554 291 568 251 568 205 _c
568 134 546 80 503 43 _c
459 5 398 -13 318 -13 _c
237 -13 175 5 132 43 _c
89 80 68 134 68 205 _c
68 251 81 291 108 323 _c
134 355 171 377 219 388 _c
183 544 _m
183 506 194 476 218 455 _c
}_e{242 434 275 424 318 424 _c
360 424 393 434 417 455 _c
441 476 453 506 453 544 _c
453 582 441 611 417 632 _c
393 653 360 664 318 664 _c
275 664 242 653 218 632 _c
194 611 183 582 183 544 _c
_cl}_e}_d
/nine{{636 0 63 -13 566 742 _sc
110 15 _m
110 105 _l
134 93 159 84 185 78 _c
210 72 235 69 260 69 _c
324 69 374 90 408 134 _c
442 178 462 244 468 334 _c
448 306 424 284 396 269 _c
367 254 335 247 300 247 _c
226 247 168 269 126 313 _c
84 357 63 417 63 494 _c
63 568 85 628 129 674 _c
173 719 232 742 306 742 _c
390 742 455 709 499 645 _c
543 580 566 486 566 364 _c
}_e{566 248 538 157 484 89 _c
429 21 356 -13 264 -13 _c
239 -13 214 -10 189 -6 _c
163 -2 137 5 110 15 _c
306 324 _m
350 324 385 339 411 369 _c
437 399 450 441 450 494 _c
450 546 437 588 411 618 _c
385 648 350 664 306 664 _c
262 664 227 648 201 618 _c
175 588 162 546 162 494 _c
162 441 175 399 201 369 _c
227 339 262 324 306 324 _c
_cl}_e}_d
/G{{775 0 56 -13 693 742 _sc
595 104 _m
595 300 _l
434 300 _l
434 381 _l
693 381 _l
693 68 _l
655 40 613 20 567 7 _c
521 -6 472 -13 420 -13 _c
306 -13 216 20 152 86 _c
88 152 56 245 56 364 _c
56 482 88 575 152 642 _c
216 708 306 742 420 742 _c
467 742 512 736 555 724 _c
598 712 638 695 674 673 _c
674 568 _l
637 598 598 621 557 637 _c
516 653 473 661 428 661 _c
}_e{338 661 271 636 227 586 _c
182 536 160 462 160 364 _c
160 265 182 191 227 141 _c
271 91 338 67 428 67 _c
462 67 493 70 521 76 _c
549 82 573 91 595 104 _c
_cl}_e}_d
/H{752 0 98 0 654 729 _sc
98 729 _m
197 729 _l
197 430 _l
555 430 _l
555 729 _l
654 729 _l
654 0 _l
555 0 _l
555 347 _l
197 347 _l
197 0 _l
98 0 _l
98 729 _l
_cl}_d
/J{295 0 -51 -199 197 729 _sc
98 729 _m
197 729 _l
197 51 _l
197 -36 180 -99 147 -139 _c
113 -179 60 -199 -13 -199 _c
-51 -199 _l
-51 -116 _l
-20 -116 _l
22 -116 53 -103 71 -79 _c
89 -55 98 -11 98 51 _c
98 729 _l
_cl}_d
/R{{695 0 98 0 666 729 _sc
444 342 _m
465 334 486 319 506 296 _c
526 272 546 240 566 199 _c
666 0 _l
560 0 _l
467 187 _l
443 235 419 268 397 284 _c
374 300 343 308 304 308 _c
197 308 _l
197 0 _l
98 0 _l
98 729 _l
321 729 _l
404 729 466 711 507 677 _c
548 642 569 589 569 519 _c
569 473 558 434 537 404 _c
515 374 484 353 444 342 _c
197 648 _m
197 389 _l
321 389 _l
}_e{368 389 404 400 428 422 _c
452 444 465 476 465 519 _c
465 561 452 593 428 615 _c
404 637 368 648 321 648 _c
197 648 _l
_cl}_e}_d
/V{684 0 8 0 676 729 _sc
286 0 _m
8 729 _l
111 729 _l
342 115 _l
573 729 _l
676 729 _l
398 0 _l
286 0 _l
_cl}_d
/X{685 0 30 0 654 729 _sc
63 729 _m
169 729 _l
350 458 _l
532 729 _l
638 729 _l
404 379 _l
654 0 _l
548 0 _l
343 310 _l
136 0 _l
30 0 _l
290 389 _l
63 729 _l
_cl}_d
/bracketleft{390 0 86 -131 293 760 _sc
86 760 _m
293 760 _l
293 690 _l
176 690 _l
176 -61 _l
293 -61 _l
293 -131 _l
86 -131 _l
86 760 _l
_cl}_d
/bracketright{390 0 97 -131 304 760 _sc
304 760 _m
304 -131 _l
97 -131 _l
97 -61 _l
214 -61 _l
214 690 _l
97 690 _l
97 760 _l
304 760 _l
_cl}_d
/a{{613 0 60 -13 522 560 _sc
343 275 _m
270 275 220 266 192 250 _c
164 233 150 205 150 165 _c
150 133 160 107 181 89 _c
202 70 231 61 267 61 _c
317 61 357 78 387 114 _c
417 149 432 196 432 255 _c
432 275 _l
343 275 _l
522 312 _m
522 0 _l
432 0 _l
432 83 _l
411 49 385 25 355 10 _c
325 -5 287 -13 243 -13 _c
187 -13 142 2 109 33 _c
76 64 60 106 60 159 _c
}_e{60 220 80 266 122 298 _c
163 329 224 345 306 345 _c
432 345 _l
432 354 _l
432 395 418 427 391 450 _c
364 472 326 484 277 484 _c
245 484 215 480 185 472 _c
155 464 127 453 100 439 _c
100 522 _l
132 534 164 544 195 550 _c
226 556 256 560 286 560 _c
365 560 424 539 463 498 _c
502 457 522 395 522 312 _c
_cl}_e}_d
/b{{635 0 91 -13 580 760 _sc
487 273 _m
487 339 473 390 446 428 _c
418 466 381 485 334 485 _c
286 485 249 466 222 428 _c
194 390 181 339 181 273 _c
181 207 194 155 222 117 _c
249 79 286 61 334 61 _c
381 61 418 79 446 117 _c
473 155 487 207 487 273 _c
181 464 _m
199 496 223 520 252 536 _c
281 552 316 560 356 560 _c
422 560 476 533 518 481 _c
559 428 580 359 580 273 _c
}_e{580 187 559 117 518 65 _c
476 13 422 -13 356 -13 _c
316 -13 281 -5 252 10 _c
223 25 199 49 181 82 _c
181 0 _l
91 0 _l
91 760 _l
181 760 _l
181 464 _l
_cl}_e}_d
/d{{635 0 55 -13 544 760 _sc
454 464 _m
454 760 _l
544 760 _l
544 0 _l
454 0 _l
454 82 _l
435 49 411 25 382 10 _c
353 -5 319 -13 279 -13 _c
213 -13 159 13 117 65 _c
75 117 55 187 55 273 _c
55 359 75 428 117 481 _c
159 533 213 560 279 560 _c
319 560 353 552 382 536 _c
411 520 435 496 454 464 _c
148 273 _m
148 207 161 155 188 117 _c
215 79 253 61 301 61 _c
}_e{348 61 385 79 413 117 _c
440 155 454 207 454 273 _c
454 339 440 390 413 428 _c
385 466 348 485 301 485 _c
253 485 215 466 188 428 _c
161 390 148 339 148 273 _c
_cl}_e}_d
/e{{615 0 55 -13 562 560 _sc
562 296 _m
562 252 _l
149 252 _l
153 190 171 142 205 110 _c
238 78 284 62 344 62 _c
378 62 412 66 444 74 _c
476 82 509 95 541 113 _c
541 28 _l
509 14 476 3 442 -3 _c
408 -9 373 -13 339 -13 _c
251 -13 182 12 131 62 _c
80 112 55 181 55 268 _c
55 357 79 428 127 481 _c
175 533 241 560 323 560 _c
397 560 455 536 498 489 _c
}_e{540 441 562 377 562 296 _c
472 322 _m
471 371 457 410 431 440 _c
404 469 368 484 324 484 _c
274 484 234 469 204 441 _c
174 413 156 373 152 322 _c
472 322 _l
_cl}_e}_d
/n{634 0 91 0 549 560 _sc
549 330 _m
549 0 _l
459 0 _l
459 327 _l
459 379 448 417 428 443 _c
408 469 378 482 338 482 _c
289 482 251 466 223 435 _c
195 404 181 362 181 309 _c
181 0 _l
91 0 _l
91 547 _l
181 547 _l
181 462 _l
202 494 227 519 257 535 _c
286 551 320 560 358 560 _c
420 560 468 540 500 501 _c
532 462 549 405 549 330 _c
_cl}_d
/r{411 0 91 0 411 560 _sc
411 463 _m
401 469 390 473 378 476 _c
366 478 353 480 339 480 _c
288 480 249 463 222 430 _c
194 397 181 350 181 288 _c
181 0 _l
91 0 _l
91 547 _l
181 547 _l
181 462 _l
199 495 224 520 254 536 _c
284 552 321 560 365 560 _c
371 560 378 559 386 559 _c
393 558 401 557 411 555 _c
411 463 _l
_cl}_d
/s{{521 0 54 -13 472 560 _sc
443 531 _m
443 446 _l
417 458 391 468 364 475 _c
336 481 308 485 279 485 _c
234 485 200 478 178 464 _c
156 450 145 430 145 403 _c
145 382 153 366 169 354 _c
185 342 217 330 265 320 _c
296 313 _l
360 299 405 279 432 255 _c
458 230 472 195 472 151 _c
472 100 452 60 412 31 _c
372 1 316 -13 246 -13 _c
216 -13 186 -10 154 -5 _c
}_e{122 0 89 8 54 20 _c
54 113 _l
87 95 120 82 152 74 _c
184 65 216 61 248 61 _c
290 61 323 68 346 82 _c
368 96 380 117 380 144 _c
380 168 371 187 355 200 _c
339 213 303 226 247 238 _c
216 245 _l
160 257 119 275 95 299 _c
70 323 58 356 58 399 _c
58 450 76 490 112 518 _c
148 546 200 560 268 560 _c
301 560 332 557 362 552 _c
391 547 418 540 443 531 _c
}_e{_cl}_e}_d
/t{392 0 27 0 368 702 _sc
183 702 _m
183 547 _l
368 547 _l
368 477 _l
183 477 _l
183 180 _l
183 135 189 106 201 94 _c
213 81 238 75 276 75 _c
368 75 _l
368 0 _l
276 0 _l
206 0 158 13 132 39 _c
106 65 93 112 93 180 _c
93 477 _l
27 477 _l
27 547 _l
93 547 _l
93 702 _l
183 702 _l
_cl}_d
/y{592 0 30 -207 562 547 _sc
322 -50 _m
296 -114 271 -157 247 -177 _c
223 -197 191 -207 151 -207 _c
79 -207 _l
79 -132 _l
132 -132 _l
156 -132 175 -126 189 -114 _c
203 -102 218 -75 235 -31 _c
251 9 _l
30 547 _l
125 547 _l
296 119 _l
467 547 _l
562 547 _l
322 -50 _l
_cl}_d
/z{525 0 43 0 482 547 _sc
55 547 _m
482 547 _l
482 465 _l
144 72 _l
482 72 _l
482 0 _l
43 0 _l
43 82 _l
381 475 _l
55 475 _l
55 547 _l
_cl}_d
end readonly def

/BuildGlyph
 {exch begin
 CharStrings exch
 2 copy known not{pop /.notdef}if
 true 3 1 roll get exec
 end}_d

/BuildChar {
 1 index /Encoding get exch get
 1 index /BuildGlyph get exec
}_d

FontName currentdict end definefont pop
%!PS-Adobe-3.0 Resource-Font
%%Title: cmr10
%%Copyright: Copyright (C) 1994, Basil K. Malyshev. All Rights Reserved.012BaKoMa Fonts Collection, Level-B.
%%Creator: Converted from TrueType to type 3 by PPR
25 dict begin
/_d{bind def}bind def
/_m{moveto}_d
/_l{lineto}_d
/_cl{closepath eofill}_d
/_c{curveto}_d
/_sc{7 -1 roll{setcachedevice}{pop pop pop pop pop pop}ifelse}_d
/_e{exec}_d
/FontName /Cmr10 def
/PaintType 0 def
/FontMatrix[.001 0 0 .001 0 0]def
/FontBBox[-44 -250 1009 750]def
/FontType 3 def
/Encoding [ /zero /equal /two /four /six /one ] def
/FontInfo 10 dict dup begin
/FamilyName (cmr10) def
/FullName (cmr10) def
/Notice (Copyright (C) 1994, Basil K. Malyshev. All Rights Reserved.012BaKoMa Fonts Collection, Level-B. ) def
/Weight (Regular) def
/Version (1.1/12-Nov-94) def
/ItalicAngle 0.0 def
/isFixedPitch false def
/UnderlinePosition -133 def
/UnderlineThickness 20 def
end readonly def
/CharStrings 6 dict dup begin
/zero{{500 0 39 -21 460 666 _sc
250 -21 _m
168 -21 112 12 83 79 _c
53 146 39 226 39 319 _c
39 377 44 431 55 482 _c
65 533 86 576 118 612 _c
149 648 193 666 250 666 _c
294 666 330 655 358 634 _c
386 612 407 585 422 551 _c
436 517 446 480 452 441 _c
457 402 460 361 460 319 _c
460 261 454 208 444 158 _c
433 108 412 65 381 31 _c
350 -3 306 -21 250 -21 _c
250 4 _m
}_e{287 4 315 23 333 61 _c
351 99 362 141 366 187 _c
370 233 373 283 373 335 _c
373 385 370 431 366 473 _c
362 515 351 554 333 588 _c
315 622 287 640 250 640 _c
212 640 184 622 166 588 _c
148 554 136 515 132 473 _c
128 431 126 385 126 335 _c
126 297 126 262 128 230 _c
130 197 135 163 143 128 _c
151 93 163 64 181 40 _c
198 16 221 4 250 4 _c
_cl}_e}_d
/equal{{777 0 56 133 721 367 _sc
75 133 _m
69 133 65 135 61 139 _c
57 143 56 148 56 153 _c
56 158 57 163 61 167 _c
65 171 69 173 75 173 _c
703 173 _l
707 173 711 171 715 167 _c
719 163 721 158 721 153 _c
721 148 719 143 715 139 _c
711 135 707 133 703 133 _c
75 133 _l
75 327 _m
69 327 65 329 61 333 _c
57 337 56 341 56 347 _c
56 351 57 356 61 360 _c
}_e{65 364 69 367 75 367 _c
703 367 _l
707 367 711 364 715 360 _c
719 356 721 351 721 347 _c
721 341 719 337 715 333 _c
711 329 707 327 703 327 _c
75 327 _l
_cl}_e}_d
/two{{500 0 50 0 449 666 _sc
50 0 _m
50 27 _l
50 28 50 30 52 32 _c
207 204 _l
230 229 249 250 264 268 _c
278 285 293 305 307 327 _c
321 349 333 372 341 396 _c
349 419 354 444 354 470 _c
354 497 349 523 339 548 _c
329 573 314 593 294 608 _c
274 623 249 631 221 631 _c
192 631 166 622 143 605 _c
119 587 103 565 94 537 _c
96 537 100 538 105 538 _c
}_e{119 538 132 533 143 523 _c
153 513 159 500 159 484 _c
159 468 153 455 143 445 _c
132 434 119 429 105 429 _c
89 429 76 434 66 445 _c
55 456 50 469 50 484 _c
50 508 54 532 64 554 _c
73 576 86 595 104 613 _c
122 630 142 643 164 652 _c
186 661 210 666 236 666 _c
274 666 309 658 342 642 _c
375 626 401 603 420 573 _c
439 543 449 509 449 470 _c
}_e{449 441 442 414 430 388 _c
417 362 401 338 381 317 _c
361 295 336 271 305 244 _c
274 217 254 199 244 190 _c
131 81 _l
227 81 _l
274 81 313 81 345 82 _c
377 82 394 84 396 86 _c
404 94 412 125 420 178 _c
449 178 _l
421 0 _l
50 0 _l
_cl}_e}_d
/four{{500 0 28 0 471 666 _sc
28 165 _m
28 200 _l
337 661 _l
339 664 342 666 347 666 _c
362 666 _l
369 666 373 662 373 655 _c
373 200 _l
471 200 _l
471 165 _l
373 165 _l
373 67 _l
373 53 382 44 402 40 _c
422 36 444 35 470 35 _c
470 0 _l
195 0 _l
195 35 _l
220 35 242 36 262 40 _c
282 44 292 53 292 67 _c
292 165 _l
28 165 _l
61 200 _m
298 200 _l
}_e{298 554 _l
61 200 _l
_cl}_e}_d
/six{{500 0 42 -21 457 666 _sc
250 -21 _m
208 -21 174 -10 146 11 _c
118 33 97 61 82 96 _c
67 131 57 168 51 206 _c
45 244 42 283 42 323 _c
42 375 52 428 73 482 _c
93 535 123 579 163 614 _c
203 648 250 666 305 666 _c
327 666 348 661 368 653 _c
388 644 403 631 415 615 _c
426 598 432 578 432 554 _c
432 540 427 529 418 520 _c
408 510 397 506 384 506 _c
}_e{370 506 359 510 350 520 _c
340 529 336 540 336 554 _c
336 567 340 578 350 588 _c
359 597 370 602 384 602 _c
389 602 _l
380 614 368 622 353 628 _c
337 634 321 637 305 637 _c
285 637 266 632 249 624 _c
232 615 217 603 203 588 _c
189 573 178 557 169 539 _c
159 521 152 500 147 477 _c
142 453 139 432 138 412 _c
136 392 136 366 136 336 _c
148 363 164 385 186 403 _c
}_e{207 420 231 429 259 429 _c
288 429 315 423 339 411 _c
363 399 384 382 402 361 _c
420 339 433 315 443 288 _c
452 260 457 233 457 205 _c
457 165 448 128 431 93 _c
413 58 389 30 357 10 _c
325 -10 290 -21 250 -21 _c
250 10 _m
276 10 296 15 312 27 _c
327 39 338 54 346 74 _c
353 93 358 112 360 132 _c
362 152 363 176 363 205 _c
363 243 361 275 357 302 _c
}_e{353 328 344 352 328 372 _c
312 392 287 403 255 403 _c
227 403 205 393 188 375 _c
170 357 158 334 150 306 _c
142 278 138 252 138 226 _c
138 217 138 210 139 206 _c
139 205 139 204 139 204 _c
139 203 138 202 138 201 _c
138 172 141 143 147 114 _c
153 84 164 60 181 40 _c
197 20 220 10 250 10 _c
_cl}_e}_d
/one{500 0 87 0 421 666 _sc
93 0 _m
93 35 _l
176 35 218 45 218 67 _c
218 592 _l
183 575 139 567 87 567 _c
87 602 _l
168 602 230 623 272 666 _c
286 666 _l
288 666 291 665 293 663 _c
295 661 296 659 296 657 _c
296 67 _l
296 45 337 35 421 35 _c
421 0 _l
93 0 _l
_cl}_d
end readonly def

/BuildGlyph
 {exch begin
 CharStrings exch
 2 copy known not{pop /.notdef}if
 true 3 1 roll get exec
 end}_d

/BuildChar {
 1 index /Encoding get exch get
 1 index /BuildGlyph get exec
}_d

FontName currentdict end definefont pop
end
%%EndProlog
mpldict begin
18 180 translate
576 432 0 0 clipbox
gsave
0 0 m
576 0 l
576 432 l
0 432 l
cl
1.000 setgray
fill
grestore
gsave
80.64 60.48 m
552.96 60.48 l
552.96 414.72 l
80.64 414.72 l
cl
1.000 setgray
fill
grestore
2.000 setlinewidth
1 setlinejoin
2 setlinecap
[] 0 setdash
0.000 0.000 1.000 setrgbcolor
gsave
472.3 354.2 80.64 60.48 clipbox
80.64 139.128 m
91.7534 146.733 l
108.424 157.835 l
126.946 169.946 l
163.991 194.027 l
180.661 205.167 l
193.626 214.1 l
204.74 222.012 l
215.853 230.219 l
225.114 237.325 l
234.376 244.701 l
243.637 252.37 l
252.898 260.341 l
262.159 268.61 l
271.42 277.159 l
282.534 287.738 l
295.499 300.412 l
334.396 338.748 l
343.657 347.486 l
351.066 354.231 l
358.475 360.687 l
364.032 365.293 l
369.589 369.653 l
375.145 373.723 l
378.85 376.25 l
380.702 377.007 l
382.554 376.784 l
384.407 376.291 l
386.259 375.545 l
388.111 374.485 l
389.963 373.102 l
391.816 371.378 l
399.224 363.587 l
402.929 359.214 l
408.486 352.124 l
417.747 337.91 l
421.451 330.835 l
423.304 327.815 l
425.156 324.382 l
427.008 321.416 l
428.86 316.863 l
430.712 310.823 l
432.565 306.222 l
434.417 300.732 l
436.269 295.987 l
439.974 287.961 l
441.826 284.619 l
443.678 279.583 l
445.53 275.242 l
447.383 267.636 l
449.235 261.085 l
451.087 256.128 l
452.939 229.329 l
454.792 195.758 l
456.644 151.962 l
458.496 120.597 l
460.348 106.181 l
462.2 115.135 l
464.053 91.4845 l
465.905 109.152 l
467.757 93.4632 l
469.609 97.4983 l
471.462 90.4521 l
473.314 70.0187 l
475.166 92.3511 l
477.018 50.8517 l
478.871 87.8403 l
480.723 63.334 l
482.575 77.7837 l
484.427 53.5774 l
486.28 47.3577 l
488.132 62.1136 l
489.984 38.425 l
491.836 42.2189 l
493.688 22.5664 l
495.541 23.8849 l
497.393 38.0087 l
499.245 19.4978 l
500.682 -1 l
503.21 -1 m
504.802 29.5302 l
506.654 9.35388 l
507.213 -1 l
511.225 -1 m
512.211 28.9431 l
514.403 -1 l
519.256 -1 m
519.62 30.0107 l
520.881 -1 l
520.881 -1 l
stroke
grestore
0 setlinecap
[6 6] 0 setdash
gsave
472.3 354.2 80.64 60.48 clipbox
80.64 120.312 m
86.1967 124.187 l
93.6057 129.231 l
112.128 141.231 l
123.241 148.135 l
139.912 158.114 l
151.025 164.502 l
162.138 170.66 l
173.252 176.515 l
182.513 181.115 l
189.922 184.577 l
197.331 187.809 l
204.74 190.775 l
210.296 192.805 l
215.853 194.648 l
221.41 196.296 l
226.967 197.738 l
232.523 198.975 l
238.08 200.017 l
245.489 201.136 l
254.75 202.244 l
267.716 203.783 l
273.272 204.646 l
278.829 205.744 l
284.386 207.141 l
288.09 208.273 l
291.795 209.585 l
295.499 211.095 l
299.204 212.816 l
302.908 214.759 l
306.613 216.928 l
310.317 219.328 l
314.022 221.955 l
317.726 224.801 l
321.431 227.855 l
326.987 232.793 l
332.544 238.111 l
338.101 243.747 l
345.51 251.658 l
352.919 259.91 l
362.18 270.559 l
375.145 285.852 l
378.85 290.271 l
380.702 292.036 l
384.407 294.418 l
386.259 295.444 l
389.963 297.129 l
393.668 298.451 l
402.929 301.419 l
410.338 303.507 l
417.747 305.429 l
425.156 307.235 l
434.417 309.082 l
438.121 309.697 l
441.826 310.081 l
447.383 310.248 l
451.087 310.114 l
454.792 309.468 l
460.348 308.256 l
464.053 307.297 l
465.905 306.707 l
467.757 305.928 l
469.609 305.273 l
473.314 303.721 l
475.166 302.687 l
477.018 301.838 l
478.871 300.674 l
480.723 299.655 l
482.575 298.302 l
484.427 297.098 l
486.28 295.349 l
488.132 293.801 l
493.688 287.375 l
495.541 284.435 l
497.393 282.24 l
499.245 278.641 l
501.097 275.893 l
502.95 271.324 l
504.802 268.847 l
506.654 263.772 l
508.506 260.714 l
510.359 255.698 l
512.211 251.518 l
514.063 247.021 l
515.915 241.159 l
517.768 237.028 l
519.62 228.866 l
521.472 222.968 l
523.324 213.614 l
525.176 200.557 l
527.029 194.092 l
528.881 182.452 l
530.733 186.695 l
532.585 180.751 l
534.438 179.851 l
536.29 160.82 l
538.142 143.388 l
539.994 145.578 l
541.847 156.966 l
543.699 166.415 l
545.551 158.603 l
547.403 130.231 l
549.256 132.85 l
551.108 152.028 l
552.96 151.969 l
552.96 151.969 l
stroke
grestore
[3 5 1 5] 0 setdash
gsave
472.3 354.2 80.64 60.48 clipbox
80.64 140.657 m
88.0489 145.892 l
108.424 159.579 l
132.503 175.052 l
165.843 195.874 l
212.149 224.329 l
256.602 251.394 l
289.943 271.459 l
312.169 284.584 l
328.84 294.162 l
341.805 301.343 l
351.066 306.252 l
360.328 310.902 l
367.736 314.371 l
375.145 317.55 l
378.85 319.01 l
380.702 319.107 l
384.407 317.065 l
388.111 314.628 l
391.816 311.707 l
393.668 310.039 l
395.52 308.216 l
397.372 306.223 l
399.224 304.011 l
401.077 301.585 l
402.929 298.93 l
404.781 296.016 l
406.633 292.83 l
408.486 289.318 l
410.338 285.513 l
412.19 281.323 l
414.042 276.607 l
415.895 271.501 l
417.747 265.948 l
419.599 259.815 l
421.451 252.992 l
423.304 245.386 l
427.008 228.644 l
428.86 219.467 l
430.712 209.577 l
432.565 198.975 l
434.417 187.261 l
436.269 174.584 l
438.121 160.242 l
439.974 144.131 l
441.826 126.23 l
443.678 106.535 l
445.53 92.2913 l
447.383 82.043 l
449.235 75.8959 l
451.087 72.7218 l
452.939 71.4304 l
454.792 71.1909 l
456.644 71.3853 l
462.2 72.4991 l
465.905 73.2836 l
467.757 73.5911 l
478.871 76.3754 l
486.28 78.5919 l
488.132 79.1367 l
491.836 79.5399 l
493.688 80.3058 l
495.541 80.6117 l
497.393 81.5253 l
499.245 81.7686 l
501.097 82.8489 l
502.95 82.9425 l
504.802 84.1357 l
506.654 84.361 l
508.506 85.6462 l
510.359 86.1435 l
512.211 87.2331 l
517.768 89.9929 l
519.62 90.6009 l
521.472 91.573 l
525.176 92.7217 l
527.029 93.307 l
530.733 95.3325 l
534.438 97.158 l
536.29 97.8736 l
538.142 98.7937 l
539.994 100.016 l
541.847 100.557 l
543.699 101.623 l
545.551 102.215 l
547.403 103.057 l
551.108 104.562 l
552.96 104.933 l
552.96 104.933 l
stroke
grestore
2 setlinecap
[] 0 setdash
0.000 0.500 0.000 setrgbcolor
gsave
472.3 354.2 80.64 60.48 clipbox
80.64 136.964 m
91.7534 144.568 l
108.424 155.674 l
126.946 167.79 l
163.991 191.889 l
178.808 201.788 l
191.774 210.696 l
202.888 218.582 l
214.001 226.756 l
223.262 233.829 l
232.523 241.17 l
241.784 248.8 l
251.046 256.729 l
260.307 264.955 l
269.568 273.461 l
280.681 283.99 l
293.647 296.607 l
334.396 336.579 l
343.657 345.252 l
351.066 351.943 l
358.475 358.344 l
364.032 362.908 l
369.589 367.226 l
375.145 371.253 l
378.85 373.751 l
380.702 374.501 l
382.554 374.272 l
384.407 373.775 l
386.259 373.031 l
388.111 371.978 l
389.963 370.61 l
391.816 368.909 l
399.224 361.255 l
402.929 356.956 l
408.486 349.922 l
417.747 335.705 l
421.451 328.662 l
423.304 325.651 l
425.156 322.249 l
427.008 319.246 l
428.86 314.693 l
430.712 308.957 l
432.565 304.494 l
434.417 299.27 l
436.269 294.686 l
438.121 290.928 l
439.974 286.892 l
441.826 283.576 l
443.678 278.63 l
445.53 274.296 l
447.383 266.668 l
449.235 260.272 l
451.087 255.376 l
452.939 228.621 l
454.792 195.009 l
456.644 152.174 l
458.496 128.066 l
460.348 120.284 l
462.2 116.183 l
464.053 111.393 l
465.905 108.425 l
467.757 106.179 l
469.609 106.044 l
471.462 78.0568 l
473.314 104.299 l
475.166 72.1643 l
477.018 98.6936 l
478.871 66.6323 l
480.723 88.4608 l
482.575 73.5928 l
484.427 60.3474 l
486.28 81.9783 l
488.132 65.7525 l
489.984 69.0549 l
493.688 21.1931 l
495.541 58.8418 l
497.393 49.4249 l
499.245 58.5939 l
502.417 -1 l
503.28 -1 m
504.802 44.5033 l
506.654 40.8908 l
508.506 29.3992 l
509.622 -1 l
510.96 -1 m
512.211 40.715 l
514.063 14.7834 l
515.915 15.2683 l
516.344 -1 l
518.864 -1 m
519.62 36.1829 l
521.007 -1 l
522.963 -1 m
523.324 2.02659 l
523.488 -1 l
535.789 -1 m
536.29 12.3258 l
536.373 -1 l
539.973 -1 m
539.994 2.33975 l
539.994 2.33975 l
539.994 2.33975 l
540.025 -1 l
552.735 -1 m
552.96 4.967 l
552.96 4.967 l
stroke
grestore
0 setlinecap
[6 6] 0 setdash
gsave
472.3 354.2 80.64 60.48 clipbox
80.64 183.229 m
86.1967 187.108 l
93.6057 192.157 l
112.128 204.177 l
123.241 211.1 l
139.912 221.123 l
151.025 227.553 l
162.138 233.765 l
173.252 239.692 l
182.513 244.37 l
189.922 247.907 l
197.331 251.228 l
204.74 254.299 l
212.149 257.086 l
217.705 258.969 l
223.262 260.657 l
228.819 262.143 l
234.376 263.417 l
239.932 264.473 l
245.489 265.317 l
251.046 265.962 l
258.455 266.548 l
265.864 266.898 l
278.829 267.235 l
291.795 267.606 l
301.056 268.064 l
308.465 268.628 l
314.022 269.213 l
319.578 269.982 l
325.135 270.985 l
330.692 272.276 l
334.396 273.328 l
338.101 274.55 l
341.805 275.963 l
345.51 277.581 l
349.214 279.414 l
352.919 281.473 l
356.623 283.761 l
360.328 286.276 l
364.032 289.015 l
367.736 291.966 l
373.293 296.762 l
378.85 301.953 l
380.702 300.198 l
382.554 300.22 l
386.259 302.422 l
389.963 304.126 l
393.668 305.443 l
402.929 308.384 l
410.338 310.447 l
419.599 312.807 l
425.156 314.131 l
430.712 315.215 l
438.121 316.404 l
441.826 316.787 l
445.53 316.948 l
449.235 316.721 l
451.087 316.476 l
454.792 315.619 l
460.348 313.957 l
464.053 312.68 l
467.757 311.272 l
471.462 309.363 l
475.166 307.287 l
482.575 301.938 l
484.427 300.066 l
486.28 298.443 l
489.984 294.717 l
493.688 290.126 l
495.541 286.651 l
497.393 283.721 l
499.245 280.485 l
501.097 276.704 l
502.95 273.305 l
504.802 269.032 l
506.654 265.626 l
508.506 260.584 l
512.211 249.452 l
514.063 245.123 l
517.768 232.308 l
521.472 218.857 l
523.324 212.75 l
525.176 207.601 l
527.029 199.318 l
528.881 192.642 l
530.733 181.034 l
532.585 175.518 l
534.438 164.47 l
536.29 166.157 l
538.142 172.25 l
539.994 168.31 l
541.847 165.691 l
543.699 151.663 l
545.551 163.565 l
547.403 165.061 l
549.256 156.489 l
551.108 158.473 l
552.96 144.161 l
552.96 144.161 l
stroke
grestore
[3 5 1 5] 0 setdash
gsave
472.3 354.2 80.64 60.48 clipbox
80.64 138.493 m
88.0489 143.728 l
108.424 157.413 l
130.65 171.709 l
149.173 183.35 l
188.07 207.406 l
239.932 239.107 l
278.829 262.641 l
304.76 278.08 l
323.283 288.844 l
336.248 296.145 l
347.362 302.16 l
356.623 306.926 l
364.032 310.521 l
371.441 313.86 l
376.998 316.156 l
378.85 316.874 l
380.702 316.985 l
384.407 314.952 l
388.111 312.532 l
391.816 309.626 l
393.668 307.97 l
395.52 306.163 l
397.372 304.167 l
399.224 301.973 l
401.077 299.576 l
402.929 296.954 l
404.781 294.093 l
406.633 290.969 l
408.486 287.47 l
410.338 283.64 l
412.19 279.447 l
415.895 269.9 l
417.747 264.465 l
419.599 258.411 l
423.304 244.918 l
425.156 237.203 l
427.008 228.612 l
428.86 218.908 l
434.417 184.73 l
436.269 172.067 l
439.974 143.72 l
443.678 114.158 l
445.53 101.273 l
447.383 89.9759 l
449.235 80.8527 l
451.087 75.4125 l
452.939 73.5605 l
454.792 73.277 l
456.644 73.44 l
460.348 74.1103 l
467.757 75.7825 l
477.018 77.8799 l
480.723 78.9278 l
486.28 80.5723 l
493.688 82.9366 l
495.541 82.9916 l
504.802 86.07 l
506.654 87.0854 l
508.506 87.4408 l
510.359 88.3417 l
512.211 88.7232 l
514.063 89.965 l
515.915 90.3908 l
517.768 91.5795 l
519.62 92.3987 l
523.324 94.2894 l
525.176 95.0442 l
527.029 95.9892 l
528.881 96.5912 l
530.733 97.6575 l
532.585 98.0509 l
536.29 99.5592 l
539.994 101.46 l
541.847 102.079 l
543.699 102.943 l
545.551 103.473 l
547.403 104.497 l
549.256 105.196 l
551.108 106.041 l
552.96 106.752 l
552.96 106.752 l
stroke
grestore
2 setlinecap
[] 0 setdash
1.000 0.000 0.000 setrgbcolor
gsave
472.3 354.2 80.64 60.48 clipbox
80.64 141.194 m
91.7534 148.788 l
108.424 159.854 l
126.946 171.9 l
171.4 200.603 l
188.07 211.682 l
201.035 220.559 l
212.149 228.413 l
223.262 236.552 l
232.523 243.591 l
241.784 250.89 l
251.046 258.471 l
260.307 266.342 l
269.568 274.502 l
278.829 282.929 l
289.943 293.347 l
304.76 307.603 l
334.396 336.25 l
343.657 344.872 l
351.066 351.527 l
358.475 357.89 l
364.032 362.424 l
369.589 366.709 l
375.145 370.705 l
378.85 373.184 l
380.702 373.905 l
382.554 373.631 l
384.407 373.08 l
386.259 372.267 l
388.111 371.126 l
389.963 369.65 l
391.816 367.812 l
399.224 359.538 l
404.781 352.621 l
408.486 347.852 l
415.895 336.54 l
417.747 333.814 l
421.451 326.706 l
423.304 323.685 l
425.156 320.237 l
427.008 317.283 l
428.86 312.675 l
430.712 306.354 l
432.565 301.554 l
434.417 295.897 l
436.269 290.931 l
439.974 282.751 l
441.826 279.319 l
443.678 274.17 l
445.53 269.697 l
447.383 261.983 l
449.235 255.206 l
451.087 250.04 l
452.939 222.872 l
454.792 188.614 l
456.644 139.31 l
458.496 96.7556 l
460.348 77.075 l
462.2 72.646 l
464.053 65.9254 l
465.905 63.2146 l
467.757 69.8343 l
469.609 53.5262 l
471.462 59.8942 l
473.314 58.4274 l
475.166 61.5958 l
477.018 45.9545 l
478.871 33.3675 l
480.723 38.9022 l
482.575 36.3019 l
484.427 25.7945 l
486.28 -0.451962 l
488.132 9.7688 l
489.984 29.4647 l
491.836 1.24387 l
492.658 -1 l
492.658 -1 l
stroke
grestore
0 setlinecap
[6 6] 0 setdash
gsave
472.3 354.2 80.64 60.48 clipbox
140.817 -1 m
169.547 34.4681 l
217.705 93.5073 l
323.283 222.505 l
378.85 290.309 l
380.702 292.411 l
382.554 293.716 l
384.407 294.873 l
386.259 295.897 l
389.963 297.58 l
393.668 298.905 l
402.929 301.887 l
410.338 303.993 l
417.747 305.936 l
425.156 307.772 l
434.417 309.652 l
438.121 310.283 l
441.826 310.723 l
445.53 310.939 l
449.235 310.917 l
451.087 310.836 l
454.792 310.234 l
460.348 309.09 l
465.905 307.654 l
467.757 307.041 l
473.314 304.734 l
477.018 302.951 l
480.723 300.869 l
482.575 299.678 l
488.132 295.383 l
489.984 293.673 l
491.836 291.743 l
493.688 289.166 l
495.541 286.941 l
497.393 284.119 l
504.802 271.365 l
508.506 263.315 l
510.359 258.169 l
512.211 254.062 l
514.063 247.536 l
515.915 243.132 l
517.768 235.781 l
519.62 231.56 l
521.472 222.994 l
523.324 217.234 l
525.176 206.094 l
527.029 198.375 l
528.881 192.12 l
530.733 178.596 l
532.585 169.303 l
534.438 156.33 l
536.29 159.039 l
538.142 156.918 l
539.994 158.08 l
541.847 161.428 l
543.699 144.464 l
545.551 151.633 l
547.403 126.566 l
549.256 140.396 l
551.108 147.53 l
552.96 149.215 l
552.96 149.215 l
stroke
grestore
[3 5 1 5] 0 setdash
gsave
472.3 354.2 80.64 60.48 clipbox
80.64 142.648 m
88.0489 147.884 l
108.424 161.572 l
132.503 177.045 l
165.843 197.867 l
212.149 226.32 l
256.602 253.378 l
289.943 273.43 l
312.169 286.537 l
326.987 295.05 l
339.953 302.25 l
351.066 308.143 l
360.328 312.771 l
367.736 316.223 l
375.145 319.388 l
378.85 320.839 l
380.702 320.925 l
384.407 318.859 l
388.111 316.402 l
391.816 313.484 l
393.668 311.824 l
395.52 310.012 l
397.372 308.02 l
399.224 305.843 l
401.077 303.465 l
402.929 300.864 l
404.781 298.022 l
406.633 294.905 l
408.486 291.511 l
410.338 287.79 l
412.19 283.676 l
414.042 279.153 l
415.895 274.239 l
417.747 268.833 l
419.599 262.875 l
421.451 256.285 l
423.304 248.968 l
425.156 241.141 l
427.008 232.656 l
428.86 223.338 l
430.712 213.097 l
432.565 201.856 l
434.417 189.468 l
436.269 175.915 l
438.121 161.024 l
439.974 144.701 l
443.678 109.095 l
445.53 93.3883 l
447.383 81.9153 l
449.235 75.2169 l
451.087 71.9281 l
452.939 70.7102 l
454.792 70.5183 l
456.644 70.7347 l
460.348 71.4533 l
473.314 74.3042 l
480.723 76.3629 l
491.836 79.7926 l
493.688 79.76 l
495.541 80.5239 l
497.393 81.0031 l
502.95 83.1088 l
504.802 84.0126 l
506.654 84.5357 l
508.506 85.4135 l
510.359 85.8901 l
512.211 87.0027 l
514.063 87.3718 l
515.915 88.5807 l
517.768 89.091 l
519.62 90.3897 l
521.472 91.1579 l
523.324 92.1095 l
525.176 92.723 l
527.029 93.4568 l
528.881 94.375 l
530.733 94.8852 l
532.585 95.97 l
534.438 96.5648 l
536.29 97.756 l
541.847 100.275 l
543.699 100.904 l
545.551 101.848 l
547.403 102.476 l
549.256 103.427 l
551.108 104.253 l
552.96 104.914 l
552.96 104.914 l
stroke
grestore
[] 0 setdash
0.000 setgray
gsave
/o {
gsave
newpath
translate
2.0 setlinewidth
1 setlinejoin
0 setlinecap
0 0 m
0 8 l
gsave
0.000 setgray
fill
grestore
stroke
grestore
} bind def
138.569 60.48 o
grestore
gsave
/o {
gsave
newpath
translate
2.0 setlinewidth
1 setlinejoin
0 setlinecap
0 0 m
0 -8 l
gsave
0.000 setgray
fill
grestore
stroke
grestore
} bind def
138.569 414.72 o
grestore
gsave
125.069330 43.386250 translate
0.000000 rotate
/BitstreamVeraSans-Roman findfont
14.0 scalefont
setfont
0.000000 0.507812 moveto
/one glyphshow

8.907227 0.507812 moveto
/zero glyphshow

/BitstreamVeraSans-Roman findfont
9.8 scalefont
setfont
17.814453 7.857813 moveto
/one glyphshow


grestore
gsave
/o {
gsave
newpath
translate
2.0 setlinewidth
1 setlinejoin
0 setlinecap
0 0 m
0 8 l
gsave
0.000 setgray
fill
grestore
stroke
grestore
} bind def
221.447 60.48 o
grestore
gsave
/o {
gsave
newpath
translate
2.0 setlinewidth
1 setlinejoin
0 setlinecap
0 0 m
0 -8 l
gsave
0.000 setgray
fill
grestore
stroke
grestore
} bind def
221.447 414.72 o
grestore
gsave
207.947464 43.386250 translate
0.000000 rotate
/BitstreamVeraSans-Roman findfont
14.0 scalefont
setfont
0.000000 0.376563 moveto
/one glyphshow

8.907227 0.376563 moveto
/zero glyphshow

/BitstreamVeraSans-Roman findfont
9.8 scalefont
setfont
17.814453 7.726563 moveto
/two glyphshow


grestore
gsave
/o {
gsave
newpath
translate
2.0 setlinewidth
1 setlinejoin
0 setlinecap
0 0 m
0 8 l
gsave
0.000 setgray
fill
grestore
stroke
grestore
} bind def
304.326 60.48 o
grestore
gsave
/o {
gsave
newpath
translate
2.0 setlinewidth
1 setlinejoin
0 setlinecap
0 0 m
0 -8 l
gsave
0.000 setgray
fill
grestore
stroke
grestore
} bind def
304.326 414.72 o
grestore
gsave
290.825598 43.386250 translate
0.000000 rotate
/BitstreamVeraSans-Roman findfont
14.0 scalefont
setfont
0.000000 0.376563 moveto
/one glyphshow

8.907227 0.376563 moveto
/zero glyphshow

/BitstreamVeraSans-Roman findfont
9.8 scalefont
setfont
17.814453 7.726563 moveto
/three glyphshow


grestore
gsave
/o {
gsave
newpath
translate
2.0 setlinewidth
1 setlinejoin
0 setlinecap
0 0 m
0 8 l
gsave
0.000 setgray
fill
grestore
stroke
grestore
} bind def
387.204 60.48 o
grestore
gsave
/o {
gsave
newpath
translate
2.0 setlinewidth
1 setlinejoin
0 setlinecap
0 0 m
0 -8 l
gsave
0.000 setgray
fill
grestore
stroke
grestore
} bind def
387.204 414.72 o
grestore
gsave
373.703732 43.386250 translate
0.000000 rotate
/BitstreamVeraSans-Roman findfont
14.0 scalefont
setfont
0.000000 0.507812 moveto
/one glyphshow

8.907227 0.507812 moveto
/zero glyphshow

/BitstreamVeraSans-Roman findfont
9.8 scalefont
setfont
17.814453 7.857813 moveto
/four glyphshow


grestore
gsave
/o {
gsave
newpath
translate
2.0 setlinewidth
1 setlinejoin
0 setlinecap
0 0 m
0 8 l
gsave
0.000 setgray
fill
grestore
stroke
grestore
} bind def
470.082 60.48 o
grestore
gsave
/o {
gsave
newpath
translate
2.0 setlinewidth
1 setlinejoin
0 setlinecap
0 0 m
0 -8 l
gsave
0.000 setgray
fill
grestore
stroke
grestore
} bind def
470.082 414.72 o
grestore
gsave
456.581866 43.386250 translate
0.000000 rotate
/BitstreamVeraSans-Roman findfont
14.0 scalefont
setfont
0.000000 0.507812 moveto
/one glyphshow

8.907227 0.507812 moveto
/zero glyphshow

/BitstreamVeraSans-Roman findfont
9.8 scalefont
setfont
17.814453 7.857813 moveto
/five glyphshow


grestore
gsave
/o {
gsave
newpath
translate
2.0 setlinewidth
1 setlinejoin
0 setlinecap
0 0 m
0 8 l
gsave
0.000 setgray
fill
grestore
stroke
grestore
} bind def
552.96 60.48 o
grestore
gsave
/o {
gsave
newpath
translate
2.0 setlinewidth
1 setlinejoin
0 setlinecap
0 0 m
0 -8 l
gsave
0.000 setgray
fill
grestore
stroke
grestore
} bind def
552.96 414.72 o
grestore
gsave
539.460000 43.386250 translate
0.000000 rotate
/BitstreamVeraSans-Roman findfont
14.0 scalefont
setfont
0.000000 0.376563 moveto
/one glyphshow

8.907227 0.376563 moveto
/zero glyphshow

/BitstreamVeraSans-Roman findfont
9.8 scalefont
setfont
17.814453 7.726563 moveto
/six glyphshow


grestore
gsave
/o {
gsave
newpath
translate
2.0 setlinewidth
1 setlinejoin
0 setlinecap
0 0 m
0 5 l
gsave
0.000 setgray
fill
grestore
stroke
grestore
} bind def
80.64 60.48 o
grestore
gsave
/o {
gsave
newpath
translate
2.0 setlinewidth
1 setlinejoin
0 setlinecap
0 0 m
0 -5 l
gsave
0.000 setgray
fill
grestore
stroke
grestore
} bind def
80.64 414.72 o
grestore
gsave
/o {
gsave
newpath
translate
2.0 setlinewidth
1 setlinejoin
0 setlinecap
0 0 m
0 5 l
gsave
0.000 setgray
fill
grestore
stroke
grestore
} bind def
95.2341 60.48 o
grestore
gsave
/o {
gsave
newpath
translate
2.0 setlinewidth
1 setlinejoin
0 setlinecap
0 0 m
0 -5 l
gsave
0.000 setgray
fill
grestore
stroke
grestore
} bind def
95.2341 414.72 o
grestore
gsave
/o {
gsave
newpath
translate
2.0 setlinewidth
1 setlinejoin
0 setlinecap
0 0 m
0 5 l
gsave
0.000 setgray
fill
grestore
stroke
grestore
} bind def
105.589 60.48 o
grestore
gsave
/o {
gsave
newpath
translate
2.0 setlinewidth
1 setlinejoin
0 setlinecap
0 0 m
0 -5 l
gsave
0.000 setgray
fill
grestore
stroke
grestore
} bind def
105.589 414.72 o
grestore
gsave
/o {
gsave
newpath
translate
2.0 setlinewidth
1 setlinejoin
0 setlinecap
0 0 m
0 5 l
gsave
0.000 setgray
fill
grestore
stroke
grestore
} bind def
113.621 60.48 o
grestore
gsave
/o {
gsave
newpath
translate
2.0 setlinewidth
1 setlinejoin
0 setlinecap
0 0 m
0 -5 l
gsave
0.000 setgray
fill
grestore
stroke
grestore
} bind def
113.621 414.72 o
grestore
gsave
/o {
gsave
newpath
translate
2.0 setlinewidth
1 setlinejoin
0 setlinecap
0 0 m
0 5 l
gsave
0.000 setgray
fill
grestore
stroke
grestore
} bind def
120.183 60.48 o
grestore
gsave
/o {
gsave
newpath
translate
2.0 setlinewidth
1 setlinejoin
0 setlinecap
0 0 m
0 -5 l
gsave
0.000 setgray
fill
grestore
stroke
grestore
} bind def
120.183 414.72 o
grestore
gsave
/o {
gsave
newpath
translate
2.0 setlinewidth
1 setlinejoin
0 setlinecap
0 0 m
0 5 l
gsave
0.000 setgray
fill
grestore
stroke
grestore
} bind def
125.731 60.48 o
grestore
gsave
/o {
gsave
newpath
translate
2.0 setlinewidth
1 setlinejoin
0 setlinecap
0 0 m
0 -5 l
gsave
0.000 setgray
fill
grestore
stroke
grestore
} bind def
125.731 414.72 o
grestore
gsave
/o {
gsave
newpath
translate
2.0 setlinewidth
1 setlinejoin
0 setlinecap
0 0 m
0 5 l
gsave
0.000 setgray
fill
grestore
stroke
grestore
} bind def
130.538 60.48 o
grestore
gsave
/o {
gsave
newpath
translate
2.0 setlinewidth
1 setlinejoin
0 setlinecap
0 0 m
0 -5 l
gsave
0.000 setgray
fill
grestore
stroke
grestore
} bind def
130.538 414.72 o
grestore
gsave
/o {
gsave
newpath
translate
2.0 setlinewidth
1 setlinejoin
0 setlinecap
0 0 m
0 5 l
gsave
0.000 setgray
fill
grestore
stroke
grestore
} bind def
134.777 60.48 o
grestore
gsave
/o {
gsave
newpath
translate
2.0 setlinewidth
1 setlinejoin
0 setlinecap
0 0 m
0 -5 l
gsave
0.000 setgray
fill
grestore
stroke
grestore
} bind def
134.777 414.72 o
grestore
gsave
/o {
gsave
newpath
translate
2.0 setlinewidth
1 setlinejoin
0 setlinecap
0 0 m
0 5 l
gsave
0.000 setgray
fill
grestore
stroke
grestore
} bind def
163.518 60.48 o
grestore
gsave
/o {
gsave
newpath
translate
2.0 setlinewidth
1 setlinejoin
0 setlinecap
0 0 m
0 -5 l
gsave
0.000 setgray
fill
grestore
stroke
grestore
} bind def
163.518 414.72 o
grestore
gsave
/o {
gsave
newpath
translate
2.0 setlinewidth
1 setlinejoin
0 setlinecap
0 0 m
0 5 l
gsave
0.000 setgray
fill
grestore
stroke
grestore
} bind def
178.112 60.48 o
grestore
gsave
/o {
gsave
newpath
translate
2.0 setlinewidth
1 setlinejoin
0 setlinecap
0 0 m
0 -5 l
gsave
0.000 setgray
fill
grestore
stroke
grestore
} bind def
178.112 414.72 o
grestore
gsave
/o {
gsave
newpath
translate
2.0 setlinewidth
1 setlinejoin
0 setlinecap
0 0 m
0 5 l
gsave
0.000 setgray
fill
grestore
stroke
grestore
} bind def
188.467 60.48 o
grestore
gsave
/o {
gsave
newpath
translate
2.0 setlinewidth
1 setlinejoin
0 setlinecap
0 0 m
0 -5 l
gsave
0.000 setgray
fill
grestore
stroke
grestore
} bind def
188.467 414.72 o
grestore
gsave
/o {
gsave
newpath
translate
2.0 setlinewidth
1 setlinejoin
0 setlinecap
0 0 m
0 5 l
gsave
0.000 setgray
fill
grestore
stroke
grestore
} bind def
196.499 60.48 o
grestore
gsave
/o {
gsave
newpath
translate
2.0 setlinewidth
1 setlinejoin
0 setlinecap
0 0 m
0 -5 l
gsave
0.000 setgray
fill
grestore
stroke
grestore
} bind def
196.499 414.72 o
grestore
gsave
/o {
gsave
newpath
translate
2.0 setlinewidth
1 setlinejoin
0 setlinecap
0 0 m
0 5 l
gsave
0.000 setgray
fill
grestore
stroke
grestore
} bind def
203.061 60.48 o
grestore
gsave
/o {
gsave
newpath
translate
2.0 setlinewidth
1 setlinejoin
0 setlinecap
0 0 m
0 -5 l
gsave
0.000 setgray
fill
grestore
stroke
grestore
} bind def
203.061 414.72 o
grestore
gsave
/o {
gsave
newpath
translate
2.0 setlinewidth
1 setlinejoin
0 setlinecap
0 0 m
0 5 l
gsave
0.000 setgray
fill
grestore
stroke
grestore
} bind def
208.609 60.48 o
grestore
gsave
/o {
gsave
newpath
translate
2.0 setlinewidth
1 setlinejoin
0 setlinecap
0 0 m
0 -5 l
gsave
0.000 setgray
fill
grestore
stroke
grestore
} bind def
208.609 414.72 o
grestore
gsave
/o {
gsave
newpath
translate
2.0 setlinewidth
1 setlinejoin
0 setlinecap
0 0 m
0 5 l
gsave
0.000 setgray
fill
grestore
stroke
grestore
} bind def
213.416 60.48 o
grestore
gsave
/o {
gsave
newpath
translate
2.0 setlinewidth
1 setlinejoin
0 setlinecap
0 0 m
0 -5 l
gsave
0.000 setgray
fill
grestore
stroke
grestore
} bind def
213.416 414.72 o
grestore
gsave
/o {
gsave
newpath
translate
2.0 setlinewidth
1 setlinejoin
0 setlinecap
0 0 m
0 5 l
gsave
0.000 setgray
fill
grestore
stroke
grestore
} bind def
217.655 60.48 o
grestore
gsave
/o {
gsave
newpath
translate
2.0 setlinewidth
1 setlinejoin
0 setlinecap
0 0 m
0 -5 l
gsave
0.000 setgray
fill
grestore
stroke
grestore
} bind def
217.655 414.72 o
grestore
gsave
/o {
gsave
newpath
translate
2.0 setlinewidth
1 setlinejoin
0 setlinecap
0 0 m
0 5 l
gsave
0.000 setgray
fill
grestore
stroke
grestore
} bind def
246.396 60.48 o
grestore
gsave
/o {
gsave
newpath
translate
2.0 setlinewidth
1 setlinejoin
0 setlinecap
0 0 m
0 -5 l
gsave
0.000 setgray
fill
grestore
stroke
grestore
} bind def
246.396 414.72 o
grestore
gsave
/o {
gsave
newpath
translate
2.0 setlinewidth
1 setlinejoin
0 setlinecap
0 0 m
0 5 l
gsave
0.000 setgray
fill
grestore
stroke
grestore
} bind def
260.99 60.48 o
grestore
gsave
/o {
gsave
newpath
translate
2.0 setlinewidth
1 setlinejoin
0 setlinecap
0 0 m
0 -5 l
gsave
0.000 setgray
fill
grestore
stroke
grestore
} bind def
260.99 414.72 o
grestore
gsave
/o {
gsave
newpath
translate
2.0 setlinewidth
1 setlinejoin
0 setlinecap
0 0 m
0 5 l
gsave
0.000 setgray
fill
grestore
stroke
grestore
} bind def
271.345 60.48 o
grestore
gsave
/o {
gsave
newpath
translate
2.0 setlinewidth
1 setlinejoin
0 setlinecap
0 0 m
0 -5 l
gsave
0.000 setgray
fill
grestore
stroke
grestore
} bind def
271.345 414.72 o
grestore
gsave
/o {
gsave
newpath
translate
2.0 setlinewidth
1 setlinejoin
0 setlinecap
0 0 m
0 5 l
gsave
0.000 setgray
fill
grestore
stroke
grestore
} bind def
279.377 60.48 o
grestore
gsave
/o {
gsave
newpath
translate
2.0 setlinewidth
1 setlinejoin
0 setlinecap
0 0 m
0 -5 l
gsave
0.000 setgray
fill
grestore
stroke
grestore
} bind def
279.377 414.72 o
grestore
gsave
/o {
gsave
newpath
translate
2.0 setlinewidth
1 setlinejoin
0 setlinecap
0 0 m
0 5 l
gsave
0.000 setgray
fill
grestore
stroke
grestore
} bind def
285.939 60.48 o
grestore
gsave
/o {
gsave
newpath
translate
2.0 setlinewidth
1 setlinejoin
0 setlinecap
0 0 m
0 -5 l
gsave
0.000 setgray
fill
grestore
stroke
grestore
} bind def
285.939 414.72 o
grestore
gsave
/o {
gsave
newpath
translate
2.0 setlinewidth
1 setlinejoin
0 setlinecap
0 0 m
0 5 l
gsave
0.000 setgray
fill
grestore
stroke
grestore
} bind def
291.488 60.48 o
grestore
gsave
/o {
gsave
newpath
translate
2.0 setlinewidth
1 setlinejoin
0 setlinecap
0 0 m
0 -5 l
gsave
0.000 setgray
fill
grestore
stroke
grestore
} bind def
291.488 414.72 o
grestore
gsave
/o {
gsave
newpath
translate
2.0 setlinewidth
1 setlinejoin
0 setlinecap
0 0 m
0 5 l
gsave
0.000 setgray
fill
grestore
stroke
grestore
} bind def
296.294 60.48 o
grestore
gsave
/o {
gsave
newpath
translate
2.0 setlinewidth
1 setlinejoin
0 setlinecap
0 0 m
0 -5 l
gsave
0.000 setgray
fill
grestore
stroke
grestore
} bind def
296.294 414.72 o
grestore
gsave
/o {
gsave
newpath
translate
2.0 setlinewidth
1 setlinejoin
0 setlinecap
0 0 m
0 5 l
gsave
0.000 setgray
fill
grestore
stroke
grestore
} bind def
300.533 60.48 o
grestore
gsave
/o {
gsave
newpath
translate
2.0 setlinewidth
1 setlinejoin
0 setlinecap
0 0 m
0 -5 l
gsave
0.000 setgray
fill
grestore
stroke
grestore
} bind def
300.533 414.72 o
grestore
gsave
/o {
gsave
newpath
translate
2.0 setlinewidth
1 setlinejoin
0 setlinecap
0 0 m
0 5 l
gsave
0.000 setgray
fill
grestore
stroke
grestore
} bind def
329.274 60.48 o
grestore
gsave
/o {
gsave
newpath
translate
2.0 setlinewidth
1 setlinejoin
0 setlinecap
0 0 m
0 -5 l
gsave
0.000 setgray
fill
grestore
stroke
grestore
} bind def
329.274 414.72 o
grestore
gsave
/o {
gsave
newpath
translate
2.0 setlinewidth
1 setlinejoin
0 setlinecap
0 0 m
0 5 l
gsave
0.000 setgray
fill
grestore
stroke
grestore
} bind def
343.869 60.48 o
grestore
gsave
/o {
gsave
newpath
translate
2.0 setlinewidth
1 setlinejoin
0 setlinecap
0 0 m
0 -5 l
gsave
0.000 setgray
fill
grestore
stroke
grestore
} bind def
343.869 414.72 o
grestore
gsave
/o {
gsave
newpath
translate
2.0 setlinewidth
1 setlinejoin
0 setlinecap
0 0 m
0 5 l
gsave
0.000 setgray
fill
grestore
stroke
grestore
} bind def
354.223 60.48 o
grestore
gsave
/o {
gsave
newpath
translate
2.0 setlinewidth
1 setlinejoin
0 setlinecap
0 0 m
0 -5 l
gsave
0.000 setgray
fill
grestore
stroke
grestore
} bind def
354.223 414.72 o
grestore
gsave
/o {
gsave
newpath
translate
2.0 setlinewidth
1 setlinejoin
0 setlinecap
0 0 m
0 5 l
gsave
0.000 setgray
fill
grestore
stroke
grestore
} bind def
362.255 60.48 o
grestore
gsave
/o {
gsave
newpath
translate
2.0 setlinewidth
1 setlinejoin
0 setlinecap
0 0 m
0 -5 l
gsave
0.000 setgray
fill
grestore
stroke
grestore
} bind def
362.255 414.72 o
grestore
gsave
/o {
gsave
newpath
translate
2.0 setlinewidth
1 setlinejoin
0 setlinecap
0 0 m
0 5 l
gsave
0.000 setgray
fill
grestore
stroke
grestore
} bind def
368.817 60.48 o
grestore
gsave
/o {
gsave
newpath
translate
2.0 setlinewidth
1 setlinejoin
0 setlinecap
0 0 m
0 -5 l
gsave
0.000 setgray
fill
grestore
stroke
grestore
} bind def
368.817 414.72 o
grestore
gsave
/o {
gsave
newpath
translate
2.0 setlinewidth
1 setlinejoin
0 setlinecap
0 0 m
0 5 l
gsave
0.000 setgray
fill
grestore
stroke
grestore
} bind def
374.366 60.48 o
grestore
gsave
/o {
gsave
newpath
translate
2.0 setlinewidth
1 setlinejoin
0 setlinecap
0 0 m
0 -5 l
gsave
0.000 setgray
fill
grestore
stroke
grestore
} bind def
374.366 414.72 o
grestore
gsave
/o {
gsave
newpath
translate
2.0 setlinewidth
1 setlinejoin
0 setlinecap
0 0 m
0 5 l
gsave
0.000 setgray
fill
grestore
stroke
grestore
} bind def
379.172 60.48 o
grestore
gsave
/o {
gsave
newpath
translate
2.0 setlinewidth
1 setlinejoin
0 setlinecap
0 0 m
0 -5 l
gsave
0.000 setgray
fill
grestore
stroke
grestore
} bind def
379.172 414.72 o
grestore
gsave
/o {
gsave
newpath
translate
2.0 setlinewidth
1 setlinejoin
0 setlinecap
0 0 m
0 5 l
gsave
0.000 setgray
fill
grestore
stroke
grestore
} bind def
383.411 60.48 o
grestore
gsave
/o {
gsave
newpath
translate
2.0 setlinewidth
1 setlinejoin
0 setlinecap
0 0 m
0 -5 l
gsave
0.000 setgray
fill
grestore
stroke
grestore
} bind def
383.411 414.72 o
grestore
gsave
/o {
gsave
newpath
translate
2.0 setlinewidth
1 setlinejoin
0 setlinecap
0 0 m
0 5 l
gsave
0.000 setgray
fill
grestore
stroke
grestore
} bind def
412.153 60.48 o
grestore
gsave
/o {
gsave
newpath
translate
2.0 setlinewidth
1 setlinejoin
0 setlinecap
0 0 m
0 -5 l
gsave
0.000 setgray
fill
grestore
stroke
grestore
} bind def
412.153 414.72 o
grestore
gsave
/o {
gsave
newpath
translate
2.0 setlinewidth
1 setlinejoin
0 setlinecap
0 0 m
0 5 l
gsave
0.000 setgray
fill
grestore
stroke
grestore
} bind def
426.747 60.48 o
grestore
gsave
/o {
gsave
newpath
translate
2.0 setlinewidth
1 setlinejoin
0 setlinecap
0 0 m
0 -5 l
gsave
0.000 setgray
fill
grestore
stroke
grestore
} bind def
426.747 414.72 o
grestore
gsave
/o {
gsave
newpath
translate
2.0 setlinewidth
1 setlinejoin
0 setlinecap
0 0 m
0 5 l
gsave
0.000 setgray
fill
grestore
stroke
grestore
} bind def
437.101 60.48 o
grestore
gsave
/o {
gsave
newpath
translate
2.0 setlinewidth
1 setlinejoin
0 setlinecap
0 0 m
0 -5 l
gsave
0.000 setgray
fill
grestore
stroke
grestore
} bind def
437.101 414.72 o
grestore
gsave
/o {
gsave
newpath
translate
2.0 setlinewidth
1 setlinejoin
0 setlinecap
0 0 m
0 5 l
gsave
0.000 setgray
fill
grestore
stroke
grestore
} bind def
445.133 60.48 o
grestore
gsave
/o {
gsave
newpath
translate
2.0 setlinewidth
1 setlinejoin
0 setlinecap
0 0 m
0 -5 l
gsave
0.000 setgray
fill
grestore
stroke
grestore
} bind def
445.133 414.72 o
grestore
gsave
/o {
gsave
newpath
translate
2.0 setlinewidth
1 setlinejoin
0 setlinecap
0 0 m
0 5 l
gsave
0.000 setgray
fill
grestore
stroke
grestore
} bind def
451.695 60.48 o
grestore
gsave
/o {
gsave
newpath
translate
2.0 setlinewidth
1 setlinejoin
0 setlinecap
0 0 m
0 -5 l
gsave
0.000 setgray
fill
grestore
stroke
grestore
} bind def
451.695 414.72 o
grestore
gsave
/o {
gsave
newpath
translate
2.0 setlinewidth
1 setlinejoin
0 setlinecap
0 0 m
0 5 l
gsave
0.000 setgray
fill
grestore
stroke
grestore
} bind def
457.244 60.48 o
grestore
gsave
/o {
gsave
newpath
translate
2.0 setlinewidth
1 setlinejoin
0 setlinecap
0 0 m
0 -5 l
gsave
0.000 setgray
fill
grestore
stroke
grestore
} bind def
457.244 414.72 o
grestore
gsave
/o {
gsave
newpath
translate
2.0 setlinewidth
1 setlinejoin
0 setlinecap
0 0 m
0 5 l
gsave
0.000 setgray
fill
grestore
stroke
grestore
} bind def
462.05 60.48 o
grestore
gsave
/o {
gsave
newpath
translate
2.0 setlinewidth
1 setlinejoin
0 setlinecap
0 0 m
0 -5 l
gsave
0.000 setgray
fill
grestore
stroke
grestore
} bind def
462.05 414.72 o
grestore
gsave
/o {
gsave
newpath
translate
2.0 setlinewidth
1 setlinejoin
0 setlinecap
0 0 m
0 5 l
gsave
0.000 setgray
fill
grestore
stroke
grestore
} bind def
466.29 60.48 o
grestore
gsave
/o {
gsave
newpath
translate
2.0 setlinewidth
1 setlinejoin
0 setlinecap
0 0 m
0 -5 l
gsave
0.000 setgray
fill
grestore
stroke
grestore
} bind def
466.29 414.72 o
grestore
gsave
/o {
gsave
newpath
translate
2.0 setlinewidth
1 setlinejoin
0 setlinecap
0 0 m
0 5 l
gsave
0.000 setgray
fill
grestore
stroke
grestore
} bind def
495.031 60.48 o
grestore
gsave
/o {
gsave
newpath
translate
2.0 setlinewidth
1 setlinejoin
0 setlinecap
0 0 m
0 -5 l
gsave
0.000 setgray
fill
grestore
stroke
grestore
} bind def
495.031 414.72 o
grestore
gsave
/o {
gsave
newpath
translate
2.0 setlinewidth
1 setlinejoin
0 setlinecap
0 0 m
0 5 l
gsave
0.000 setgray
fill
grestore
stroke
grestore
} bind def
509.625 60.48 o
grestore
gsave
/o {
gsave
newpath
translate
2.0 setlinewidth
1 setlinejoin
0 setlinecap
0 0 m
0 -5 l
gsave
0.000 setgray
fill
grestore
stroke
grestore
} bind def
509.625 414.72 o
grestore
gsave
/o {
gsave
newpath
translate
2.0 setlinewidth
1 setlinejoin
0 setlinecap
0 0 m
0 5 l
gsave
0.000 setgray
fill
grestore
stroke
grestore
} bind def
519.979 60.48 o
grestore
gsave
/o {
gsave
newpath
translate
2.0 setlinewidth
1 setlinejoin
0 setlinecap
0 0 m
0 -5 l
gsave
0.000 setgray
fill
grestore
stroke
grestore
} bind def
519.979 414.72 o
grestore
gsave
/o {
gsave
newpath
translate
2.0 setlinewidth
1 setlinejoin
0 setlinecap
0 0 m
0 5 l
gsave
0.000 setgray
fill
grestore
stroke
grestore
} bind def
528.011 60.48 o
grestore
gsave
/o {
gsave
newpath
translate
2.0 setlinewidth
1 setlinejoin
0 setlinecap
0 0 m
0 -5 l
gsave
0.000 setgray
fill
grestore
stroke
grestore
} bind def
528.011 414.72 o
grestore
gsave
/o {
gsave
newpath
translate
2.0 setlinewidth
1 setlinejoin
0 setlinecap
0 0 m
0 5 l
gsave
0.000 setgray
fill
grestore
stroke
grestore
} bind def
534.574 60.48 o
grestore
gsave
/o {
gsave
newpath
translate
2.0 setlinewidth
1 setlinejoin
0 setlinecap
0 0 m
0 -5 l
gsave
0.000 setgray
fill
grestore
stroke
grestore
} bind def
534.574 414.72 o
grestore
gsave
/o {
gsave
newpath
translate
2.0 setlinewidth
1 setlinejoin
0 setlinecap
0 0 m
0 5 l
gsave
0.000 setgray
fill
grestore
stroke
grestore
} bind def
540.122 60.48 o
grestore
gsave
/o {
gsave
newpath
translate
2.0 setlinewidth
1 setlinejoin
0 setlinecap
0 0 m
0 -5 l
gsave
0.000 setgray
fill
grestore
stroke
grestore
} bind def
540.122 414.72 o
grestore
gsave
/o {
gsave
newpath
translate
2.0 setlinewidth
1 setlinejoin
0 setlinecap
0 0 m
0 5 l
gsave
0.000 setgray
fill
grestore
stroke
grestore
} bind def
544.928 60.48 o
grestore
gsave
/o {
gsave
newpath
translate
2.0 setlinewidth
1 setlinejoin
0 setlinecap
0 0 m
0 -5 l
gsave
0.000 setgray
fill
grestore
stroke
grestore
} bind def
544.928 414.72 o
grestore
gsave
/o {
gsave
newpath
translate
2.0 setlinewidth
1 setlinejoin
0 setlinecap
0 0 m
0 5 l
gsave
0.000 setgray
fill
grestore
stroke
grestore
} bind def
549.168 60.48 o
grestore
gsave
/o {
gsave
newpath
translate
2.0 setlinewidth
1 setlinejoin
0 setlinecap
0 0 m
0 -5 l
gsave
0.000 setgray
fill
grestore
stroke
grestore
} bind def
549.168 414.72 o
grestore
/BitstreamVeraSans-Roman findfont
24.000 scalefont
setfont
gsave
293.706250 17.245625 translate
0.000000 rotate
0.000000 0.000000 m /t glyphshow
9.410156 0.000000 m /space glyphshow
17.039062 0.000000 m /bracketleft glyphshow
26.402344 0.000000 m /s glyphshow
38.906250 0.000000 m /bracketright glyphshow
grestore
gsave
/o {
gsave
newpath
translate
2.0 setlinewidth
1 setlinejoin
0 setlinecap
0 0 m
8 0 l
gsave
0.000 setgray
fill
grestore
stroke
grestore
} bind def
80.64 60.48 o
grestore
gsave
/o {
gsave
newpath
translate
2.0 setlinewidth
1 setlinejoin
0 setlinecap
0 0 m
-8 0 l
gsave
0.000 setgray
fill
grestore
stroke
grestore
} bind def
552.96 60.48 o
grestore
gsave
49.640000 55.386250 translate
0.000000 rotate
/BitstreamVeraSans-Roman findfont
14.0 scalefont
setfont
0.000000 0.376563 moveto
/one glyphshow

8.907227 0.376563 moveto
/zero glyphshow

/BitstreamVeraSans-Roman findfont
9.8 scalefont
setfont
17.814453 7.726563 moveto
/eight glyphshow


grestore
gsave
/o {
gsave
newpath
translate
2.0 setlinewidth
1 setlinejoin
0 setlinecap
0 0 m
8 0 l
gsave
0.000 setgray
fill
grestore
stroke
grestore
} bind def
80.64 111.086 o
grestore
gsave
/o {
gsave
newpath
translate
2.0 setlinewidth
1 setlinejoin
0 setlinecap
0 0 m
-8 0 l
gsave
0.000 setgray
fill
grestore
stroke
grestore
} bind def
552.96 111.086 o
grestore
gsave
49.640000 105.991964 translate
0.000000 rotate
/BitstreamVeraSans-Roman findfont
14.0 scalefont
setfont
0.000000 0.376563 moveto
/one glyphshow

8.907227 0.376563 moveto
/zero glyphshow

/BitstreamVeraSans-Roman findfont
9.8 scalefont
setfont
17.814453 7.726563 moveto
/nine glyphshow


grestore
gsave
/o {
gsave
newpath
translate
2.0 setlinewidth
1 setlinejoin
0 setlinecap
0 0 m
8 0 l
gsave
0.000 setgray
fill
grestore
stroke
grestore
} bind def
80.64 161.691 o
grestore
gsave
/o {
gsave
newpath
translate
2.0 setlinewidth
1 setlinejoin
0 setlinecap
0 0 m
-8 0 l
gsave
0.000 setgray
fill
grestore
stroke
grestore
} bind def
552.96 161.691 o
grestore
gsave
42.640000 156.597679 translate
0.000000 rotate
/BitstreamVeraSans-Roman findfont
14.0 scalefont
setfont
0.000000 0.376563 moveto
/one glyphshow

8.907227 0.376563 moveto
/zero glyphshow

/BitstreamVeraSans-Roman findfont
9.8 scalefont
setfont
17.814453 7.726563 moveto
/one glyphshow

24.049512 7.726563 moveto
/zero glyphshow


grestore
gsave
/o {
gsave
newpath
translate
2.0 setlinewidth
1 setlinejoin
0 setlinecap
0 0 m
8 0 l
gsave
0.000 setgray
fill
grestore
stroke
grestore
} bind def
80.64 212.297 o
grestore
gsave
/o {
gsave
newpath
translate
2.0 setlinewidth
1 setlinejoin
0 setlinecap
0 0 m
-8 0 l
gsave
0.000 setgray
fill
grestore
stroke
grestore
} bind def
552.96 212.297 o
grestore
gsave
42.640000 207.203393 translate
0.000000 rotate
/BitstreamVeraSans-Roman findfont
14.0 scalefont
setfont
0.000000 0.507812 moveto
/one glyphshow

8.907227 0.507812 moveto
/zero glyphshow

/BitstreamVeraSans-Roman findfont
9.8 scalefont
setfont
17.814453 7.857813 moveto
/one glyphshow

24.049512 7.857813 moveto
/one glyphshow


grestore
gsave
/o {
gsave
newpath
translate
2.0 setlinewidth
1 setlinejoin
0 setlinecap
0 0 m
8 0 l
gsave
0.000 setgray
fill
grestore
stroke
grestore
} bind def
80.64 262.903 o
grestore
gsave
/o {
gsave
newpath
translate
2.0 setlinewidth
1 setlinejoin
0 setlinecap
0 0 m
-8 0 l
gsave
0.000 setgray
fill
grestore
stroke
grestore
} bind def
552.96 262.903 o
grestore
gsave
42.640000 257.809107 translate
0.000000 rotate
/BitstreamVeraSans-Roman findfont
14.0 scalefont
setfont
0.000000 0.376563 moveto
/one glyphshow

8.907227 0.376563 moveto
/zero glyphshow

/BitstreamVeraSans-Roman findfont
9.8 scalefont
setfont
17.814453 7.726563 moveto
/one glyphshow

24.049512 7.726563 moveto
/two glyphshow


grestore
gsave
/o {
gsave
newpath
translate
2.0 setlinewidth
1 setlinejoin
0 setlinecap
0 0 m
8 0 l
gsave
0.000 setgray
fill
grestore
stroke
grestore
} bind def
80.64 313.509 o
grestore
gsave
/o {
gsave
newpath
translate
2.0 setlinewidth
1 setlinejoin
0 setlinecap
0 0 m
-8 0 l
gsave
0.000 setgray
fill
grestore
stroke
grestore
} bind def
552.96 313.509 o
grestore
gsave
42.640000 308.414821 translate
0.000000 rotate
/BitstreamVeraSans-Roman findfont
14.0 scalefont
setfont
0.000000 0.376563 moveto
/one glyphshow

8.907227 0.376563 moveto
/zero glyphshow

/BitstreamVeraSans-Roman findfont
9.8 scalefont
setfont
17.814453 7.726563 moveto
/one glyphshow

24.049512 7.726563 moveto
/three glyphshow


grestore
gsave
/o {
gsave
newpath
translate
2.0 setlinewidth
1 setlinejoin
0 setlinecap
0 0 m
8 0 l
gsave
0.000 setgray
fill
grestore
stroke
grestore
} bind def
80.64 364.114 o
grestore
gsave
/o {
gsave
newpath
translate
2.0 setlinewidth
1 setlinejoin
0 setlinecap
0 0 m
-8 0 l
gsave
0.000 setgray
fill
grestore
stroke
grestore
} bind def
552.96 364.114 o
grestore
gsave
42.640000 359.020536 translate
0.000000 rotate
/BitstreamVeraSans-Roman findfont
14.0 scalefont
setfont
0.000000 0.507812 moveto
/one glyphshow

8.907227 0.507812 moveto
/zero glyphshow

/BitstreamVeraSans-Roman findfont
9.8 scalefont
setfont
17.814453 7.857813 moveto
/one glyphshow

24.049512 7.857813 moveto
/four glyphshow


grestore
gsave
/o {
gsave
newpath
translate
2.0 setlinewidth
1 setlinejoin
0 setlinecap
0 0 m
8 0 l
gsave
0.000 setgray
fill
grestore
stroke
grestore
} bind def
80.64 414.72 o
grestore
gsave
/o {
gsave
newpath
translate
2.0 setlinewidth
1 setlinejoin
0 setlinecap
0 0 m
-8 0 l
gsave
0.000 setgray
fill
grestore
stroke
grestore
} bind def
552.96 414.72 o
grestore
gsave
42.640000 409.626250 translate
0.000000 rotate
/BitstreamVeraSans-Roman findfont
14.0 scalefont
setfont
0.000000 0.507812 moveto
/one glyphshow

8.907227 0.507812 moveto
/zero glyphshow

/BitstreamVeraSans-Roman findfont
9.8 scalefont
setfont
17.814453 7.857813 moveto
/one glyphshow

24.049512 7.857813 moveto
/five glyphshow


grestore
gsave
/o {
gsave
newpath
translate
2.0 setlinewidth
1 setlinejoin
0 setlinecap
0 0 m
5 0 l
gsave
0.000 setgray
fill
grestore
stroke
grestore
} bind def
80.64 75.7138 o
grestore
gsave
/o {
gsave
newpath
translate
2.0 setlinewidth
1 setlinejoin
0 setlinecap
0 0 m
-5 0 l
gsave
0.000 setgray
fill
grestore
stroke
grestore
} bind def
552.96 75.7138 o
grestore
gsave
/o {
gsave
newpath
translate
2.0 setlinewidth
1 setlinejoin
0 setlinecap
0 0 m
5 0 l
gsave
0.000 setgray
fill
grestore
stroke
grestore
} bind def
80.64 84.6251 o
grestore
gsave
/o {
gsave
newpath
translate
2.0 setlinewidth
1 setlinejoin
0 setlinecap
0 0 m
-5 0 l
gsave
0.000 setgray
fill
grestore
stroke
grestore
} bind def
552.96 84.6251 o
grestore
gsave
/o {
gsave
newpath
translate
2.0 setlinewidth
1 setlinejoin
0 setlinecap
0 0 m
5 0 l
gsave
0.000 setgray
fill
grestore
stroke
grestore
} bind def
80.64 90.9477 o
grestore
gsave
/o {
gsave
newpath
translate
2.0 setlinewidth
1 setlinejoin
0 setlinecap
0 0 m
-5 0 l
gsave
0.000 setgray
fill
grestore
stroke
grestore
} bind def
552.96 90.9477 o
grestore
gsave
/o {
gsave
newpath
translate
2.0 setlinewidth
1 setlinejoin
0 setlinecap
0 0 m
5 0 l
gsave
0.000 setgray
fill
grestore
stroke
grestore
} bind def
80.64 95.8519 o
grestore
gsave
/o {
gsave
newpath
translate
2.0 setlinewidth
1 setlinejoin
0 setlinecap
0 0 m
-5 0 l
gsave
0.000 setgray
fill
grestore
stroke
grestore
} bind def
552.96 95.8519 o
grestore
gsave
/o {
gsave
newpath
translate
2.0 setlinewidth
1 setlinejoin
0 setlinecap
0 0 m
5 0 l
gsave
0.000 setgray
fill
grestore
stroke
grestore
} bind def
80.64 99.8589 o
grestore
gsave
/o {
gsave
newpath
translate
2.0 setlinewidth
1 setlinejoin
0 setlinecap
0 0 m
-5 0 l
gsave
0.000 setgray
fill
grestore
stroke
grestore
} bind def
552.96 99.8589 o
grestore
gsave
/o {
gsave
newpath
translate
2.0 setlinewidth
1 setlinejoin
0 setlinecap
0 0 m
5 0 l
gsave
0.000 setgray
fill
grestore
stroke
grestore
} bind def
80.64 103.247 o
grestore
gsave
/o {
gsave
newpath
translate
2.0 setlinewidth
1 setlinejoin
0 setlinecap
0 0 m
-5 0 l
gsave
0.000 setgray
fill
grestore
stroke
grestore
} bind def
552.96 103.247 o
grestore
gsave
/o {
gsave
newpath
translate
2.0 setlinewidth
1 setlinejoin
0 setlinecap
0 0 m
5 0 l
gsave
0.000 setgray
fill
grestore
stroke
grestore
} bind def
80.64 106.182 o
grestore
gsave
/o {
gsave
newpath
translate
2.0 setlinewidth
1 setlinejoin
0 setlinecap
0 0 m
-5 0 l
gsave
0.000 setgray
fill
grestore
stroke
grestore
} bind def
552.96 106.182 o
grestore
gsave
/o {
gsave
newpath
translate
2.0 setlinewidth
1 setlinejoin
0 setlinecap
0 0 m
5 0 l
gsave
0.000 setgray
fill
grestore
stroke
grestore
} bind def
80.64 108.77 o
grestore
gsave
/o {
gsave
newpath
translate
2.0 setlinewidth
1 setlinejoin
0 setlinecap
0 0 m
-5 0 l
gsave
0.000 setgray
fill
grestore
stroke
grestore
} bind def
552.96 108.77 o
grestore
gsave
/o {
gsave
newpath
translate
2.0 setlinewidth
1 setlinejoin
0 setlinecap
0 0 m
5 0 l
gsave
0.000 setgray
fill
grestore
stroke
grestore
} bind def
80.64 126.32 o
grestore
gsave
/o {
gsave
newpath
translate
2.0 setlinewidth
1 setlinejoin
0 setlinecap
0 0 m
-5 0 l
gsave
0.000 setgray
fill
grestore
stroke
grestore
} bind def
552.96 126.32 o
grestore
gsave
/o {
gsave
newpath
translate
2.0 setlinewidth
1 setlinejoin
0 setlinecap
0 0 m
5 0 l
gsave
0.000 setgray
fill
grestore
stroke
grestore
} bind def
80.64 135.231 o
grestore
gsave
/o {
gsave
newpath
translate
2.0 setlinewidth
1 setlinejoin
0 setlinecap
0 0 m
-5 0 l
gsave
0.000 setgray
fill
grestore
stroke
grestore
} bind def
552.96 135.231 o
grestore
gsave
/o {
gsave
newpath
translate
2.0 setlinewidth
1 setlinejoin
0 setlinecap
0 0 m
5 0 l
gsave
0.000 setgray
fill
grestore
stroke
grestore
} bind def
80.64 141.553 o
grestore
gsave
/o {
gsave
newpath
translate
2.0 setlinewidth
1 setlinejoin
0 setlinecap
0 0 m
-5 0 l
gsave
0.000 setgray
fill
grestore
stroke
grestore
} bind def
552.96 141.553 o
grestore
gsave
/o {
gsave
newpath
translate
2.0 setlinewidth
1 setlinejoin
0 setlinecap
0 0 m
5 0 l
gsave
0.000 setgray
fill
grestore
stroke
grestore
} bind def
80.64 146.458 o
grestore
gsave
/o {
gsave
newpath
translate
2.0 setlinewidth
1 setlinejoin
0 setlinecap
0 0 m
-5 0 l
gsave
0.000 setgray
fill
grestore
stroke
grestore
} bind def
552.96 146.458 o
grestore
gsave
/o {
gsave
newpath
translate
2.0 setlinewidth
1 setlinejoin
0 setlinecap
0 0 m
5 0 l
gsave
0.000 setgray
fill
grestore
stroke
grestore
} bind def
80.64 150.465 o
grestore
gsave
/o {
gsave
newpath
translate
2.0 setlinewidth
1 setlinejoin
0 setlinecap
0 0 m
-5 0 l
gsave
0.000 setgray
fill
grestore
stroke
grestore
} bind def
552.96 150.465 o
grestore
gsave
/o {
gsave
newpath
translate
2.0 setlinewidth
1 setlinejoin
0 setlinecap
0 0 m
5 0 l
gsave
0.000 setgray
fill
grestore
stroke
grestore
} bind def
80.64 153.853 o
grestore
gsave
/o {
gsave
newpath
translate
2.0 setlinewidth
1 setlinejoin
0 setlinecap
0 0 m
-5 0 l
gsave
0.000 setgray
fill
grestore
stroke
grestore
} bind def
552.96 153.853 o
grestore
gsave
/o {
gsave
newpath
translate
2.0 setlinewidth
1 setlinejoin
0 setlinecap
0 0 m
5 0 l
gsave
0.000 setgray
fill
grestore
stroke
grestore
} bind def
80.64 156.787 o
grestore
gsave
/o {
gsave
newpath
translate
2.0 setlinewidth
1 setlinejoin
0 setlinecap
0 0 m
-5 0 l
gsave
0.000 setgray
fill
grestore
stroke
grestore
} bind def
552.96 156.787 o
grestore
gsave
/o {
gsave
newpath
translate
2.0 setlinewidth
1 setlinejoin
0 setlinecap
0 0 m
5 0 l
gsave
0.000 setgray
fill
grestore
stroke
grestore
} bind def
80.64 159.376 o
grestore
gsave
/o {
gsave
newpath
translate
2.0 setlinewidth
1 setlinejoin
0 setlinecap
0 0 m
-5 0 l
gsave
0.000 setgray
fill
grestore
stroke
grestore
} bind def
552.96 159.376 o
grestore
gsave
/o {
gsave
newpath
translate
2.0 setlinewidth
1 setlinejoin
0 setlinecap
0 0 m
5 0 l
gsave
0.000 setgray
fill
grestore
stroke
grestore
} bind def
80.64 176.925 o
grestore
gsave
/o {
gsave
newpath
translate
2.0 setlinewidth
1 setlinejoin
0 setlinecap
0 0 m
-5 0 l
gsave
0.000 setgray
fill
grestore
stroke
grestore
} bind def
552.96 176.925 o
grestore
gsave
/o {
gsave
newpath
translate
2.0 setlinewidth
1 setlinejoin
0 setlinecap
0 0 m
5 0 l
gsave
0.000 setgray
fill
grestore
stroke
grestore
} bind def
80.64 185.836 o
grestore
gsave
/o {
gsave
newpath
translate
2.0 setlinewidth
1 setlinejoin
0 setlinecap
0 0 m
-5 0 l
gsave
0.000 setgray
fill
grestore
stroke
grestore
} bind def
552.96 185.836 o
grestore
gsave
/o {
gsave
newpath
translate
2.0 setlinewidth
1 setlinejoin
0 setlinecap
0 0 m
5 0 l
gsave
0.000 setgray
fill
grestore
stroke
grestore
} bind def
80.64 192.159 o
grestore
gsave
/o {
gsave
newpath
translate
2.0 setlinewidth
1 setlinejoin
0 setlinecap
0 0 m
-5 0 l
gsave
0.000 setgray
fill
grestore
stroke
grestore
} bind def
552.96 192.159 o
grestore
gsave
/o {
gsave
newpath
translate
2.0 setlinewidth
1 setlinejoin
0 setlinecap
0 0 m
5 0 l
gsave
0.000 setgray
fill
grestore
stroke
grestore
} bind def
80.64 197.063 o
grestore
gsave
/o {
gsave
newpath
translate
2.0 setlinewidth
1 setlinejoin
0 setlinecap
0 0 m
-5 0 l
gsave
0.000 setgray
fill
grestore
stroke
grestore
} bind def
552.96 197.063 o
grestore
gsave
/o {
gsave
newpath
translate
2.0 setlinewidth
1 setlinejoin
0 setlinecap
0 0 m
5 0 l
gsave
0.000 setgray
fill
grestore
stroke
grestore
} bind def
80.64 201.07 o
grestore
gsave
/o {
gsave
newpath
translate
2.0 setlinewidth
1 setlinejoin
0 setlinecap
0 0 m
-5 0 l
gsave
0.000 setgray
fill
grestore
stroke
grestore
} bind def
552.96 201.07 o
grestore
gsave
/o {
gsave
newpath
translate
2.0 setlinewidth
1 setlinejoin
0 setlinecap
0 0 m
5 0 l
gsave
0.000 setgray
fill
grestore
stroke
grestore
} bind def
80.64 204.458 o
grestore
gsave
/o {
gsave
newpath
translate
2.0 setlinewidth
1 setlinejoin
0 setlinecap
0 0 m
-5 0 l
gsave
0.000 setgray
fill
grestore
stroke
grestore
} bind def
552.96 204.458 o
grestore
gsave
/o {
gsave
newpath
translate
2.0 setlinewidth
1 setlinejoin
0 setlinecap
0 0 m
5 0 l
gsave
0.000 setgray
fill
grestore
stroke
grestore
} bind def
80.64 207.393 o
grestore
gsave
/o {
gsave
newpath
translate
2.0 setlinewidth
1 setlinejoin
0 setlinecap
0 0 m
-5 0 l
gsave
0.000 setgray
fill
grestore
stroke
grestore
} bind def
552.96 207.393 o
grestore
gsave
/o {
gsave
newpath
translate
2.0 setlinewidth
1 setlinejoin
0 setlinecap
0 0 m
5 0 l
gsave
0.000 setgray
fill
grestore
stroke
grestore
} bind def
80.64 209.982 o
grestore
gsave
/o {
gsave
newpath
translate
2.0 setlinewidth
1 setlinejoin
0 setlinecap
0 0 m
-5 0 l
gsave
0.000 setgray
fill
grestore
stroke
grestore
} bind def
552.96 209.982 o
grestore
gsave
/o {
gsave
newpath
translate
2.0 setlinewidth
1 setlinejoin
0 setlinecap
0 0 m
5 0 l
gsave
0.000 setgray
fill
grestore
stroke
grestore
} bind def
80.64 227.531 o
grestore
gsave
/o {
gsave
newpath
translate
2.0 setlinewidth
1 setlinejoin
0 setlinecap
0 0 m
-5 0 l
gsave
0.000 setgray
fill
grestore
stroke
grestore
} bind def
552.96 227.531 o
grestore
gsave
/o {
gsave
newpath
translate
2.0 setlinewidth
1 setlinejoin
0 setlinecap
0 0 m
5 0 l
gsave
0.000 setgray
fill
grestore
stroke
grestore
} bind def
80.64 236.442 o
grestore
gsave
/o {
gsave
newpath
translate
2.0 setlinewidth
1 setlinejoin
0 setlinecap
0 0 m
-5 0 l
gsave
0.000 setgray
fill
grestore
stroke
grestore
} bind def
552.96 236.442 o
grestore
gsave
/o {
gsave
newpath
translate
2.0 setlinewidth
1 setlinejoin
0 setlinecap
0 0 m
5 0 l
gsave
0.000 setgray
fill
grestore
stroke
grestore
} bind def
80.64 242.765 o
grestore
gsave
/o {
gsave
newpath
translate
2.0 setlinewidth
1 setlinejoin
0 setlinecap
0 0 m
-5 0 l
gsave
0.000 setgray
fill
grestore
stroke
grestore
} bind def
552.96 242.765 o
grestore
gsave
/o {
gsave
newpath
translate
2.0 setlinewidth
1 setlinejoin
0 setlinecap
0 0 m
5 0 l
gsave
0.000 setgray
fill
grestore
stroke
grestore
} bind def
80.64 247.669 o
grestore
gsave
/o {
gsave
newpath
translate
2.0 setlinewidth
1 setlinejoin
0 setlinecap
0 0 m
-5 0 l
gsave
0.000 setgray
fill
grestore
stroke
grestore
} bind def
552.96 247.669 o
grestore
gsave
/o {
gsave
newpath
translate
2.0 setlinewidth
1 setlinejoin
0 setlinecap
0 0 m
5 0 l
gsave
0.000 setgray
fill
grestore
stroke
grestore
} bind def
80.64 251.676 o
grestore
gsave
/o {
gsave
newpath
translate
2.0 setlinewidth
1 setlinejoin
0 setlinecap
0 0 m
-5 0 l
gsave
0.000 setgray
fill
grestore
stroke
grestore
} bind def
552.96 251.676 o
grestore
gsave
/o {
gsave
newpath
translate
2.0 setlinewidth
1 setlinejoin
0 setlinecap
0 0 m
5 0 l
gsave
0.000 setgray
fill
grestore
stroke
grestore
} bind def
80.64 255.064 o
grestore
gsave
/o {
gsave
newpath
translate
2.0 setlinewidth
1 setlinejoin
0 setlinecap
0 0 m
-5 0 l
gsave
0.000 setgray
fill
grestore
stroke
grestore
} bind def
552.96 255.064 o
grestore
gsave
/o {
gsave
newpath
translate
2.0 setlinewidth
1 setlinejoin
0 setlinecap
0 0 m
5 0 l
gsave
0.000 setgray
fill
grestore
stroke
grestore
} bind def
80.64 257.999 o
grestore
gsave
/o {
gsave
newpath
translate
2.0 setlinewidth
1 setlinejoin
0 setlinecap
0 0 m
-5 0 l
gsave
0.000 setgray
fill
grestore
stroke
grestore
} bind def
552.96 257.999 o
grestore
gsave
/o {
gsave
newpath
translate
2.0 setlinewidth
1 setlinejoin
0 setlinecap
0 0 m
5 0 l
gsave
0.000 setgray
fill
grestore
stroke
grestore
} bind def
80.64 260.587 o
grestore
gsave
/o {
gsave
newpath
translate
2.0 setlinewidth
1 setlinejoin
0 setlinecap
0 0 m
-5 0 l
gsave
0.000 setgray
fill
grestore
stroke
grestore
} bind def
552.96 260.587 o
grestore
gsave
/o {
gsave
newpath
translate
2.0 setlinewidth
1 setlinejoin
0 setlinecap
0 0 m
5 0 l
gsave
0.000 setgray
fill
grestore
stroke
grestore
} bind def
80.64 278.137 o
grestore
gsave
/o {
gsave
newpath
translate
2.0 setlinewidth
1 setlinejoin
0 setlinecap
0 0 m
-5 0 l
gsave
0.000 setgray
fill
grestore
stroke
grestore
} bind def
552.96 278.137 o
grestore
gsave
/o {
gsave
newpath
translate
2.0 setlinewidth
1 setlinejoin
0 setlinecap
0 0 m
5 0 l
gsave
0.000 setgray
fill
grestore
stroke
grestore
} bind def
80.64 287.048 o
grestore
gsave
/o {
gsave
newpath
translate
2.0 setlinewidth
1 setlinejoin
0 setlinecap
0 0 m
-5 0 l
gsave
0.000 setgray
fill
grestore
stroke
grestore
} bind def
552.96 287.048 o
grestore
gsave
/o {
gsave
newpath
translate
2.0 setlinewidth
1 setlinejoin
0 setlinecap
0 0 m
5 0 l
gsave
0.000 setgray
fill
grestore
stroke
grestore
} bind def
80.64 293.371 o
grestore
gsave
/o {
gsave
newpath
translate
2.0 setlinewidth
1 setlinejoin
0 setlinecap
0 0 m
-5 0 l
gsave
0.000 setgray
fill
grestore
stroke
grestore
} bind def
552.96 293.371 o
grestore
gsave
/o {
gsave
newpath
translate
2.0 setlinewidth
1 setlinejoin
0 setlinecap
0 0 m
5 0 l
gsave
0.000 setgray
fill
grestore
stroke
grestore
} bind def
80.64 298.275 o
grestore
gsave
/o {
gsave
newpath
translate
2.0 setlinewidth
1 setlinejoin
0 setlinecap
0 0 m
-5 0 l
gsave
0.000 setgray
fill
grestore
stroke
grestore
} bind def
552.96 298.275 o
grestore
gsave
/o {
gsave
newpath
translate
2.0 setlinewidth
1 setlinejoin
0 setlinecap
0 0 m
5 0 l
gsave
0.000 setgray
fill
grestore
stroke
grestore
} bind def
80.64 302.282 o
grestore
gsave
/o {
gsave
newpath
translate
2.0 setlinewidth
1 setlinejoin
0 setlinecap
0 0 m
-5 0 l
gsave
0.000 setgray
fill
grestore
stroke
grestore
} bind def
552.96 302.282 o
grestore
gsave
/o {
gsave
newpath
translate
2.0 setlinewidth
1 setlinejoin
0 setlinecap
0 0 m
5 0 l
gsave
0.000 setgray
fill
grestore
stroke
grestore
} bind def
80.64 305.67 o
grestore
gsave
/o {
gsave
newpath
translate
2.0 setlinewidth
1 setlinejoin
0 setlinecap
0 0 m
-5 0 l
gsave
0.000 setgray
fill
grestore
stroke
grestore
} bind def
552.96 305.67 o
grestore
gsave
/o {
gsave
newpath
translate
2.0 setlinewidth
1 setlinejoin
0 setlinecap
0 0 m
5 0 l
gsave
0.000 setgray
fill
grestore
stroke
grestore
} bind def
80.64 308.604 o
grestore
gsave
/o {
gsave
newpath
translate
2.0 setlinewidth
1 setlinejoin
0 setlinecap
0 0 m
-5 0 l
gsave
0.000 setgray
fill
grestore
stroke
grestore
} bind def
552.96 308.604 o
grestore
gsave
/o {
gsave
newpath
translate
2.0 setlinewidth
1 setlinejoin
0 setlinecap
0 0 m
5 0 l
gsave
0.000 setgray
fill
grestore
stroke
grestore
} bind def
80.64 311.193 o
grestore
gsave
/o {
gsave
newpath
translate
2.0 setlinewidth
1 setlinejoin
0 setlinecap
0 0 m
-5 0 l
gsave
0.000 setgray
fill
grestore
stroke
grestore
} bind def
552.96 311.193 o
grestore
gsave
/o {
gsave
newpath
translate
2.0 setlinewidth
1 setlinejoin
0 setlinecap
0 0 m
5 0 l
gsave
0.000 setgray
fill
grestore
stroke
grestore
} bind def
80.64 328.742 o
grestore
gsave
/o {
gsave
newpath
translate
2.0 setlinewidth
1 setlinejoin
0 setlinecap
0 0 m
-5 0 l
gsave
0.000 setgray
fill
grestore
stroke
grestore
} bind def
552.96 328.742 o
grestore
gsave
/o {
gsave
newpath
translate
2.0 setlinewidth
1 setlinejoin
0 setlinecap
0 0 m
5 0 l
gsave
0.000 setgray
fill
grestore
stroke
grestore
} bind def
80.64 337.654 o
grestore
gsave
/o {
gsave
newpath
translate
2.0 setlinewidth
1 setlinejoin
0 setlinecap
0 0 m
-5 0 l
gsave
0.000 setgray
fill
grestore
stroke
grestore
} bind def
552.96 337.654 o
grestore
gsave
/o {
gsave
newpath
translate
2.0 setlinewidth
1 setlinejoin
0 setlinecap
0 0 m
5 0 l
gsave
0.000 setgray
fill
grestore
stroke
grestore
} bind def
80.64 343.976 o
grestore
gsave
/o {
gsave
newpath
translate
2.0 setlinewidth
1 setlinejoin
0 setlinecap
0 0 m
-5 0 l
gsave
0.000 setgray
fill
grestore
stroke
grestore
} bind def
552.96 343.976 o
grestore
gsave
/o {
gsave
newpath
translate
2.0 setlinewidth
1 setlinejoin
0 setlinecap
0 0 m
5 0 l
gsave
0.000 setgray
fill
grestore
stroke
grestore
} bind def
80.64 348.88 o
grestore
gsave
/o {
gsave
newpath
translate
2.0 setlinewidth
1 setlinejoin
0 setlinecap
0 0 m
-5 0 l
gsave
0.000 setgray
fill
grestore
stroke
grestore
} bind def
552.96 348.88 o
grestore
gsave
/o {
gsave
newpath
translate
2.0 setlinewidth
1 setlinejoin
0 setlinecap
0 0 m
5 0 l
gsave
0.000 setgray
fill
grestore
stroke
grestore
} bind def
80.64 352.887 o
grestore
gsave
/o {
gsave
newpath
translate
2.0 setlinewidth
1 setlinejoin
0 setlinecap
0 0 m
-5 0 l
gsave
0.000 setgray
fill
grestore
stroke
grestore
} bind def
552.96 352.887 o
grestore
gsave
/o {
gsave
newpath
translate
2.0 setlinewidth
1 setlinejoin
0 setlinecap
0 0 m
5 0 l
gsave
0.000 setgray
fill
grestore
stroke
grestore
} bind def
80.64 356.275 o
grestore
gsave
/o {
gsave
newpath
translate
2.0 setlinewidth
1 setlinejoin
0 setlinecap
0 0 m
-5 0 l
gsave
0.000 setgray
fill
grestore
stroke
grestore
} bind def
552.96 356.275 o
grestore
gsave
/o {
gsave
newpath
translate
2.0 setlinewidth
1 setlinejoin
0 setlinecap
0 0 m
5 0 l
gsave
0.000 setgray
fill
grestore
stroke
grestore
} bind def
80.64 359.21 o
grestore
gsave
/o {
gsave
newpath
translate
2.0 setlinewidth
1 setlinejoin
0 setlinecap
0 0 m
-5 0 l
gsave
0.000 setgray
fill
grestore
stroke
grestore
} bind def
552.96 359.21 o
grestore
gsave
/o {
gsave
newpath
translate
2.0 setlinewidth
1 setlinejoin
0 setlinecap
0 0 m
5 0 l
gsave
0.000 setgray
fill
grestore
stroke
grestore
} bind def
80.64 361.799 o
grestore
gsave
/o {
gsave
newpath
translate
2.0 setlinewidth
1 setlinejoin
0 setlinecap
0 0 m
-5 0 l
gsave
0.000 setgray
fill
grestore
stroke
grestore
} bind def
552.96 361.799 o
grestore
gsave
/o {
gsave
newpath
translate
2.0 setlinewidth
1 setlinejoin
0 setlinecap
0 0 m
5 0 l
gsave
0.000 setgray
fill
grestore
stroke
grestore
} bind def
80.64 379.348 o
grestore
gsave
/o {
gsave
newpath
translate
2.0 setlinewidth
1 setlinejoin
0 setlinecap
0 0 m
-5 0 l
gsave
0.000 setgray
fill
grestore
stroke
grestore
} bind def
552.96 379.348 o
grestore
gsave
/o {
gsave
newpath
translate
2.0 setlinewidth
1 setlinejoin
0 setlinecap
0 0 m
5 0 l
gsave
0.000 setgray
fill
grestore
stroke
grestore
} bind def
80.64 388.259 o
grestore
gsave
/o {
gsave
newpath
translate
2.0 setlinewidth
1 setlinejoin
0 setlinecap
0 0 m
-5 0 l
gsave
0.000 setgray
fill
grestore
stroke
grestore
} bind def
552.96 388.259 o
grestore
gsave
/o {
gsave
newpath
translate
2.0 setlinewidth
1 setlinejoin
0 setlinecap
0 0 m
5 0 l
gsave
0.000 setgray
fill
grestore
stroke
grestore
} bind def
80.64 394.582 o
grestore
gsave
/o {
gsave
newpath
translate
2.0 setlinewidth
1 setlinejoin
0 setlinecap
0 0 m
-5 0 l
gsave
0.000 setgray
fill
grestore
stroke
grestore
} bind def
552.96 394.582 o
grestore
gsave
/o {
gsave
newpath
translate
2.0 setlinewidth
1 setlinejoin
0 setlinecap
0 0 m
5 0 l
gsave
0.000 setgray
fill
grestore
stroke
grestore
} bind def
80.64 399.486 o
grestore
gsave
/o {
gsave
newpath
translate
2.0 setlinewidth
1 setlinejoin
0 setlinecap
0 0 m
-5 0 l
gsave
0.000 setgray
fill
grestore
stroke
grestore
} bind def
552.96 399.486 o
grestore
gsave
/o {
gsave
newpath
translate
2.0 setlinewidth
1 setlinejoin
0 setlinecap
0 0 m
5 0 l
gsave
0.000 setgray
fill
grestore
stroke
grestore
} bind def
80.64 403.493 o
grestore
gsave
/o {
gsave
newpath
translate
2.0 setlinewidth
1 setlinejoin
0 setlinecap
0 0 m
-5 0 l
gsave
0.000 setgray
fill
grestore
stroke
grestore
} bind def
552.96 403.493 o
grestore
gsave
/o {
gsave
newpath
translate
2.0 setlinewidth
1 setlinejoin
0 setlinecap
0 0 m
5 0 l
gsave
0.000 setgray
fill
grestore
stroke
grestore
} bind def
80.64 406.881 o
grestore
gsave
/o {
gsave
newpath
translate
2.0 setlinewidth
1 setlinejoin
0 setlinecap
0 0 m
-5 0 l
gsave
0.000 setgray
fill
grestore
stroke
grestore
} bind def
552.96 406.881 o
grestore
gsave
/o {
gsave
newpath
translate
2.0 setlinewidth
1 setlinejoin
0 setlinecap
0 0 m
5 0 l
gsave
0.000 setgray
fill
grestore
stroke
grestore
} bind def
80.64 409.816 o
grestore
gsave
/o {
gsave
newpath
translate
2.0 setlinewidth
1 setlinejoin
0 setlinecap
0 0 m
-5 0 l
gsave
0.000 setgray
fill
grestore
stroke
grestore
} bind def
552.96 409.816 o
grestore
gsave
/o {
gsave
newpath
translate
2.0 setlinewidth
1 setlinejoin
0 setlinecap
0 0 m
5 0 l
gsave
0.000 setgray
fill
grestore
stroke
grestore
} bind def
80.64 412.404 o
grestore
gsave
/o {
gsave
newpath
translate
2.0 setlinewidth
1 setlinejoin
0 setlinecap
0 0 m
-5 0 l
gsave
0.000 setgray
fill
grestore
stroke
grestore
} bind def
552.96 412.404 o
grestore
gsave
30.640000 173.100000 translate
90.000000 rotate
/Cmmi10 findfont
24.0 scalefont
setfont
0.000000 0.765625 moveto
/nu glyphshow

/Cmss10 findfont
24.0 scalefont
setfont
20.287500 0.765625 moveto
/F glyphshow

/Cmmi10 findfont
16.8 scalefont
setfont
33.939844 -5.356625 moveto
/nu glyphshow

/BitstreamVeraSans-Roman findfont
24.0 scalefont
setfont
42.241406 0.765625 moveto
/space glyphshow

49.870312 0.765625 moveto
/bracketleft glyphshow

59.233594 0.765625 moveto
/J glyphshow

66.311719 0.765625 moveto
/y glyphshow

80.514844 0.765625 moveto
/space glyphshow

88.143750 0.765625 moveto
/H glyphshow

106.190625 0.765625 moveto
/z glyphshow

118.788281 0.765625 moveto
/bracketright glyphshow


grestore
3.000 setlinewidth
gsave
80.64 414.72 m
552.96 414.72 l
stroke
grestore
gsave
552.96 60.48 m
552.96 414.72 l
stroke
grestore
gsave
80.64 60.48 m
552.96 60.48 l
stroke
grestore
gsave
80.64 60.48 m
80.64 414.72 l
stroke
grestore
1.000 setlinewidth
gsave
87.64 331.52 m
195.04 331.52 l
195.04 407.72 l
87.64 407.72 l
87.64 331.52 l
cl
gsave
1.000 setgray
fill
grestore
stroke
grestore
2.000 setlinewidth
2 setlinecap
0.000 0.000 1.000 setrgbcolor
gsave
97.44 394.02 m
117.04 394.02 l
stroke
grestore
0.000 setgray
gsave
132.440000 389.120000 translate
0.000000 rotate
/Cmmi10 findfont
14.0 scalefont
setfont
0.000000 0.518125 moveto
/a glyphshow

/Cmmi10 findfont
9.8 scalefont
setfont
7.389648 -3.053187 moveto
/a glyphshow

12.562402 -3.053187 moveto
/c glyphshow

16.797266 -3.053187 moveto
/c glyphshow

/Cmr10 findfont
14.0 scalefont
setfont
23.490332 0.518125 moveto
/equal glyphshow

35.245410 0.518125 moveto
/one glyphshow

42.245410 0.518125 moveto
/zero glyphshow

/Cmr10 findfont
9.8 scalefont
setfont
49.245410 6.470313 moveto
/two glyphshow


grestore
0.000 0.500 0.000 setrgbcolor
gsave
97.44 370.02 m
117.04 370.02 l
stroke
grestore
0.000 setgray
gsave
132.440000 365.120000 translate
0.000000 rotate
/Cmmi10 findfont
14.0 scalefont
setfont
0.000000 0.518125 moveto
/a glyphshow

/Cmmi10 findfont
9.8 scalefont
setfont
7.389648 -3.053187 moveto
/a glyphshow

12.562402 -3.053187 moveto
/c glyphshow

16.797266 -3.053187 moveto
/c glyphshow

/Cmr10 findfont
14.0 scalefont
setfont
23.490332 0.518125 moveto
/equal glyphshow

35.245410 0.518125 moveto
/one glyphshow

42.245410 0.518125 moveto
/zero glyphshow

/Cmr10 findfont
9.8 scalefont
setfont
49.245410 6.470313 moveto
/four glyphshow


grestore
1.000 0.000 0.000 setrgbcolor
gsave
97.44 346.02 m
117.04 346.02 l
stroke
grestore
0.000 setgray
gsave
132.440000 341.120000 translate
0.000000 rotate
/Cmmi10 findfont
14.0 scalefont
setfont
0.000000 0.518125 moveto
/a glyphshow

/Cmmi10 findfont
9.8 scalefont
setfont
7.389648 -3.053187 moveto
/a glyphshow

12.562402 -3.053187 moveto
/c glyphshow

16.797266 -3.053187 moveto
/c glyphshow

/Cmr10 findfont
14.0 scalefont
setfont
23.490332 0.518125 moveto
/equal glyphshow

35.245410 0.518125 moveto
/one glyphshow

42.245410 0.518125 moveto
/zero glyphshow

/Cmr10 findfont
9.8 scalefont
setfont
49.245410 6.470313 moveto
/six glyphshow


grestore
1.000 setlinewidth
0 setlinecap
gsave
420.879 347.086 m
546.46 347.086 l
546.46 408.22 l
420.879 408.22 l
420.879 347.086 l
cl
gsave
1.000 setgray
fill
grestore
stroke
grestore
2.000 setlinewidth
2 setlinecap
gsave
429.979 397.695 m
448.179 397.695 l
stroke
grestore
/BitstreamVeraSans-Roman findfont
13.000 scalefont
setfont
gsave
462.478750 393.145000 translate
0.000000 rotate
0.000000 0.000000 m /one glyphshow
8.270996 0.000000 m /space glyphshow
12.403320 0.000000 m /G glyphshow
22.477051 0.000000 m /e glyphshow
30.475098 0.000000 m /V glyphshow
grestore
0 setlinecap
[6 6] 0 setdash
gsave
429.979 378.617 m
448.179 378.617 l
stroke
grestore
gsave
462.478750 374.066875 translate
0.000000 rotate
0.000000 0.000000 m /H glyphshow
9.775391 0.000000 m /a glyphshow
17.741699 0.000000 m /r glyphshow
22.836426 0.000000 m /d glyphshow
31.088379 0.000000 m /space glyphshow
35.220703 0.000000 m /X glyphshow
43.501465 0.000000 m /hyphen glyphshow
48.192383 0.000000 m /R glyphshow
56.975098 0.000000 m /a glyphshow
64.941406 0.000000 m /y glyphshow
72.634766 0.000000 m /s glyphshow
grestore
[3 5 1 5] 0 setdash
gsave
429.979 359.539 m
448.179 359.539 l
stroke
grestore
gsave
462.478750 354.988750 translate
0.000000 rotate
0.000000 0.000000 m /R glyphshow
9.032715 0.000000 m /space glyphshow
13.165039 0.000000 m /b glyphshow
21.416992 0.000000 m /a glyphshow
29.383301 0.000000 m /n glyphshow
37.622559 0.000000 m /d glyphshow
grestore

end
showpage
