%!PS-Adobe-3.0 EPSF-3.0
%%Title: aacc_vs_time-weakmag.eps
%%Creator: matplotlib version 1.3.1, http://matplotlib.org/
%%CreationDate: Fri Jul  4 16:38:46 2014
%%Orientation: portrait
%%BoundingBox: 18 180 594 612
%%EndComments
%%BeginProlog
/mpldict 12 dict def
mpldict begin
/m { moveto } bind def
/l { lineto } bind def
/r { rlineto } bind def
/c { curveto } bind def
/cl { closepath } bind def
/box {
m
1 index 0 r
0 exch r
neg 0 r
cl
} bind def
/clipbox {
box
clip
newpath
} bind def
%!PS-Adobe-3.0 Resource-Font
%%Title: cmsy10
%%Copyright: Copyright (C) 1994, Basil K. Malyshev. All Rights Reserved.012BaKoMa Fonts Collection, Level-B.
%%Creator: Converted from TrueType to type 3 by PPR
25 dict begin
/_d{bind def}bind def
/_m{moveto}_d
/_l{lineto}_d
/_cl{closepath eofill}_d
/_c{curveto}_d
/_sc{7 -1 roll{setcachedevice}{pop pop pop pop pop pop}ifelse}_d
/_e{exec}_d
/FontName /Cmsy10 def
/PaintType 0 def
/FontMatrix[.001 0 0 .001 0 0]def
/FontBBox[-29 -960 1123 779]def
/FontType 3 def
/Encoding [ /periodcentered ] def
/FontInfo 10 dict dup begin
/FamilyName (cmsy10) def
/FullName (cmsy10) def
/Notice (Copyright (C) 1994, Basil K. Malyshev. All Rights Reserved.012BaKoMa Fonts Collection, Level-B. ) def
/Weight (Regular) def
/Version (1.1/12-Nov-94) def
/ItalicAngle 0.0 def
/isFixedPitch false def
/UnderlinePosition -133 def
/UnderlineThickness 20 def
end readonly def
/CharStrings 1 dict dup begin
/periodcentered{277 0 84 195 194 305 _sc
84 250 _m
84 259 86 268 91 277 _c
96 285 103 292 112 297 _c
120 302 129 305 139 305 _c
148 305 157 302 166 297 _c
174 292 181 285 186 277 _c
191 268 194 259 194 250 _c
194 235 188 222 178 211 _c
167 200 154 195 139 195 _c
124 195 111 200 100 211 _c
89 222 84 235 84 250 _c
_cl}_d
end readonly def

/BuildGlyph
 {exch begin
 CharStrings exch
 2 copy known not{pop /.notdef}if
 true 3 1 roll get exec
 end}_d

/BuildChar {
 1 index /Encoding get exch get
 1 index /BuildGlyph get exec
}_d

FontName currentdict end definefont pop
%!PS-Adobe-3.0 Resource-Font
%%Title: cmmi10
%%Copyright: Copyright (C) 1994, Basil K. Malyshev. All Rights Reserved.012BaKoMa Fonts Collection, Level-B.
%%Creator: Converted from TrueType to type 3 by PPR
25 dict begin
/_d{bind def}bind def
/_m{moveto}_d
/_l{lineto}_d
/_cl{closepath eofill}_d
/_c{curveto}_d
/_sc{7 -1 roll{setcachedevice}{pop pop pop pop pop pop}ifelse}_d
/_e{exec}_d
/FontName /Cmmi10 def
/PaintType 0 def
/FontMatrix[.001 0 0 .001 0 0]def
/FontBBox[-34 -250 1048 750]def
/FontType 3 def
/Encoding [ /nu /t /period /a /c ] def
/FontInfo 10 dict dup begin
/FamilyName (cmmi10) def
/FullName (cmmi10) def
/Notice (Copyright (C) 1994, Basil K. Malyshev. All Rights Reserved.012BaKoMa Fonts Collection, Level-B. ) def
/Weight (Regular) def
/Version (1.1/12-Nov-94) def
/ItalicAngle 0.0 def
/isFixedPitch false def
/UnderlinePosition -133 def
/UnderlineThickness 20 def
end readonly def
/CharStrings 5 dict dup begin
/nu{{494 0 51 0 526 442 _sc
63 0 _m
55 0 51 4 51 13 _c
136 353 _l
138 364 140 373 141 380 _c
141 390 119 396 76 396 _c
69 396 66 400 66 409 _c
66 411 66 414 68 418 _c
69 422 70 425 72 427 _c
74 429 76 431 80 431 _c
215 442 _l
223 442 227 437 227 429 _c
129 37 _l
181 54 230 81 274 119 _c
318 157 356 201 387 252 _c
418 302 440 355 454 410 _c
}_e{456 419 461 427 469 433 _c
477 439 486 442 496 442 _c
504 442 511 439 517 434 _c
523 428 526 421 526 413 _c
526 402 521 386 513 364 _c
504 342 495 322 487 305 _c
460 253 425 205 382 161 _c
354 133 325 109 294 88 _c
262 67 229 49 195 34 _c
161 19 125 8 87 0 _c
63 0 _l
_cl}_e}_d
/t{{361 0 22 -10 330 626 _sc
62 81 _m
62 91 63 100 65 109 _c
137 396 _l
32 396 _l
25 396 22 400 22 409 _c
24 423 29 431 35 431 _c
146 431 _l
186 594 _l
188 602 193 610 201 616 _c
209 622 218 626 228 626 _c
236 626 243 623 249 618 _c
255 613 258 606 258 598 _c
258 596 257 594 257 593 _c
257 592 257 591 257 590 _c
217 431 _l
320 431 _l
326 431 330 426 330 418 _c
}_e{330 416 329 414 328 410 _c
327 406 326 402 324 400 _c
322 397 320 396 317 396 _c
208 396 _l
136 107 _l
131 88 129 72 129 58 _c
129 29 138 15 158 15 _c
187 15 213 28 236 56 _c
258 84 276 114 288 147 _c
290 151 293 153 296 153 _c
308 153 _l
310 153 312 152 314 150 _c
316 148 317 146 317 144 _c
317 142 316 141 316 141 _c
301 101 280 65 252 35 _c
}_e{224 5 192 -10 156 -10 _c
129 -10 107 -1 89 15 _c
71 32 62 54 62 81 _c
_cl}_e}_d
/period{277 0 84 0 194 110 _sc
84 55 _m
84 70 89 83 100 94 _c
111 104 124 110 139 110 _c
148 110 157 107 166 102 _c
174 97 181 90 186 82 _c
191 73 194 64 194 55 _c
194 40 188 27 178 16 _c
167 5 154 0 139 0 _c
124 0 111 5 100 16 _c
89 27 84 40 84 55 _c
_cl}_d
/a{{528 0 38 -10 501 442 _sc
174 -10 _m
132 -10 98 5 74 37 _c
50 68 38 105 38 149 _c
38 191 49 236 71 282 _c
93 328 122 366 160 396 _c
198 426 238 442 282 442 _c
302 442 319 436 335 426 _c
351 415 363 400 372 382 _c
379 408 394 422 416 422 _c
424 422 431 419 437 414 _c
443 409 446 402 446 394 _c
446 392 445 390 445 389 _c
445 388 445 387 445 386 _c
375 107 _l
}_e{370 87 368 70 368 58 _c
368 29 377 15 397 15 _c
417 15 433 28 444 55 _c
455 81 464 112 472 147 _c
473 151 476 153 480 153 _c
492 153 _l
494 153 496 151 498 149 _c
500 147 501 145 501 143 _c
489 96 476 59 462 31 _c
448 3 426 -10 395 -10 _c
372 -10 352 -3 335 9 _c
318 21 307 39 303 61 _c
260 13 217 -10 174 -10 _c
175 15 _m
199 15 222 24 245 42 _c
}_e{267 60 287 81 303 106 _c
303 106 304 107 304 109 _c
358 326 _l
359 329 _l
355 353 346 373 333 390 _c
319 407 302 416 280 416 _c
257 416 236 406 217 388 _c
197 370 181 348 168 323 _c
154 296 142 259 130 213 _c
118 167 113 131 113 105 _c
113 81 118 60 128 42 _c
138 24 153 15 175 15 _c
_cl}_e}_d
/c{{432 0 40 -10 430 442 _sc
117 119 _m
117 90 124 65 139 45 _c
154 25 175 15 203 15 _c
243 15 281 24 318 42 _c
354 60 384 86 407 118 _c
409 120 411 121 415 121 _c
418 121 421 119 425 115 _c
428 111 430 108 430 105 _c
430 102 429 100 428 99 _c
404 65 371 38 330 19 _c
288 0 245 -10 201 -10 _c
169 -10 140 -2 116 12 _c
92 26 73 46 60 72 _c
}_e{46 97 40 126 40 158 _c
40 203 52 248 77 292 _c
102 336 135 372 177 400 _c
219 428 263 442 309 442 _c
339 442 366 434 390 420 _c
414 405 426 384 426 356 _c
426 338 420 322 410 309 _c
399 296 385 290 367 290 _c
356 290 347 293 340 300 _c
332 306 329 315 329 326 _c
329 342 334 355 346 366 _c
357 377 370 383 386 383 _c
388 383 _l
380 394 368 402 354 408 _c
}_e{339 413 324 416 308 416 _c
269 416 235 399 206 366 _c
176 332 154 292 139 246 _c
124 200 117 157 117 119 _c
_cl}_e}_d
end readonly def

/BuildGlyph
 {exch begin
 CharStrings exch
 2 copy known not{pop /.notdef}if
 true 3 1 roll get exec
 end}_d

/BuildChar {
 1 index /Encoding get exch get
 1 index /BuildGlyph get exec
}_d

FontName currentdict end definefont pop
%!PS-Adobe-3.0 Resource-Font
%%Title: cmss10
%%Copyright: Copyright (C) 1994, Basil K. Malyshev. All Rights Reserved.012BaKoMa Fonts Collection, Level-B.
%%Creator: Converted from TrueType to type 3 by PPR
25 dict begin
/_d{bind def}bind def
/_m{moveto}_d
/_l{lineto}_d
/_cl{closepath eofill}_d
/_c{curveto}_d
/_sc{7 -1 roll{setcachedevice}{pop pop pop pop pop pop}ifelse}_d
/_e{exec}_d
/FontName /Cmss10 def
/PaintType 0 def
/FontMatrix[.001 0 0 .001 0 0]def
/FontBBox[-61 -250 999 760]def
/FontType 3 def
/Encoding [ /F ] def
/FontInfo 10 dict dup begin
/FamilyName (cmss10) def
/FullName (cmss10) def
/Notice (Copyright (C) 1994, Basil K. Malyshev. All Rights Reserved.012BaKoMa Fonts Collection, Level-B. ) def
/Weight (Regular) def
/Version (1.1/12-Nov-94) def
/ItalicAngle 0.0 def
/isFixedPitch false def
/UnderlinePosition -133 def
/UnderlineThickness 20 def
end readonly def
/CharStrings 1 dict dup begin
/F{569 0 92 0 526 694 _sc
92 0 _m
92 694 _l
526 694 _l
526 625 _l
185 626 _l
185 380 _l
485 380 _l
485 315 _l
185 315 _l
185 0 _l
92 0 _l
_cl}_d
end readonly def

/BuildGlyph
 {exch begin
 CharStrings exch
 2 copy known not{pop /.notdef}if
 true 3 1 roll get exec
 end}_d

/BuildChar {
 1 index /Encoding get exch get
 1 index /BuildGlyph get exec
}_d

FontName currentdict end definefont pop
%!PS-Adobe-3.0 Resource-Font
%%Title: Bitstream Vera Sans
%%Copyright: Copyright (c) 2003 by Bitstream, Inc. All Rights Reserved.
%%Creator: Converted from TrueType to type 3 by PPR
25 dict begin
/_d{bind def}bind def
/_m{moveto}_d
/_l{lineto}_d
/_cl{closepath eofill}_d
/_c{curveto}_d
/_sc{7 -1 roll{setcachedevice}{pop pop pop pop pop pop}ifelse}_d
/_e{exec}_d
/FontName /BitstreamVeraSans-Roman def
/PaintType 0 def
/FontMatrix[.001 0 0 .001 0 0]def
/FontBBox[-183 -236 1287 928]def
/FontType 3 def
/Encoding [ /space /zero /one /two /three /four /five /six /seven /eight /nine /H /J /bracketleft /bracketright /y /z ] def
/FontInfo 10 dict dup begin
/FamilyName (Bitstream Vera Sans) def
/FullName (Bitstream Vera Sans) def
/Notice (Copyright (c) 2003 by Bitstream, Inc. All Rights Reserved. Bitstream Vera is a trademark of Bitstream, Inc.) def
/Weight (Roman) def
/Version (Release 1.10) def
/ItalicAngle 0.0 def
/isFixedPitch false def
/UnderlinePosition -213 def
/UnderlineThickness 143 def
end readonly def
/CharStrings 17 dict dup begin
/space{318 0 0 0 0 0 _sc
}_d
/zero{636 0 66 -13 570 742 _sc
318 664 _m
267 664 229 639 203 589 _c
177 539 165 464 165 364 _c
165 264 177 189 203 139 _c
229 89 267 64 318 64 _c
369 64 407 89 433 139 _c
458 189 471 264 471 364 _c
471 464 458 539 433 589 _c
407 639 369 664 318 664 _c
318 742 _m
399 742 461 709 505 645 _c
548 580 570 486 570 364 _c
570 241 548 147 505 83 _c
461 19 399 -13 318 -13 _c
236 -13 173 19 130 83 _c
87 147 66 241 66 364 _c
66 486 87 580 130 645 _c
173 709 236 742 318 742 _c
_cl}_d
/one{636 0 110 0 544 729 _sc
124 83 _m
285 83 _l
285 639 _l
110 604 _l
110 694 _l
284 729 _l
383 729 _l
383 83 _l
544 83 _l
544 0 _l
124 0 _l
124 83 _l
_cl}_d
/two{{636 0 73 0 536 742 _sc
192 83 _m
536 83 _l
536 0 _l
73 0 _l
73 83 _l
110 121 161 173 226 239 _c
290 304 331 346 348 365 _c
380 400 402 430 414 455 _c
426 479 433 504 433 528 _c
433 566 419 598 392 622 _c
365 646 330 659 286 659 _c
255 659 222 653 188 643 _c
154 632 117 616 78 594 _c
78 694 _l
118 710 155 722 189 730 _c
223 738 255 742 284 742 _c
}_e{359 742 419 723 464 685 _c
509 647 532 597 532 534 _c
532 504 526 475 515 449 _c
504 422 484 390 454 354 _c
446 344 420 317 376 272 _c
332 227 271 164 192 83 _c
_cl}_e}_d
/three{{636 0 76 -13 556 742 _sc
406 393 _m
453 383 490 362 516 330 _c
542 298 556 258 556 212 _c
556 140 531 84 482 45 _c
432 6 362 -13 271 -13 _c
240 -13 208 -10 176 -4 _c
144 1 110 10 76 22 _c
76 117 _l
103 101 133 89 166 81 _c
198 73 232 69 268 69 _c
330 69 377 81 409 105 _c
441 129 458 165 458 212 _c
458 254 443 288 413 312 _c
383 336 341 349 287 349 _c
}_e{202 349 _l
202 430 _l
291 430 _l
339 430 376 439 402 459 _c
428 478 441 506 441 543 _c
441 580 427 609 401 629 _c
374 649 336 659 287 659 _c
260 659 231 656 200 650 _c
169 644 135 635 98 623 _c
98 711 _l
135 721 170 729 203 734 _c
235 739 266 742 296 742 _c
370 742 429 725 473 691 _c
517 657 539 611 539 553 _c
539 513 527 479 504 451 _c
481 423 448 403 406 393 _c
_cl}_e}_d
/four{636 0 49 0 580 729 _sc
378 643 _m
129 254 _l
378 254 _l
378 643 _l
352 729 _m
476 729 _l
476 254 _l
580 254 _l
580 172 _l
476 172 _l
476 0 _l
378 0 _l
378 172 _l
49 172 _l
49 267 _l
352 729 _l
_cl}_d
/five{{636 0 77 -13 549 729 _sc
108 729 _m
495 729 _l
495 646 _l
198 646 _l
198 467 _l
212 472 227 476 241 478 _c
255 480 270 482 284 482 _c
365 482 429 459 477 415 _c
525 370 549 310 549 234 _c
549 155 524 94 475 51 _c
426 8 357 -13 269 -13 _c
238 -13 207 -10 175 -6 _c
143 -1 111 6 77 17 _c
77 116 _l
106 100 136 88 168 80 _c
199 72 232 69 267 69 _c
}_e{323 69 368 83 401 113 _c
433 143 450 183 450 234 _c
450 284 433 324 401 354 _c
368 384 323 399 267 399 _c
241 399 214 396 188 390 _c
162 384 135 375 108 363 _c
108 729 _l
_cl}_e}_d
/six{{636 0 70 -13 573 742 _sc
330 404 _m
286 404 251 388 225 358 _c
199 328 186 286 186 234 _c
186 181 199 139 225 109 _c
251 79 286 64 330 64 _c
374 64 409 79 435 109 _c
461 139 474 181 474 234 _c
474 286 461 328 435 358 _c
409 388 374 404 330 404 _c
526 713 _m
526 623 _l
501 635 476 644 451 650 _c
425 656 400 659 376 659 _c
310 659 260 637 226 593 _c
}_e{192 549 172 482 168 394 _c
187 422 211 444 240 459 _c
269 474 301 482 336 482 _c
409 482 467 459 509 415 _c
551 371 573 310 573 234 _c
573 159 550 99 506 54 _c
462 9 403 -13 330 -13 _c
246 -13 181 19 137 83 _c
92 147 70 241 70 364 _c
70 479 97 571 152 639 _c
206 707 280 742 372 742 _c
396 742 421 739 447 735 _c
472 730 498 723 526 713 _c
_cl}_e}_d
/seven{636 0 82 0 551 729 _sc
82 729 _m
551 729 _l
551 687 _l
286 0 _l
183 0 _l
432 646 _l
82 646 _l
82 729 _l
_cl}_d
/eight{{636 0 68 -13 568 742 _sc
318 346 _m
271 346 234 333 207 308 _c
180 283 167 249 167 205 _c
167 161 180 126 207 101 _c
234 76 271 64 318 64 _c
364 64 401 76 428 102 _c
455 127 469 161 469 205 _c
469 249 455 283 429 308 _c
402 333 365 346 318 346 _c
219 388 _m
177 398 144 418 120 447 _c
96 476 85 511 85 553 _c
85 611 105 657 147 691 _c
188 725 245 742 318 742 _c
}_e{390 742 447 725 489 691 _c
530 657 551 611 551 553 _c
551 511 539 476 515 447 _c
491 418 459 398 417 388 _c
464 377 501 355 528 323 _c
554 291 568 251 568 205 _c
568 134 546 80 503 43 _c
459 5 398 -13 318 -13 _c
237 -13 175 5 132 43 _c
89 80 68 134 68 205 _c
68 251 81 291 108 323 _c
134 355 171 377 219 388 _c
183 544 _m
183 506 194 476 218 455 _c
}_e{242 434 275 424 318 424 _c
360 424 393 434 417 455 _c
441 476 453 506 453 544 _c
453 582 441 611 417 632 _c
393 653 360 664 318 664 _c
275 664 242 653 218 632 _c
194 611 183 582 183 544 _c
_cl}_e}_d
/nine{{636 0 63 -13 566 742 _sc
110 15 _m
110 105 _l
134 93 159 84 185 78 _c
210 72 235 69 260 69 _c
324 69 374 90 408 134 _c
442 178 462 244 468 334 _c
448 306 424 284 396 269 _c
367 254 335 247 300 247 _c
226 247 168 269 126 313 _c
84 357 63 417 63 494 _c
63 568 85 628 129 674 _c
173 719 232 742 306 742 _c
390 742 455 709 499 645 _c
543 580 566 486 566 364 _c
}_e{566 248 538 157 484 89 _c
429 21 356 -13 264 -13 _c
239 -13 214 -10 189 -6 _c
163 -2 137 5 110 15 _c
306 324 _m
350 324 385 339 411 369 _c
437 399 450 441 450 494 _c
450 546 437 588 411 618 _c
385 648 350 664 306 664 _c
262 664 227 648 201 618 _c
175 588 162 546 162 494 _c
162 441 175 399 201 369 _c
227 339 262 324 306 324 _c
_cl}_e}_d
/H{752 0 98 0 654 729 _sc
98 729 _m
197 729 _l
197 430 _l
555 430 _l
555 729 _l
654 729 _l
654 0 _l
555 0 _l
555 347 _l
197 347 _l
197 0 _l
98 0 _l
98 729 _l
_cl}_d
/J{295 0 -51 -199 197 729 _sc
98 729 _m
197 729 _l
197 51 _l
197 -36 180 -99 147 -139 _c
113 -179 60 -199 -13 -199 _c
-51 -199 _l
-51 -116 _l
-20 -116 _l
22 -116 53 -103 71 -79 _c
89 -55 98 -11 98 51 _c
98 729 _l
_cl}_d
/bracketleft{390 0 86 -131 293 760 _sc
86 760 _m
293 760 _l
293 690 _l
176 690 _l
176 -61 _l
293 -61 _l
293 -131 _l
86 -131 _l
86 760 _l
_cl}_d
/bracketright{390 0 97 -131 304 760 _sc
304 760 _m
304 -131 _l
97 -131 _l
97 -61 _l
214 -61 _l
214 690 _l
97 690 _l
97 760 _l
304 760 _l
_cl}_d
/y{592 0 30 -207 562 547 _sc
322 -50 _m
296 -114 271 -157 247 -177 _c
223 -197 191 -207 151 -207 _c
79 -207 _l
79 -132 _l
132 -132 _l
156 -132 175 -126 189 -114 _c
203 -102 218 -75 235 -31 _c
251 9 _l
30 547 _l
125 547 _l
296 119 _l
467 547 _l
562 547 _l
322 -50 _l
_cl}_d
/z{525 0 43 0 482 547 _sc
55 547 _m
482 547 _l
482 465 _l
144 72 _l
482 72 _l
482 0 _l
43 0 _l
43 82 _l
381 475 _l
55 475 _l
55 547 _l
_cl}_d
end readonly def

/BuildGlyph
 {exch begin
 CharStrings exch
 2 copy known not{pop /.notdef}if
 true 3 1 roll get exec
 end}_d

/BuildChar {
 1 index /Encoding get exch get
 1 index /BuildGlyph get exec
}_d

FontName currentdict end definefont pop
%!PS-Adobe-3.0 Resource-Font
%%Title: cmr10
%%Copyright: Copyright (C) 1994, Basil K. Malyshev. All Rights Reserved.012BaKoMa Fonts Collection, Level-B.
%%Creator: Converted from TrueType to type 3 by PPR
25 dict begin
/_d{bind def}bind def
/_m{moveto}_d
/_l{lineto}_d
/_cl{closepath eofill}_d
/_c{curveto}_d
/_sc{7 -1 roll{setcachedevice}{pop pop pop pop pop pop}ifelse}_d
/_e{exec}_d
/FontName /Cmr10 def
/PaintType 0 def
/FontMatrix[.001 0 0 .001 0 0]def
/FontBBox[-44 -250 1009 750]def
/FontType 3 def
/Encoding [ /nine /zero /equal /two /four /six /eight /s /one /three /seven ] def
/FontInfo 10 dict dup begin
/FamilyName (cmr10) def
/FullName (cmr10) def
/Notice (Copyright (C) 1994, Basil K. Malyshev. All Rights Reserved.012BaKoMa Fonts Collection, Level-B. ) def
/Weight (Regular) def
/Version (1.1/12-Nov-94) def
/ItalicAngle 0.0 def
/isFixedPitch false def
/UnderlinePosition -133 def
/UnderlineThickness 20 def
end readonly def
/CharStrings 11 dict dup begin
/nine{{500 0 42 -21 457 666 _sc
113 42 _m
131 20 162 10 208 10 _c
233 10 257 18 279 36 _c
301 53 318 74 330 99 _c
344 127 353 158 357 190 _c
361 222 363 261 363 309 _c
351 282 335 260 314 243 _c
292 225 268 217 240 217 _c
201 217 166 227 136 248 _c
106 269 82 297 66 331 _c
50 365 42 402 42 441 _c
42 481 51 518 69 553 _c
87 587 113 615 145 635 _c
}_e{177 655 213 666 255 666 _c
295 666 328 655 356 633 _c
383 611 404 582 418 548 _c
432 513 442 476 448 438 _c
454 399 457 361 457 323 _c
457 271 447 219 428 165 _c
409 111 381 67 344 32 _c
306 -3 261 -21 208 -21 _c
168 -21 135 -12 108 6 _c
80 24 67 52 67 90 _c
67 103 71 114 81 124 _c
90 133 101 138 115 138 _c
128 138 139 133 149 124 _c
}_e{158 114 163 103 163 90 _c
163 76 158 65 149 56 _c
139 46 128 42 115 42 _c
113 42 _l
244 243 _m
271 243 293 252 311 270 _c
328 288 341 311 349 339 _c
357 366 361 393 361 421 _c
361 440 _l
361 444 _l
361 494 353 538 339 578 _c
324 617 296 637 255 637 _c
228 637 206 631 190 620 _c
174 608 162 593 154 574 _c
146 554 141 534 139 512 _c
137 490 136 466 136 441 _c
}_e{136 403 137 370 141 344 _c
145 317 155 293 171 273 _c
187 253 211 243 244 243 _c
_cl}_e}_d
/zero{{500 0 39 -21 460 666 _sc
250 -21 _m
168 -21 112 12 83 79 _c
53 146 39 226 39 319 _c
39 377 44 431 55 482 _c
65 533 86 576 118 612 _c
149 648 193 666 250 666 _c
294 666 330 655 358 634 _c
386 612 407 585 422 551 _c
436 517 446 480 452 441 _c
457 402 460 361 460 319 _c
460 261 454 208 444 158 _c
433 108 412 65 381 31 _c
350 -3 306 -21 250 -21 _c
250 4 _m
}_e{287 4 315 23 333 61 _c
351 99 362 141 366 187 _c
370 233 373 283 373 335 _c
373 385 370 431 366 473 _c
362 515 351 554 333 588 _c
315 622 287 640 250 640 _c
212 640 184 622 166 588 _c
148 554 136 515 132 473 _c
128 431 126 385 126 335 _c
126 297 126 262 128 230 _c
130 197 135 163 143 128 _c
151 93 163 64 181 40 _c
198 16 221 4 250 4 _c
_cl}_e}_d
/equal{{777 0 56 133 721 367 _sc
75 133 _m
69 133 65 135 61 139 _c
57 143 56 148 56 153 _c
56 158 57 163 61 167 _c
65 171 69 173 75 173 _c
703 173 _l
707 173 711 171 715 167 _c
719 163 721 158 721 153 _c
721 148 719 143 715 139 _c
711 135 707 133 703 133 _c
75 133 _l
75 327 _m
69 327 65 329 61 333 _c
57 337 56 341 56 347 _c
56 351 57 356 61 360 _c
}_e{65 364 69 367 75 367 _c
703 367 _l
707 367 711 364 715 360 _c
719 356 721 351 721 347 _c
721 341 719 337 715 333 _c
711 329 707 327 703 327 _c
75 327 _l
_cl}_e}_d
/two{{500 0 50 0 449 666 _sc
50 0 _m
50 27 _l
50 28 50 30 52 32 _c
207 204 _l
230 229 249 250 264 268 _c
278 285 293 305 307 327 _c
321 349 333 372 341 396 _c
349 419 354 444 354 470 _c
354 497 349 523 339 548 _c
329 573 314 593 294 608 _c
274 623 249 631 221 631 _c
192 631 166 622 143 605 _c
119 587 103 565 94 537 _c
96 537 100 538 105 538 _c
}_e{119 538 132 533 143 523 _c
153 513 159 500 159 484 _c
159 468 153 455 143 445 _c
132 434 119 429 105 429 _c
89 429 76 434 66 445 _c
55 456 50 469 50 484 _c
50 508 54 532 64 554 _c
73 576 86 595 104 613 _c
122 630 142 643 164 652 _c
186 661 210 666 236 666 _c
274 666 309 658 342 642 _c
375 626 401 603 420 573 _c
439 543 449 509 449 470 _c
}_e{449 441 442 414 430 388 _c
417 362 401 338 381 317 _c
361 295 336 271 305 244 _c
274 217 254 199 244 190 _c
131 81 _l
227 81 _l
274 81 313 81 345 82 _c
377 82 394 84 396 86 _c
404 94 412 125 420 178 _c
449 178 _l
421 0 _l
50 0 _l
_cl}_e}_d
/four{{500 0 28 0 471 666 _sc
28 165 _m
28 200 _l
337 661 _l
339 664 342 666 347 666 _c
362 666 _l
369 666 373 662 373 655 _c
373 200 _l
471 200 _l
471 165 _l
373 165 _l
373 67 _l
373 53 382 44 402 40 _c
422 36 444 35 470 35 _c
470 0 _l
195 0 _l
195 35 _l
220 35 242 36 262 40 _c
282 44 292 53 292 67 _c
292 165 _l
28 165 _l
61 200 _m
298 200 _l
}_e{298 554 _l
61 200 _l
_cl}_e}_d
/six{{500 0 42 -21 457 666 _sc
250 -21 _m
208 -21 174 -10 146 11 _c
118 33 97 61 82 96 _c
67 131 57 168 51 206 _c
45 244 42 283 42 323 _c
42 375 52 428 73 482 _c
93 535 123 579 163 614 _c
203 648 250 666 305 666 _c
327 666 348 661 368 653 _c
388 644 403 631 415 615 _c
426 598 432 578 432 554 _c
432 540 427 529 418 520 _c
408 510 397 506 384 506 _c
}_e{370 506 359 510 350 520 _c
340 529 336 540 336 554 _c
336 567 340 578 350 588 _c
359 597 370 602 384 602 _c
389 602 _l
380 614 368 622 353 628 _c
337 634 321 637 305 637 _c
285 637 266 632 249 624 _c
232 615 217 603 203 588 _c
189 573 178 557 169 539 _c
159 521 152 500 147 477 _c
142 453 139 432 138 412 _c
136 392 136 366 136 336 _c
148 363 164 385 186 403 _c
}_e{207 420 231 429 259 429 _c
288 429 315 423 339 411 _c
363 399 384 382 402 361 _c
420 339 433 315 443 288 _c
452 260 457 233 457 205 _c
457 165 448 128 431 93 _c
413 58 389 30 357 10 _c
325 -10 290 -21 250 -21 _c
250 10 _m
276 10 296 15 312 27 _c
327 39 338 54 346 74 _c
353 93 358 112 360 132 _c
362 152 363 176 363 205 _c
363 243 361 275 357 302 _c
}_e{353 328 344 352 328 372 _c
312 392 287 403 255 403 _c
227 403 205 393 188 375 _c
170 357 158 334 150 306 _c
142 278 138 252 138 226 _c
138 217 138 210 139 206 _c
139 205 139 204 139 204 _c
139 203 138 202 138 201 _c
138 172 141 143 147 114 _c
153 84 164 60 181 40 _c
197 20 220 10 250 10 _c
_cl}_e}_d
/eight{{500 0 42 -21 457 666 _sc
42 152 _m
42 192 55 227 81 258 _c
107 288 141 314 183 335 _c
146 359 _l
123 373 104 393 90 418 _c
76 443 69 469 69 497 _c
69 529 77 557 94 583 _c
110 609 133 629 161 644 _c
189 658 218 666 250 666 _c
279 666 307 660 335 648 _c
363 636 385 618 403 596 _c
421 574 430 547 430 516 _c
430 493 424 472 414 453 _c
403 434 388 417 370 402 _c
}_e{352 386 332 373 312 363 _c
369 326 _l
395 308 417 286 433 258 _c
449 230 457 200 457 170 _c
457 134 447 101 428 71 _c
408 41 383 19 351 3 _c
319 -13 285 -21 250 -21 _c
215 -21 182 -14 150 0 _c
118 13 92 33 72 60 _c
52 86 42 117 42 152 _c
96 152 _m
96 125 103 101 118 79 _c
132 57 151 40 175 28 _c
199 16 224 10 250 10 _c
288 10 323 21 355 44 _c
}_e{387 66 403 96 403 134 _c
403 146 400 159 395 171 _c
390 183 383 195 374 205 _c
365 215 355 224 344 231 _c
210 318 _l
189 306 170 292 152 275 _c
134 258 121 239 111 218 _c
101 197 96 175 96 152 _c
165 457 _m
286 379 _l
314 395 337 414 355 438 _c
373 461 382 487 382 516 _c
382 538 375 559 363 578 _c
350 596 334 611 314 621 _c
294 631 272 637 249 637 _c
}_e{229 637 208 633 188 625 _c
167 617 150 606 137 590 _c
123 574 117 556 117 536 _c
117 504 133 478 165 457 _c
_cl}_e}_d
/s{{394 0 33 -10 360 448 _sc
33 -2 _m
33 160 _l
33 165 36 168 42 168 _c
54 168 _l
58 168 60 165 62 160 _c
80 63 125 15 197 15 _c
228 15 254 22 276 36 _c
297 50 308 73 308 103 _c
308 124 299 142 283 158 _c
266 173 246 183 224 189 _c
157 202 _l
135 206 114 214 96 224 _c
77 234 62 248 50 265 _c
38 281 33 301 33 323 _c
33 352 40 376 56 395 _c
}_e{72 413 92 427 117 435 _c
141 443 168 448 197 448 _c
231 448 260 439 286 421 _c
315 446 _l
315 447 316 448 320 448 _c
327 448 _l
329 448 330 447 332 445 _c
334 443 335 442 335 440 _c
335 309 _l
335 303 332 300 327 300 _c
315 300 _l
309 300 306 303 306 309 _c
306 343 296 371 277 393 _c
257 414 230 425 196 425 _c
166 425 140 419 118 408 _c
96 397 85 378 85 351 _c
}_e{85 332 92 317 108 305 _c
124 293 142 285 164 280 _c
232 267 _l
254 261 275 252 295 240 _c
315 228 330 212 342 194 _c
354 175 360 154 360 130 _c
360 106 355 85 347 67 _c
339 49 327 35 313 23 _c
298 11 280 2 260 -2 _c
240 -7 219 -10 197 -10 _c
155 -10 119 3 90 31 _c
53 -8 _l
53 -9 51 -10 48 -10 _c
42 -10 _l
36 -10 33 -7 33 -2 _c
_cl}_e}_d
/one{500 0 87 0 421 666 _sc
93 0 _m
93 35 _l
176 35 218 45 218 67 _c
218 592 _l
183 575 139 567 87 567 _c
87 602 _l
168 602 230 623 272 666 _c
286 666 _l
288 666 291 665 293 663 _c
295 661 296 659 296 657 _c
296 67 _l
296 45 337 35 421 35 _c
421 0 _l
93 0 _l
_cl}_d
/three{{500 0 42 -21 457 666 _sc
95 77 _m
111 54 132 37 158 26 _c
184 15 213 10 243 10 _c
281 10 309 26 325 59 _c
341 92 350 130 350 172 _c
350 190 348 209 345 228 _c
341 247 335 265 327 281 _c
319 297 308 310 294 320 _c
280 330 262 335 242 335 _c
176 335 _l
170 335 167 338 167 344 _c
167 353 _l
167 358 170 361 176 361 _c
231 365 _l
254 365 273 373 289 391 _c
}_e{305 409 316 430 323 456 _c
330 481 334 505 334 528 _c
334 560 326 586 311 606 _c
296 626 273 637 243 637 _c
217 637 193 632 170 622 _c
147 612 129 598 115 579 _c
116 579 117 580 118 580 _c
119 580 120 580 122 580 _c
137 580 150 574 160 564 _c
170 554 175 541 175 527 _c
175 512 170 499 160 489 _c
150 479 137 474 122 474 _c
107 474 94 479 84 489 _c
}_e{74 499 69 512 69 527 _c
69 555 77 580 95 601 _c
112 622 134 638 161 649 _c
188 660 215 666 243 666 _c
263 666 284 663 307 657 _c
329 651 350 642 368 631 _c
386 619 401 605 413 588 _c
424 570 430 550 430 528 _c
430 500 423 474 411 450 _c
399 426 382 406 360 389 _c
338 371 314 358 288 350 _c
317 344 345 333 371 317 _c
397 301 417 280 433 255 _c
}_e{449 229 457 202 457 173 _c
457 136 446 103 426 73 _c
406 43 379 19 347 3 _c
314 -13 279 -21 243 -21 _c
211 -21 180 -15 149 -3 _c
117 8 92 25 72 49 _c
52 73 42 101 42 135 _c
42 151 47 165 58 176 _c
69 187 83 193 100 193 _c
110 193 120 190 129 185 _c
138 180 145 173 150 164 _c
155 154 158 145 158 135 _c
158 118 152 104 141 93 _c
}_e{129 82 116 77 100 77 _c
95 77 _l
_cl}_e}_d
/seven{{500 0 56 -21 485 676 _sc
174 26 _m
174 63 177 99 183 135 _c
189 170 199 205 212 240 _c
224 274 239 308 257 342 _c
275 375 294 406 316 436 _c
407 563 _l
293 563 _l
174 563 113 561 110 558 _c
101 547 93 516 85 466 _c
56 466 _l
89 676 _l
118 676 _l
118 673 _l
118 661 138 653 179 649 _c
219 645 259 644 299 644 _c
485 644 _l
485 618 _l
485 617 484 616 484 616 _c
}_e{484 616 484 615 484 615 _c
346 422 _l
312 372 290 316 282 255 _c
274 193 270 117 270 26 _c
270 12 265 1 256 -7 _c
246 -16 235 -21 222 -21 _c
208 -21 197 -16 188 -7 _c
178 1 174 12 174 26 _c
_cl}_e}_d
end readonly def

/BuildGlyph
 {exch begin
 CharStrings exch
 2 copy known not{pop /.notdef}if
 true 3 1 roll get exec
 end}_d

/BuildChar {
 1 index /Encoding get exch get
 1 index /BuildGlyph get exec
}_d

FontName currentdict end definefont pop
end
%%EndProlog
mpldict begin
18 180 translate
576 432 0 0 clipbox
gsave
0 0 m
576 0 l
576 432 l
0 432 l
cl
1.000 setgray
fill
grestore
gsave
80.64 60.48 m
552.96 60.48 l
552.96 414.72 l
80.64 414.72 l
cl
1.000 setgray
fill
grestore
2.000 setlinewidth
1 setlinejoin
0 setlinecap
[1 3] 0 setdash
0.000 0.000 1.000 setrgbcolor
gsave
472.3 354.2 80.64 60.48 clipbox
80.64 59.2259 m
84.3591 63.0418 l
88.0781 66.7235 l
91.7972 70.2519 l
95.5162 73.6091 l
99.2353 76.7771 l
102.954 79.732 l
106.673 82.5015 l
114.111 87.609 l
136.426 102.237 l
140.145 104.498 l
143.864 106.582 l
147.583 108.442 l
151.302 110.047 l
155.021 111.389 l
158.74 112.479 l
162.459 113.374 l
169.897 114.865 l
203.369 120.985 l
225.683 124.907 l
236.84 126.684 l
244.278 127.707 l
251.717 128.483 l
255.436 128.737 l
259.155 128.866 l
262.874 128.839 l
266.593 128.61 l
270.312 128.128 l
274.031 127.318 l
277.75 126.053 l
281.469 124.248 l
285.188 121.76 l
288.907 118.408 l
292.626 113.965 l
296.345 108.142 l
300.064 100.579 l
303.783 90.74 l
307.502 77.8298 l
311.221 61.2446 l
314.94 40.0285 l
318.66 13.2206 l
320.417 -1 l
362.309 -1 m
363.288 0.0330638 l
367.007 4.26013 l
370.726 8.80956 l
374.445 13.6839 l
378.164 18.8678 l
381.883 24.3289 l
389.322 35.8864 l
404.198 59.7936 l
407.917 65.4916 l
411.636 70.8455 l
415.355 75.6238 l
419.074 79.38 l
422.793 81.2352 l
426.512 82.5716 l
430.231 84.1863 l
433.95 86.1603 l
437.669 88.5664 l
441.388 91.4462 l
445.107 94.7852 l
448.826 98.4949 l
456.265 106.232 l
459.984 109.539 l
463.703 111.437 l
545.522 126.387 l
552.96 127.651 l
552.96 127.651 l
stroke
grestore
[3 5 1 5] 0 setdash
gsave
472.3 354.2 80.64 60.48 clipbox
80.64 120.271 m
84.3591 124.088 l
88.0781 127.771 l
91.7972 131.3 l
95.5162 134.66 l
99.2353 137.83 l
102.954 140.788 l
106.673 143.561 l
114.111 148.677 l
136.426 163.334 l
140.145 165.598 l
143.864 167.684 l
147.583 169.545 l
151.302 171.151 l
155.021 172.494 l
158.74 173.584 l
162.459 174.478 l
169.897 175.968 l
203.369 182.079 l
225.683 185.984 l
236.84 187.744 l
244.278 188.75 l
251.717 189.502 l
255.436 189.739 l
259.155 189.848 l
262.874 189.796 l
266.593 189.538 l
270.312 189.019 l
274.031 188.164 l
277.75 186.842 l
281.469 184.966 l
285.188 182.39 l
288.907 178.928 l
292.626 174.348 l
296.345 168.355 l
300.064 160.579 l
303.783 150.478 l
307.502 137.245 l
311.221 120.315 l
314.94 99.0437 l
318.66 75.2824 l
322.379 62.3987 l
326.098 62.9088 l
337.255 70.5385 l
370.726 93.5887 l
378.164 99.0578 l
381.883 101.993 l
385.603 105.133 l
389.322 108.536 l
393.041 112.242 l
396.76 116.266 l
400.479 120.584 l
415.355 138.578 l
419.074 142.011 l
422.793 143.803 l
426.512 145.138 l
430.231 146.715 l
433.95 148.609 l
437.669 150.892 l
441.388 153.611 l
445.107 156.767 l
448.826 160.291 l
456.265 167.722 l
459.984 170.933 l
463.703 172.796 l
508.331 181.04 l
541.803 186.976 l
552.96 188.82 l
552.96 188.82 l
stroke
grestore
[6 6] 0 setdash
gsave
472.3 354.2 80.64 60.48 clipbox
80.64 231.663 m
84.3591 235.479 l
88.0781 239.16 l
91.7972 242.688 l
95.5162 246.046 l
99.2353 249.214 l
102.954 252.17 l
106.673 254.942 l
114.111 260.057 l
136.426 274.683 l
140.145 276.93 l
143.864 278.995 l
147.583 280.831 l
151.302 282.408 l
155.021 283.719 l
158.74 284.777 l
162.459 285.638 l
169.897 287.058 l
188.493 290.211 l
203.369 292.526 l
214.526 294.042 l
221.964 294.869 l
229.402 295.476 l
236.84 295.764 l
240.559 295.747 l
244.278 295.594 l
247.997 295.258 l
251.717 294.722 l
255.436 293.954 l
259.155 292.916 l
262.874 291.566 l
266.593 289.861 l
270.312 287.75 l
274.031 285.164 l
277.75 281.947 l
281.469 278.067 l
285.188 273.397 l
288.907 267.783 l
292.626 261.046 l
296.345 253.022 l
300.064 243.697 l
303.783 233.608 l
307.502 224.967 l
311.221 221.309 l
314.94 222.055 l
318.66 224.35 l
340.974 239.668 l
355.85 249.541 l
363.288 254.286 l
370.726 258.807 l
378.164 263.032 l
385.603 266.932 l
393.041 270.545 l
404.198 275.648 l
419.074 282.227 l
426.512 284.839 l
437.669 288.7 l
445.107 291.523 l
452.546 294.724 l
459.984 298.05 l
463.703 299.228 l
474.86 301.552 l
486.017 303.595 l
493.455 304.779 l
500.893 305.807 l
512.05 307.063 l
523.208 308.021 l
534.365 308.73 l
541.803 309.038 l
549.241 309.135 l
552.96 309.066 l
552.96 309.066 l
stroke
grestore
2 setlinecap
[] 0 setdash
gsave
472.3 354.2 80.64 60.48 clipbox
80.64 336.345 m
84.3591 339.745 l
88.0781 342.94 l
91.7972 345.904 l
95.5162 348.617 l
99.2353 351.057 l
102.954 353.194 l
106.673 355.067 l
110.392 356.694 l
114.111 358.099 l
117.831 359.301 l
121.55 360.308 l
125.269 361.122 l
128.988 361.729 l
132.707 362.107 l
136.426 362.306 l
140.145 362.333 l
143.864 362.189 l
147.583 361.868 l
151.302 361.37 l
155.021 360.706 l
162.459 358.947 l
188.493 351.971 l
214.526 344.715 l
236.84 338.348 l
244.278 336.602 l
247.997 335.908 l
251.717 335.439 l
255.436 335.27 l
259.155 335.469 l
262.874 336.091 l
266.593 337.159 l
270.312 338.66 l
274.031 340.541 l
277.75 342.724 l
281.469 345.145 l
288.907 350.41 l
303.783 361.258 l
311.221 366.434 l
318.66 371.302 l
326.098 375.785 l
333.536 379.822 l
340.974 383.385 l
348.412 386.477 l
355.85 389.116 l
363.288 391.325 l
370.726 393.132 l
378.164 394.567 l
385.603 395.678 l
393.041 396.528 l
404.198 397.485 l
411.636 397.972 l
419.074 398.276 l
430.231 398.498 l
437.669 398.407 l
445.107 398.122 l
452.546 397.667 l
459.984 396.954 l
467.422 395.947 l
478.579 394.15 l
489.736 392.017 l
500.893 389.555 l
512.05 386.769 l
519.489 384.724 l
526.927 382.514 l
534.365 380.114 l
541.803 377.472 l
549.241 374.489 l
552.96 372.817 l
552.96 372.817 l
stroke
grestore
0 setlinecap
[1 3] 0 setdash
0.000 0.500 0.000 setrgbcolor
gsave
472.3 354.2 80.64 60.48 clipbox
80.64 59.9603 m
85.947 65.3625 l
91.2539 70.4887 l
96.5609 75.2352 l
101.868 79.6051 l
107.175 83.6235 l
112.482 87.3592 l
117.789 90.877 l
123.096 94.3508 l
128.403 97.8014 l
133.71 101.141 l
139.017 104.146 l
144.324 106.734 l
149.631 108.829 l
154.938 110.437 l
160.244 111.643 l
165.551 112.683 l
170.858 113.669 l
176.165 114.645 l
181.472 115.62 l
186.779 116.594 l
192.086 117.569 l
197.393 118.543 l
202.7 119.517 l
208.007 120.49 l
213.314 121.463 l
218.621 122.434 l
223.928 123.404 l
229.235 124.371 l
234.542 125.335 l
239.849 126.293 l
245.156 127.243 l
250.463 128.183 l
255.77 129.107 l
261.077 130.007 l
266.384 130.87 l
271.691 131.685 l
276.998 132.433 l
282.305 133.071 l
287.612 133.554 l
292.919 133.831 l
298.226 133.821 l
303.533 133.349 l
308.84 132.251 l
314.147 130.319 l
319.453 127.238 l
324.76 122.297 l
330.067 114.914 l
335.374 104.256 l
340.681 89.1001 l
345.988 66.5558 l
351.295 34.9624 l
356.602 1.63216 l
361.909 -0.58501 l
367.216 5.19748 l
372.523 11.7507 l
377.83 19.0009 l
383.137 26.8583 l
388.444 35.1634 l
393.751 43.7233 l
399.058 52.3344 l
404.365 60.7728 l
409.672 68.7425 l
414.979 75.7286 l
420.286 80.4794 l
425.593 82.6141 l
430.9 85.3673 l
436.207 88.9967 l
441.514 93.559 l
446.821 98.8326 l
452.128 104.222 l
457.435 108.5 l
462.742 109.881 l
468.049 110.858 l
473.356 111.836 l
478.662 112.813 l
483.969 113.79 l
489.276 114.767 l
494.583 115.743 l
499.89 116.72 l
505.197 117.696 l
510.504 118.671 l
515.811 119.645 l
521.118 120.618 l
526.425 121.589 l
531.732 122.555 l
537.039 123.514 l
542.346 124.463 l
547.653 125.392 l
552.96 126.286 l
stroke
grestore
[3 5 1 5] 0 setdash
gsave
472.3 354.2 80.64 60.48 clipbox
80.64 121.008 m
85.947 126.412 l
91.2539 131.541 l
96.5609 136.29 l
101.868 140.664 l
107.175 144.688 l
112.482 148.43 l
117.789 151.955 l
123.096 155.436 l
128.403 158.893 l
133.71 162.237 l
139.017 165.246 l
144.324 167.836 l
149.631 169.932 l
154.938 171.54 l
160.244 172.746 l
165.551 173.786 l
170.858 174.771 l
176.165 175.746 l
181.472 176.72 l
186.779 177.693 l
192.086 178.667 l
197.393 179.639 l
202.7 180.611 l
208.007 181.582 l
213.314 182.551 l
218.621 183.519 l
223.928 184.484 l
229.235 185.446 l
234.542 186.403 l
239.849 187.354 l
245.156 188.294 l
250.463 189.222 l
255.77 190.132 l
261.077 191.014 l
266.384 191.854 l
271.691 192.641 l
276.998 193.352 l
282.305 193.942 l
287.612 194.363 l
292.919 194.559 l
298.226 194.442 l
303.533 193.826 l
308.84 192.531 l
314.147 190.337 l
319.453 186.908 l
324.76 181.484 l
330.067 173.452 l
335.374 161.948 l
340.681 145.742 l
345.988 122.201 l
351.295 94.5324 l
356.602 85.3128 l
361.909 88.2011 l
367.216 91.6619 l
372.523 95.1965 l
377.83 98.9234 l
383.137 103.015 l
388.444 107.659 l
393.751 112.992 l
399.058 119.02 l
404.365 125.567 l
409.672 132.259 l
414.979 138.463 l
420.286 142.866 l
425.593 144.969 l
430.9 147.626 l
436.207 151.084 l
441.514 155.423 l
446.821 160.469 l
452.128 165.674 l
457.435 169.845 l
462.742 171.231 l
468.049 172.228 l
473.356 173.224 l
478.662 174.22 l
483.969 175.215 l
489.276 176.208 l
494.583 177.199 l
499.89 178.188 l
505.197 179.174 l
510.504 180.156 l
515.811 181.132 l
521.118 182.101 l
526.425 183.059 l
531.732 184.002 l
537.039 184.93 l
542.346 185.842 l
547.653 186.733 l
552.96 187.585 l
stroke
grestore
[6 6] 0 setdash
gsave
472.3 354.2 80.64 60.48 clipbox
80.64 232.401 m
85.947 237.802 l
91.2539 242.928 l
96.5609 247.675 l
101.868 252.046 l
107.175 256.067 l
112.482 259.807 l
117.789 263.329 l
123.096 266.806 l
128.403 270.253 l
133.71 273.582 l
139.017 276.567 l
144.324 279.127 l
149.631 281.186 l
154.938 282.754 l
160.244 283.919 l
165.551 284.916 l
170.858 285.852 l
176.165 286.77 l
181.472 287.673 l
186.779 288.562 l
192.086 289.434 l
197.393 290.285 l
202.7 291.106 l
208.007 291.895 l
213.314 292.645 l
218.621 293.344 l
223.928 293.976 l
229.235 294.534 l
234.542 295.001 l
239.849 295.348 l
245.156 295.543 l
250.463 295.572 l
255.77 295.411 l
261.077 295.004 l
266.384 294.32 l
271.691 293.377 l
276.998 292.17 l
282.305 290.616 l
287.612 288.707 l
292.919 286.453 l
298.226 283.787 l
303.533 280.452 l
308.84 276.366 l
314.147 271.427 l
319.453 265.468 l
324.76 258.089 l
330.067 250.117 l
335.374 243.943 l
340.681 242.348 l
345.988 244.405 l
351.295 247.647 l
356.602 250.966 l
361.909 254.166 l
367.216 257.212 l
372.523 260.088 l
377.83 262.793 l
383.137 265.343 l
388.444 267.767 l
393.751 270.102 l
399.058 272.389 l
404.365 274.672 l
409.672 276.985 l
414.979 279.308 l
420.286 281.444 l
425.593 283.234 l
430.9 285.063 l
436.207 286.992 l
441.514 289.09 l
446.821 291.407 l
452.128 293.893 l
457.435 296.167 l
462.742 297.515 l
468.049 298.716 l
473.356 299.878 l
478.662 301 l
483.969 302.079 l
489.276 303.11 l
494.583 304.092 l
499.89 305.022 l
505.197 305.896 l
510.504 306.711 l
515.811 307.462 l
521.118 308.14 l
526.425 308.736 l
531.732 309.238 l
537.039 309.64 l
542.346 309.947 l
547.653 310.151 l
552.96 310.233 l
stroke
grestore
2 setlinecap
[] 0 setdash
gsave
472.3 354.2 80.64 60.48 clipbox
80.64 337.015 m
85.947 341.799 l
91.2539 346.162 l
96.5609 349.956 l
101.868 353.199 l
107.175 355.921 l
112.482 358.163 l
117.789 359.841 l
123.096 361.079 l
128.403 361.897 l
133.71 362.313 l
139.017 362.152 l
144.324 361.64 l
149.631 360.802 l
154.938 359.683 l
160.244 358.288 l
165.551 356.862 l
170.858 355.449 l
176.165 354.044 l
181.472 352.583 l
186.779 351.152 l
192.086 349.746 l
197.393 348.338 l
202.7 346.879 l
208.007 345.452 l
213.314 344.059 l
218.621 342.674 l
223.928 341.286 l
229.235 339.996 l
234.542 338.849 l
239.849 337.873 l
245.156 337.163 l
250.463 336.905 l
255.77 337.229 l
261.077 338.199 l
266.384 339.866 l
271.691 342.206 l
276.998 345.08 l
282.305 348.312 l
287.612 351.774 l
292.919 355.361 l
298.226 358.987 l
303.533 362.586 l
308.84 366.111 l
314.147 369.516 l
319.453 372.757 l
324.76 375.798 l
330.067 378.617 l
335.374 381.199 l
340.681 383.539 l
345.988 385.639 l
351.295 387.503 l
356.602 389.139 l
361.909 390.556 l
367.216 391.766 l
372.523 392.783 l
377.83 393.625 l
383.137 394.315 l
388.444 394.877 l
393.751 395.339 l
399.058 395.73 l
404.365 396.076 l
409.672 396.38 l
414.979 396.603 l
420.286 396.749 l
425.593 396.86 l
430.9 396.906 l
436.207 396.831 l
441.514 396.656 l
446.821 396.399 l
452.128 396.032 l
457.435 395.51 l
462.742 394.872 l
468.049 394.181 l
473.356 393.438 l
478.662 392.639 l
483.969 391.79 l
489.276 390.89 l
494.583 389.942 l
499.89 388.945 l
505.197 387.902 l
510.504 386.81 l
515.811 385.667 l
521.118 384.465 l
526.425 383.19 l
531.732 381.822 l
537.039 380.335 l
542.346 378.713 l
547.653 376.919 l
552.96 374.896 l
stroke
grestore
0 setlinecap
[1 3] 0 setdash
1.000 0.000 0.000 setrgbcolor
gsave
472.3 354.2 80.64 60.48 clipbox
80.64 59.0673 m
84.3591 62.9084 l
88.0781 66.6192 l
91.7972 70.1807 l
95.5162 73.5745 l
99.2353 76.7816 l
102.954 79.7763 l
106.673 82.5829 l
114.111 87.7443 l
140.145 104.929 l
143.864 107.137 l
147.583 109.137 l
151.302 110.892 l
155.021 112.38 l
158.74 113.595 l
162.459 114.578 l
169.897 116.136 l
184.774 118.798 l
199.65 121.253 l
207.088 122.323 l
214.526 123.194 l
221.964 123.715 l
225.683 123.782 l
229.402 123.675 l
233.121 123.344 l
236.84 122.73 l
240.559 121.758 l
244.278 120.332 l
247.997 118.264 l
251.717 115.435 l
255.436 111.648 l
259.155 106.649 l
262.874 100.119 l
266.593 91.6537 l
270.312 80.7428 l
274.031 66.697 l
277.75 48.2803 l
281.469 24.7029 l
284.662 -1 l
362.139 -1 m
363.288 0.193377 l
367.007 4.3479 l
370.726 8.81383 l
374.445 13.5971 l
378.164 18.6875 l
381.883 24.0584 l
389.322 35.4674 l
407.917 65.0282 l
411.636 70.4584 l
415.355 75.3751 l
419.074 79.3938 l
422.793 81.6496 l
426.512 82.9005 l
430.231 84.4008 l
433.95 86.231 l
437.669 88.4706 l
441.388 91.1782 l
445.107 94.3659 l
448.826 97.9786 l
459.984 109.551 l
463.703 112.376 l
467.422 113.437 l
523.208 123.57 l
534.365 125.359 l
541.803 126.241 l
545.522 126.474 l
549.241 126.462 l
552.96 126.064 l
552.96 126.064 l
stroke
grestore
[3 5 1 5] 0 setdash
gsave
472.3 354.2 80.64 60.48 clipbox
80.64 120.112 m
84.3591 123.954 l
88.0781 127.666 l
91.7972 131.229 l
95.5162 134.624 l
99.2353 137.834 l
102.954 140.831 l
106.673 143.641 l
114.111 148.811 l
140.145 166.029 l
143.864 168.239 l
147.583 170.241 l
151.302 171.997 l
155.021 173.485 l
158.74 174.7 l
162.459 175.683 l
169.897 177.24 l
184.774 179.899 l
199.65 182.348 l
207.088 183.413 l
214.526 184.277 l
221.964 184.788 l
225.683 184.849 l
229.402 184.732 l
233.121 184.391 l
236.84 183.765 l
240.559 182.777 l
244.278 181.332 l
247.997 179.238 l
251.717 176.379 l
255.436 172.553 l
259.155 167.505 l
262.874 160.914 l
266.593 152.372 l
270.312 141.366 l
274.031 127.203 l
277.75 108.656 l
281.469 85.0869 l
285.188 57.0788 l
288.907 38.6916 l
292.626 38.8006 l
303.783 47.2528 l
314.94 55.3047 l
333.536 68.3593 l
370.726 94.3133 l
378.164 99.8238 l
381.883 102.743 l
385.603 105.835 l
389.322 109.152 l
393.041 112.742 l
396.76 116.63 l
400.479 120.809 l
407.917 129.786 l
411.636 134.326 l
415.355 138.607 l
419.074 142.225 l
422.793 144.352 l
426.512 145.604 l
430.231 147.069 l
433.95 148.818 l
437.669 150.93 l
441.388 153.466 l
445.107 156.454 l
448.826 159.858 l
459.984 170.943 l
463.703 173.689 l
467.422 174.734 l
504.612 181.405 l
526.927 185.239 l
534.365 186.358 l
541.803 187.199 l
545.522 187.409 l
549.241 187.373 l
552.96 186.947 l
552.96 186.947 l
stroke
grestore
[6 6] 0 setdash
gsave
472.3 354.2 80.64 60.48 clipbox
80.64 231.506 m
84.3591 235.347 l
88.0781 239.057 l
91.7972 242.618 l
95.5162 246.012 l
99.2353 249.219 l
102.954 252.215 l
106.673 255.024 l
114.111 260.192 l
140.145 277.368 l
143.864 279.556 l
147.583 281.534 l
151.302 283.26 l
155.021 284.715 l
158.74 285.894 l
162.459 286.84 l
169.897 288.319 l
181.054 290.179 l
192.212 291.854 l
199.65 292.808 l
207.088 293.547 l
214.526 293.949 l
218.245 293.954 l
221.964 293.786 l
225.683 293.404 l
229.402 292.757 l
233.121 291.78 l
236.84 290.393 l
240.559 288.501 l
244.278 285.991 l
247.997 282.627 l
251.717 278.298 l
255.436 272.803 l
259.155 265.896 l
262.874 257.283 l
266.593 246.619 l
270.312 233.593 l
274.031 218.374 l
277.75 203.801 l
281.469 197.95 l
285.188 199.439 l
300.064 211.166 l
307.502 216.656 l
318.66 224.616 l
337.255 237.562 l
352.131 247.66 l
363.288 255.005 l
370.726 259.686 l
378.164 264.097 l
385.603 268.177 l
393.041 271.931 l
400.479 275.427 l
411.636 280.424 l
419.074 283.594 l
422.793 284.94 l
445.107 292.156 l
452.546 294.95 l
459.984 298.014 l
463.703 299.307 l
467.422 299.975 l
474.86 300.943 l
482.298 301.704 l
493.455 302.531 l
504.612 303.1 l
515.769 303.454 l
523.208 303.529 l
530.646 303.394 l
534.365 303.199 l
538.084 302.871 l
541.803 302.349 l
545.522 301.534 l
549.241 300.274 l
552.96 298.335 l
552.96 298.335 l
stroke
grestore
2 setlinecap
[] 0 setdash
gsave
472.3 354.2 80.64 60.48 clipbox
80.64 336.351 m
84.3591 339.781 l
88.0781 343.01 l
91.7972 346.013 l
95.5162 348.768 l
99.2353 351.253 l
102.954 353.435 l
106.673 355.352 l
110.392 357.021 l
114.111 358.468 l
117.831 359.711 l
121.55 360.766 l
125.269 361.636 l
128.988 362.309 l
132.707 362.767 l
136.426 363.056 l
140.145 363.182 l
143.864 363.144 l
147.583 362.93 l
151.302 362.532 l
155.021 361.952 l
158.74 361.186 l
166.178 359.283 l
181.054 355.035 l
188.493 352.783 l
199.65 349.111 l
207.088 346.427 l
214.526 343.458 l
218.245 341.79 l
221.964 339.995 l
225.683 338.067 l
229.402 335.998 l
236.84 331.485 l
240.559 329.158 l
244.278 326.982 l
247.997 325.165 l
251.717 324.173 l
255.436 324.344 l
259.155 325.747 l
262.874 328.133 l
266.593 331.117 l
285.188 347.215 l
292.626 353.16 l
300.064 358.819 l
307.502 364.225 l
314.94 369.364 l
322.379 374.175 l
329.817 378.583 l
337.255 382.53 l
344.693 385.996 l
352.131 388.988 l
359.569 391.527 l
367.007 393.639 l
374.445 395.347 l
381.883 396.684 l
389.322 397.693 l
396.76 398.438 l
404.198 398.993 l
411.636 399.392 l
419.074 399.571 l
430.231 399.5 l
437.669 399.148 l
445.107 398.537 l
452.546 397.691 l
459.984 396.513 l
467.422 394.908 l
474.86 393.019 l
482.298 390.889 l
489.736 388.515 l
497.174 385.891 l
504.612 382.986 l
512.05 379.755 l
519.489 376.13 l
523.208 374.145 l
526.927 372.027 l
530.646 369.76 l
534.365 367.325 l
538.084 364.696 l
541.803 361.843 l
545.522 358.725 l
549.241 355.288 l
552.96 351.457 l
552.96 351.457 l
stroke
grestore
0 setlinecap
0.000 setgray
gsave
/o {
gsave
newpath
translate
2.0 setlinewidth
1 setlinejoin
0 setlinecap
0 0 m
0 8 l
gsave
0.000 setgray
fill
grestore
stroke
grestore
} bind def
80.64 60.48 o
grestore
gsave
/o {
gsave
newpath
translate
2.0 setlinewidth
1 setlinejoin
0 setlinecap
0 0 m
0 -8 l
gsave
0.000 setgray
fill
grestore
stroke
grestore
} bind def
80.64 414.72 o
grestore
gsave
63.640000 43.386250 translate
0.000000 rotate
/BitstreamVeraSans-Roman findfont
14.0 scalefont
setfont
0.000000 0.376563 moveto
/one glyphshow

8.907227 0.376563 moveto
/zero glyphshow

/BitstreamVeraSans-Roman findfont
9.8 scalefont
setfont
17.814453 7.726563 moveto
/one glyphshow

24.049512 7.726563 moveto
/two glyphshow


grestore
gsave
/o {
gsave
newpath
translate
2.0 setlinewidth
1 setlinejoin
0 setlinecap
0 0 m
0 8 l
gsave
0.000 setgray
fill
grestore
stroke
grestore
} bind def
115.686 60.48 o
grestore
gsave
/o {
gsave
newpath
translate
2.0 setlinewidth
1 setlinejoin
0 setlinecap
0 0 m
0 -8 l
gsave
0.000 setgray
fill
grestore
stroke
grestore
} bind def
115.686 414.72 o
grestore
gsave
98.686060 43.386250 translate
0.000000 rotate
/BitstreamVeraSans-Roman findfont
14.0 scalefont
setfont
0.000000 0.376563 moveto
/one glyphshow

8.907227 0.376563 moveto
/zero glyphshow

/BitstreamVeraSans-Roman findfont
9.8 scalefont
setfont
17.814453 7.726563 moveto
/one glyphshow

24.049512 7.726563 moveto
/three glyphshow


grestore
gsave
/o {
gsave
newpath
translate
2.0 setlinewidth
1 setlinejoin
0 setlinecap
0 0 m
0 8 l
gsave
0.000 setgray
fill
grestore
stroke
grestore
} bind def
150.732 60.48 o
grestore
gsave
/o {
gsave
newpath
translate
2.0 setlinewidth
1 setlinejoin
0 setlinecap
0 0 m
0 -8 l
gsave
0.000 setgray
fill
grestore
stroke
grestore
} bind def
150.732 414.72 o
grestore
gsave
133.732120 43.386250 translate
0.000000 rotate
/BitstreamVeraSans-Roman findfont
14.0 scalefont
setfont
0.000000 0.507812 moveto
/one glyphshow

8.907227 0.507812 moveto
/zero glyphshow

/BitstreamVeraSans-Roman findfont
9.8 scalefont
setfont
17.814453 7.857813 moveto
/one glyphshow

24.049512 7.857813 moveto
/four glyphshow


grestore
gsave
/o {
gsave
newpath
translate
2.0 setlinewidth
1 setlinejoin
0 setlinecap
0 0 m
0 8 l
gsave
0.000 setgray
fill
grestore
stroke
grestore
} bind def
185.778 60.48 o
grestore
gsave
/o {
gsave
newpath
translate
2.0 setlinewidth
1 setlinejoin
0 setlinecap
0 0 m
0 -8 l
gsave
0.000 setgray
fill
grestore
stroke
grestore
} bind def
185.778 414.72 o
grestore
gsave
168.778180 43.386250 translate
0.000000 rotate
/BitstreamVeraSans-Roman findfont
14.0 scalefont
setfont
0.000000 0.507812 moveto
/one glyphshow

8.907227 0.507812 moveto
/zero glyphshow

/BitstreamVeraSans-Roman findfont
9.8 scalefont
setfont
17.814453 7.857813 moveto
/one glyphshow

24.049512 7.857813 moveto
/five glyphshow


grestore
gsave
/o {
gsave
newpath
translate
2.0 setlinewidth
1 setlinejoin
0 setlinecap
0 0 m
0 8 l
gsave
0.000 setgray
fill
grestore
stroke
grestore
} bind def
220.824 60.48 o
grestore
gsave
/o {
gsave
newpath
translate
2.0 setlinewidth
1 setlinejoin
0 setlinecap
0 0 m
0 -8 l
gsave
0.000 setgray
fill
grestore
stroke
grestore
} bind def
220.824 414.72 o
grestore
gsave
203.824240 43.386250 translate
0.000000 rotate
/BitstreamVeraSans-Roman findfont
14.0 scalefont
setfont
0.000000 0.376563 moveto
/one glyphshow

8.907227 0.376563 moveto
/zero glyphshow

/BitstreamVeraSans-Roman findfont
9.8 scalefont
setfont
17.814453 7.726563 moveto
/one glyphshow

24.049512 7.726563 moveto
/six glyphshow


grestore
gsave
/o {
gsave
newpath
translate
2.0 setlinewidth
1 setlinejoin
0 setlinecap
0 0 m
0 8 l
gsave
0.000 setgray
fill
grestore
stroke
grestore
} bind def
255.87 60.48 o
grestore
gsave
/o {
gsave
newpath
translate
2.0 setlinewidth
1 setlinejoin
0 setlinecap
0 0 m
0 -8 l
gsave
0.000 setgray
fill
grestore
stroke
grestore
} bind def
255.87 414.72 o
grestore
gsave
238.870300 43.386250 translate
0.000000 rotate
/BitstreamVeraSans-Roman findfont
14.0 scalefont
setfont
0.000000 0.507812 moveto
/one glyphshow

8.907227 0.507812 moveto
/zero glyphshow

/BitstreamVeraSans-Roman findfont
9.8 scalefont
setfont
17.814453 7.857813 moveto
/one glyphshow

24.049512 7.857813 moveto
/seven glyphshow


grestore
gsave
/o {
gsave
newpath
translate
2.0 setlinewidth
1 setlinejoin
0 setlinecap
0 0 m
0 8 l
gsave
0.000 setgray
fill
grestore
stroke
grestore
} bind def
290.916 60.48 o
grestore
gsave
/o {
gsave
newpath
translate
2.0 setlinewidth
1 setlinejoin
0 setlinecap
0 0 m
0 -8 l
gsave
0.000 setgray
fill
grestore
stroke
grestore
} bind def
290.916 414.72 o
grestore
gsave
273.916360 43.386250 translate
0.000000 rotate
/BitstreamVeraSans-Roman findfont
14.0 scalefont
setfont
0.000000 0.376563 moveto
/one glyphshow

8.907227 0.376563 moveto
/zero glyphshow

/BitstreamVeraSans-Roman findfont
9.8 scalefont
setfont
17.814453 7.726563 moveto
/one glyphshow

24.049512 7.726563 moveto
/eight glyphshow


grestore
gsave
/o {
gsave
newpath
translate
2.0 setlinewidth
1 setlinejoin
0 setlinecap
0 0 m
0 8 l
gsave
0.000 setgray
fill
grestore
stroke
grestore
} bind def
325.962 60.48 o
grestore
gsave
/o {
gsave
newpath
translate
2.0 setlinewidth
1 setlinejoin
0 setlinecap
0 0 m
0 -8 l
gsave
0.000 setgray
fill
grestore
stroke
grestore
} bind def
325.962 414.72 o
grestore
gsave
308.962420 43.386250 translate
0.000000 rotate
/BitstreamVeraSans-Roman findfont
14.0 scalefont
setfont
0.000000 0.376563 moveto
/one glyphshow

8.907227 0.376563 moveto
/zero glyphshow

/BitstreamVeraSans-Roman findfont
9.8 scalefont
setfont
17.814453 7.726563 moveto
/one glyphshow

24.049512 7.726563 moveto
/nine glyphshow


grestore
gsave
/o {
gsave
newpath
translate
2.0 setlinewidth
1 setlinejoin
0 setlinecap
0 0 m
0 8 l
gsave
0.000 setgray
fill
grestore
stroke
grestore
} bind def
361.008 60.48 o
grestore
gsave
/o {
gsave
newpath
translate
2.0 setlinewidth
1 setlinejoin
0 setlinecap
0 0 m
0 -8 l
gsave
0.000 setgray
fill
grestore
stroke
grestore
} bind def
361.008 414.72 o
grestore
gsave
344.008480 43.386250 translate
0.000000 rotate
/BitstreamVeraSans-Roman findfont
14.0 scalefont
setfont
0.000000 0.376563 moveto
/one glyphshow

8.907227 0.376563 moveto
/zero glyphshow

/BitstreamVeraSans-Roman findfont
9.8 scalefont
setfont
17.814453 7.726563 moveto
/two glyphshow

24.049512 7.726563 moveto
/zero glyphshow


grestore
gsave
/o {
gsave
newpath
translate
2.0 setlinewidth
1 setlinejoin
0 setlinecap
0 0 m
0 8 l
gsave
0.000 setgray
fill
grestore
stroke
grestore
} bind def
396.055 60.48 o
grestore
gsave
/o {
gsave
newpath
translate
2.0 setlinewidth
1 setlinejoin
0 setlinecap
0 0 m
0 -8 l
gsave
0.000 setgray
fill
grestore
stroke
grestore
} bind def
396.055 414.72 o
grestore
gsave
379.054540 43.386250 translate
0.000000 rotate
/BitstreamVeraSans-Roman findfont
14.0 scalefont
setfont
0.000000 0.376563 moveto
/one glyphshow

8.907227 0.376563 moveto
/zero glyphshow

/BitstreamVeraSans-Roman findfont
9.8 scalefont
setfont
17.814453 7.726563 moveto
/two glyphshow

24.049512 7.726563 moveto
/one glyphshow


grestore
gsave
/o {
gsave
newpath
translate
2.0 setlinewidth
1 setlinejoin
0 setlinecap
0 0 m
0 8 l
gsave
0.000 setgray
fill
grestore
stroke
grestore
} bind def
431.101 60.48 o
grestore
gsave
/o {
gsave
newpath
translate
2.0 setlinewidth
1 setlinejoin
0 setlinecap
0 0 m
0 -8 l
gsave
0.000 setgray
fill
grestore
stroke
grestore
} bind def
431.101 414.72 o
grestore
gsave
414.100600 43.386250 translate
0.000000 rotate
/BitstreamVeraSans-Roman findfont
14.0 scalefont
setfont
0.000000 0.376563 moveto
/one glyphshow

8.907227 0.376563 moveto
/zero glyphshow

/BitstreamVeraSans-Roman findfont
9.8 scalefont
setfont
17.814453 7.726563 moveto
/two glyphshow

24.049512 7.726563 moveto
/two glyphshow


grestore
gsave
/o {
gsave
newpath
translate
2.0 setlinewidth
1 setlinejoin
0 setlinecap
0 0 m
0 8 l
gsave
0.000 setgray
fill
grestore
stroke
grestore
} bind def
466.147 60.48 o
grestore
gsave
/o {
gsave
newpath
translate
2.0 setlinewidth
1 setlinejoin
0 setlinecap
0 0 m
0 -8 l
gsave
0.000 setgray
fill
grestore
stroke
grestore
} bind def
466.147 414.72 o
grestore
gsave
449.146660 43.386250 translate
0.000000 rotate
/BitstreamVeraSans-Roman findfont
14.0 scalefont
setfont
0.000000 0.376563 moveto
/one glyphshow

8.907227 0.376563 moveto
/zero glyphshow

/BitstreamVeraSans-Roman findfont
9.8 scalefont
setfont
17.814453 7.726563 moveto
/two glyphshow

24.049512 7.726563 moveto
/three glyphshow


grestore
gsave
/o {
gsave
newpath
translate
2.0 setlinewidth
1 setlinejoin
0 setlinecap
0 0 m
0 8 l
gsave
0.000 setgray
fill
grestore
stroke
grestore
} bind def
501.193 60.48 o
grestore
gsave
/o {
gsave
newpath
translate
2.0 setlinewidth
1 setlinejoin
0 setlinecap
0 0 m
0 -8 l
gsave
0.000 setgray
fill
grestore
stroke
grestore
} bind def
501.193 414.72 o
grestore
gsave
484.192720 43.386250 translate
0.000000 rotate
/BitstreamVeraSans-Roman findfont
14.0 scalefont
setfont
0.000000 0.376563 moveto
/one glyphshow

8.907227 0.376563 moveto
/zero glyphshow

/BitstreamVeraSans-Roman findfont
9.8 scalefont
setfont
17.814453 7.726563 moveto
/two glyphshow

24.049512 7.726563 moveto
/four glyphshow


grestore
gsave
/o {
gsave
newpath
translate
2.0 setlinewidth
1 setlinejoin
0 setlinecap
0 0 m
0 8 l
gsave
0.000 setgray
fill
grestore
stroke
grestore
} bind def
536.239 60.48 o
grestore
gsave
/o {
gsave
newpath
translate
2.0 setlinewidth
1 setlinejoin
0 setlinecap
0 0 m
0 -8 l
gsave
0.000 setgray
fill
grestore
stroke
grestore
} bind def
536.239 414.72 o
grestore
gsave
519.238780 43.386250 translate
0.000000 rotate
/BitstreamVeraSans-Roman findfont
14.0 scalefont
setfont
0.000000 0.376563 moveto
/one glyphshow

8.907227 0.376563 moveto
/zero glyphshow

/BitstreamVeraSans-Roman findfont
9.8 scalefont
setfont
17.814453 7.726563 moveto
/two glyphshow

24.049512 7.726563 moveto
/five glyphshow


grestore
gsave
/o {
gsave
newpath
translate
2.0 setlinewidth
1 setlinejoin
0 setlinecap
0 0 m
0 5 l
gsave
0.000 setgray
fill
grestore
stroke
grestore
} bind def
80.64 60.48 o
grestore
gsave
/o {
gsave
newpath
translate
2.0 setlinewidth
1 setlinejoin
0 setlinecap
0 0 m
0 -5 l
gsave
0.000 setgray
fill
grestore
stroke
grestore
} bind def
80.64 414.72 o
grestore
gsave
/o {
gsave
newpath
translate
2.0 setlinewidth
1 setlinejoin
0 setlinecap
0 0 m
0 5 l
gsave
0.000 setgray
fill
grestore
stroke
grestore
} bind def
115.686 60.48 o
grestore
gsave
/o {
gsave
newpath
translate
2.0 setlinewidth
1 setlinejoin
0 setlinecap
0 0 m
0 -5 l
gsave
0.000 setgray
fill
grestore
stroke
grestore
} bind def
115.686 414.72 o
grestore
gsave
/o {
gsave
newpath
translate
2.0 setlinewidth
1 setlinejoin
0 setlinecap
0 0 m
0 5 l
gsave
0.000 setgray
fill
grestore
stroke
grestore
} bind def
150.732 60.48 o
grestore
gsave
/o {
gsave
newpath
translate
2.0 setlinewidth
1 setlinejoin
0 setlinecap
0 0 m
0 -5 l
gsave
0.000 setgray
fill
grestore
stroke
grestore
} bind def
150.732 414.72 o
grestore
gsave
/o {
gsave
newpath
translate
2.0 setlinewidth
1 setlinejoin
0 setlinecap
0 0 m
0 5 l
gsave
0.000 setgray
fill
grestore
stroke
grestore
} bind def
185.778 60.48 o
grestore
gsave
/o {
gsave
newpath
translate
2.0 setlinewidth
1 setlinejoin
0 setlinecap
0 0 m
0 -5 l
gsave
0.000 setgray
fill
grestore
stroke
grestore
} bind def
185.778 414.72 o
grestore
gsave
/o {
gsave
newpath
translate
2.0 setlinewidth
1 setlinejoin
0 setlinecap
0 0 m
0 5 l
gsave
0.000 setgray
fill
grestore
stroke
grestore
} bind def
220.824 60.48 o
grestore
gsave
/o {
gsave
newpath
translate
2.0 setlinewidth
1 setlinejoin
0 setlinecap
0 0 m
0 -5 l
gsave
0.000 setgray
fill
grestore
stroke
grestore
} bind def
220.824 414.72 o
grestore
gsave
/o {
gsave
newpath
translate
2.0 setlinewidth
1 setlinejoin
0 setlinecap
0 0 m
0 5 l
gsave
0.000 setgray
fill
grestore
stroke
grestore
} bind def
255.87 60.48 o
grestore
gsave
/o {
gsave
newpath
translate
2.0 setlinewidth
1 setlinejoin
0 setlinecap
0 0 m
0 -5 l
gsave
0.000 setgray
fill
grestore
stroke
grestore
} bind def
255.87 414.72 o
grestore
gsave
/o {
gsave
newpath
translate
2.0 setlinewidth
1 setlinejoin
0 setlinecap
0 0 m
0 5 l
gsave
0.000 setgray
fill
grestore
stroke
grestore
} bind def
290.916 60.48 o
grestore
gsave
/o {
gsave
newpath
translate
2.0 setlinewidth
1 setlinejoin
0 setlinecap
0 0 m
0 -5 l
gsave
0.000 setgray
fill
grestore
stroke
grestore
} bind def
290.916 414.72 o
grestore
gsave
/o {
gsave
newpath
translate
2.0 setlinewidth
1 setlinejoin
0 setlinecap
0 0 m
0 5 l
gsave
0.000 setgray
fill
grestore
stroke
grestore
} bind def
325.962 60.48 o
grestore
gsave
/o {
gsave
newpath
translate
2.0 setlinewidth
1 setlinejoin
0 setlinecap
0 0 m
0 -5 l
gsave
0.000 setgray
fill
grestore
stroke
grestore
} bind def
325.962 414.72 o
grestore
gsave
/o {
gsave
newpath
translate
2.0 setlinewidth
1 setlinejoin
0 setlinecap
0 0 m
0 5 l
gsave
0.000 setgray
fill
grestore
stroke
grestore
} bind def
361.008 60.48 o
grestore
gsave
/o {
gsave
newpath
translate
2.0 setlinewidth
1 setlinejoin
0 setlinecap
0 0 m
0 -5 l
gsave
0.000 setgray
fill
grestore
stroke
grestore
} bind def
361.008 414.72 o
grestore
gsave
/o {
gsave
newpath
translate
2.0 setlinewidth
1 setlinejoin
0 setlinecap
0 0 m
0 5 l
gsave
0.000 setgray
fill
grestore
stroke
grestore
} bind def
396.055 60.48 o
grestore
gsave
/o {
gsave
newpath
translate
2.0 setlinewidth
1 setlinejoin
0 setlinecap
0 0 m
0 -5 l
gsave
0.000 setgray
fill
grestore
stroke
grestore
} bind def
396.055 414.72 o
grestore
gsave
/o {
gsave
newpath
translate
2.0 setlinewidth
1 setlinejoin
0 setlinecap
0 0 m
0 5 l
gsave
0.000 setgray
fill
grestore
stroke
grestore
} bind def
431.101 60.48 o
grestore
gsave
/o {
gsave
newpath
translate
2.0 setlinewidth
1 setlinejoin
0 setlinecap
0 0 m
0 -5 l
gsave
0.000 setgray
fill
grestore
stroke
grestore
} bind def
431.101 414.72 o
grestore
gsave
/o {
gsave
newpath
translate
2.0 setlinewidth
1 setlinejoin
0 setlinecap
0 0 m
0 5 l
gsave
0.000 setgray
fill
grestore
stroke
grestore
} bind def
466.147 60.48 o
grestore
gsave
/o {
gsave
newpath
translate
2.0 setlinewidth
1 setlinejoin
0 setlinecap
0 0 m
0 -5 l
gsave
0.000 setgray
fill
grestore
stroke
grestore
} bind def
466.147 414.72 o
grestore
gsave
/o {
gsave
newpath
translate
2.0 setlinewidth
1 setlinejoin
0 setlinecap
0 0 m
0 5 l
gsave
0.000 setgray
fill
grestore
stroke
grestore
} bind def
501.193 60.48 o
grestore
gsave
/o {
gsave
newpath
translate
2.0 setlinewidth
1 setlinejoin
0 setlinecap
0 0 m
0 -5 l
gsave
0.000 setgray
fill
grestore
stroke
grestore
} bind def
501.193 414.72 o
grestore
gsave
/o {
gsave
newpath
translate
2.0 setlinewidth
1 setlinejoin
0 setlinecap
0 0 m
0 5 l
gsave
0.000 setgray
fill
grestore
stroke
grestore
} bind def
536.239 60.48 o
grestore
gsave
/o {
gsave
newpath
translate
2.0 setlinewidth
1 setlinejoin
0 setlinecap
0 0 m
0 -5 l
gsave
0.000 setgray
fill
grestore
stroke
grestore
} bind def
536.239 414.72 o
grestore
gsave
282.300000 17.245625 translate
0.000000 rotate
/Cmmi10 findfont
24.0 scalefont
setfont
0.000000 0.765625 moveto
/nu glyphshow

/BitstreamVeraSans-Roman findfont
24.0 scalefont
setfont
11.859375 0.765625 moveto
/space glyphshow

19.488281 0.765625 moveto
/bracketleft glyphshow

28.101562 0.765625 moveto
/H glyphshow

46.148438 0.765625 moveto
/z glyphshow

58.746094 0.765625 moveto
/bracketright glyphshow


grestore
gsave
/o {
gsave
newpath
translate
2.0 setlinewidth
1 setlinejoin
0 setlinecap
0 0 m
8 0 l
gsave
0.000 setgray
fill
grestore
stroke
grestore
} bind def
80.64 60.48 o
grestore
gsave
/o {
gsave
newpath
translate
2.0 setlinewidth
1 setlinejoin
0 setlinecap
0 0 m
-8 0 l
gsave
0.000 setgray
fill
grestore
stroke
grestore
} bind def
552.96 60.48 o
grestore
gsave
49.640000 55.386250 translate
0.000000 rotate
/BitstreamVeraSans-Roman findfont
14.0 scalefont
setfont
0.000000 0.376563 moveto
/one glyphshow

8.907227 0.376563 moveto
/zero glyphshow

/BitstreamVeraSans-Roman findfont
9.8 scalefont
setfont
17.814453 7.726563 moveto
/eight glyphshow


grestore
gsave
/o {
gsave
newpath
translate
2.0 setlinewidth
1 setlinejoin
0 setlinecap
0 0 m
8 0 l
gsave
0.000 setgray
fill
grestore
stroke
grestore
} bind def
80.64 92.6836 o
grestore
gsave
/o {
gsave
newpath
translate
2.0 setlinewidth
1 setlinejoin
0 setlinecap
0 0 m
-8 0 l
gsave
0.000 setgray
fill
grestore
stroke
grestore
} bind def
552.96 92.6836 o
grestore
gsave
49.640000 87.589886 translate
0.000000 rotate
/BitstreamVeraSans-Roman findfont
14.0 scalefont
setfont
0.000000 0.376563 moveto
/one glyphshow

8.907227 0.376563 moveto
/zero glyphshow

/BitstreamVeraSans-Roman findfont
9.8 scalefont
setfont
17.814453 7.726563 moveto
/nine glyphshow


grestore
gsave
/o {
gsave
newpath
translate
2.0 setlinewidth
1 setlinejoin
0 setlinecap
0 0 m
8 0 l
gsave
0.000 setgray
fill
grestore
stroke
grestore
} bind def
80.64 124.887 o
grestore
gsave
/o {
gsave
newpath
translate
2.0 setlinewidth
1 setlinejoin
0 setlinecap
0 0 m
-8 0 l
gsave
0.000 setgray
fill
grestore
stroke
grestore
} bind def
552.96 124.887 o
grestore
gsave
42.640000 119.793523 translate
0.000000 rotate
/BitstreamVeraSans-Roman findfont
14.0 scalefont
setfont
0.000000 0.376563 moveto
/one glyphshow

8.907227 0.376563 moveto
/zero glyphshow

/BitstreamVeraSans-Roman findfont
9.8 scalefont
setfont
17.814453 7.726563 moveto
/one glyphshow

24.049512 7.726563 moveto
/zero glyphshow


grestore
gsave
/o {
gsave
newpath
translate
2.0 setlinewidth
1 setlinejoin
0 setlinecap
0 0 m
8 0 l
gsave
0.000 setgray
fill
grestore
stroke
grestore
} bind def
80.64 157.091 o
grestore
gsave
/o {
gsave
newpath
translate
2.0 setlinewidth
1 setlinejoin
0 setlinecap
0 0 m
-8 0 l
gsave
0.000 setgray
fill
grestore
stroke
grestore
} bind def
552.96 157.091 o
grestore
gsave
42.640000 151.997159 translate
0.000000 rotate
/BitstreamVeraSans-Roman findfont
14.0 scalefont
setfont
0.000000 0.507812 moveto
/one glyphshow

8.907227 0.507812 moveto
/zero glyphshow

/BitstreamVeraSans-Roman findfont
9.8 scalefont
setfont
17.814453 7.857813 moveto
/one glyphshow

24.049512 7.857813 moveto
/one glyphshow


grestore
gsave
/o {
gsave
newpath
translate
2.0 setlinewidth
1 setlinejoin
0 setlinecap
0 0 m
8 0 l
gsave
0.000 setgray
fill
grestore
stroke
grestore
} bind def
80.64 189.295 o
grestore
gsave
/o {
gsave
newpath
translate
2.0 setlinewidth
1 setlinejoin
0 setlinecap
0 0 m
-8 0 l
gsave
0.000 setgray
fill
grestore
stroke
grestore
} bind def
552.96 189.295 o
grestore
gsave
42.640000 184.200795 translate
0.000000 rotate
/BitstreamVeraSans-Roman findfont
14.0 scalefont
setfont
0.000000 0.376563 moveto
/one glyphshow

8.907227 0.376563 moveto
/zero glyphshow

/BitstreamVeraSans-Roman findfont
9.8 scalefont
setfont
17.814453 7.726563 moveto
/one glyphshow

24.049512 7.726563 moveto
/two glyphshow


grestore
gsave
/o {
gsave
newpath
translate
2.0 setlinewidth
1 setlinejoin
0 setlinecap
0 0 m
8 0 l
gsave
0.000 setgray
fill
grestore
stroke
grestore
} bind def
80.64 221.498 o
grestore
gsave
/o {
gsave
newpath
translate
2.0 setlinewidth
1 setlinejoin
0 setlinecap
0 0 m
-8 0 l
gsave
0.000 setgray
fill
grestore
stroke
grestore
} bind def
552.96 221.498 o
grestore
gsave
42.640000 216.404432 translate
0.000000 rotate
/BitstreamVeraSans-Roman findfont
14.0 scalefont
setfont
0.000000 0.376563 moveto
/one glyphshow

8.907227 0.376563 moveto
/zero glyphshow

/BitstreamVeraSans-Roman findfont
9.8 scalefont
setfont
17.814453 7.726563 moveto
/one glyphshow

24.049512 7.726563 moveto
/three glyphshow


grestore
gsave
/o {
gsave
newpath
translate
2.0 setlinewidth
1 setlinejoin
0 setlinecap
0 0 m
8 0 l
gsave
0.000 setgray
fill
grestore
stroke
grestore
} bind def
80.64 253.702 o
grestore
gsave
/o {
gsave
newpath
translate
2.0 setlinewidth
1 setlinejoin
0 setlinecap
0 0 m
-8 0 l
gsave
0.000 setgray
fill
grestore
stroke
grestore
} bind def
552.96 253.702 o
grestore
gsave
42.640000 248.608068 translate
0.000000 rotate
/BitstreamVeraSans-Roman findfont
14.0 scalefont
setfont
0.000000 0.507812 moveto
/one glyphshow

8.907227 0.507812 moveto
/zero glyphshow

/BitstreamVeraSans-Roman findfont
9.8 scalefont
setfont
17.814453 7.857813 moveto
/one glyphshow

24.049512 7.857813 moveto
/four glyphshow


grestore
gsave
/o {
gsave
newpath
translate
2.0 setlinewidth
1 setlinejoin
0 setlinecap
0 0 m
8 0 l
gsave
0.000 setgray
fill
grestore
stroke
grestore
} bind def
80.64 285.905 o
grestore
gsave
/o {
gsave
newpath
translate
2.0 setlinewidth
1 setlinejoin
0 setlinecap
0 0 m
-8 0 l
gsave
0.000 setgray
fill
grestore
stroke
grestore
} bind def
552.96 285.905 o
grestore
gsave
42.640000 280.811705 translate
0.000000 rotate
/BitstreamVeraSans-Roman findfont
14.0 scalefont
setfont
0.000000 0.507812 moveto
/one glyphshow

8.907227 0.507812 moveto
/zero glyphshow

/BitstreamVeraSans-Roman findfont
9.8 scalefont
setfont
17.814453 7.857813 moveto
/one glyphshow

24.049512 7.857813 moveto
/five glyphshow


grestore
gsave
/o {
gsave
newpath
translate
2.0 setlinewidth
1 setlinejoin
0 setlinecap
0 0 m
8 0 l
gsave
0.000 setgray
fill
grestore
stroke
grestore
} bind def
80.64 318.109 o
grestore
gsave
/o {
gsave
newpath
translate
2.0 setlinewidth
1 setlinejoin
0 setlinecap
0 0 m
-8 0 l
gsave
0.000 setgray
fill
grestore
stroke
grestore
} bind def
552.96 318.109 o
grestore
gsave
42.640000 313.015341 translate
0.000000 rotate
/BitstreamVeraSans-Roman findfont
14.0 scalefont
setfont
0.000000 0.376563 moveto
/one glyphshow

8.907227 0.376563 moveto
/zero glyphshow

/BitstreamVeraSans-Roman findfont
9.8 scalefont
setfont
17.814453 7.726563 moveto
/one glyphshow

24.049512 7.726563 moveto
/six glyphshow


grestore
gsave
/o {
gsave
newpath
translate
2.0 setlinewidth
1 setlinejoin
0 setlinecap
0 0 m
8 0 l
gsave
0.000 setgray
fill
grestore
stroke
grestore
} bind def
80.64 350.313 o
grestore
gsave
/o {
gsave
newpath
translate
2.0 setlinewidth
1 setlinejoin
0 setlinecap
0 0 m
-8 0 l
gsave
0.000 setgray
fill
grestore
stroke
grestore
} bind def
552.96 350.313 o
grestore
gsave
42.640000 345.218977 translate
0.000000 rotate
/BitstreamVeraSans-Roman findfont
14.0 scalefont
setfont
0.000000 0.507812 moveto
/one glyphshow

8.907227 0.507812 moveto
/zero glyphshow

/BitstreamVeraSans-Roman findfont
9.8 scalefont
setfont
17.814453 7.857813 moveto
/one glyphshow

24.049512 7.857813 moveto
/seven glyphshow


grestore
gsave
/o {
gsave
newpath
translate
2.0 setlinewidth
1 setlinejoin
0 setlinecap
0 0 m
8 0 l
gsave
0.000 setgray
fill
grestore
stroke
grestore
} bind def
80.64 382.516 o
grestore
gsave
/o {
gsave
newpath
translate
2.0 setlinewidth
1 setlinejoin
0 setlinecap
0 0 m
-8 0 l
gsave
0.000 setgray
fill
grestore
stroke
grestore
} bind def
552.96 382.516 o
grestore
gsave
42.640000 377.422614 translate
0.000000 rotate
/BitstreamVeraSans-Roman findfont
14.0 scalefont
setfont
0.000000 0.376563 moveto
/one glyphshow

8.907227 0.376563 moveto
/zero glyphshow

/BitstreamVeraSans-Roman findfont
9.8 scalefont
setfont
17.814453 7.726563 moveto
/one glyphshow

24.049512 7.726563 moveto
/eight glyphshow


grestore
gsave
/o {
gsave
newpath
translate
2.0 setlinewidth
1 setlinejoin
0 setlinecap
0 0 m
8 0 l
gsave
0.000 setgray
fill
grestore
stroke
grestore
} bind def
80.64 414.72 o
grestore
gsave
/o {
gsave
newpath
translate
2.0 setlinewidth
1 setlinejoin
0 setlinecap
0 0 m
-8 0 l
gsave
0.000 setgray
fill
grestore
stroke
grestore
} bind def
552.96 414.72 o
grestore
gsave
42.640000 409.626250 translate
0.000000 rotate
/BitstreamVeraSans-Roman findfont
14.0 scalefont
setfont
0.000000 0.376563 moveto
/one glyphshow

8.907227 0.376563 moveto
/zero glyphshow

/BitstreamVeraSans-Roman findfont
9.8 scalefont
setfont
17.814453 7.726563 moveto
/one glyphshow

24.049512 7.726563 moveto
/nine glyphshow


grestore
gsave
/o {
gsave
newpath
translate
2.0 setlinewidth
1 setlinejoin
0 setlinecap
0 0 m
5 0 l
gsave
0.000 setgray
fill
grestore
stroke
grestore
} bind def
80.64 60.48 o
grestore
gsave
/o {
gsave
newpath
translate
2.0 setlinewidth
1 setlinejoin
0 setlinecap
0 0 m
-5 0 l
gsave
0.000 setgray
fill
grestore
stroke
grestore
} bind def
552.96 60.48 o
grestore
gsave
/o {
gsave
newpath
translate
2.0 setlinewidth
1 setlinejoin
0 setlinecap
0 0 m
5 0 l
gsave
0.000 setgray
fill
grestore
stroke
grestore
} bind def
80.64 92.6836 o
grestore
gsave
/o {
gsave
newpath
translate
2.0 setlinewidth
1 setlinejoin
0 setlinecap
0 0 m
-5 0 l
gsave
0.000 setgray
fill
grestore
stroke
grestore
} bind def
552.96 92.6836 o
grestore
gsave
/o {
gsave
newpath
translate
2.0 setlinewidth
1 setlinejoin
0 setlinecap
0 0 m
5 0 l
gsave
0.000 setgray
fill
grestore
stroke
grestore
} bind def
80.64 124.887 o
grestore
gsave
/o {
gsave
newpath
translate
2.0 setlinewidth
1 setlinejoin
0 setlinecap
0 0 m
-5 0 l
gsave
0.000 setgray
fill
grestore
stroke
grestore
} bind def
552.96 124.887 o
grestore
gsave
/o {
gsave
newpath
translate
2.0 setlinewidth
1 setlinejoin
0 setlinecap
0 0 m
5 0 l
gsave
0.000 setgray
fill
grestore
stroke
grestore
} bind def
80.64 157.091 o
grestore
gsave
/o {
gsave
newpath
translate
2.0 setlinewidth
1 setlinejoin
0 setlinecap
0 0 m
-5 0 l
gsave
0.000 setgray
fill
grestore
stroke
grestore
} bind def
552.96 157.091 o
grestore
gsave
/o {
gsave
newpath
translate
2.0 setlinewidth
1 setlinejoin
0 setlinecap
0 0 m
5 0 l
gsave
0.000 setgray
fill
grestore
stroke
grestore
} bind def
80.64 189.295 o
grestore
gsave
/o {
gsave
newpath
translate
2.0 setlinewidth
1 setlinejoin
0 setlinecap
0 0 m
-5 0 l
gsave
0.000 setgray
fill
grestore
stroke
grestore
} bind def
552.96 189.295 o
grestore
gsave
/o {
gsave
newpath
translate
2.0 setlinewidth
1 setlinejoin
0 setlinecap
0 0 m
5 0 l
gsave
0.000 setgray
fill
grestore
stroke
grestore
} bind def
80.64 221.498 o
grestore
gsave
/o {
gsave
newpath
translate
2.0 setlinewidth
1 setlinejoin
0 setlinecap
0 0 m
-5 0 l
gsave
0.000 setgray
fill
grestore
stroke
grestore
} bind def
552.96 221.498 o
grestore
gsave
/o {
gsave
newpath
translate
2.0 setlinewidth
1 setlinejoin
0 setlinecap
0 0 m
5 0 l
gsave
0.000 setgray
fill
grestore
stroke
grestore
} bind def
80.64 253.702 o
grestore
gsave
/o {
gsave
newpath
translate
2.0 setlinewidth
1 setlinejoin
0 setlinecap
0 0 m
-5 0 l
gsave
0.000 setgray
fill
grestore
stroke
grestore
} bind def
552.96 253.702 o
grestore
gsave
/o {
gsave
newpath
translate
2.0 setlinewidth
1 setlinejoin
0 setlinecap
0 0 m
5 0 l
gsave
0.000 setgray
fill
grestore
stroke
grestore
} bind def
80.64 285.905 o
grestore
gsave
/o {
gsave
newpath
translate
2.0 setlinewidth
1 setlinejoin
0 setlinecap
0 0 m
-5 0 l
gsave
0.000 setgray
fill
grestore
stroke
grestore
} bind def
552.96 285.905 o
grestore
gsave
/o {
gsave
newpath
translate
2.0 setlinewidth
1 setlinejoin
0 setlinecap
0 0 m
5 0 l
gsave
0.000 setgray
fill
grestore
stroke
grestore
} bind def
80.64 318.109 o
grestore
gsave
/o {
gsave
newpath
translate
2.0 setlinewidth
1 setlinejoin
0 setlinecap
0 0 m
-5 0 l
gsave
0.000 setgray
fill
grestore
stroke
grestore
} bind def
552.96 318.109 o
grestore
gsave
/o {
gsave
newpath
translate
2.0 setlinewidth
1 setlinejoin
0 setlinecap
0 0 m
5 0 l
gsave
0.000 setgray
fill
grestore
stroke
grestore
} bind def
80.64 350.313 o
grestore
gsave
/o {
gsave
newpath
translate
2.0 setlinewidth
1 setlinejoin
0 setlinecap
0 0 m
-5 0 l
gsave
0.000 setgray
fill
grestore
stroke
grestore
} bind def
552.96 350.313 o
grestore
gsave
/o {
gsave
newpath
translate
2.0 setlinewidth
1 setlinejoin
0 setlinecap
0 0 m
5 0 l
gsave
0.000 setgray
fill
grestore
stroke
grestore
} bind def
80.64 382.516 o
grestore
gsave
/o {
gsave
newpath
translate
2.0 setlinewidth
1 setlinejoin
0 setlinecap
0 0 m
-5 0 l
gsave
0.000 setgray
fill
grestore
stroke
grestore
} bind def
552.96 382.516 o
grestore
gsave
/o {
gsave
newpath
translate
2.0 setlinewidth
1 setlinejoin
0 setlinecap
0 0 m
5 0 l
gsave
0.000 setgray
fill
grestore
stroke
grestore
} bind def
80.64 414.72 o
grestore
gsave
/o {
gsave
newpath
translate
2.0 setlinewidth
1 setlinejoin
0 setlinecap
0 0 m
-5 0 l
gsave
0.000 setgray
fill
grestore
stroke
grestore
} bind def
552.96 414.72 o
grestore
gsave
30.640000 173.100000 translate
90.000000 rotate
/Cmmi10 findfont
24.0 scalefont
setfont
0.000000 0.765625 moveto
/nu glyphshow

/Cmss10 findfont
24.0 scalefont
setfont
20.287500 0.765625 moveto
/F glyphshow

/Cmmi10 findfont
16.8 scalefont
setfont
33.939844 -5.356625 moveto
/nu glyphshow

/BitstreamVeraSans-Roman findfont
24.0 scalefont
setfont
42.241406 0.765625 moveto
/space glyphshow

49.870312 0.765625 moveto
/bracketleft glyphshow

59.233594 0.765625 moveto
/J glyphshow

66.311719 0.765625 moveto
/y glyphshow

80.514844 0.765625 moveto
/space glyphshow

88.143750 0.765625 moveto
/H glyphshow

106.190625 0.765625 moveto
/z glyphshow

118.788281 0.765625 moveto
/bracketright glyphshow


grestore
3.000 setlinewidth
gsave
80.64 414.72 m
552.96 414.72 l
stroke
grestore
gsave
552.96 60.48 m
552.96 414.72 l
stroke
grestore
gsave
80.64 60.48 m
552.96 60.48 l
stroke
grestore
gsave
80.64 60.48 m
80.64 414.72 l
stroke
grestore
1.000 setlinewidth
gsave
87.64 199.5 m
195.04 199.5 l
195.04 275.7 l
87.64 275.7 l
87.64 199.5 l
cl
gsave
1.000 setgray
fill
grestore
stroke
grestore
2.000 setlinewidth
2 setlinecap
0.000 0.000 1.000 setrgbcolor
gsave
97.44 262 m
117.04 262 l
stroke
grestore
0.000 setgray
gsave
132.440000 257.100000 translate
0.000000 rotate
/Cmmi10 findfont
14.0 scalefont
setfont
0.000000 0.518125 moveto
/a glyphshow

/Cmmi10 findfont
9.8 scalefont
setfont
7.389648 -3.053187 moveto
/a glyphshow

12.562402 -3.053187 moveto
/c glyphshow

16.797266 -3.053187 moveto
/c glyphshow

/Cmr10 findfont
14.0 scalefont
setfont
23.490332 0.518125 moveto
/equal glyphshow

35.245410 0.518125 moveto
/one glyphshow

42.245410 0.518125 moveto
/zero glyphshow

/Cmr10 findfont
9.8 scalefont
setfont
49.245410 6.470313 moveto
/two glyphshow


grestore
0.000 0.500 0.000 setrgbcolor
gsave
97.44 238 m
117.04 238 l
stroke
grestore
0.000 setgray
gsave
132.440000 233.100000 translate
0.000000 rotate
/Cmmi10 findfont
14.0 scalefont
setfont
0.000000 0.518125 moveto
/a glyphshow

/Cmmi10 findfont
9.8 scalefont
setfont
7.389648 -3.053187 moveto
/a glyphshow

12.562402 -3.053187 moveto
/c glyphshow

16.797266 -3.053187 moveto
/c glyphshow

/Cmr10 findfont
14.0 scalefont
setfont
23.490332 0.518125 moveto
/equal glyphshow

35.245410 0.518125 moveto
/one glyphshow

42.245410 0.518125 moveto
/zero glyphshow

/Cmr10 findfont
9.8 scalefont
setfont
49.245410 6.470313 moveto
/four glyphshow


grestore
1.000 0.000 0.000 setrgbcolor
gsave
97.44 214 m
117.04 214 l
stroke
grestore
0.000 setgray
gsave
132.440000 209.100000 translate
0.000000 rotate
/Cmmi10 findfont
14.0 scalefont
setfont
0.000000 0.518125 moveto
/a glyphshow

/Cmmi10 findfont
9.8 scalefont
setfont
7.389648 -3.053187 moveto
/a glyphshow

12.562402 -3.053187 moveto
/c glyphshow

16.797266 -3.053187 moveto
/c glyphshow

/Cmr10 findfont
14.0 scalefont
setfont
23.490332 0.518125 moveto
/equal glyphshow

35.245410 0.518125 moveto
/one glyphshow

42.245410 0.518125 moveto
/zero glyphshow

/Cmr10 findfont
9.8 scalefont
setfont
49.245410 6.470313 moveto
/six glyphshow


grestore
1.000 setlinewidth
0 setlinecap
gsave
405.56 193.953 m
545.96 193.953 l
545.96 281.247 l
405.56 281.247 l
405.56 193.953 l
cl
gsave
1.000 setgray
fill
grestore
stroke
grestore
2.000 setlinewidth
[1 3] 0 setdash
gsave
415.36 269.906 m
434.96 269.906 l
stroke
grestore
gsave
450.360000 265.006250 translate
0.000000 rotate
/Cmmi10 findfont
14.0 scalefont
setfont
0.000000 0.671875 moveto
/t glyphshow

/Cmr10 findfont
14.0 scalefont
setfont
7.509961 0.671875 moveto
/equal glyphshow

19.265039 0.671875 moveto
/three glyphshow

/Cmmi10 findfont
14.0 scalefont
setfont
26.265039 0.671875 moveto
/period glyphshow

/Cmr10 findfont
14.0 scalefont
setfont
30.254492 0.671875 moveto
/zero glyphshow

37.254492 0.671875 moveto
/one glyphshow

44.254492 0.671875 moveto
/eight glyphshow

56.170898 0.671875 moveto
/s glyphshow


grestore
[3 5 1 5] 0 setdash
gsave
415.36 249.359 m
434.96 249.359 l
stroke
grestore
gsave
450.360000 244.459375 translate
0.000000 rotate
/Cmmi10 findfont
14.0 scalefont
setfont
0.000000 0.671875 moveto
/t glyphshow

/Cmr10 findfont
14.0 scalefont
setfont
7.509961 0.671875 moveto
/equal glyphshow

19.265039 0.671875 moveto
/one glyphshow

26.265039 0.671875 moveto
/nine glyphshow

/Cmmi10 findfont
14.0 scalefont
setfont
33.265039 0.671875 moveto
/period glyphshow

/Cmr10 findfont
14.0 scalefont
setfont
37.254492 0.671875 moveto
/two glyphshow

44.254492 0.671875 moveto
/four glyphshow

51.254492 0.671875 moveto
/eight glyphshow

63.170898 0.671875 moveto
/s glyphshow


grestore
[6 6] 0 setdash
gsave
415.36 228.359 m
434.96 228.359 l
stroke
grestore
gsave
450.360000 223.459375 translate
0.000000 rotate
/Cmmi10 findfont
14.0 scalefont
setfont
0.000000 0.518125 moveto
/t glyphshow

/Cmr10 findfont
14.0 scalefont
setfont
7.509961 0.518125 moveto
/equal glyphshow

19.265039 0.518125 moveto
/one glyphshow

/Cmmi10 findfont
14.0 scalefont
setfont
26.265039 0.518125 moveto
/period glyphshow

/Cmr10 findfont
14.0 scalefont
setfont
30.254492 0.518125 moveto
/zero glyphshow

37.254492 0.518125 moveto
/one glyphshow

44.254492 0.518125 moveto
/two glyphshow

/Cmsy10 findfont
14.0 scalefont
setfont
53.712695 0.518125 moveto
/periodcentered glyphshow

/Cmr10 findfont
14.0 scalefont
setfont
57.702148 0.518125 moveto
/one glyphshow

64.702148 0.518125 moveto
/zero glyphshow

/Cmr10 findfont
9.8 scalefont
setfont
71.702148 6.470313 moveto
/three glyphshow

/Cmr10 findfont
14.0 scalefont
setfont
83.899430 0.518125 moveto
/s glyphshow


grestore
2 setlinecap
[] 0 setdash
gsave
415.36 207.359 m
434.96 207.359 l
stroke
grestore
gsave
450.360000 202.459375 translate
0.000000 rotate
/Cmmi10 findfont
14.0 scalefont
setfont
0.000000 0.518125 moveto
/t glyphshow

/Cmr10 findfont
14.0 scalefont
setfont
7.509961 0.518125 moveto
/equal glyphshow

19.265039 0.518125 moveto
/nine glyphshow

/Cmmi10 findfont
14.0 scalefont
setfont
26.265039 0.518125 moveto
/period glyphshow

/Cmr10 findfont
14.0 scalefont
setfont
30.254492 0.518125 moveto
/eight glyphshow

37.254492 0.518125 moveto
/seven glyphshow

44.254492 0.518125 moveto
/zero glyphshow

/Cmsy10 findfont
14.0 scalefont
setfont
53.712695 0.518125 moveto
/periodcentered glyphshow

/Cmr10 findfont
14.0 scalefont
setfont
57.702148 0.518125 moveto
/one glyphshow

64.702148 0.518125 moveto
/zero glyphshow

/Cmr10 findfont
9.8 scalefont
setfont
71.702148 6.470313 moveto
/four glyphshow

/Cmr10 findfont
14.0 scalefont
setfont
83.899430 0.518125 moveto
/s glyphshow


grestore

end
showpage
