%!PS-Adobe-3.0 EPSF-3.0
%%Title: Deltaacc_vs_time-strongmag.eps
%%Creator: matplotlib version 1.3.1, http://matplotlib.org/
%%CreationDate: Fri Jul  4 10:05:52 2014
%%Orientation: portrait
%%BoundingBox: 18 180 594 612
%%EndComments
%%BeginProlog
/mpldict 12 dict def
mpldict begin
/m { moveto } bind def
/l { lineto } bind def
/r { rlineto } bind def
/c { curveto } bind def
/cl { closepath } bind def
/box {
m
1 index 0 r
0 exch r
neg 0 r
cl
} bind def
/clipbox {
box
clip
newpath
} bind def
%!PS-Adobe-3.0 Resource-Font
%%Title: cmsy10
%%Copyright: Copyright (C) 1994, Basil K. Malyshev. All Rights Reserved.012BaKoMa Fonts Collection, Level-B.
%%Creator: Converted from TrueType to type 3 by PPR
25 dict begin
/_d{bind def}bind def
/_m{moveto}_d
/_l{lineto}_d
/_cl{closepath eofill}_d
/_c{curveto}_d
/_sc{7 -1 roll{setcachedevice}{pop pop pop pop pop pop}ifelse}_d
/_e{exec}_d
/FontName /Cmsy10 def
/PaintType 0 def
/FontMatrix[.001 0 0 .001 0 0]def
/FontBBox[-29 -960 1123 779]def
/FontType 3 def
/Encoding [ /periodcentered ] def
/FontInfo 10 dict dup begin
/FamilyName (cmsy10) def
/FullName (cmsy10) def
/Notice (Copyright (C) 1994, Basil K. Malyshev. All Rights Reserved.012BaKoMa Fonts Collection, Level-B. ) def
/Weight (Regular) def
/Version (1.1/12-Nov-94) def
/ItalicAngle 0.0 def
/isFixedPitch false def
/UnderlinePosition -133 def
/UnderlineThickness 20 def
end readonly def
/CharStrings 1 dict dup begin
/periodcentered{277 0 84 195 194 305 _sc
84 250 _m
84 259 86 268 91 277 _c
96 285 103 292 112 297 _c
120 302 129 305 139 305 _c
148 305 157 302 166 297 _c
174 292 181 285 186 277 _c
191 268 194 259 194 250 _c
194 235 188 222 178 211 _c
167 200 154 195 139 195 _c
124 195 111 200 100 211 _c
89 222 84 235 84 250 _c
_cl}_d
end readonly def

/BuildGlyph
 {exch begin
 CharStrings exch
 2 copy known not{pop /.notdef}if
 true 3 1 roll get exec
 end}_d

/BuildChar {
 1 index /Encoding get exch get
 1 index /BuildGlyph get exec
}_d

FontName currentdict end definefont pop
%!PS-Adobe-3.0 Resource-Font
%%Title: cmmi10
%%Copyright: Copyright (C) 1994, Basil K. Malyshev. All Rights Reserved.012BaKoMa Fonts Collection, Level-B.
%%Creator: Converted from TrueType to type 3 by PPR
25 dict begin
/_d{bind def}bind def
/_m{moveto}_d
/_l{lineto}_d
/_cl{closepath eofill}_d
/_c{curveto}_d
/_sc{7 -1 roll{setcachedevice}{pop pop pop pop pop pop}ifelse}_d
/_e{exec}_d
/FontName /Cmmi10 def
/PaintType 0 def
/FontMatrix[.001 0 0 .001 0 0]def
/FontBBox[-34 -250 1048 750]def
/FontType 3 def
/Encoding [ /nu /t /period /a /c ] def
/FontInfo 10 dict dup begin
/FamilyName (cmmi10) def
/FullName (cmmi10) def
/Notice (Copyright (C) 1994, Basil K. Malyshev. All Rights Reserved.012BaKoMa Fonts Collection, Level-B. ) def
/Weight (Regular) def
/Version (1.1/12-Nov-94) def
/ItalicAngle 0.0 def
/isFixedPitch false def
/UnderlinePosition -133 def
/UnderlineThickness 20 def
end readonly def
/CharStrings 5 dict dup begin
/nu{{494 0 51 0 526 442 _sc
63 0 _m
55 0 51 4 51 13 _c
136 353 _l
138 364 140 373 141 380 _c
141 390 119 396 76 396 _c
69 396 66 400 66 409 _c
66 411 66 414 68 418 _c
69 422 70 425 72 427 _c
74 429 76 431 80 431 _c
215 442 _l
223 442 227 437 227 429 _c
129 37 _l
181 54 230 81 274 119 _c
318 157 356 201 387 252 _c
418 302 440 355 454 410 _c
}_e{456 419 461 427 469 433 _c
477 439 486 442 496 442 _c
504 442 511 439 517 434 _c
523 428 526 421 526 413 _c
526 402 521 386 513 364 _c
504 342 495 322 487 305 _c
460 253 425 205 382 161 _c
354 133 325 109 294 88 _c
262 67 229 49 195 34 _c
161 19 125 8 87 0 _c
63 0 _l
_cl}_e}_d
/t{{361 0 22 -10 330 626 _sc
62 81 _m
62 91 63 100 65 109 _c
137 396 _l
32 396 _l
25 396 22 400 22 409 _c
24 423 29 431 35 431 _c
146 431 _l
186 594 _l
188 602 193 610 201 616 _c
209 622 218 626 228 626 _c
236 626 243 623 249 618 _c
255 613 258 606 258 598 _c
258 596 257 594 257 593 _c
257 592 257 591 257 590 _c
217 431 _l
320 431 _l
326 431 330 426 330 418 _c
}_e{330 416 329 414 328 410 _c
327 406 326 402 324 400 _c
322 397 320 396 317 396 _c
208 396 _l
136 107 _l
131 88 129 72 129 58 _c
129 29 138 15 158 15 _c
187 15 213 28 236 56 _c
258 84 276 114 288 147 _c
290 151 293 153 296 153 _c
308 153 _l
310 153 312 152 314 150 _c
316 148 317 146 317 144 _c
317 142 316 141 316 141 _c
301 101 280 65 252 35 _c
}_e{224 5 192 -10 156 -10 _c
129 -10 107 -1 89 15 _c
71 32 62 54 62 81 _c
_cl}_e}_d
/period{277 0 84 0 194 110 _sc
84 55 _m
84 70 89 83 100 94 _c
111 104 124 110 139 110 _c
148 110 157 107 166 102 _c
174 97 181 90 186 82 _c
191 73 194 64 194 55 _c
194 40 188 27 178 16 _c
167 5 154 0 139 0 _c
124 0 111 5 100 16 _c
89 27 84 40 84 55 _c
_cl}_d
/a{{528 0 38 -10 501 442 _sc
174 -10 _m
132 -10 98 5 74 37 _c
50 68 38 105 38 149 _c
38 191 49 236 71 282 _c
93 328 122 366 160 396 _c
198 426 238 442 282 442 _c
302 442 319 436 335 426 _c
351 415 363 400 372 382 _c
379 408 394 422 416 422 _c
424 422 431 419 437 414 _c
443 409 446 402 446 394 _c
446 392 445 390 445 389 _c
445 388 445 387 445 386 _c
375 107 _l
}_e{370 87 368 70 368 58 _c
368 29 377 15 397 15 _c
417 15 433 28 444 55 _c
455 81 464 112 472 147 _c
473 151 476 153 480 153 _c
492 153 _l
494 153 496 151 498 149 _c
500 147 501 145 501 143 _c
489 96 476 59 462 31 _c
448 3 426 -10 395 -10 _c
372 -10 352 -3 335 9 _c
318 21 307 39 303 61 _c
260 13 217 -10 174 -10 _c
175 15 _m
199 15 222 24 245 42 _c
}_e{267 60 287 81 303 106 _c
303 106 304 107 304 109 _c
358 326 _l
359 329 _l
355 353 346 373 333 390 _c
319 407 302 416 280 416 _c
257 416 236 406 217 388 _c
197 370 181 348 168 323 _c
154 296 142 259 130 213 _c
118 167 113 131 113 105 _c
113 81 118 60 128 42 _c
138 24 153 15 175 15 _c
_cl}_e}_d
/c{{432 0 40 -10 430 442 _sc
117 119 _m
117 90 124 65 139 45 _c
154 25 175 15 203 15 _c
243 15 281 24 318 42 _c
354 60 384 86 407 118 _c
409 120 411 121 415 121 _c
418 121 421 119 425 115 _c
428 111 430 108 430 105 _c
430 102 429 100 428 99 _c
404 65 371 38 330 19 _c
288 0 245 -10 201 -10 _c
169 -10 140 -2 116 12 _c
92 26 73 46 60 72 _c
}_e{46 97 40 126 40 158 _c
40 203 52 248 77 292 _c
102 336 135 372 177 400 _c
219 428 263 442 309 442 _c
339 442 366 434 390 420 _c
414 405 426 384 426 356 _c
426 338 420 322 410 309 _c
399 296 385 290 367 290 _c
356 290 347 293 340 300 _c
332 306 329 315 329 326 _c
329 342 334 355 346 366 _c
357 377 370 383 386 383 _c
388 383 _l
380 394 368 402 354 408 _c
}_e{339 413 324 416 308 416 _c
269 416 235 399 206 366 _c
176 332 154 292 139 246 _c
124 200 117 157 117 119 _c
_cl}_e}_d
end readonly def

/BuildGlyph
 {exch begin
 CharStrings exch
 2 copy known not{pop /.notdef}if
 true 3 1 roll get exec
 end}_d

/BuildChar {
 1 index /Encoding get exch get
 1 index /BuildGlyph get exec
}_d

FontName currentdict end definefont pop
%!PS-Adobe-3.0 Resource-Font
%%Title: cmss10
%%Copyright: Copyright (C) 1994, Basil K. Malyshev. All Rights Reserved.012BaKoMa Fonts Collection, Level-B.
%%Creator: Converted from TrueType to type 3 by PPR
25 dict begin
/_d{bind def}bind def
/_m{moveto}_d
/_l{lineto}_d
/_cl{closepath eofill}_d
/_c{curveto}_d
/_sc{7 -1 roll{setcachedevice}{pop pop pop pop pop pop}ifelse}_d
/_e{exec}_d
/FontName /Cmss10 def
/PaintType 0 def
/FontMatrix[.001 0 0 .001 0 0]def
/FontBBox[-61 -250 999 760]def
/FontType 3 def
/Encoding [ /F ] def
/FontInfo 10 dict dup begin
/FamilyName (cmss10) def
/FullName (cmss10) def
/Notice (Copyright (C) 1994, Basil K. Malyshev. All Rights Reserved.012BaKoMa Fonts Collection, Level-B. ) def
/Weight (Regular) def
/Version (1.1/12-Nov-94) def
/ItalicAngle 0.0 def
/isFixedPitch false def
/UnderlinePosition -133 def
/UnderlineThickness 20 def
end readonly def
/CharStrings 1 dict dup begin
/F{569 0 92 0 526 694 _sc
92 0 _m
92 694 _l
526 694 _l
526 625 _l
185 626 _l
185 380 _l
485 380 _l
485 315 _l
185 315 _l
185 0 _l
92 0 _l
_cl}_d
end readonly def

/BuildGlyph
 {exch begin
 CharStrings exch
 2 copy known not{pop /.notdef}if
 true 3 1 roll get exec
 end}_d

/BuildChar {
 1 index /Encoding get exch get
 1 index /BuildGlyph get exec
}_d

FontName currentdict end definefont pop
%!PS-Adobe-3.0 Resource-Font
%%Title: Bitstream Vera Sans
%%Copyright: Copyright (c) 2003 by Bitstream, Inc. All Rights Reserved.
%%Creator: Converted from TrueType to type 3 by PPR
25 dict begin
/_d{bind def}bind def
/_m{moveto}_d
/_l{lineto}_d
/_cl{closepath eofill}_d
/_c{curveto}_d
/_sc{7 -1 roll{setcachedevice}{pop pop pop pop pop pop}ifelse}_d
/_e{exec}_d
/FontName /BitstreamVeraSans-Roman def
/PaintType 0 def
/FontMatrix[.001 0 0 .001 0 0]def
/FontBBox[-183 -236 1287 928]def
/FontType 3 def
/Encoding [ /space /zero /one /two /three /four /five /six /seven /eight /nine /H /J /bracketleft /bracketright /y /z ] def
/FontInfo 10 dict dup begin
/FamilyName (Bitstream Vera Sans) def
/FullName (Bitstream Vera Sans) def
/Notice (Copyright (c) 2003 by Bitstream, Inc. All Rights Reserved. Bitstream Vera is a trademark of Bitstream, Inc.) def
/Weight (Roman) def
/Version (Release 1.10) def
/ItalicAngle 0.0 def
/isFixedPitch false def
/UnderlinePosition -213 def
/UnderlineThickness 143 def
end readonly def
/CharStrings 17 dict dup begin
/space{318 0 0 0 0 0 _sc
}_d
/zero{636 0 66 -13 570 742 _sc
318 664 _m
267 664 229 639 203 589 _c
177 539 165 464 165 364 _c
165 264 177 189 203 139 _c
229 89 267 64 318 64 _c
369 64 407 89 433 139 _c
458 189 471 264 471 364 _c
471 464 458 539 433 589 _c
407 639 369 664 318 664 _c
318 742 _m
399 742 461 709 505 645 _c
548 580 570 486 570 364 _c
570 241 548 147 505 83 _c
461 19 399 -13 318 -13 _c
236 -13 173 19 130 83 _c
87 147 66 241 66 364 _c
66 486 87 580 130 645 _c
173 709 236 742 318 742 _c
_cl}_d
/one{636 0 110 0 544 729 _sc
124 83 _m
285 83 _l
285 639 _l
110 604 _l
110 694 _l
284 729 _l
383 729 _l
383 83 _l
544 83 _l
544 0 _l
124 0 _l
124 83 _l
_cl}_d
/two{{636 0 73 0 536 742 _sc
192 83 _m
536 83 _l
536 0 _l
73 0 _l
73 83 _l
110 121 161 173 226 239 _c
290 304 331 346 348 365 _c
380 400 402 430 414 455 _c
426 479 433 504 433 528 _c
433 566 419 598 392 622 _c
365 646 330 659 286 659 _c
255 659 222 653 188 643 _c
154 632 117 616 78 594 _c
78 694 _l
118 710 155 722 189 730 _c
223 738 255 742 284 742 _c
}_e{359 742 419 723 464 685 _c
509 647 532 597 532 534 _c
532 504 526 475 515 449 _c
504 422 484 390 454 354 _c
446 344 420 317 376 272 _c
332 227 271 164 192 83 _c
_cl}_e}_d
/three{{636 0 76 -13 556 742 _sc
406 393 _m
453 383 490 362 516 330 _c
542 298 556 258 556 212 _c
556 140 531 84 482 45 _c
432 6 362 -13 271 -13 _c
240 -13 208 -10 176 -4 _c
144 1 110 10 76 22 _c
76 117 _l
103 101 133 89 166 81 _c
198 73 232 69 268 69 _c
330 69 377 81 409 105 _c
441 129 458 165 458 212 _c
458 254 443 288 413 312 _c
383 336 341 349 287 349 _c
}_e{202 349 _l
202 430 _l
291 430 _l
339 430 376 439 402 459 _c
428 478 441 506 441 543 _c
441 580 427 609 401 629 _c
374 649 336 659 287 659 _c
260 659 231 656 200 650 _c
169 644 135 635 98 623 _c
98 711 _l
135 721 170 729 203 734 _c
235 739 266 742 296 742 _c
370 742 429 725 473 691 _c
517 657 539 611 539 553 _c
539 513 527 479 504 451 _c
481 423 448 403 406 393 _c
_cl}_e}_d
/four{636 0 49 0 580 729 _sc
378 643 _m
129 254 _l
378 254 _l
378 643 _l
352 729 _m
476 729 _l
476 254 _l
580 254 _l
580 172 _l
476 172 _l
476 0 _l
378 0 _l
378 172 _l
49 172 _l
49 267 _l
352 729 _l
_cl}_d
/five{{636 0 77 -13 549 729 _sc
108 729 _m
495 729 _l
495 646 _l
198 646 _l
198 467 _l
212 472 227 476 241 478 _c
255 480 270 482 284 482 _c
365 482 429 459 477 415 _c
525 370 549 310 549 234 _c
549 155 524 94 475 51 _c
426 8 357 -13 269 -13 _c
238 -13 207 -10 175 -6 _c
143 -1 111 6 77 17 _c
77 116 _l
106 100 136 88 168 80 _c
199 72 232 69 267 69 _c
}_e{323 69 368 83 401 113 _c
433 143 450 183 450 234 _c
450 284 433 324 401 354 _c
368 384 323 399 267 399 _c
241 399 214 396 188 390 _c
162 384 135 375 108 363 _c
108 729 _l
_cl}_e}_d
/six{{636 0 70 -13 573 742 _sc
330 404 _m
286 404 251 388 225 358 _c
199 328 186 286 186 234 _c
186 181 199 139 225 109 _c
251 79 286 64 330 64 _c
374 64 409 79 435 109 _c
461 139 474 181 474 234 _c
474 286 461 328 435 358 _c
409 388 374 404 330 404 _c
526 713 _m
526 623 _l
501 635 476 644 451 650 _c
425 656 400 659 376 659 _c
310 659 260 637 226 593 _c
}_e{192 549 172 482 168 394 _c
187 422 211 444 240 459 _c
269 474 301 482 336 482 _c
409 482 467 459 509 415 _c
551 371 573 310 573 234 _c
573 159 550 99 506 54 _c
462 9 403 -13 330 -13 _c
246 -13 181 19 137 83 _c
92 147 70 241 70 364 _c
70 479 97 571 152 639 _c
206 707 280 742 372 742 _c
396 742 421 739 447 735 _c
472 730 498 723 526 713 _c
_cl}_e}_d
/seven{636 0 82 0 551 729 _sc
82 729 _m
551 729 _l
551 687 _l
286 0 _l
183 0 _l
432 646 _l
82 646 _l
82 729 _l
_cl}_d
/eight{{636 0 68 -13 568 742 _sc
318 346 _m
271 346 234 333 207 308 _c
180 283 167 249 167 205 _c
167 161 180 126 207 101 _c
234 76 271 64 318 64 _c
364 64 401 76 428 102 _c
455 127 469 161 469 205 _c
469 249 455 283 429 308 _c
402 333 365 346 318 346 _c
219 388 _m
177 398 144 418 120 447 _c
96 476 85 511 85 553 _c
85 611 105 657 147 691 _c
188 725 245 742 318 742 _c
}_e{390 742 447 725 489 691 _c
530 657 551 611 551 553 _c
551 511 539 476 515 447 _c
491 418 459 398 417 388 _c
464 377 501 355 528 323 _c
554 291 568 251 568 205 _c
568 134 546 80 503 43 _c
459 5 398 -13 318 -13 _c
237 -13 175 5 132 43 _c
89 80 68 134 68 205 _c
68 251 81 291 108 323 _c
134 355 171 377 219 388 _c
183 544 _m
183 506 194 476 218 455 _c
}_e{242 434 275 424 318 424 _c
360 424 393 434 417 455 _c
441 476 453 506 453 544 _c
453 582 441 611 417 632 _c
393 653 360 664 318 664 _c
275 664 242 653 218 632 _c
194 611 183 582 183 544 _c
_cl}_e}_d
/nine{{636 0 63 -13 566 742 _sc
110 15 _m
110 105 _l
134 93 159 84 185 78 _c
210 72 235 69 260 69 _c
324 69 374 90 408 134 _c
442 178 462 244 468 334 _c
448 306 424 284 396 269 _c
367 254 335 247 300 247 _c
226 247 168 269 126 313 _c
84 357 63 417 63 494 _c
63 568 85 628 129 674 _c
173 719 232 742 306 742 _c
390 742 455 709 499 645 _c
543 580 566 486 566 364 _c
}_e{566 248 538 157 484 89 _c
429 21 356 -13 264 -13 _c
239 -13 214 -10 189 -6 _c
163 -2 137 5 110 15 _c
306 324 _m
350 324 385 339 411 369 _c
437 399 450 441 450 494 _c
450 546 437 588 411 618 _c
385 648 350 664 306 664 _c
262 664 227 648 201 618 _c
175 588 162 546 162 494 _c
162 441 175 399 201 369 _c
227 339 262 324 306 324 _c
_cl}_e}_d
/H{752 0 98 0 654 729 _sc
98 729 _m
197 729 _l
197 430 _l
555 430 _l
555 729 _l
654 729 _l
654 0 _l
555 0 _l
555 347 _l
197 347 _l
197 0 _l
98 0 _l
98 729 _l
_cl}_d
/J{295 0 -51 -199 197 729 _sc
98 729 _m
197 729 _l
197 51 _l
197 -36 180 -99 147 -139 _c
113 -179 60 -199 -13 -199 _c
-51 -199 _l
-51 -116 _l
-20 -116 _l
22 -116 53 -103 71 -79 _c
89 -55 98 -11 98 51 _c
98 729 _l
_cl}_d
/bracketleft{390 0 86 -131 293 760 _sc
86 760 _m
293 760 _l
293 690 _l
176 690 _l
176 -61 _l
293 -61 _l
293 -131 _l
86 -131 _l
86 760 _l
_cl}_d
/bracketright{390 0 97 -131 304 760 _sc
304 760 _m
304 -131 _l
97 -131 _l
97 -61 _l
214 -61 _l
214 690 _l
97 690 _l
97 760 _l
304 760 _l
_cl}_d
/y{592 0 30 -207 562 547 _sc
322 -50 _m
296 -114 271 -157 247 -177 _c
223 -197 191 -207 151 -207 _c
79 -207 _l
79 -132 _l
132 -132 _l
156 -132 175 -126 189 -114 _c
203 -102 218 -75 235 -31 _c
251 9 _l
30 547 _l
125 547 _l
296 119 _l
467 547 _l
562 547 _l
322 -50 _l
_cl}_d
/z{525 0 43 0 482 547 _sc
55 547 _m
482 547 _l
482 465 _l
144 72 _l
482 72 _l
482 0 _l
43 0 _l
43 82 _l
381 475 _l
55 475 _l
55 547 _l
_cl}_d
end readonly def

/BuildGlyph
 {exch begin
 CharStrings exch
 2 copy known not{pop /.notdef}if
 true 3 1 roll get exec
 end}_d

/BuildChar {
 1 index /Encoding get exch get
 1 index /BuildGlyph get exec
}_d

FontName currentdict end definefont pop
%!PS-Adobe-3.0 Resource-Font
%%Title: cmr10
%%Copyright: Copyright (C) 1994, Basil K. Malyshev. All Rights Reserved.012BaKoMa Fonts Collection, Level-B.
%%Creator: Converted from TrueType to type 3 by PPR
25 dict begin
/_d{bind def}bind def
/_m{moveto}_d
/_l{lineto}_d
/_cl{closepath eofill}_d
/_c{curveto}_d
/_sc{7 -1 roll{setcachedevice}{pop pop pop pop pop pop}ifelse}_d
/_e{exec}_d
/FontName /Cmr10 def
/PaintType 0 def
/FontMatrix[.001 0 0 .001 0 0]def
/FontBBox[-44 -250 1009 750]def
/FontType 3 def
/Encoding [ /Delta /nine /zero /equal /two /four /eight /s /one /three /seven ] def
/FontInfo 10 dict dup begin
/FamilyName (cmr10) def
/FullName (cmr10) def
/Notice (Copyright (C) 1994, Basil K. Malyshev. All Rights Reserved.012BaKoMa Fonts Collection, Level-B. ) def
/Weight (Regular) def
/Version (1.1/12-Nov-94) def
/ItalicAngle 0.0 def
/isFixedPitch false def
/UnderlinePosition -133 def
/UnderlineThickness 20 def
end readonly def
/CharStrings 11 dict dup begin
/Delta{833 0 46 0 786 716 _sc
54 0 _m
48 0 46 2 46 8 _c
46 8 46 9 46 9 _c
46 9 47 10 47 11 _c
391 705 _l
394 712 400 716 409 716 _c
423 716 _l
432 716 438 712 441 705 _c
785 11 _l
785 10 786 9 786 9 _c
786 9 786 8 786 8 _c
786 2 783 0 778 0 _c
54 0 _l
120 80 _m
647 80 _l
384 611 _l
120 80 _l
_cl}_d
/nine{{500 0 42 -21 457 666 _sc
113 42 _m
131 20 162 10 208 10 _c
233 10 257 18 279 36 _c
301 53 318 74 330 99 _c
344 127 353 158 357 190 _c
361 222 363 261 363 309 _c
351 282 335 260 314 243 _c
292 225 268 217 240 217 _c
201 217 166 227 136 248 _c
106 269 82 297 66 331 _c
50 365 42 402 42 441 _c
42 481 51 518 69 553 _c
87 587 113 615 145 635 _c
}_e{177 655 213 666 255 666 _c
295 666 328 655 356 633 _c
383 611 404 582 418 548 _c
432 513 442 476 448 438 _c
454 399 457 361 457 323 _c
457 271 447 219 428 165 _c
409 111 381 67 344 32 _c
306 -3 261 -21 208 -21 _c
168 -21 135 -12 108 6 _c
80 24 67 52 67 90 _c
67 103 71 114 81 124 _c
90 133 101 138 115 138 _c
128 138 139 133 149 124 _c
}_e{158 114 163 103 163 90 _c
163 76 158 65 149 56 _c
139 46 128 42 115 42 _c
113 42 _l
244 243 _m
271 243 293 252 311 270 _c
328 288 341 311 349 339 _c
357 366 361 393 361 421 _c
361 440 _l
361 444 _l
361 494 353 538 339 578 _c
324 617 296 637 255 637 _c
228 637 206 631 190 620 _c
174 608 162 593 154 574 _c
146 554 141 534 139 512 _c
137 490 136 466 136 441 _c
}_e{136 403 137 370 141 344 _c
145 317 155 293 171 273 _c
187 253 211 243 244 243 _c
_cl}_e}_d
/zero{{500 0 39 -21 460 666 _sc
250 -21 _m
168 -21 112 12 83 79 _c
53 146 39 226 39 319 _c
39 377 44 431 55 482 _c
65 533 86 576 118 612 _c
149 648 193 666 250 666 _c
294 666 330 655 358 634 _c
386 612 407 585 422 551 _c
436 517 446 480 452 441 _c
457 402 460 361 460 319 _c
460 261 454 208 444 158 _c
433 108 412 65 381 31 _c
350 -3 306 -21 250 -21 _c
250 4 _m
}_e{287 4 315 23 333 61 _c
351 99 362 141 366 187 _c
370 233 373 283 373 335 _c
373 385 370 431 366 473 _c
362 515 351 554 333 588 _c
315 622 287 640 250 640 _c
212 640 184 622 166 588 _c
148 554 136 515 132 473 _c
128 431 126 385 126 335 _c
126 297 126 262 128 230 _c
130 197 135 163 143 128 _c
151 93 163 64 181 40 _c
198 16 221 4 250 4 _c
_cl}_e}_d
/equal{{777 0 56 133 721 367 _sc
75 133 _m
69 133 65 135 61 139 _c
57 143 56 148 56 153 _c
56 158 57 163 61 167 _c
65 171 69 173 75 173 _c
703 173 _l
707 173 711 171 715 167 _c
719 163 721 158 721 153 _c
721 148 719 143 715 139 _c
711 135 707 133 703 133 _c
75 133 _l
75 327 _m
69 327 65 329 61 333 _c
57 337 56 341 56 347 _c
56 351 57 356 61 360 _c
}_e{65 364 69 367 75 367 _c
703 367 _l
707 367 711 364 715 360 _c
719 356 721 351 721 347 _c
721 341 719 337 715 333 _c
711 329 707 327 703 327 _c
75 327 _l
_cl}_e}_d
/two{{500 0 50 0 449 666 _sc
50 0 _m
50 27 _l
50 28 50 30 52 32 _c
207 204 _l
230 229 249 250 264 268 _c
278 285 293 305 307 327 _c
321 349 333 372 341 396 _c
349 419 354 444 354 470 _c
354 497 349 523 339 548 _c
329 573 314 593 294 608 _c
274 623 249 631 221 631 _c
192 631 166 622 143 605 _c
119 587 103 565 94 537 _c
96 537 100 538 105 538 _c
}_e{119 538 132 533 143 523 _c
153 513 159 500 159 484 _c
159 468 153 455 143 445 _c
132 434 119 429 105 429 _c
89 429 76 434 66 445 _c
55 456 50 469 50 484 _c
50 508 54 532 64 554 _c
73 576 86 595 104 613 _c
122 630 142 643 164 652 _c
186 661 210 666 236 666 _c
274 666 309 658 342 642 _c
375 626 401 603 420 573 _c
439 543 449 509 449 470 _c
}_e{449 441 442 414 430 388 _c
417 362 401 338 381 317 _c
361 295 336 271 305 244 _c
274 217 254 199 244 190 _c
131 81 _l
227 81 _l
274 81 313 81 345 82 _c
377 82 394 84 396 86 _c
404 94 412 125 420 178 _c
449 178 _l
421 0 _l
50 0 _l
_cl}_e}_d
/four{{500 0 28 0 471 666 _sc
28 165 _m
28 200 _l
337 661 _l
339 664 342 666 347 666 _c
362 666 _l
369 666 373 662 373 655 _c
373 200 _l
471 200 _l
471 165 _l
373 165 _l
373 67 _l
373 53 382 44 402 40 _c
422 36 444 35 470 35 _c
470 0 _l
195 0 _l
195 35 _l
220 35 242 36 262 40 _c
282 44 292 53 292 67 _c
292 165 _l
28 165 _l
61 200 _m
298 200 _l
}_e{298 554 _l
61 200 _l
_cl}_e}_d
/eight{{500 0 42 -21 457 666 _sc
42 152 _m
42 192 55 227 81 258 _c
107 288 141 314 183 335 _c
146 359 _l
123 373 104 393 90 418 _c
76 443 69 469 69 497 _c
69 529 77 557 94 583 _c
110 609 133 629 161 644 _c
189 658 218 666 250 666 _c
279 666 307 660 335 648 _c
363 636 385 618 403 596 _c
421 574 430 547 430 516 _c
430 493 424 472 414 453 _c
403 434 388 417 370 402 _c
}_e{352 386 332 373 312 363 _c
369 326 _l
395 308 417 286 433 258 _c
449 230 457 200 457 170 _c
457 134 447 101 428 71 _c
408 41 383 19 351 3 _c
319 -13 285 -21 250 -21 _c
215 -21 182 -14 150 0 _c
118 13 92 33 72 60 _c
52 86 42 117 42 152 _c
96 152 _m
96 125 103 101 118 79 _c
132 57 151 40 175 28 _c
199 16 224 10 250 10 _c
288 10 323 21 355 44 _c
}_e{387 66 403 96 403 134 _c
403 146 400 159 395 171 _c
390 183 383 195 374 205 _c
365 215 355 224 344 231 _c
210 318 _l
189 306 170 292 152 275 _c
134 258 121 239 111 218 _c
101 197 96 175 96 152 _c
165 457 _m
286 379 _l
314 395 337 414 355 438 _c
373 461 382 487 382 516 _c
382 538 375 559 363 578 _c
350 596 334 611 314 621 _c
294 631 272 637 249 637 _c
}_e{229 637 208 633 188 625 _c
167 617 150 606 137 590 _c
123 574 117 556 117 536 _c
117 504 133 478 165 457 _c
_cl}_e}_d
/s{{394 0 33 -10 360 448 _sc
33 -2 _m
33 160 _l
33 165 36 168 42 168 _c
54 168 _l
58 168 60 165 62 160 _c
80 63 125 15 197 15 _c
228 15 254 22 276 36 _c
297 50 308 73 308 103 _c
308 124 299 142 283 158 _c
266 173 246 183 224 189 _c
157 202 _l
135 206 114 214 96 224 _c
77 234 62 248 50 265 _c
38 281 33 301 33 323 _c
33 352 40 376 56 395 _c
}_e{72 413 92 427 117 435 _c
141 443 168 448 197 448 _c
231 448 260 439 286 421 _c
315 446 _l
315 447 316 448 320 448 _c
327 448 _l
329 448 330 447 332 445 _c
334 443 335 442 335 440 _c
335 309 _l
335 303 332 300 327 300 _c
315 300 _l
309 300 306 303 306 309 _c
306 343 296 371 277 393 _c
257 414 230 425 196 425 _c
166 425 140 419 118 408 _c
96 397 85 378 85 351 _c
}_e{85 332 92 317 108 305 _c
124 293 142 285 164 280 _c
232 267 _l
254 261 275 252 295 240 _c
315 228 330 212 342 194 _c
354 175 360 154 360 130 _c
360 106 355 85 347 67 _c
339 49 327 35 313 23 _c
298 11 280 2 260 -2 _c
240 -7 219 -10 197 -10 _c
155 -10 119 3 90 31 _c
53 -8 _l
53 -9 51 -10 48 -10 _c
42 -10 _l
36 -10 33 -7 33 -2 _c
_cl}_e}_d
/one{500 0 87 0 421 666 _sc
93 0 _m
93 35 _l
176 35 218 45 218 67 _c
218 592 _l
183 575 139 567 87 567 _c
87 602 _l
168 602 230 623 272 666 _c
286 666 _l
288 666 291 665 293 663 _c
295 661 296 659 296 657 _c
296 67 _l
296 45 337 35 421 35 _c
421 0 _l
93 0 _l
_cl}_d
/three{{500 0 42 -21 457 666 _sc
95 77 _m
111 54 132 37 158 26 _c
184 15 213 10 243 10 _c
281 10 309 26 325 59 _c
341 92 350 130 350 172 _c
350 190 348 209 345 228 _c
341 247 335 265 327 281 _c
319 297 308 310 294 320 _c
280 330 262 335 242 335 _c
176 335 _l
170 335 167 338 167 344 _c
167 353 _l
167 358 170 361 176 361 _c
231 365 _l
254 365 273 373 289 391 _c
}_e{305 409 316 430 323 456 _c
330 481 334 505 334 528 _c
334 560 326 586 311 606 _c
296 626 273 637 243 637 _c
217 637 193 632 170 622 _c
147 612 129 598 115 579 _c
116 579 117 580 118 580 _c
119 580 120 580 122 580 _c
137 580 150 574 160 564 _c
170 554 175 541 175 527 _c
175 512 170 499 160 489 _c
150 479 137 474 122 474 _c
107 474 94 479 84 489 _c
}_e{74 499 69 512 69 527 _c
69 555 77 580 95 601 _c
112 622 134 638 161 649 _c
188 660 215 666 243 666 _c
263 666 284 663 307 657 _c
329 651 350 642 368 631 _c
386 619 401 605 413 588 _c
424 570 430 550 430 528 _c
430 500 423 474 411 450 _c
399 426 382 406 360 389 _c
338 371 314 358 288 350 _c
317 344 345 333 371 317 _c
397 301 417 280 433 255 _c
}_e{449 229 457 202 457 173 _c
457 136 446 103 426 73 _c
406 43 379 19 347 3 _c
314 -13 279 -21 243 -21 _c
211 -21 180 -15 149 -3 _c
117 8 92 25 72 49 _c
52 73 42 101 42 135 _c
42 151 47 165 58 176 _c
69 187 83 193 100 193 _c
110 193 120 190 129 185 _c
138 180 145 173 150 164 _c
155 154 158 145 158 135 _c
158 118 152 104 141 93 _c
}_e{129 82 116 77 100 77 _c
95 77 _l
_cl}_e}_d
/seven{{500 0 56 -21 485 676 _sc
174 26 _m
174 63 177 99 183 135 _c
189 170 199 205 212 240 _c
224 274 239 308 257 342 _c
275 375 294 406 316 436 _c
407 563 _l
293 563 _l
174 563 113 561 110 558 _c
101 547 93 516 85 466 _c
56 466 _l
89 676 _l
118 676 _l
118 673 _l
118 661 138 653 179 649 _c
219 645 259 644 299 644 _c
485 644 _l
485 618 _l
485 617 484 616 484 616 _c
}_e{484 616 484 615 484 615 _c
346 422 _l
312 372 290 316 282 255 _c
274 193 270 117 270 26 _c
270 12 265 1 256 -7 _c
246 -16 235 -21 222 -21 _c
208 -21 197 -16 188 -7 _c
178 1 174 12 174 26 _c
_cl}_e}_d
end readonly def

/BuildGlyph
 {exch begin
 CharStrings exch
 2 copy known not{pop /.notdef}if
 true 3 1 roll get exec
 end}_d

/BuildChar {
 1 index /Encoding get exch get
 1 index /BuildGlyph get exec
}_d

FontName currentdict end definefont pop
end
%%EndProlog
mpldict begin
18 180 translate
576 432 0 0 clipbox
gsave
0 0 m
576 0 l
576 432 l
0 432 l
cl
1.000 setgray
fill
grestore
gsave
80.64 60.48 m
552.96 60.48 l
552.96 414.72 l
80.64 414.72 l
cl
1.000 setgray
fill
grestore
2.000 setlinewidth
1 setlinejoin
0 setlinecap
[1 3] 0 setdash
0.000 0.000 1.000 setrgbcolor
gsave
472.3 354.2 80.64 60.48 clipbox
80.64 98.4125 m
99.2353 120.7 l
110.392 133.786 l
121.55 146.479 l
128.988 154.589 l
136.426 162.258 l
140.145 165.881 l
143.864 169.333 l
147.583 172.588 l
151.302 175.625 l
155.021 178.424 l
158.74 180.962 l
162.459 183.254 l
166.178 185.343 l
173.616 189.115 l
181.054 192.624 l
184.774 194.285 l
188.493 195.82 l
192.212 197.185 l
195.931 198.348 l
199.65 199.287 l
203.369 200.005 l
207.088 200.524 l
210.807 200.874 l
214.526 201.079 l
218.245 201.126 l
221.964 201.004 l
225.683 200.675 l
229.402 200.086 l
233.121 199.172 l
236.84 197.852 l
240.559 196.027 l
244.278 193.569 l
247.997 190.238 l
251.717 185.911 l
255.436 180.366 l
259.155 173.337 l
262.874 164.509 l
266.593 153.503 l
270.312 139.848 l
274.031 122.846 l
277.75 101.35 l
281.469 74.6204 l
285.188 41.5395 l
288.907 6.04632 l
291.738 -1 l
294.899 -1 m
296.345 0.406189 l
303.783 8.23638 l
311.221 15.741 l
318.66 22.8489 l
326.098 29.49 l
333.536 35.6031 l
337.255 38.4495 l
340.974 41.1546 l
348.412 46.1602 l
355.85 50.697 l
363.288 54.8888 l
374.445 60.8316 l
385.603 66.8055 l
393.041 71.1355 l
396.76 73.4987 l
400.479 76.0289 l
407.917 81.5569 l
411.636 84.3961 l
415.355 86.9864 l
419.074 88.7643 l
426.512 91.0781 l
430.231 92.3849 l
433.95 93.8494 l
437.669 95.5049 l
448.826 101.046 l
452.546 102.046 l
459.984 102.958 l
467.422 103.689 l
474.86 104.175 l
478.579 104.285 l
482.298 104.261 l
486.017 104.04 l
489.736 103.523 l
493.455 102.545 l
497.174 100.833 l
500.893 97.9281 l
504.612 93.0816 l
508.331 85.5892 l
512.05 75.4696 l
515.769 64.7187 l
519.489 59.2905 l
523.208 54.7116 l
526.927 49.3759 l
530.646 43.1467 l
534.365 35.8595 l
538.084 27.3161 l
541.803 17.2761 l
545.522 5.44637 l
547.236 -1 l
547.236 -1 l
stroke
grestore
[3 5 1 5] 0 setdash
gsave
472.3 354.2 80.64 60.48 clipbox
80.64 158.805 m
99.2353 181.061 l
110.392 194.112 l
117.831 202.594 l
125.269 210.813 l
132.707 218.641 l
136.426 222.361 l
140.145 225.923 l
143.864 229.302 l
147.583 232.474 l
151.302 235.414 l
155.021 238.105 l
158.74 240.523 l
162.459 242.684 l
166.178 244.634 l
173.616 248.082 l
181.054 251.128 l
184.774 252.473 l
188.493 253.617 l
192.212 254.521 l
195.931 255.155 l
199.65 255.505 l
203.369 255.578 l
207.088 255.392 l
210.807 254.97 l
214.526 254.323 l
218.245 253.412 l
221.964 252.24 l
225.683 250.783 l
229.402 249.006 l
233.121 246.867 l
236.84 244.315 l
240.559 241.279 l
244.278 237.665 l
247.997 233.243 l
251.717 227.953 l
255.436 221.599 l
259.155 213.936 l
262.874 204.652 l
266.593 193.352 l
270.312 179.534 l
274.031 162.461 l
277.75 140.978 l
281.469 114.64 l
285.188 86.4809 l
288.907 76.2637 l
292.626 79.3251 l
300.064 87.2251 l
307.502 94.833 l
314.94 102.063 l
322.379 108.841 l
329.817 115.099 l
333.536 118.015 l
337.255 120.786 l
340.974 123.41 l
344.693 125.891 l
352.131 130.461 l
359.569 134.591 l
367.007 138.391 l
374.445 141.952 l
385.603 146.987 l
411.636 158.368 l
415.355 159.824 l
419.074 160.876 l
445.107 166.775 l
448.826 167.24 l
452.546 167.307 l
456.265 167.163 l
459.984 166.888 l
463.703 166.462 l
467.422 165.859 l
471.141 165.051 l
474.86 164.014 l
478.579 162.734 l
482.298 161.193 l
486.017 159.354 l
489.736 157.165 l
493.455 154.549 l
497.174 151.398 l
500.893 147.564 l
504.612 142.863 l
508.331 137.121 l
515.769 123.483 l
519.489 117.592 l
523.208 111.322 l
526.927 104.186 l
530.646 96.0409 l
534.365 86.7109 l
538.084 75.9856 l
541.803 63.6116 l
545.522 49.2842 l
549.241 32.6336 l
552.96 13.1578 l
552.96 13.1578 l
stroke
grestore
[6 6] 0 setdash
gsave
472.3 354.2 80.64 60.48 clipbox
80.64 281.123 m
84.3591 284.9 l
88.0781 288.539 l
91.7972 292.022 l
95.5162 295.332 l
99.2353 298.445 l
102.954 301.334 l
106.673 304.018 l
110.392 306.502 l
114.111 308.801 l
117.831 310.933 l
121.55 312.914 l
125.269 314.758 l
128.988 316.445 l
132.707 317.969 l
136.426 319.361 l
140.145 320.614 l
143.864 321.718 l
147.583 322.665 l
151.302 323.444 l
155.021 324.051 l
158.74 324.451 l
162.459 324.672 l
169.897 324.757 l
177.335 324.515 l
184.774 323.96 l
188.493 323.469 l
192.212 322.818 l
195.931 322.005 l
199.65 321.025 l
203.369 319.886 l
207.088 318.603 l
210.807 317.191 l
214.526 315.658 l
218.245 313.95 l
221.964 312.084 l
225.683 310.034 l
229.402 307.758 l
233.121 305.205 l
236.84 302.313 l
240.559 299.002 l
244.278 295.172 l
247.997 290.586 l
251.717 285.192 l
255.436 278.807 l
259.155 271.235 l
262.874 262.322 l
270.312 242.025 l
274.031 234.962 l
277.75 233.371 l
281.469 235.046 l
288.907 239.818 l
292.626 242.054 l
296.345 244.142 l
300.064 246.083 l
303.783 247.877 l
307.502 249.525 l
311.221 251.026 l
314.94 252.379 l
318.66 253.583 l
322.379 254.639 l
326.098 255.545 l
329.817 256.304 l
333.536 256.919 l
337.255 257.397 l
340.974 257.746 l
348.412 258.101 l
355.85 258.087 l
363.288 257.782 l
370.726 257.232 l
378.164 256.452 l
385.603 255.434 l
393.041 254.163 l
400.479 252.628 l
407.917 250.789 l
411.636 249.718 l
415.355 248.512 l
422.793 245.719 l
430.231 242.663 l
437.669 239.422 l
445.107 235.933 l
448.826 234.004 l
456.265 229.716 l
471.141 220.75 l
478.579 216.004 l
482.298 213.463 l
486.017 210.727 l
489.736 207.704 l
493.455 204.254 l
497.174 200.172 l
500.893 195.135 l
504.612 188.606 l
508.331 179.617 l
512.05 166.325 l
515.769 146.853 l
519.489 134.433 l
523.208 125.977 l
526.927 116.734 l
530.646 106.578 l
534.365 95.3547 l
538.084 82.8776 l
541.803 68.9229 l
545.522 53.2177 l
549.241 35.4185 l
552.96 15.0047 l
552.96 15.0047 l
stroke
grestore
2 setlinecap
[] 0 setdash
gsave
472.3 354.2 80.64 60.48 clipbox
80.64 322.134 m
114.111 335.061 l
125.269 339.056 l
132.707 341.394 l
140.145 343.39 l
143.864 344.232 l
147.583 344.946 l
151.302 345.519 l
155.021 345.94 l
158.74 346.164 l
162.459 346.22 l
169.897 345.995 l
177.335 345.475 l
184.774 344.689 l
188.493 344.104 l
192.212 343.371 l
195.931 342.488 l
199.65 341.45 l
203.369 340.264 l
207.088 338.943 l
214.526 335.945 l
218.245 334.22 l
221.964 332.345 l
225.683 330.295 l
229.402 328.029 l
233.121 325.498 l
236.84 322.642 l
240.559 319.39 l
244.278 315.652 l
247.997 311.222 l
251.717 306.098 l
255.436 300.209 l
259.155 293.599 l
262.874 286.616 l
266.593 280.204 l
270.312 275.786 l
274.031 274.007 l
277.75 274.033 l
285.188 275.54 l
292.626 276.891 l
300.064 277.81 l
307.502 278.298 l
314.94 278.387 l
322.379 278.121 l
329.817 277.545 l
337.255 276.693 l
344.693 275.597 l
352.131 274.273 l
359.569 272.734 l
367.007 270.991 l
374.445 269.063 l
385.603 265.907 l
404.198 260.61 l
411.636 258.503 l
415.355 257.315 l
426.512 253.458 l
433.95 251.263 l
445.107 248.107 l
448.826 246.816 l
456.265 243.683 l
467.422 238.676 l
474.86 235.06 l
478.579 233.088 l
482.298 230.94 l
486.017 228.545 l
489.736 225.803 l
493.455 222.575 l
497.174 218.646 l
500.893 213.673 l
504.612 207.068 l
508.331 197.695 l
512.05 182.979 l
515.769 156.125 l
519.489 134.433 l
523.208 125.977 l
526.927 116.734 l
530.646 106.578 l
534.365 95.3547 l
538.084 82.8776 l
541.803 68.9229 l
545.522 53.2177 l
549.241 35.4185 l
552.96 15.0047 l
552.96 15.0047 l
stroke
grestore
0 setlinecap
[1 3] 0 setdash
0.000 0.500 0.000 setrgbcolor
gsave
472.3 354.2 80.64 60.48 clipbox
80.64 98.3855 m
99.2353 120.673 l
110.392 133.76 l
121.55 146.453 l
128.988 154.563 l
136.426 162.232 l
140.145 165.855 l
143.864 169.307 l
147.583 172.563 l
151.302 175.599 l
155.021 178.4 l
158.74 180.938 l
162.459 183.23 l
166.178 185.32 l
173.616 189.094 l
181.054 192.604 l
184.774 194.266 l
188.493 195.801 l
192.212 197.167 l
195.931 198.33 l
199.65 199.27 l
203.369 199.988 l
207.088 200.507 l
210.807 200.858 l
214.526 201.063 l
218.245 201.111 l
221.964 200.99 l
225.683 200.662 l
229.402 200.075 l
233.121 199.162 l
236.84 197.844 l
240.559 196.021 l
244.278 193.566 l
247.997 190.238 l
251.717 185.916 l
255.436 180.376 l
259.155 173.353 l
262.874 164.532 l
266.593 153.534 l
270.312 139.889 l
274.031 122.898 l
277.75 101.416 l
281.469 74.7035 l
285.188 41.6416 l
288.907 6.11515 l
291.735 -1 l
294.936 -1 m
296.345 0.367437 l
303.783 8.19771 l
311.221 15.7025 l
318.66 22.8106 l
326.098 29.4519 l
333.536 35.5653 l
337.255 38.4118 l
340.974 41.1171 l
348.412 46.1231 l
355.85 50.6603 l
363.288 54.8526 l
374.445 60.7965 l
385.603 66.7723 l
393.041 71.104 l
396.76 73.4682 l
400.479 75.9994 l
407.917 81.5296 l
411.636 84.3699 l
415.355 86.9612 l
419.074 88.7402 l
426.512 91.0555 l
430.231 92.3631 l
433.95 93.8286 l
437.669 95.4852 l
448.826 101.03 l
452.546 102.031 l
459.984 102.944 l
467.422 103.675 l
474.86 104.163 l
478.579 104.274 l
482.298 104.25 l
486.017 104.031 l
489.736 103.516 l
493.455 102.54 l
497.174 100.834 l
500.893 97.936 l
504.612 93.1015 l
508.331 85.6227 l
512.05 75.5164 l
515.769 64.7634 l
519.489 59.3224 l
523.208 54.7516 l
526.927 49.4255 l
530.646 43.2075 l
534.365 35.9337 l
538.084 27.406 l
541.803 17.3847 l
545.522 5.57723 l
547.274 -1 l
547.274 -1 l
stroke
grestore
[3 5 1 5] 0 setdash
gsave
472.3 354.2 80.64 60.48 clipbox
80.64 158.797 m
99.2353 181.054 l
110.392 194.105 l
117.831 202.587 l
125.269 210.806 l
132.707 218.634 l
136.426 222.354 l
140.145 225.916 l
143.864 229.296 l
147.583 232.467 l
151.302 235.408 l
155.021 238.099 l
158.74 240.517 l
162.459 242.679 l
166.178 244.629 l
173.616 248.077 l
181.054 251.124 l
184.774 252.469 l
188.493 253.613 l
192.212 254.517 l
195.931 255.152 l
199.65 255.502 l
203.369 255.575 l
207.088 255.39 l
210.807 254.969 l
214.526 254.321 l
218.245 253.411 l
221.964 252.24 l
225.683 250.783 l
229.402 249.007 l
233.121 246.87 l
236.84 244.319 l
240.559 241.285 l
244.278 237.672 l
247.997 233.253 l
251.717 227.966 l
255.436 221.616 l
259.155 213.958 l
262.874 204.678 l
266.593 193.385 l
270.312 179.576 l
274.031 162.513 l
277.75 141.044 l
281.469 114.72 l
285.188 86.5476 l
288.907 76.2645 l
292.626 79.3162 l
300.064 87.2161 l
307.502 94.8242 l
314.94 102.054 l
322.379 108.832 l
329.817 115.091 l
333.536 118.007 l
337.255 120.778 l
340.974 123.402 l
344.693 125.884 l
352.131 130.454 l
359.569 134.584 l
367.007 138.385 l
374.445 141.946 l
385.603 146.981 l
411.636 158.365 l
415.355 159.822 l
419.074 160.875 l
445.107 166.776 l
448.826 167.242 l
452.546 167.309 l
456.265 167.166 l
459.984 166.892 l
463.703 166.466 l
467.422 165.864 l
471.141 165.057 l
474.86 164.022 l
478.579 162.743 l
482.298 161.203 l
486.017 159.365 l
489.736 157.179 l
493.455 154.566 l
497.174 151.418 l
500.893 147.59 l
504.612 142.895 l
508.331 137.162 l
515.769 123.537 l
519.489 117.649 l
523.208 111.386 l
526.927 104.26 l
530.646 96.1253 l
534.365 86.808 l
538.084 76.0979 l
541.803 63.7419 l
545.522 49.4361 l
549.241 32.8113 l
552.96 13.366 l
552.96 13.366 l
stroke
grestore
[6 6] 0 setdash
gsave
472.3 354.2 80.64 60.48 clipbox
80.64 281.122 m
84.3591 284.899 l
88.0781 288.539 l
91.7972 292.022 l
95.5162 295.332 l
99.2353 298.445 l
102.954 301.334 l
106.673 304.018 l
110.392 306.502 l
114.111 308.801 l
117.831 310.933 l
121.55 312.914 l
125.269 314.758 l
128.988 316.445 l
132.707 317.97 l
136.426 319.361 l
140.145 320.614 l
143.864 321.718 l
147.583 322.664 l
151.302 323.443 l
155.021 324.051 l
158.74 324.45 l
162.459 324.671 l
169.897 324.756 l
177.335 324.513 l
184.774 323.959 l
188.493 323.469 l
192.212 322.818 l
195.931 322.006 l
199.65 321.026 l
203.369 319.887 l
207.088 318.605 l
210.807 317.193 l
214.526 315.661 l
218.245 313.952 l
221.964 312.087 l
225.683 310.038 l
229.402 307.763 l
233.121 305.21 l
236.84 302.319 l
240.559 299.01 l
244.278 295.181 l
247.997 290.597 l
251.717 285.205 l
255.436 278.824 l
259.155 271.256 l
262.874 262.348 l
270.312 242.053 l
274.031 234.979 l
277.75 233.376 l
281.469 235.047 l
288.907 239.819 l
292.626 242.054 l
296.345 244.143 l
300.064 246.084 l
303.783 247.878 l
307.502 249.526 l
311.221 251.026 l
314.94 252.38 l
318.66 253.584 l
322.379 254.64 l
326.098 255.546 l
329.817 256.305 l
333.536 256.92 l
337.255 257.398 l
340.974 257.746 l
348.412 258.102 l
355.85 258.087 l
363.288 257.783 l
370.726 257.233 l
378.164 256.454 l
385.603 255.436 l
393.041 254.165 l
400.479 252.632 l
407.917 250.794 l
411.636 249.722 l
415.355 248.517 l
422.793 245.725 l
430.231 242.669 l
437.669 239.429 l
445.107 235.94 l
448.826 234.011 l
456.265 229.724 l
471.141 220.758 l
478.579 216.012 l
482.298 213.472 l
486.017 210.737 l
489.736 207.715 l
493.455 204.267 l
497.174 200.188 l
500.893 195.156 l
504.612 188.635 l
508.331 179.661 l
512.05 166.395 l
515.769 146.957 l
519.489 134.498 l
523.208 126.049 l
526.927 116.816 l
530.646 106.67 l
534.365 95.4592 l
538.084 82.997 l
541.803 69.0599 l
545.522 53.3755 l
549.241 35.6011 l
552.96 15.2166 l
552.96 15.2166 l
stroke
grestore
2 setlinecap
[] 0 setdash
gsave
472.3 354.2 80.64 60.48 clipbox
80.64 322.128 m
114.111 335.062 l
125.269 339.057 l
132.707 341.394 l
140.145 343.39 l
143.864 344.232 l
147.583 344.946 l
151.302 345.519 l
155.021 345.939 l
158.74 346.164 l
162.459 346.219 l
169.897 345.994 l
177.335 345.474 l
184.774 344.688 l
188.493 344.104 l
192.212 343.371 l
195.931 342.488 l
199.65 341.451 l
203.369 340.265 l
207.088 338.944 l
214.526 335.947 l
218.245 334.222 l
221.964 332.348 l
225.683 330.298 l
229.402 328.033 l
233.121 325.503 l
236.84 322.648 l
240.559 319.397 l
244.278 315.661 l
247.997 311.234 l
251.717 306.111 l
255.436 300.225 l
259.155 293.618 l
262.874 286.637 l
266.593 280.222 l
270.312 275.798 l
274.031 274.013 l
277.75 274.036 l
285.188 275.542 l
292.626 276.892 l
300.064 277.811 l
307.502 278.299 l
314.94 278.387 l
322.379 278.122 l
329.817 277.545 l
337.255 276.693 l
344.693 275.597 l
352.131 274.274 l
359.569 272.736 l
367.007 270.993 l
374.445 269.065 l
385.603 265.91 l
404.198 260.615 l
411.636 258.507 l
415.355 257.319 l
426.512 253.462 l
433.95 251.267 l
445.107 248.111 l
448.826 246.819 l
456.265 243.686 l
467.422 238.68 l
474.86 235.065 l
478.579 233.093 l
482.298 230.946 l
486.017 228.552 l
489.736 225.812 l
493.455 222.586 l
497.174 218.66 l
500.893 213.692 l
504.612 207.096 l
508.331 197.74 l
512.05 183.058 l
515.769 156.288 l
519.489 134.498 l
523.208 126.049 l
526.927 116.816 l
530.646 106.67 l
534.365 95.4592 l
538.084 82.997 l
541.803 69.0599 l
545.522 53.3755 l
549.241 35.6011 l
552.96 15.2166 l
552.96 15.2166 l
stroke
grestore
0 setlinecap
0.000 setgray
gsave
/o {
gsave
newpath
translate
2.0 setlinewidth
1 setlinejoin
0 setlinecap
0 0 m
0 8 l
gsave
0.000 setgray
fill
grestore
stroke
grestore
} bind def
80.64 60.48 o
grestore
gsave
/o {
gsave
newpath
translate
2.0 setlinewidth
1 setlinejoin
0 setlinecap
0 0 m
0 -8 l
gsave
0.000 setgray
fill
grestore
stroke
grestore
} bind def
80.64 414.72 o
grestore
gsave
63.640000 43.386250 translate
0.000000 rotate
/BitstreamVeraSans-Roman findfont
14.0 scalefont
setfont
0.000000 0.376563 moveto
/one glyphshow

8.907227 0.376563 moveto
/zero glyphshow

/BitstreamVeraSans-Roman findfont
9.8 scalefont
setfont
17.814453 7.726563 moveto
/one glyphshow

24.049512 7.726563 moveto
/two glyphshow


grestore
gsave
/o {
gsave
newpath
translate
2.0 setlinewidth
1 setlinejoin
0 setlinecap
0 0 m
0 8 l
gsave
0.000 setgray
fill
grestore
stroke
grestore
} bind def
115.686 60.48 o
grestore
gsave
/o {
gsave
newpath
translate
2.0 setlinewidth
1 setlinejoin
0 setlinecap
0 0 m
0 -8 l
gsave
0.000 setgray
fill
grestore
stroke
grestore
} bind def
115.686 414.72 o
grestore
gsave
98.686060 43.386250 translate
0.000000 rotate
/BitstreamVeraSans-Roman findfont
14.0 scalefont
setfont
0.000000 0.376563 moveto
/one glyphshow

8.907227 0.376563 moveto
/zero glyphshow

/BitstreamVeraSans-Roman findfont
9.8 scalefont
setfont
17.814453 7.726563 moveto
/one glyphshow

24.049512 7.726563 moveto
/three glyphshow


grestore
gsave
/o {
gsave
newpath
translate
2.0 setlinewidth
1 setlinejoin
0 setlinecap
0 0 m
0 8 l
gsave
0.000 setgray
fill
grestore
stroke
grestore
} bind def
150.732 60.48 o
grestore
gsave
/o {
gsave
newpath
translate
2.0 setlinewidth
1 setlinejoin
0 setlinecap
0 0 m
0 -8 l
gsave
0.000 setgray
fill
grestore
stroke
grestore
} bind def
150.732 414.72 o
grestore
gsave
133.732120 43.386250 translate
0.000000 rotate
/BitstreamVeraSans-Roman findfont
14.0 scalefont
setfont
0.000000 0.507812 moveto
/one glyphshow

8.907227 0.507812 moveto
/zero glyphshow

/BitstreamVeraSans-Roman findfont
9.8 scalefont
setfont
17.814453 7.857813 moveto
/one glyphshow

24.049512 7.857813 moveto
/four glyphshow


grestore
gsave
/o {
gsave
newpath
translate
2.0 setlinewidth
1 setlinejoin
0 setlinecap
0 0 m
0 8 l
gsave
0.000 setgray
fill
grestore
stroke
grestore
} bind def
185.778 60.48 o
grestore
gsave
/o {
gsave
newpath
translate
2.0 setlinewidth
1 setlinejoin
0 setlinecap
0 0 m
0 -8 l
gsave
0.000 setgray
fill
grestore
stroke
grestore
} bind def
185.778 414.72 o
grestore
gsave
168.778180 43.386250 translate
0.000000 rotate
/BitstreamVeraSans-Roman findfont
14.0 scalefont
setfont
0.000000 0.507812 moveto
/one glyphshow

8.907227 0.507812 moveto
/zero glyphshow

/BitstreamVeraSans-Roman findfont
9.8 scalefont
setfont
17.814453 7.857813 moveto
/one glyphshow

24.049512 7.857813 moveto
/five glyphshow


grestore
gsave
/o {
gsave
newpath
translate
2.0 setlinewidth
1 setlinejoin
0 setlinecap
0 0 m
0 8 l
gsave
0.000 setgray
fill
grestore
stroke
grestore
} bind def
220.824 60.48 o
grestore
gsave
/o {
gsave
newpath
translate
2.0 setlinewidth
1 setlinejoin
0 setlinecap
0 0 m
0 -8 l
gsave
0.000 setgray
fill
grestore
stroke
grestore
} bind def
220.824 414.72 o
grestore
gsave
203.824240 43.386250 translate
0.000000 rotate
/BitstreamVeraSans-Roman findfont
14.0 scalefont
setfont
0.000000 0.376563 moveto
/one glyphshow

8.907227 0.376563 moveto
/zero glyphshow

/BitstreamVeraSans-Roman findfont
9.8 scalefont
setfont
17.814453 7.726563 moveto
/one glyphshow

24.049512 7.726563 moveto
/six glyphshow


grestore
gsave
/o {
gsave
newpath
translate
2.0 setlinewidth
1 setlinejoin
0 setlinecap
0 0 m
0 8 l
gsave
0.000 setgray
fill
grestore
stroke
grestore
} bind def
255.87 60.48 o
grestore
gsave
/o {
gsave
newpath
translate
2.0 setlinewidth
1 setlinejoin
0 setlinecap
0 0 m
0 -8 l
gsave
0.000 setgray
fill
grestore
stroke
grestore
} bind def
255.87 414.72 o
grestore
gsave
238.870300 43.386250 translate
0.000000 rotate
/BitstreamVeraSans-Roman findfont
14.0 scalefont
setfont
0.000000 0.507812 moveto
/one glyphshow

8.907227 0.507812 moveto
/zero glyphshow

/BitstreamVeraSans-Roman findfont
9.8 scalefont
setfont
17.814453 7.857813 moveto
/one glyphshow

24.049512 7.857813 moveto
/seven glyphshow


grestore
gsave
/o {
gsave
newpath
translate
2.0 setlinewidth
1 setlinejoin
0 setlinecap
0 0 m
0 8 l
gsave
0.000 setgray
fill
grestore
stroke
grestore
} bind def
290.916 60.48 o
grestore
gsave
/o {
gsave
newpath
translate
2.0 setlinewidth
1 setlinejoin
0 setlinecap
0 0 m
0 -8 l
gsave
0.000 setgray
fill
grestore
stroke
grestore
} bind def
290.916 414.72 o
grestore
gsave
273.916360 43.386250 translate
0.000000 rotate
/BitstreamVeraSans-Roman findfont
14.0 scalefont
setfont
0.000000 0.376563 moveto
/one glyphshow

8.907227 0.376563 moveto
/zero glyphshow

/BitstreamVeraSans-Roman findfont
9.8 scalefont
setfont
17.814453 7.726563 moveto
/one glyphshow

24.049512 7.726563 moveto
/eight glyphshow


grestore
gsave
/o {
gsave
newpath
translate
2.0 setlinewidth
1 setlinejoin
0 setlinecap
0 0 m
0 8 l
gsave
0.000 setgray
fill
grestore
stroke
grestore
} bind def
325.962 60.48 o
grestore
gsave
/o {
gsave
newpath
translate
2.0 setlinewidth
1 setlinejoin
0 setlinecap
0 0 m
0 -8 l
gsave
0.000 setgray
fill
grestore
stroke
grestore
} bind def
325.962 414.72 o
grestore
gsave
308.962420 43.386250 translate
0.000000 rotate
/BitstreamVeraSans-Roman findfont
14.0 scalefont
setfont
0.000000 0.376563 moveto
/one glyphshow

8.907227 0.376563 moveto
/zero glyphshow

/BitstreamVeraSans-Roman findfont
9.8 scalefont
setfont
17.814453 7.726563 moveto
/one glyphshow

24.049512 7.726563 moveto
/nine glyphshow


grestore
gsave
/o {
gsave
newpath
translate
2.0 setlinewidth
1 setlinejoin
0 setlinecap
0 0 m
0 8 l
gsave
0.000 setgray
fill
grestore
stroke
grestore
} bind def
361.008 60.48 o
grestore
gsave
/o {
gsave
newpath
translate
2.0 setlinewidth
1 setlinejoin
0 setlinecap
0 0 m
0 -8 l
gsave
0.000 setgray
fill
grestore
stroke
grestore
} bind def
361.008 414.72 o
grestore
gsave
344.008480 43.386250 translate
0.000000 rotate
/BitstreamVeraSans-Roman findfont
14.0 scalefont
setfont
0.000000 0.376563 moveto
/one glyphshow

8.907227 0.376563 moveto
/zero glyphshow

/BitstreamVeraSans-Roman findfont
9.8 scalefont
setfont
17.814453 7.726563 moveto
/two glyphshow

24.049512 7.726563 moveto
/zero glyphshow


grestore
gsave
/o {
gsave
newpath
translate
2.0 setlinewidth
1 setlinejoin
0 setlinecap
0 0 m
0 8 l
gsave
0.000 setgray
fill
grestore
stroke
grestore
} bind def
396.055 60.48 o
grestore
gsave
/o {
gsave
newpath
translate
2.0 setlinewidth
1 setlinejoin
0 setlinecap
0 0 m
0 -8 l
gsave
0.000 setgray
fill
grestore
stroke
grestore
} bind def
396.055 414.72 o
grestore
gsave
379.054540 43.386250 translate
0.000000 rotate
/BitstreamVeraSans-Roman findfont
14.0 scalefont
setfont
0.000000 0.376563 moveto
/one glyphshow

8.907227 0.376563 moveto
/zero glyphshow

/BitstreamVeraSans-Roman findfont
9.8 scalefont
setfont
17.814453 7.726563 moveto
/two glyphshow

24.049512 7.726563 moveto
/one glyphshow


grestore
gsave
/o {
gsave
newpath
translate
2.0 setlinewidth
1 setlinejoin
0 setlinecap
0 0 m
0 8 l
gsave
0.000 setgray
fill
grestore
stroke
grestore
} bind def
431.101 60.48 o
grestore
gsave
/o {
gsave
newpath
translate
2.0 setlinewidth
1 setlinejoin
0 setlinecap
0 0 m
0 -8 l
gsave
0.000 setgray
fill
grestore
stroke
grestore
} bind def
431.101 414.72 o
grestore
gsave
414.100600 43.386250 translate
0.000000 rotate
/BitstreamVeraSans-Roman findfont
14.0 scalefont
setfont
0.000000 0.376563 moveto
/one glyphshow

8.907227 0.376563 moveto
/zero glyphshow

/BitstreamVeraSans-Roman findfont
9.8 scalefont
setfont
17.814453 7.726563 moveto
/two glyphshow

24.049512 7.726563 moveto
/two glyphshow


grestore
gsave
/o {
gsave
newpath
translate
2.0 setlinewidth
1 setlinejoin
0 setlinecap
0 0 m
0 8 l
gsave
0.000 setgray
fill
grestore
stroke
grestore
} bind def
466.147 60.48 o
grestore
gsave
/o {
gsave
newpath
translate
2.0 setlinewidth
1 setlinejoin
0 setlinecap
0 0 m
0 -8 l
gsave
0.000 setgray
fill
grestore
stroke
grestore
} bind def
466.147 414.72 o
grestore
gsave
449.146660 43.386250 translate
0.000000 rotate
/BitstreamVeraSans-Roman findfont
14.0 scalefont
setfont
0.000000 0.376563 moveto
/one glyphshow

8.907227 0.376563 moveto
/zero glyphshow

/BitstreamVeraSans-Roman findfont
9.8 scalefont
setfont
17.814453 7.726563 moveto
/two glyphshow

24.049512 7.726563 moveto
/three glyphshow


grestore
gsave
/o {
gsave
newpath
translate
2.0 setlinewidth
1 setlinejoin
0 setlinecap
0 0 m
0 8 l
gsave
0.000 setgray
fill
grestore
stroke
grestore
} bind def
501.193 60.48 o
grestore
gsave
/o {
gsave
newpath
translate
2.0 setlinewidth
1 setlinejoin
0 setlinecap
0 0 m
0 -8 l
gsave
0.000 setgray
fill
grestore
stroke
grestore
} bind def
501.193 414.72 o
grestore
gsave
484.192720 43.386250 translate
0.000000 rotate
/BitstreamVeraSans-Roman findfont
14.0 scalefont
setfont
0.000000 0.376563 moveto
/one glyphshow

8.907227 0.376563 moveto
/zero glyphshow

/BitstreamVeraSans-Roman findfont
9.8 scalefont
setfont
17.814453 7.726563 moveto
/two glyphshow

24.049512 7.726563 moveto
/four glyphshow


grestore
gsave
/o {
gsave
newpath
translate
2.0 setlinewidth
1 setlinejoin
0 setlinecap
0 0 m
0 8 l
gsave
0.000 setgray
fill
grestore
stroke
grestore
} bind def
536.239 60.48 o
grestore
gsave
/o {
gsave
newpath
translate
2.0 setlinewidth
1 setlinejoin
0 setlinecap
0 0 m
0 -8 l
gsave
0.000 setgray
fill
grestore
stroke
grestore
} bind def
536.239 414.72 o
grestore
gsave
519.238780 43.386250 translate
0.000000 rotate
/BitstreamVeraSans-Roman findfont
14.0 scalefont
setfont
0.000000 0.376563 moveto
/one glyphshow

8.907227 0.376563 moveto
/zero glyphshow

/BitstreamVeraSans-Roman findfont
9.8 scalefont
setfont
17.814453 7.726563 moveto
/two glyphshow

24.049512 7.726563 moveto
/five glyphshow


grestore
gsave
/o {
gsave
newpath
translate
2.0 setlinewidth
1 setlinejoin
0 setlinecap
0 0 m
0 5 l
gsave
0.000 setgray
fill
grestore
stroke
grestore
} bind def
80.64 60.48 o
grestore
gsave
/o {
gsave
newpath
translate
2.0 setlinewidth
1 setlinejoin
0 setlinecap
0 0 m
0 -5 l
gsave
0.000 setgray
fill
grestore
stroke
grestore
} bind def
80.64 414.72 o
grestore
gsave
/o {
gsave
newpath
translate
2.0 setlinewidth
1 setlinejoin
0 setlinecap
0 0 m
0 5 l
gsave
0.000 setgray
fill
grestore
stroke
grestore
} bind def
115.686 60.48 o
grestore
gsave
/o {
gsave
newpath
translate
2.0 setlinewidth
1 setlinejoin
0 setlinecap
0 0 m
0 -5 l
gsave
0.000 setgray
fill
grestore
stroke
grestore
} bind def
115.686 414.72 o
grestore
gsave
/o {
gsave
newpath
translate
2.0 setlinewidth
1 setlinejoin
0 setlinecap
0 0 m
0 5 l
gsave
0.000 setgray
fill
grestore
stroke
grestore
} bind def
150.732 60.48 o
grestore
gsave
/o {
gsave
newpath
translate
2.0 setlinewidth
1 setlinejoin
0 setlinecap
0 0 m
0 -5 l
gsave
0.000 setgray
fill
grestore
stroke
grestore
} bind def
150.732 414.72 o
grestore
gsave
/o {
gsave
newpath
translate
2.0 setlinewidth
1 setlinejoin
0 setlinecap
0 0 m
0 5 l
gsave
0.000 setgray
fill
grestore
stroke
grestore
} bind def
185.778 60.48 o
grestore
gsave
/o {
gsave
newpath
translate
2.0 setlinewidth
1 setlinejoin
0 setlinecap
0 0 m
0 -5 l
gsave
0.000 setgray
fill
grestore
stroke
grestore
} bind def
185.778 414.72 o
grestore
gsave
/o {
gsave
newpath
translate
2.0 setlinewidth
1 setlinejoin
0 setlinecap
0 0 m
0 5 l
gsave
0.000 setgray
fill
grestore
stroke
grestore
} bind def
220.824 60.48 o
grestore
gsave
/o {
gsave
newpath
translate
2.0 setlinewidth
1 setlinejoin
0 setlinecap
0 0 m
0 -5 l
gsave
0.000 setgray
fill
grestore
stroke
grestore
} bind def
220.824 414.72 o
grestore
gsave
/o {
gsave
newpath
translate
2.0 setlinewidth
1 setlinejoin
0 setlinecap
0 0 m
0 5 l
gsave
0.000 setgray
fill
grestore
stroke
grestore
} bind def
255.87 60.48 o
grestore
gsave
/o {
gsave
newpath
translate
2.0 setlinewidth
1 setlinejoin
0 setlinecap
0 0 m
0 -5 l
gsave
0.000 setgray
fill
grestore
stroke
grestore
} bind def
255.87 414.72 o
grestore
gsave
/o {
gsave
newpath
translate
2.0 setlinewidth
1 setlinejoin
0 setlinecap
0 0 m
0 5 l
gsave
0.000 setgray
fill
grestore
stroke
grestore
} bind def
290.916 60.48 o
grestore
gsave
/o {
gsave
newpath
translate
2.0 setlinewidth
1 setlinejoin
0 setlinecap
0 0 m
0 -5 l
gsave
0.000 setgray
fill
grestore
stroke
grestore
} bind def
290.916 414.72 o
grestore
gsave
/o {
gsave
newpath
translate
2.0 setlinewidth
1 setlinejoin
0 setlinecap
0 0 m
0 5 l
gsave
0.000 setgray
fill
grestore
stroke
grestore
} bind def
325.962 60.48 o
grestore
gsave
/o {
gsave
newpath
translate
2.0 setlinewidth
1 setlinejoin
0 setlinecap
0 0 m
0 -5 l
gsave
0.000 setgray
fill
grestore
stroke
grestore
} bind def
325.962 414.72 o
grestore
gsave
/o {
gsave
newpath
translate
2.0 setlinewidth
1 setlinejoin
0 setlinecap
0 0 m
0 5 l
gsave
0.000 setgray
fill
grestore
stroke
grestore
} bind def
361.008 60.48 o
grestore
gsave
/o {
gsave
newpath
translate
2.0 setlinewidth
1 setlinejoin
0 setlinecap
0 0 m
0 -5 l
gsave
0.000 setgray
fill
grestore
stroke
grestore
} bind def
361.008 414.72 o
grestore
gsave
/o {
gsave
newpath
translate
2.0 setlinewidth
1 setlinejoin
0 setlinecap
0 0 m
0 5 l
gsave
0.000 setgray
fill
grestore
stroke
grestore
} bind def
396.055 60.48 o
grestore
gsave
/o {
gsave
newpath
translate
2.0 setlinewidth
1 setlinejoin
0 setlinecap
0 0 m
0 -5 l
gsave
0.000 setgray
fill
grestore
stroke
grestore
} bind def
396.055 414.72 o
grestore
gsave
/o {
gsave
newpath
translate
2.0 setlinewidth
1 setlinejoin
0 setlinecap
0 0 m
0 5 l
gsave
0.000 setgray
fill
grestore
stroke
grestore
} bind def
431.101 60.48 o
grestore
gsave
/o {
gsave
newpath
translate
2.0 setlinewidth
1 setlinejoin
0 setlinecap
0 0 m
0 -5 l
gsave
0.000 setgray
fill
grestore
stroke
grestore
} bind def
431.101 414.72 o
grestore
gsave
/o {
gsave
newpath
translate
2.0 setlinewidth
1 setlinejoin
0 setlinecap
0 0 m
0 5 l
gsave
0.000 setgray
fill
grestore
stroke
grestore
} bind def
466.147 60.48 o
grestore
gsave
/o {
gsave
newpath
translate
2.0 setlinewidth
1 setlinejoin
0 setlinecap
0 0 m
0 -5 l
gsave
0.000 setgray
fill
grestore
stroke
grestore
} bind def
466.147 414.72 o
grestore
gsave
/o {
gsave
newpath
translate
2.0 setlinewidth
1 setlinejoin
0 setlinecap
0 0 m
0 5 l
gsave
0.000 setgray
fill
grestore
stroke
grestore
} bind def
501.193 60.48 o
grestore
gsave
/o {
gsave
newpath
translate
2.0 setlinewidth
1 setlinejoin
0 setlinecap
0 0 m
0 -5 l
gsave
0.000 setgray
fill
grestore
stroke
grestore
} bind def
501.193 414.72 o
grestore
gsave
/o {
gsave
newpath
translate
2.0 setlinewidth
1 setlinejoin
0 setlinecap
0 0 m
0 5 l
gsave
0.000 setgray
fill
grestore
stroke
grestore
} bind def
536.239 60.48 o
grestore
gsave
/o {
gsave
newpath
translate
2.0 setlinewidth
1 setlinejoin
0 setlinecap
0 0 m
0 -5 l
gsave
0.000 setgray
fill
grestore
stroke
grestore
} bind def
536.239 414.72 o
grestore
gsave
282.300000 17.245625 translate
0.000000 rotate
/Cmmi10 findfont
24.0 scalefont
setfont
0.000000 0.765625 moveto
/nu glyphshow

/BitstreamVeraSans-Roman findfont
24.0 scalefont
setfont
11.859375 0.765625 moveto
/space glyphshow

19.488281 0.765625 moveto
/bracketleft glyphshow

28.101562 0.765625 moveto
/H glyphshow

46.148438 0.765625 moveto
/z glyphshow

58.746094 0.765625 moveto
/bracketright glyphshow


grestore
gsave
/o {
gsave
newpath
translate
2.0 setlinewidth
1 setlinejoin
0 setlinecap
0 0 m
8 0 l
gsave
0.000 setgray
fill
grestore
stroke
grestore
} bind def
80.64 60.48 o
grestore
gsave
/o {
gsave
newpath
translate
2.0 setlinewidth
1 setlinejoin
0 setlinecap
0 0 m
-8 0 l
gsave
0.000 setgray
fill
grestore
stroke
grestore
} bind def
552.96 60.48 o
grestore
gsave
49.640000 55.386250 translate
0.000000 rotate
/BitstreamVeraSans-Roman findfont
14.0 scalefont
setfont
0.000000 0.376563 moveto
/one glyphshow

8.907227 0.376563 moveto
/zero glyphshow

/BitstreamVeraSans-Roman findfont
9.8 scalefont
setfont
17.814453 7.726563 moveto
/eight glyphshow


grestore
gsave
/o {
gsave
newpath
translate
2.0 setlinewidth
1 setlinejoin
0 setlinecap
0 0 m
8 0 l
gsave
0.000 setgray
fill
grestore
stroke
grestore
} bind def
80.64 92.6836 o
grestore
gsave
/o {
gsave
newpath
translate
2.0 setlinewidth
1 setlinejoin
0 setlinecap
0 0 m
-8 0 l
gsave
0.000 setgray
fill
grestore
stroke
grestore
} bind def
552.96 92.6836 o
grestore
gsave
49.640000 87.589886 translate
0.000000 rotate
/BitstreamVeraSans-Roman findfont
14.0 scalefont
setfont
0.000000 0.376563 moveto
/one glyphshow

8.907227 0.376563 moveto
/zero glyphshow

/BitstreamVeraSans-Roman findfont
9.8 scalefont
setfont
17.814453 7.726563 moveto
/nine glyphshow


grestore
gsave
/o {
gsave
newpath
translate
2.0 setlinewidth
1 setlinejoin
0 setlinecap
0 0 m
8 0 l
gsave
0.000 setgray
fill
grestore
stroke
grestore
} bind def
80.64 124.887 o
grestore
gsave
/o {
gsave
newpath
translate
2.0 setlinewidth
1 setlinejoin
0 setlinecap
0 0 m
-8 0 l
gsave
0.000 setgray
fill
grestore
stroke
grestore
} bind def
552.96 124.887 o
grestore
gsave
42.640000 119.793523 translate
0.000000 rotate
/BitstreamVeraSans-Roman findfont
14.0 scalefont
setfont
0.000000 0.376563 moveto
/one glyphshow

8.907227 0.376563 moveto
/zero glyphshow

/BitstreamVeraSans-Roman findfont
9.8 scalefont
setfont
17.814453 7.726563 moveto
/one glyphshow

24.049512 7.726563 moveto
/zero glyphshow


grestore
gsave
/o {
gsave
newpath
translate
2.0 setlinewidth
1 setlinejoin
0 setlinecap
0 0 m
8 0 l
gsave
0.000 setgray
fill
grestore
stroke
grestore
} bind def
80.64 157.091 o
grestore
gsave
/o {
gsave
newpath
translate
2.0 setlinewidth
1 setlinejoin
0 setlinecap
0 0 m
-8 0 l
gsave
0.000 setgray
fill
grestore
stroke
grestore
} bind def
552.96 157.091 o
grestore
gsave
42.640000 151.997159 translate
0.000000 rotate
/BitstreamVeraSans-Roman findfont
14.0 scalefont
setfont
0.000000 0.507812 moveto
/one glyphshow

8.907227 0.507812 moveto
/zero glyphshow

/BitstreamVeraSans-Roman findfont
9.8 scalefont
setfont
17.814453 7.857813 moveto
/one glyphshow

24.049512 7.857813 moveto
/one glyphshow


grestore
gsave
/o {
gsave
newpath
translate
2.0 setlinewidth
1 setlinejoin
0 setlinecap
0 0 m
8 0 l
gsave
0.000 setgray
fill
grestore
stroke
grestore
} bind def
80.64 189.295 o
grestore
gsave
/o {
gsave
newpath
translate
2.0 setlinewidth
1 setlinejoin
0 setlinecap
0 0 m
-8 0 l
gsave
0.000 setgray
fill
grestore
stroke
grestore
} bind def
552.96 189.295 o
grestore
gsave
42.640000 184.200795 translate
0.000000 rotate
/BitstreamVeraSans-Roman findfont
14.0 scalefont
setfont
0.000000 0.376563 moveto
/one glyphshow

8.907227 0.376563 moveto
/zero glyphshow

/BitstreamVeraSans-Roman findfont
9.8 scalefont
setfont
17.814453 7.726563 moveto
/one glyphshow

24.049512 7.726563 moveto
/two glyphshow


grestore
gsave
/o {
gsave
newpath
translate
2.0 setlinewidth
1 setlinejoin
0 setlinecap
0 0 m
8 0 l
gsave
0.000 setgray
fill
grestore
stroke
grestore
} bind def
80.64 221.498 o
grestore
gsave
/o {
gsave
newpath
translate
2.0 setlinewidth
1 setlinejoin
0 setlinecap
0 0 m
-8 0 l
gsave
0.000 setgray
fill
grestore
stroke
grestore
} bind def
552.96 221.498 o
grestore
gsave
42.640000 216.404432 translate
0.000000 rotate
/BitstreamVeraSans-Roman findfont
14.0 scalefont
setfont
0.000000 0.376563 moveto
/one glyphshow

8.907227 0.376563 moveto
/zero glyphshow

/BitstreamVeraSans-Roman findfont
9.8 scalefont
setfont
17.814453 7.726563 moveto
/one glyphshow

24.049512 7.726563 moveto
/three glyphshow


grestore
gsave
/o {
gsave
newpath
translate
2.0 setlinewidth
1 setlinejoin
0 setlinecap
0 0 m
8 0 l
gsave
0.000 setgray
fill
grestore
stroke
grestore
} bind def
80.64 253.702 o
grestore
gsave
/o {
gsave
newpath
translate
2.0 setlinewidth
1 setlinejoin
0 setlinecap
0 0 m
-8 0 l
gsave
0.000 setgray
fill
grestore
stroke
grestore
} bind def
552.96 253.702 o
grestore
gsave
42.640000 248.608068 translate
0.000000 rotate
/BitstreamVeraSans-Roman findfont
14.0 scalefont
setfont
0.000000 0.507812 moveto
/one glyphshow

8.907227 0.507812 moveto
/zero glyphshow

/BitstreamVeraSans-Roman findfont
9.8 scalefont
setfont
17.814453 7.857813 moveto
/one glyphshow

24.049512 7.857813 moveto
/four glyphshow


grestore
gsave
/o {
gsave
newpath
translate
2.0 setlinewidth
1 setlinejoin
0 setlinecap
0 0 m
8 0 l
gsave
0.000 setgray
fill
grestore
stroke
grestore
} bind def
80.64 285.905 o
grestore
gsave
/o {
gsave
newpath
translate
2.0 setlinewidth
1 setlinejoin
0 setlinecap
0 0 m
-8 0 l
gsave
0.000 setgray
fill
grestore
stroke
grestore
} bind def
552.96 285.905 o
grestore
gsave
42.640000 280.811705 translate
0.000000 rotate
/BitstreamVeraSans-Roman findfont
14.0 scalefont
setfont
0.000000 0.507812 moveto
/one glyphshow

8.907227 0.507812 moveto
/zero glyphshow

/BitstreamVeraSans-Roman findfont
9.8 scalefont
setfont
17.814453 7.857813 moveto
/one glyphshow

24.049512 7.857813 moveto
/five glyphshow


grestore
gsave
/o {
gsave
newpath
translate
2.0 setlinewidth
1 setlinejoin
0 setlinecap
0 0 m
8 0 l
gsave
0.000 setgray
fill
grestore
stroke
grestore
} bind def
80.64 318.109 o
grestore
gsave
/o {
gsave
newpath
translate
2.0 setlinewidth
1 setlinejoin
0 setlinecap
0 0 m
-8 0 l
gsave
0.000 setgray
fill
grestore
stroke
grestore
} bind def
552.96 318.109 o
grestore
gsave
42.640000 313.015341 translate
0.000000 rotate
/BitstreamVeraSans-Roman findfont
14.0 scalefont
setfont
0.000000 0.376563 moveto
/one glyphshow

8.907227 0.376563 moveto
/zero glyphshow

/BitstreamVeraSans-Roman findfont
9.8 scalefont
setfont
17.814453 7.726563 moveto
/one glyphshow

24.049512 7.726563 moveto
/six glyphshow


grestore
gsave
/o {
gsave
newpath
translate
2.0 setlinewidth
1 setlinejoin
0 setlinecap
0 0 m
8 0 l
gsave
0.000 setgray
fill
grestore
stroke
grestore
} bind def
80.64 350.313 o
grestore
gsave
/o {
gsave
newpath
translate
2.0 setlinewidth
1 setlinejoin
0 setlinecap
0 0 m
-8 0 l
gsave
0.000 setgray
fill
grestore
stroke
grestore
} bind def
552.96 350.313 o
grestore
gsave
42.640000 345.218977 translate
0.000000 rotate
/BitstreamVeraSans-Roman findfont
14.0 scalefont
setfont
0.000000 0.507812 moveto
/one glyphshow

8.907227 0.507812 moveto
/zero glyphshow

/BitstreamVeraSans-Roman findfont
9.8 scalefont
setfont
17.814453 7.857813 moveto
/one glyphshow

24.049512 7.857813 moveto
/seven glyphshow


grestore
gsave
/o {
gsave
newpath
translate
2.0 setlinewidth
1 setlinejoin
0 setlinecap
0 0 m
8 0 l
gsave
0.000 setgray
fill
grestore
stroke
grestore
} bind def
80.64 382.516 o
grestore
gsave
/o {
gsave
newpath
translate
2.0 setlinewidth
1 setlinejoin
0 setlinecap
0 0 m
-8 0 l
gsave
0.000 setgray
fill
grestore
stroke
grestore
} bind def
552.96 382.516 o
grestore
gsave
42.640000 377.422614 translate
0.000000 rotate
/BitstreamVeraSans-Roman findfont
14.0 scalefont
setfont
0.000000 0.376563 moveto
/one glyphshow

8.907227 0.376563 moveto
/zero glyphshow

/BitstreamVeraSans-Roman findfont
9.8 scalefont
setfont
17.814453 7.726563 moveto
/one glyphshow

24.049512 7.726563 moveto
/eight glyphshow


grestore
gsave
/o {
gsave
newpath
translate
2.0 setlinewidth
1 setlinejoin
0 setlinecap
0 0 m
8 0 l
gsave
0.000 setgray
fill
grestore
stroke
grestore
} bind def
80.64 414.72 o
grestore
gsave
/o {
gsave
newpath
translate
2.0 setlinewidth
1 setlinejoin
0 setlinecap
0 0 m
-8 0 l
gsave
0.000 setgray
fill
grestore
stroke
grestore
} bind def
552.96 414.72 o
grestore
gsave
42.640000 409.626250 translate
0.000000 rotate
/BitstreamVeraSans-Roman findfont
14.0 scalefont
setfont
0.000000 0.376563 moveto
/one glyphshow

8.907227 0.376563 moveto
/zero glyphshow

/BitstreamVeraSans-Roman findfont
9.8 scalefont
setfont
17.814453 7.726563 moveto
/one glyphshow

24.049512 7.726563 moveto
/nine glyphshow


grestore
gsave
/o {
gsave
newpath
translate
2.0 setlinewidth
1 setlinejoin
0 setlinecap
0 0 m
5 0 l
gsave
0.000 setgray
fill
grestore
stroke
grestore
} bind def
80.64 60.48 o
grestore
gsave
/o {
gsave
newpath
translate
2.0 setlinewidth
1 setlinejoin
0 setlinecap
0 0 m
-5 0 l
gsave
0.000 setgray
fill
grestore
stroke
grestore
} bind def
552.96 60.48 o
grestore
gsave
/o {
gsave
newpath
translate
2.0 setlinewidth
1 setlinejoin
0 setlinecap
0 0 m
5 0 l
gsave
0.000 setgray
fill
grestore
stroke
grestore
} bind def
80.64 92.6836 o
grestore
gsave
/o {
gsave
newpath
translate
2.0 setlinewidth
1 setlinejoin
0 setlinecap
0 0 m
-5 0 l
gsave
0.000 setgray
fill
grestore
stroke
grestore
} bind def
552.96 92.6836 o
grestore
gsave
/o {
gsave
newpath
translate
2.0 setlinewidth
1 setlinejoin
0 setlinecap
0 0 m
5 0 l
gsave
0.000 setgray
fill
grestore
stroke
grestore
} bind def
80.64 124.887 o
grestore
gsave
/o {
gsave
newpath
translate
2.0 setlinewidth
1 setlinejoin
0 setlinecap
0 0 m
-5 0 l
gsave
0.000 setgray
fill
grestore
stroke
grestore
} bind def
552.96 124.887 o
grestore
gsave
/o {
gsave
newpath
translate
2.0 setlinewidth
1 setlinejoin
0 setlinecap
0 0 m
5 0 l
gsave
0.000 setgray
fill
grestore
stroke
grestore
} bind def
80.64 157.091 o
grestore
gsave
/o {
gsave
newpath
translate
2.0 setlinewidth
1 setlinejoin
0 setlinecap
0 0 m
-5 0 l
gsave
0.000 setgray
fill
grestore
stroke
grestore
} bind def
552.96 157.091 o
grestore
gsave
/o {
gsave
newpath
translate
2.0 setlinewidth
1 setlinejoin
0 setlinecap
0 0 m
5 0 l
gsave
0.000 setgray
fill
grestore
stroke
grestore
} bind def
80.64 189.295 o
grestore
gsave
/o {
gsave
newpath
translate
2.0 setlinewidth
1 setlinejoin
0 setlinecap
0 0 m
-5 0 l
gsave
0.000 setgray
fill
grestore
stroke
grestore
} bind def
552.96 189.295 o
grestore
gsave
/o {
gsave
newpath
translate
2.0 setlinewidth
1 setlinejoin
0 setlinecap
0 0 m
5 0 l
gsave
0.000 setgray
fill
grestore
stroke
grestore
} bind def
80.64 221.498 o
grestore
gsave
/o {
gsave
newpath
translate
2.0 setlinewidth
1 setlinejoin
0 setlinecap
0 0 m
-5 0 l
gsave
0.000 setgray
fill
grestore
stroke
grestore
} bind def
552.96 221.498 o
grestore
gsave
/o {
gsave
newpath
translate
2.0 setlinewidth
1 setlinejoin
0 setlinecap
0 0 m
5 0 l
gsave
0.000 setgray
fill
grestore
stroke
grestore
} bind def
80.64 253.702 o
grestore
gsave
/o {
gsave
newpath
translate
2.0 setlinewidth
1 setlinejoin
0 setlinecap
0 0 m
-5 0 l
gsave
0.000 setgray
fill
grestore
stroke
grestore
} bind def
552.96 253.702 o
grestore
gsave
/o {
gsave
newpath
translate
2.0 setlinewidth
1 setlinejoin
0 setlinecap
0 0 m
5 0 l
gsave
0.000 setgray
fill
grestore
stroke
grestore
} bind def
80.64 285.905 o
grestore
gsave
/o {
gsave
newpath
translate
2.0 setlinewidth
1 setlinejoin
0 setlinecap
0 0 m
-5 0 l
gsave
0.000 setgray
fill
grestore
stroke
grestore
} bind def
552.96 285.905 o
grestore
gsave
/o {
gsave
newpath
translate
2.0 setlinewidth
1 setlinejoin
0 setlinecap
0 0 m
5 0 l
gsave
0.000 setgray
fill
grestore
stroke
grestore
} bind def
80.64 318.109 o
grestore
gsave
/o {
gsave
newpath
translate
2.0 setlinewidth
1 setlinejoin
0 setlinecap
0 0 m
-5 0 l
gsave
0.000 setgray
fill
grestore
stroke
grestore
} bind def
552.96 318.109 o
grestore
gsave
/o {
gsave
newpath
translate
2.0 setlinewidth
1 setlinejoin
0 setlinecap
0 0 m
5 0 l
gsave
0.000 setgray
fill
grestore
stroke
grestore
} bind def
80.64 350.313 o
grestore
gsave
/o {
gsave
newpath
translate
2.0 setlinewidth
1 setlinejoin
0 setlinecap
0 0 m
-5 0 l
gsave
0.000 setgray
fill
grestore
stroke
grestore
} bind def
552.96 350.313 o
grestore
gsave
/o {
gsave
newpath
translate
2.0 setlinewidth
1 setlinejoin
0 setlinecap
0 0 m
5 0 l
gsave
0.000 setgray
fill
grestore
stroke
grestore
} bind def
80.64 382.516 o
grestore
gsave
/o {
gsave
newpath
translate
2.0 setlinewidth
1 setlinejoin
0 setlinecap
0 0 m
-5 0 l
gsave
0.000 setgray
fill
grestore
stroke
grestore
} bind def
552.96 382.516 o
grestore
gsave
/o {
gsave
newpath
translate
2.0 setlinewidth
1 setlinejoin
0 setlinecap
0 0 m
5 0 l
gsave
0.000 setgray
fill
grestore
stroke
grestore
} bind def
80.64 414.72 o
grestore
gsave
/o {
gsave
newpath
translate
2.0 setlinewidth
1 setlinejoin
0 setlinecap
0 0 m
-5 0 l
gsave
0.000 setgray
fill
grestore
stroke
grestore
} bind def
552.96 414.72 o
grestore
gsave
30.640000 173.100000 translate
90.000000 rotate
/Cmmi10 findfont
24.0 scalefont
setfont
0.000000 0.765625 moveto
/nu glyphshow

/Cmss10 findfont
24.0 scalefont
setfont
20.287500 0.765625 moveto
/F glyphshow

/Cmmi10 findfont
16.8 scalefont
setfont
33.939844 -5.356625 moveto
/nu glyphshow

/BitstreamVeraSans-Roman findfont
24.0 scalefont
setfont
42.241406 0.765625 moveto
/space glyphshow

49.870312 0.765625 moveto
/bracketleft glyphshow

59.233594 0.765625 moveto
/J glyphshow

66.311719 0.765625 moveto
/y glyphshow

80.514844 0.765625 moveto
/space glyphshow

88.143750 0.765625 moveto
/H glyphshow

106.190625 0.765625 moveto
/z glyphshow

118.788281 0.765625 moveto
/bracketright glyphshow


grestore
3.000 setlinewidth
gsave
80.64 414.72 m
552.96 414.72 l
stroke
grestore
gsave
552.96 60.48 m
552.96 414.72 l
stroke
grestore
gsave
80.64 60.48 m
552.96 60.48 l
stroke
grestore
gsave
80.64 60.48 m
80.64 414.72 l
stroke
grestore
1.000 setlinewidth
gsave
434.56 359.52 m
545.96 359.52 l
545.96 407.72 l
434.56 407.72 l
434.56 359.52 l
cl
gsave
1.000 setgray
fill
grestore
stroke
grestore
2.000 setlinewidth
2 setlinecap
0.000 0.000 1.000 setrgbcolor
gsave
444.36 396.02 m
463.96 396.02 l
stroke
grestore
0.000 setgray
gsave
479.360000 391.120000 translate
0.000000 rotate
/Cmr10 findfont
14.0 scalefont
setfont
0.000000 0.984375 moveto
/Delta glyphshow

/Cmmi10 findfont
9.8 scalefont
setfont
11.662109 -2.586937 moveto
/a glyphshow

16.834863 -2.586937 moveto
/c glyphshow

21.069727 -2.586937 moveto
/c glyphshow

/Cmr10 findfont
14.0 scalefont
setfont
27.762793 0.984375 moveto
/equal glyphshow

39.517871 0.984375 moveto
/one glyphshow

46.517871 0.984375 moveto
/zero glyphshow


grestore
0.000 0.500 0.000 setrgbcolor
gsave
444.36 374.02 m
463.96 374.02 l
stroke
grestore
0.000 setgray
gsave
479.360000 369.120000 translate
0.000000 rotate
/Cmr10 findfont
14.0 scalefont
setfont
0.000000 0.984375 moveto
/Delta glyphshow

/Cmmi10 findfont
9.8 scalefont
setfont
11.662109 -2.586937 moveto
/a glyphshow

16.834863 -2.586937 moveto
/c glyphshow

21.069727 -2.586937 moveto
/c glyphshow

/Cmr10 findfont
14.0 scalefont
setfont
27.762793 0.984375 moveto
/equal glyphshow

39.517871 0.984375 moveto
/one glyphshow

46.517871 0.984375 moveto
/zero glyphshow

53.517871 0.984375 moveto
/zero glyphshow


grestore
1.000 setlinewidth
0 setlinecap
gsave
405.56 193.953 m
545.96 193.953 l
545.96 281.247 l
405.56 281.247 l
405.56 193.953 l
cl
gsave
1.000 setgray
fill
grestore
stroke
grestore
2.000 setlinewidth
[1 3] 0 setdash
gsave
415.36 269.906 m
434.96 269.906 l
stroke
grestore
gsave
450.360000 265.006250 translate
0.000000 rotate
/Cmmi10 findfont
14.0 scalefont
setfont
0.000000 0.671875 moveto
/t glyphshow

/Cmr10 findfont
14.0 scalefont
setfont
7.509961 0.671875 moveto
/equal glyphshow

19.265039 0.671875 moveto
/three glyphshow

/Cmmi10 findfont
14.0 scalefont
setfont
26.265039 0.671875 moveto
/period glyphshow

/Cmr10 findfont
14.0 scalefont
setfont
30.254492 0.671875 moveto
/zero glyphshow

37.254492 0.671875 moveto
/one glyphshow

44.254492 0.671875 moveto
/eight glyphshow

56.170898 0.671875 moveto
/s glyphshow


grestore
[3 5 1 5] 0 setdash
gsave
415.36 249.359 m
434.96 249.359 l
stroke
grestore
gsave
450.360000 244.459375 translate
0.000000 rotate
/Cmmi10 findfont
14.0 scalefont
setfont
0.000000 0.671875 moveto
/t glyphshow

/Cmr10 findfont
14.0 scalefont
setfont
7.509961 0.671875 moveto
/equal glyphshow

19.265039 0.671875 moveto
/one glyphshow

26.265039 0.671875 moveto
/nine glyphshow

/Cmmi10 findfont
14.0 scalefont
setfont
33.265039 0.671875 moveto
/period glyphshow

/Cmr10 findfont
14.0 scalefont
setfont
37.254492 0.671875 moveto
/two glyphshow

44.254492 0.671875 moveto
/four glyphshow

51.254492 0.671875 moveto
/eight glyphshow

63.170898 0.671875 moveto
/s glyphshow


grestore
[6 6] 0 setdash
gsave
415.36 228.359 m
434.96 228.359 l
stroke
grestore
gsave
450.360000 223.459375 translate
0.000000 rotate
/Cmmi10 findfont
14.0 scalefont
setfont
0.000000 0.518125 moveto
/t glyphshow

/Cmr10 findfont
14.0 scalefont
setfont
7.509961 0.518125 moveto
/equal glyphshow

19.265039 0.518125 moveto
/one glyphshow

/Cmmi10 findfont
14.0 scalefont
setfont
26.265039 0.518125 moveto
/period glyphshow

/Cmr10 findfont
14.0 scalefont
setfont
30.254492 0.518125 moveto
/zero glyphshow

37.254492 0.518125 moveto
/one glyphshow

44.254492 0.518125 moveto
/two glyphshow

/Cmsy10 findfont
14.0 scalefont
setfont
53.712695 0.518125 moveto
/periodcentered glyphshow

/Cmr10 findfont
14.0 scalefont
setfont
57.702148 0.518125 moveto
/one glyphshow

64.702148 0.518125 moveto
/zero glyphshow

/Cmr10 findfont
9.8 scalefont
setfont
71.702148 6.470313 moveto
/three glyphshow

/Cmr10 findfont
14.0 scalefont
setfont
83.899430 0.518125 moveto
/s glyphshow


grestore
2 setlinecap
[] 0 setdash
gsave
415.36 207.359 m
434.96 207.359 l
stroke
grestore
gsave
450.360000 202.459375 translate
0.000000 rotate
/Cmmi10 findfont
14.0 scalefont
setfont
0.000000 0.518125 moveto
/t glyphshow

/Cmr10 findfont
14.0 scalefont
setfont
7.509961 0.518125 moveto
/equal glyphshow

19.265039 0.518125 moveto
/nine glyphshow

/Cmmi10 findfont
14.0 scalefont
setfont
26.265039 0.518125 moveto
/period glyphshow

/Cmr10 findfont
14.0 scalefont
setfont
30.254492 0.518125 moveto
/eight glyphshow

37.254492 0.518125 moveto
/seven glyphshow

44.254492 0.518125 moveto
/zero glyphshow

/Cmsy10 findfont
14.0 scalefont
setfont
53.712695 0.518125 moveto
/periodcentered glyphshow

/Cmr10 findfont
14.0 scalefont
setfont
57.702148 0.518125 moveto
/one glyphshow

64.702148 0.518125 moveto
/zero glyphshow

/Cmr10 findfont
9.8 scalefont
setfont
71.702148 6.470313 moveto
/four glyphshow

/Cmr10 findfont
14.0 scalefont
setfont
83.899430 0.518125 moveto
/s glyphshow


grestore

end
showpage
