%!PS-Adobe-3.0 EPSF-3.0
%%Title: mean_aacc_vs_time-weakmag.eps
%%Creator: matplotlib version 1.3.0, http://matplotlib.org/
%%CreationDate: Mon Aug 11 19:16:36 2014
%%Orientation: portrait
%%BoundingBox: 18 180 594 612
%%EndComments
%%BeginProlog
/mpldict 12 dict def
mpldict begin
/m { moveto } bind def
/l { lineto } bind def
/r { rlineto } bind def
/c { curveto } bind def
/cl { closepath } bind def
/box {
m
1 index 0 r
0 exch r
neg 0 r
cl
} bind def
/clipbox {
box
clip
newpath
} bind def
%!PS-Adobe-3.0 Resource-Font
%%Title: Bitstream Vera Sans
%%Copyright: Copyright (c) 2003 by Bitstream, Inc. All Rights Reserved.
%%Creator: Converted from TrueType to type 3 by PPR
25 dict begin
/_d{bind def}bind def
/_m{moveto}_d
/_l{lineto}_d
/_cl{closepath eofill}_d
/_c{curveto}_d
/_sc{7 -1 roll{setcachedevice}{pop pop pop pop pop pop}ifelse}_d
/_e{exec}_d
/FontName /BitstreamVeraSans-Roman def
/PaintType 0 def
/FontMatrix[.001 0 0 .001 0 0]def
/FontBBox[-183 -236 1287 928]def
/FontType 3 def
/Encoding [ /space /zero /one /two /three /four /five /six /seven /eight /nine /H /J /bracketleft /bracketright /y /z ] def
/FontInfo 10 dict dup begin
/FamilyName (Bitstream Vera Sans) def
/FullName (Bitstream Vera Sans) def
/Notice (Copyright (c) 2003 by Bitstream, Inc. All Rights Reserved. Bitstream Vera is a trademark of Bitstream, Inc.) def
/Weight (Roman) def
/Version (Release 1.10) def
/ItalicAngle 0.0 def
/isFixedPitch false def
/UnderlinePosition -213 def
/UnderlineThickness 143 def
end readonly def
/CharStrings 17 dict dup begin
/space{318 0 0 0 0 0 _sc
}_d
/zero{636 0 66 -13 570 742 _sc
318 664 _m
267 664 229 639 203 589 _c
177 539 165 464 165 364 _c
165 264 177 189 203 139 _c
229 89 267 64 318 64 _c
369 64 407 89 433 139 _c
458 189 471 264 471 364 _c
471 464 458 539 433 589 _c
407 639 369 664 318 664 _c
318 742 _m
399 742 461 709 505 645 _c
548 580 570 486 570 364 _c
570 241 548 147 505 83 _c
461 19 399 -13 318 -13 _c
236 -13 173 19 130 83 _c
87 147 66 241 66 364 _c
66 486 87 580 130 645 _c
173 709 236 742 318 742 _c
_cl}_d
/one{636 0 110 0 544 729 _sc
124 83 _m
285 83 _l
285 639 _l
110 604 _l
110 694 _l
284 729 _l
383 729 _l
383 83 _l
544 83 _l
544 0 _l
124 0 _l
124 83 _l
_cl}_d
/two{{636 0 73 0 536 742 _sc
192 83 _m
536 83 _l
536 0 _l
73 0 _l
73 83 _l
110 121 161 173 226 239 _c
290 304 331 346 348 365 _c
380 400 402 430 414 455 _c
426 479 433 504 433 528 _c
433 566 419 598 392 622 _c
365 646 330 659 286 659 _c
255 659 222 653 188 643 _c
154 632 117 616 78 594 _c
78 694 _l
118 710 155 722 189 730 _c
223 738 255 742 284 742 _c
}_e{359 742 419 723 464 685 _c
509 647 532 597 532 534 _c
532 504 526 475 515 449 _c
504 422 484 390 454 354 _c
446 344 420 317 376 272 _c
332 227 271 164 192 83 _c
_cl}_e}_d
/three{{636 0 76 -13 556 742 _sc
406 393 _m
453 383 490 362 516 330 _c
542 298 556 258 556 212 _c
556 140 531 84 482 45 _c
432 6 362 -13 271 -13 _c
240 -13 208 -10 176 -4 _c
144 1 110 10 76 22 _c
76 117 _l
103 101 133 89 166 81 _c
198 73 232 69 268 69 _c
330 69 377 81 409 105 _c
441 129 458 165 458 212 _c
458 254 443 288 413 312 _c
383 336 341 349 287 349 _c
}_e{202 349 _l
202 430 _l
291 430 _l
339 430 376 439 402 459 _c
428 478 441 506 441 543 _c
441 580 427 609 401 629 _c
374 649 336 659 287 659 _c
260 659 231 656 200 650 _c
169 644 135 635 98 623 _c
98 711 _l
135 721 170 729 203 734 _c
235 739 266 742 296 742 _c
370 742 429 725 473 691 _c
517 657 539 611 539 553 _c
539 513 527 479 504 451 _c
481 423 448 403 406 393 _c
_cl}_e}_d
/four{636 0 49 0 580 729 _sc
378 643 _m
129 254 _l
378 254 _l
378 643 _l
352 729 _m
476 729 _l
476 254 _l
580 254 _l
580 172 _l
476 172 _l
476 0 _l
378 0 _l
378 172 _l
49 172 _l
49 267 _l
352 729 _l
_cl}_d
/five{{636 0 77 -13 549 729 _sc
108 729 _m
495 729 _l
495 646 _l
198 646 _l
198 467 _l
212 472 227 476 241 478 _c
255 480 270 482 284 482 _c
365 482 429 459 477 415 _c
525 370 549 310 549 234 _c
549 155 524 94 475 51 _c
426 8 357 -13 269 -13 _c
238 -13 207 -10 175 -6 _c
143 -1 111 6 77 17 _c
77 116 _l
106 100 136 88 168 80 _c
199 72 232 69 267 69 _c
}_e{323 69 368 83 401 113 _c
433 143 450 183 450 234 _c
450 284 433 324 401 354 _c
368 384 323 399 267 399 _c
241 399 214 396 188 390 _c
162 384 135 375 108 363 _c
108 729 _l
_cl}_e}_d
/six{{636 0 70 -13 573 742 _sc
330 404 _m
286 404 251 388 225 358 _c
199 328 186 286 186 234 _c
186 181 199 139 225 109 _c
251 79 286 64 330 64 _c
374 64 409 79 435 109 _c
461 139 474 181 474 234 _c
474 286 461 328 435 358 _c
409 388 374 404 330 404 _c
526 713 _m
526 623 _l
501 635 476 644 451 650 _c
425 656 400 659 376 659 _c
310 659 260 637 226 593 _c
}_e{192 549 172 482 168 394 _c
187 422 211 444 240 459 _c
269 474 301 482 336 482 _c
409 482 467 459 509 415 _c
551 371 573 310 573 234 _c
573 159 550 99 506 54 _c
462 9 403 -13 330 -13 _c
246 -13 181 19 137 83 _c
92 147 70 241 70 364 _c
70 479 97 571 152 639 _c
206 707 280 742 372 742 _c
396 742 421 739 447 735 _c
472 730 498 723 526 713 _c
_cl}_e}_d
/seven{636 0 82 0 551 729 _sc
82 729 _m
551 729 _l
551 687 _l
286 0 _l
183 0 _l
432 646 _l
82 646 _l
82 729 _l
_cl}_d
/eight{{636 0 68 -13 568 742 _sc
318 346 _m
271 346 234 333 207 308 _c
180 283 167 249 167 205 _c
167 161 180 126 207 101 _c
234 76 271 64 318 64 _c
364 64 401 76 428 102 _c
455 127 469 161 469 205 _c
469 249 455 283 429 308 _c
402 333 365 346 318 346 _c
219 388 _m
177 398 144 418 120 447 _c
96 476 85 511 85 553 _c
85 611 105 657 147 691 _c
188 725 245 742 318 742 _c
}_e{390 742 447 725 489 691 _c
530 657 551 611 551 553 _c
551 511 539 476 515 447 _c
491 418 459 398 417 388 _c
464 377 501 355 528 323 _c
554 291 568 251 568 205 _c
568 134 546 80 503 43 _c
459 5 398 -13 318 -13 _c
237 -13 175 5 132 43 _c
89 80 68 134 68 205 _c
68 251 81 291 108 323 _c
134 355 171 377 219 388 _c
183 544 _m
183 506 194 476 218 455 _c
}_e{242 434 275 424 318 424 _c
360 424 393 434 417 455 _c
441 476 453 506 453 544 _c
453 582 441 611 417 632 _c
393 653 360 664 318 664 _c
275 664 242 653 218 632 _c
194 611 183 582 183 544 _c
_cl}_e}_d
/nine{{636 0 63 -13 566 742 _sc
110 15 _m
110 105 _l
134 93 159 84 185 78 _c
210 72 235 69 260 69 _c
324 69 374 90 408 134 _c
442 178 462 244 468 334 _c
448 306 424 284 396 269 _c
367 254 335 247 300 247 _c
226 247 168 269 126 313 _c
84 357 63 417 63 494 _c
63 568 85 628 129 674 _c
173 719 232 742 306 742 _c
390 742 455 709 499 645 _c
543 580 566 486 566 364 _c
}_e{566 248 538 157 484 89 _c
429 21 356 -13 264 -13 _c
239 -13 214 -10 189 -6 _c
163 -2 137 5 110 15 _c
306 324 _m
350 324 385 339 411 369 _c
437 399 450 441 450 494 _c
450 546 437 588 411 618 _c
385 648 350 664 306 664 _c
262 664 227 648 201 618 _c
175 588 162 546 162 494 _c
162 441 175 399 201 369 _c
227 339 262 324 306 324 _c
_cl}_e}_d
/H{752 0 98 0 654 729 _sc
98 729 _m
197 729 _l
197 430 _l
555 430 _l
555 729 _l
654 729 _l
654 0 _l
555 0 _l
555 347 _l
197 347 _l
197 0 _l
98 0 _l
98 729 _l
_cl}_d
/J{295 0 -51 -199 197 729 _sc
98 729 _m
197 729 _l
197 51 _l
197 -36 180 -99 147 -139 _c
113 -179 60 -199 -13 -199 _c
-51 -199 _l
-51 -116 _l
-20 -116 _l
22 -116 53 -103 71 -79 _c
89 -55 98 -11 98 51 _c
98 729 _l
_cl}_d
/bracketleft{390 0 86 -131 293 760 _sc
86 760 _m
293 760 _l
293 690 _l
176 690 _l
176 -61 _l
293 -61 _l
293 -131 _l
86 -131 _l
86 760 _l
_cl}_d
/bracketright{390 0 97 -131 304 760 _sc
304 760 _m
304 -131 _l
97 -131 _l
97 -61 _l
214 -61 _l
214 690 _l
97 690 _l
97 760 _l
304 760 _l
_cl}_d
/y{592 0 30 -207 562 547 _sc
322 -50 _m
296 -114 271 -157 247 -177 _c
223 -197 191 -207 151 -207 _c
79 -207 _l
79 -132 _l
132 -132 _l
156 -132 175 -126 189 -114 _c
203 -102 218 -75 235 -31 _c
251 9 _l
30 547 _l
125 547 _l
296 119 _l
467 547 _l
562 547 _l
322 -50 _l
_cl}_d
/z{525 0 43 0 482 547 _sc
55 547 _m
482 547 _l
482 465 _l
144 72 _l
482 72 _l
482 0 _l
43 0 _l
43 82 _l
381 475 _l
55 475 _l
55 547 _l
_cl}_d
end readonly def

/BuildGlyph
 {exch begin
 CharStrings exch
 2 copy known not{pop /.notdef}if
 true 3 1 roll get exec
 end}_d

/BuildChar {
 1 index /Encoding get exch get
 1 index /BuildGlyph get exec
}_d

FontName currentdict end definefont pop
%!PS-Adobe-3.0 Resource-Font
%%Title: cmmi10
%%Copyright: Copyright (C) 1994, Basil K. Malyshev. All Rights Reserved.012BaKoMa Fonts Collection, Level-B.
%%Creator: Converted from TrueType to type 3 by PPR
25 dict begin
/_d{bind def}bind def
/_m{moveto}_d
/_l{lineto}_d
/_cl{closepath eofill}_d
/_c{curveto}_d
/_sc{7 -1 roll{setcachedevice}{pop pop pop pop pop pop}ifelse}_d
/_e{exec}_d
/FontName /Cmmi10 def
/PaintType 0 def
/FontMatrix[.001 0 0 .001 0 0]def
/FontBBox[-34 -250 1048 750]def
/FontType 3 def
/Encoding [ /nu /t /period /a /c ] def
/FontInfo 10 dict dup begin
/FamilyName (cmmi10) def
/FullName (cmmi10) def
/Notice (Copyright (C) 1994, Basil K. Malyshev. All Rights Reserved.012BaKoMa Fonts Collection, Level-B. ) def
/Weight (Regular) def
/Version (1.1/12-Nov-94) def
/ItalicAngle 0.0 def
/isFixedPitch false def
/UnderlinePosition -133 def
/UnderlineThickness 20 def
end readonly def
/CharStrings 5 dict dup begin
/nu{{494 0 51 0 526 442 _sc
63 0 _m
55 0 51 4 51 13 _c
136 353 _l
138 364 140 373 141 380 _c
141 390 119 396 76 396 _c
69 396 66 400 66 409 _c
66 411 66 414 68 418 _c
69 422 70 425 72 427 _c
74 429 76 431 80 431 _c
215 442 _l
223 442 227 437 227 429 _c
129 37 _l
181 54 230 81 274 119 _c
318 157 356 201 387 252 _c
418 302 440 355 454 410 _c
}_e{456 419 461 427 469 433 _c
477 439 486 442 496 442 _c
504 442 511 439 517 434 _c
523 428 526 421 526 413 _c
526 402 521 386 513 364 _c
504 342 495 322 487 305 _c
460 253 425 205 382 161 _c
354 133 325 109 294 88 _c
262 67 229 49 195 34 _c
161 19 125 8 87 0 _c
63 0 _l
_cl}_e}_d
/t{{361 0 22 -10 330 626 _sc
62 81 _m
62 91 63 100 65 109 _c
137 396 _l
32 396 _l
25 396 22 400 22 409 _c
24 423 29 431 35 431 _c
146 431 _l
186 594 _l
188 602 193 610 201 616 _c
209 622 218 626 228 626 _c
236 626 243 623 249 618 _c
255 613 258 606 258 598 _c
258 596 257 594 257 593 _c
257 592 257 591 257 590 _c
217 431 _l
320 431 _l
326 431 330 426 330 418 _c
}_e{330 416 329 414 328 410 _c
327 406 326 402 324 400 _c
322 397 320 396 317 396 _c
208 396 _l
136 107 _l
131 88 129 72 129 58 _c
129 29 138 15 158 15 _c
187 15 213 28 236 56 _c
258 84 276 114 288 147 _c
290 151 293 153 296 153 _c
308 153 _l
310 153 312 152 314 150 _c
316 148 317 146 317 144 _c
317 142 316 141 316 141 _c
301 101 280 65 252 35 _c
}_e{224 5 192 -10 156 -10 _c
129 -10 107 -1 89 15 _c
71 32 62 54 62 81 _c
_cl}_e}_d
/period{277 0 84 0 194 110 _sc
84 55 _m
84 70 89 83 100 94 _c
111 104 124 110 139 110 _c
148 110 157 107 166 102 _c
174 97 181 90 186 82 _c
191 73 194 64 194 55 _c
194 40 188 27 178 16 _c
167 5 154 0 139 0 _c
124 0 111 5 100 16 _c
89 27 84 40 84 55 _c
_cl}_d
/a{{528 0 38 -10 501 442 _sc
174 -10 _m
132 -10 98 5 74 37 _c
50 68 38 105 38 149 _c
38 191 49 236 71 282 _c
93 328 122 366 160 396 _c
198 426 238 442 282 442 _c
302 442 319 436 335 426 _c
351 415 363 400 372 382 _c
379 408 394 422 416 422 _c
424 422 431 419 437 414 _c
443 409 446 402 446 394 _c
446 392 445 390 445 389 _c
445 388 445 387 445 386 _c
375 107 _l
}_e{370 87 368 70 368 58 _c
368 29 377 15 397 15 _c
417 15 433 28 444 55 _c
455 81 464 112 472 147 _c
473 151 476 153 480 153 _c
492 153 _l
494 153 496 151 498 149 _c
500 147 501 145 501 143 _c
489 96 476 59 462 31 _c
448 3 426 -10 395 -10 _c
372 -10 352 -3 335 9 _c
318 21 307 39 303 61 _c
260 13 217 -10 174 -10 _c
175 15 _m
199 15 222 24 245 42 _c
}_e{267 60 287 81 303 106 _c
303 106 304 107 304 109 _c
358 326 _l
359 329 _l
355 353 346 373 333 390 _c
319 407 302 416 280 416 _c
257 416 236 406 217 388 _c
197 370 181 348 168 323 _c
154 296 142 259 130 213 _c
118 167 113 131 113 105 _c
113 81 118 60 128 42 _c
138 24 153 15 175 15 _c
_cl}_e}_d
/c{{432 0 40 -10 430 442 _sc
117 119 _m
117 90 124 65 139 45 _c
154 25 175 15 203 15 _c
243 15 281 24 318 42 _c
354 60 384 86 407 118 _c
409 120 411 121 415 121 _c
418 121 421 119 425 115 _c
428 111 430 108 430 105 _c
430 102 429 100 428 99 _c
404 65 371 38 330 19 _c
288 0 245 -10 201 -10 _c
169 -10 140 -2 116 12 _c
92 26 73 46 60 72 _c
}_e{46 97 40 126 40 158 _c
40 203 52 248 77 292 _c
102 336 135 372 177 400 _c
219 428 263 442 309 442 _c
339 442 366 434 390 420 _c
414 405 426 384 426 356 _c
426 338 420 322 410 309 _c
399 296 385 290 367 290 _c
356 290 347 293 340 300 _c
332 306 329 315 329 326 _c
329 342 334 355 346 366 _c
357 377 370 383 386 383 _c
388 383 _l
380 394 368 402 354 408 _c
}_e{339 413 324 416 308 416 _c
269 416 235 399 206 366 _c
176 332 154 292 139 246 _c
124 200 117 157 117 119 _c
_cl}_e}_d
end readonly def

/BuildGlyph
 {exch begin
 CharStrings exch
 2 copy known not{pop /.notdef}if
 true 3 1 roll get exec
 end}_d

/BuildChar {
 1 index /Encoding get exch get
 1 index /BuildGlyph get exec
}_d

FontName currentdict end definefont pop
%!PS-Adobe-3.0 Resource-Font
%%Title: cmr10
%%Copyright: Copyright (C) 1994, Basil K. Malyshev. All Rights Reserved.012BaKoMa Fonts Collection, Level-B.
%%Creator: Converted from TrueType to type 3 by PPR
25 dict begin
/_d{bind def}bind def
/_m{moveto}_d
/_l{lineto}_d
/_cl{closepath eofill}_d
/_c{curveto}_d
/_sc{7 -1 roll{setcachedevice}{pop pop pop pop pop pop}ifelse}_d
/_e{exec}_d
/FontName /Cmr10 def
/PaintType 0 def
/FontMatrix[.001 0 0 .001 0 0]def
/FontBBox[-44 -250 1009 750]def
/FontType 3 def
/Encoding [ /nine /zero /equal /two /four /six /eight /s /one /three /seven ] def
/FontInfo 10 dict dup begin
/FamilyName (cmr10) def
/FullName (cmr10) def
/Notice (Copyright (C) 1994, Basil K. Malyshev. All Rights Reserved.012BaKoMa Fonts Collection, Level-B. ) def
/Weight (Regular) def
/Version (1.1/12-Nov-94) def
/ItalicAngle 0.0 def
/isFixedPitch false def
/UnderlinePosition -133 def
/UnderlineThickness 20 def
end readonly def
/CharStrings 11 dict dup begin
/nine{{500 0 42 -21 457 666 _sc
113 42 _m
131 20 162 10 208 10 _c
233 10 257 18 279 36 _c
301 53 318 74 330 99 _c
344 127 353 158 357 190 _c
361 222 363 261 363 309 _c
351 282 335 260 314 243 _c
292 225 268 217 240 217 _c
201 217 166 227 136 248 _c
106 269 82 297 66 331 _c
50 365 42 402 42 441 _c
42 481 51 518 69 553 _c
87 587 113 615 145 635 _c
}_e{177 655 213 666 255 666 _c
295 666 328 655 356 633 _c
383 611 404 582 418 548 _c
432 513 442 476 448 438 _c
454 399 457 361 457 323 _c
457 271 447 219 428 165 _c
409 111 381 67 344 32 _c
306 -3 261 -21 208 -21 _c
168 -21 135 -12 108 6 _c
80 24 67 52 67 90 _c
67 103 71 114 81 124 _c
90 133 101 138 115 138 _c
128 138 139 133 149 124 _c
}_e{158 114 163 103 163 90 _c
163 76 158 65 149 56 _c
139 46 128 42 115 42 _c
113 42 _l
244 243 _m
271 243 293 252 311 270 _c
328 288 341 311 349 339 _c
357 366 361 393 361 421 _c
361 440 _l
361 444 _l
361 494 353 538 339 578 _c
324 617 296 637 255 637 _c
228 637 206 631 190 620 _c
174 608 162 593 154 574 _c
146 554 141 534 139 512 _c
137 490 136 466 136 441 _c
}_e{136 403 137 370 141 344 _c
145 317 155 293 171 273 _c
187 253 211 243 244 243 _c
_cl}_e}_d
/zero{{500 0 39 -21 460 666 _sc
250 -21 _m
168 -21 112 12 83 79 _c
53 146 39 226 39 319 _c
39 377 44 431 55 482 _c
65 533 86 576 118 612 _c
149 648 193 666 250 666 _c
294 666 330 655 358 634 _c
386 612 407 585 422 551 _c
436 517 446 480 452 441 _c
457 402 460 361 460 319 _c
460 261 454 208 444 158 _c
433 108 412 65 381 31 _c
350 -3 306 -21 250 -21 _c
250 4 _m
}_e{287 4 315 23 333 61 _c
351 99 362 141 366 187 _c
370 233 373 283 373 335 _c
373 385 370 431 366 473 _c
362 515 351 554 333 588 _c
315 622 287 640 250 640 _c
212 640 184 622 166 588 _c
148 554 136 515 132 473 _c
128 431 126 385 126 335 _c
126 297 126 262 128 230 _c
130 197 135 163 143 128 _c
151 93 163 64 181 40 _c
198 16 221 4 250 4 _c
_cl}_e}_d
/equal{{777 0 56 133 721 367 _sc
75 133 _m
69 133 65 135 61 139 _c
57 143 56 148 56 153 _c
56 158 57 163 61 167 _c
65 171 69 173 75 173 _c
703 173 _l
707 173 711 171 715 167 _c
719 163 721 158 721 153 _c
721 148 719 143 715 139 _c
711 135 707 133 703 133 _c
75 133 _l
75 327 _m
69 327 65 329 61 333 _c
57 337 56 341 56 347 _c
56 351 57 356 61 360 _c
}_e{65 364 69 367 75 367 _c
703 367 _l
707 367 711 364 715 360 _c
719 356 721 351 721 347 _c
721 341 719 337 715 333 _c
711 329 707 327 703 327 _c
75 327 _l
_cl}_e}_d
/two{{500 0 50 0 449 666 _sc
50 0 _m
50 27 _l
50 28 50 30 52 32 _c
207 204 _l
230 229 249 250 264 268 _c
278 285 293 305 307 327 _c
321 349 333 372 341 396 _c
349 419 354 444 354 470 _c
354 497 349 523 339 548 _c
329 573 314 593 294 608 _c
274 623 249 631 221 631 _c
192 631 166 622 143 605 _c
119 587 103 565 94 537 _c
96 537 100 538 105 538 _c
}_e{119 538 132 533 143 523 _c
153 513 159 500 159 484 _c
159 468 153 455 143 445 _c
132 434 119 429 105 429 _c
89 429 76 434 66 445 _c
55 456 50 469 50 484 _c
50 508 54 532 64 554 _c
73 576 86 595 104 613 _c
122 630 142 643 164 652 _c
186 661 210 666 236 666 _c
274 666 309 658 342 642 _c
375 626 401 603 420 573 _c
439 543 449 509 449 470 _c
}_e{449 441 442 414 430 388 _c
417 362 401 338 381 317 _c
361 295 336 271 305 244 _c
274 217 254 199 244 190 _c
131 81 _l
227 81 _l
274 81 313 81 345 82 _c
377 82 394 84 396 86 _c
404 94 412 125 420 178 _c
449 178 _l
421 0 _l
50 0 _l
_cl}_e}_d
/four{{500 0 28 0 471 666 _sc
28 165 _m
28 200 _l
337 661 _l
339 664 342 666 347 666 _c
362 666 _l
369 666 373 662 373 655 _c
373 200 _l
471 200 _l
471 165 _l
373 165 _l
373 67 _l
373 53 382 44 402 40 _c
422 36 444 35 470 35 _c
470 0 _l
195 0 _l
195 35 _l
220 35 242 36 262 40 _c
282 44 292 53 292 67 _c
292 165 _l
28 165 _l
61 200 _m
298 200 _l
}_e{298 554 _l
61 200 _l
_cl}_e}_d
/six{{500 0 42 -21 457 666 _sc
250 -21 _m
208 -21 174 -10 146 11 _c
118 33 97 61 82 96 _c
67 131 57 168 51 206 _c
45 244 42 283 42 323 _c
42 375 52 428 73 482 _c
93 535 123 579 163 614 _c
203 648 250 666 305 666 _c
327 666 348 661 368 653 _c
388 644 403 631 415 615 _c
426 598 432 578 432 554 _c
432 540 427 529 418 520 _c
408 510 397 506 384 506 _c
}_e{370 506 359 510 350 520 _c
340 529 336 540 336 554 _c
336 567 340 578 350 588 _c
359 597 370 602 384 602 _c
389 602 _l
380 614 368 622 353 628 _c
337 634 321 637 305 637 _c
285 637 266 632 249 624 _c
232 615 217 603 203 588 _c
189 573 178 557 169 539 _c
159 521 152 500 147 477 _c
142 453 139 432 138 412 _c
136 392 136 366 136 336 _c
148 363 164 385 186 403 _c
}_e{207 420 231 429 259 429 _c
288 429 315 423 339 411 _c
363 399 384 382 402 361 _c
420 339 433 315 443 288 _c
452 260 457 233 457 205 _c
457 165 448 128 431 93 _c
413 58 389 30 357 10 _c
325 -10 290 -21 250 -21 _c
250 10 _m
276 10 296 15 312 27 _c
327 39 338 54 346 74 _c
353 93 358 112 360 132 _c
362 152 363 176 363 205 _c
363 243 361 275 357 302 _c
}_e{353 328 344 352 328 372 _c
312 392 287 403 255 403 _c
227 403 205 393 188 375 _c
170 357 158 334 150 306 _c
142 278 138 252 138 226 _c
138 217 138 210 139 206 _c
139 205 139 204 139 204 _c
139 203 138 202 138 201 _c
138 172 141 143 147 114 _c
153 84 164 60 181 40 _c
197 20 220 10 250 10 _c
_cl}_e}_d
/eight{{500 0 42 -21 457 666 _sc
42 152 _m
42 192 55 227 81 258 _c
107 288 141 314 183 335 _c
146 359 _l
123 373 104 393 90 418 _c
76 443 69 469 69 497 _c
69 529 77 557 94 583 _c
110 609 133 629 161 644 _c
189 658 218 666 250 666 _c
279 666 307 660 335 648 _c
363 636 385 618 403 596 _c
421 574 430 547 430 516 _c
430 493 424 472 414 453 _c
403 434 388 417 370 402 _c
}_e{352 386 332 373 312 363 _c
369 326 _l
395 308 417 286 433 258 _c
449 230 457 200 457 170 _c
457 134 447 101 428 71 _c
408 41 383 19 351 3 _c
319 -13 285 -21 250 -21 _c
215 -21 182 -14 150 0 _c
118 13 92 33 72 60 _c
52 86 42 117 42 152 _c
96 152 _m
96 125 103 101 118 79 _c
132 57 151 40 175 28 _c
199 16 224 10 250 10 _c
288 10 323 21 355 44 _c
}_e{387 66 403 96 403 134 _c
403 146 400 159 395 171 _c
390 183 383 195 374 205 _c
365 215 355 224 344 231 _c
210 318 _l
189 306 170 292 152 275 _c
134 258 121 239 111 218 _c
101 197 96 175 96 152 _c
165 457 _m
286 379 _l
314 395 337 414 355 438 _c
373 461 382 487 382 516 _c
382 538 375 559 363 578 _c
350 596 334 611 314 621 _c
294 631 272 637 249 637 _c
}_e{229 637 208 633 188 625 _c
167 617 150 606 137 590 _c
123 574 117 556 117 536 _c
117 504 133 478 165 457 _c
_cl}_e}_d
/s{{394 0 33 -10 360 448 _sc
33 -2 _m
33 160 _l
33 165 36 168 42 168 _c
54 168 _l
58 168 60 165 62 160 _c
80 63 125 15 197 15 _c
228 15 254 22 276 36 _c
297 50 308 73 308 103 _c
308 124 299 142 283 158 _c
266 173 246 183 224 189 _c
157 202 _l
135 206 114 214 96 224 _c
77 234 62 248 50 265 _c
38 281 33 301 33 323 _c
33 352 40 376 56 395 _c
}_e{72 413 92 427 117 435 _c
141 443 168 448 197 448 _c
231 448 260 439 286 421 _c
315 446 _l
315 447 316 448 320 448 _c
327 448 _l
329 448 330 447 332 445 _c
334 443 335 442 335 440 _c
335 309 _l
335 303 332 300 327 300 _c
315 300 _l
309 300 306 303 306 309 _c
306 343 296 371 277 393 _c
257 414 230 425 196 425 _c
166 425 140 419 118 408 _c
96 397 85 378 85 351 _c
}_e{85 332 92 317 108 305 _c
124 293 142 285 164 280 _c
232 267 _l
254 261 275 252 295 240 _c
315 228 330 212 342 194 _c
354 175 360 154 360 130 _c
360 106 355 85 347 67 _c
339 49 327 35 313 23 _c
298 11 280 2 260 -2 _c
240 -7 219 -10 197 -10 _c
155 -10 119 3 90 31 _c
53 -8 _l
53 -9 51 -10 48 -10 _c
42 -10 _l
36 -10 33 -7 33 -2 _c
_cl}_e}_d
/one{500 0 87 0 421 666 _sc
93 0 _m
93 35 _l
176 35 218 45 218 67 _c
218 592 _l
183 575 139 567 87 567 _c
87 602 _l
168 602 230 623 272 666 _c
286 666 _l
288 666 291 665 293 663 _c
295 661 296 659 296 657 _c
296 67 _l
296 45 337 35 421 35 _c
421 0 _l
93 0 _l
_cl}_d
/three{{500 0 42 -21 457 666 _sc
95 77 _m
111 54 132 37 158 26 _c
184 15 213 10 243 10 _c
281 10 309 26 325 59 _c
341 92 350 130 350 172 _c
350 190 348 209 345 228 _c
341 247 335 265 327 281 _c
319 297 308 310 294 320 _c
280 330 262 335 242 335 _c
176 335 _l
170 335 167 338 167 344 _c
167 353 _l
167 358 170 361 176 361 _c
231 365 _l
254 365 273 373 289 391 _c
}_e{305 409 316 430 323 456 _c
330 481 334 505 334 528 _c
334 560 326 586 311 606 _c
296 626 273 637 243 637 _c
217 637 193 632 170 622 _c
147 612 129 598 115 579 _c
116 579 117 580 118 580 _c
119 580 120 580 122 580 _c
137 580 150 574 160 564 _c
170 554 175 541 175 527 _c
175 512 170 499 160 489 _c
150 479 137 474 122 474 _c
107 474 94 479 84 489 _c
}_e{74 499 69 512 69 527 _c
69 555 77 580 95 601 _c
112 622 134 638 161 649 _c
188 660 215 666 243 666 _c
263 666 284 663 307 657 _c
329 651 350 642 368 631 _c
386 619 401 605 413 588 _c
424 570 430 550 430 528 _c
430 500 423 474 411 450 _c
399 426 382 406 360 389 _c
338 371 314 358 288 350 _c
317 344 345 333 371 317 _c
397 301 417 280 433 255 _c
}_e{449 229 457 202 457 173 _c
457 136 446 103 426 73 _c
406 43 379 19 347 3 _c
314 -13 279 -21 243 -21 _c
211 -21 180 -15 149 -3 _c
117 8 92 25 72 49 _c
52 73 42 101 42 135 _c
42 151 47 165 58 176 _c
69 187 83 193 100 193 _c
110 193 120 190 129 185 _c
138 180 145 173 150 164 _c
155 154 158 145 158 135 _c
158 118 152 104 141 93 _c
}_e{129 82 116 77 100 77 _c
95 77 _l
_cl}_e}_d
/seven{{500 0 56 -21 485 676 _sc
174 26 _m
174 63 177 99 183 135 _c
189 170 199 205 212 240 _c
224 274 239 308 257 342 _c
275 375 294 406 316 436 _c
407 563 _l
293 563 _l
174 563 113 561 110 558 _c
101 547 93 516 85 466 _c
56 466 _l
89 676 _l
118 676 _l
118 673 _l
118 661 138 653 179 649 _c
219 645 259 644 299 644 _c
485 644 _l
485 618 _l
485 617 484 616 484 616 _c
}_e{484 616 484 615 484 615 _c
346 422 _l
312 372 290 316 282 255 _c
274 193 270 117 270 26 _c
270 12 265 1 256 -7 _c
246 -16 235 -21 222 -21 _c
208 -21 197 -16 188 -7 _c
178 1 174 12 174 26 _c
_cl}_e}_d
end readonly def

/BuildGlyph
 {exch begin
 CharStrings exch
 2 copy known not{pop /.notdef}if
 true 3 1 roll get exec
 end}_d

/BuildChar {
 1 index /Encoding get exch get
 1 index /BuildGlyph get exec
}_d

FontName currentdict end definefont pop
%!PS-Adobe-3.0 Resource-Font
%%Title: cmsy10
%%Copyright: Copyright (C) 1994, Basil K. Malyshev. All Rights Reserved.012BaKoMa Fonts Collection, Level-B.
%%Creator: Converted from TrueType to type 3 by PPR
25 dict begin
/_d{bind def}bind def
/_m{moveto}_d
/_l{lineto}_d
/_cl{closepath eofill}_d
/_c{curveto}_d
/_sc{7 -1 roll{setcachedevice}{pop pop pop pop pop pop}ifelse}_d
/_e{exec}_d
/FontName /Cmsy10 def
/PaintType 0 def
/FontMatrix[.001 0 0 .001 0 0]def
/FontBBox[-29 -960 1123 779]def
/FontType 3 def
/Encoding [ /multiply ] def
/FontInfo 10 dict dup begin
/FamilyName (cmsy10) def
/FullName (cmsy10) def
/Notice (Copyright (C) 1994, Basil K. Malyshev. All Rights Reserved.012BaKoMa Fonts Collection, Level-B. ) def
/Weight (Regular) def
/Version (1.1/12-Nov-94) def
/ItalicAngle 0.0 def
/isFixedPitch false def
/UnderlinePosition -133 def
/UnderlineThickness 20 def
end readonly def
/CharStrings 1 dict dup begin
/multiply{{777 0 147 9 630 491 _sc
147 29 _m
147 34 148 39 152 43 _c
360 250 _l
152 458 _l
148 461 147 465 147 471 _c
147 476 149 481 153 485 _c
157 489 161 491 167 491 _c
171 491 176 489 182 485 _c
389 278 _l
595 485 _l
601 489 606 491 610 491 _c
615 491 620 489 624 485 _c
628 481 630 476 630 471 _c
630 465 628 461 625 458 _c
417 250 _l
625 43 _l
628 39 630 34 630 29 _c
}_e{630 23 628 19 624 15 _c
620 11 615 9 610 9 _c
605 9 600 11 595 16 _c
389 222 _l
182 16 _l
177 11 172 9 167 9 _c
161 9 157 11 153 15 _c
149 19 147 23 147 29 _c
_cl}_e}_d
end readonly def

/BuildGlyph
 {exch begin
 CharStrings exch
 2 copy known not{pop /.notdef}if
 true 3 1 roll get exec
 end}_d

/BuildChar {
 1 index /Encoding get exch get
 1 index /BuildGlyph get exec
}_d

FontName currentdict end definefont pop
%!PS-Adobe-3.0 Resource-Font
%%Title: cmss10
%%Copyright: Copyright (C) 1994, Basil K. Malyshev. All Rights Reserved.012BaKoMa Fonts Collection, Level-B.
%%Creator: Converted from TrueType to type 3 by PPR
25 dict begin
/_d{bind def}bind def
/_m{moveto}_d
/_l{lineto}_d
/_cl{closepath eofill}_d
/_c{curveto}_d
/_sc{7 -1 roll{setcachedevice}{pop pop pop pop pop pop}ifelse}_d
/_e{exec}_d
/FontName /Cmss10 def
/PaintType 0 def
/FontMatrix[.001 0 0 .001 0 0]def
/FontBBox[-61 -250 999 760]def
/FontType 3 def
/Encoding [ /F ] def
/FontInfo 10 dict dup begin
/FamilyName (cmss10) def
/FullName (cmss10) def
/Notice (Copyright (C) 1994, Basil K. Malyshev. All Rights Reserved.012BaKoMa Fonts Collection, Level-B. ) def
/Weight (Regular) def
/Version (1.1/12-Nov-94) def
/ItalicAngle 0.0 def
/isFixedPitch false def
/UnderlinePosition -133 def
/UnderlineThickness 20 def
end readonly def
/CharStrings 1 dict dup begin
/F{569 0 92 0 526 694 _sc
92 0 _m
92 694 _l
526 694 _l
526 625 _l
185 626 _l
185 380 _l
485 380 _l
485 315 _l
185 315 _l
185 0 _l
92 0 _l
_cl}_d
end readonly def

/BuildGlyph
 {exch begin
 CharStrings exch
 2 copy known not{pop /.notdef}if
 true 3 1 roll get exec
 end}_d

/BuildChar {
 1 index /Encoding get exch get
 1 index /BuildGlyph get exec
}_d

FontName currentdict end definefont pop
end
%%EndProlog
mpldict begin
18 180 translate
576 432 0 0 clipbox
gsave
0 0 m
576 0 l
576 432 l
0 432 l
cl
1.000 setgray
fill
grestore
gsave
80.64 60.48 m
552.96 60.48 l
552.96 414.72 l
80.64 414.72 l
cl
1.000 setgray
fill
grestore
2.000 setlinewidth
1 setlinejoin
0 setlinecap
[1 3] 0 setdash
0.000 0.000 1.000 setrgbcolor
gsave
472.3 354.2 80.64 60.48 clipbox
80.64 108.708 m
84.3591 114.704 l
88.0781 120.489 l
91.7972 126.034 l
95.5162 131.31 l
99.2353 136.288 l
102.954 140.931 l
106.673 145.284 l
110.392 149.386 l
117.831 157.141 l
136.426 176.296 l
140.145 179.85 l
143.864 183.125 l
147.583 186.047 l
151.302 188.569 l
155.021 190.678 l
158.74 192.391 l
162.459 193.797 l
169.897 196.14 l
195.931 203.639 l
218.245 209.919 l
229.402 212.887 l
236.84 214.713 l
244.278 216.32 l
247.997 216.99 l
251.717 217.54 l
255.436 217.939 l
259.155 218.143 l
262.874 218.099 l
266.593 217.74 l
270.312 216.982 l
274.031 215.71 l
277.75 213.722 l
281.469 210.885 l
285.188 206.975 l
288.907 201.708 l
292.626 194.726 l
296.345 185.576 l
300.064 173.691 l
303.783 158.23 l
307.502 137.942 l
311.221 111.88 l
314.94 78.5403 l
318.66 36.4136 l
321.603 -1 l
352.523 -1 m
355.85 3.79299 l
359.569 9.52584 l
363.288 15.6903 l
367.007 22.3328 l
370.726 29.4819 l
374.445 37.1416 l
378.164 45.2878 l
381.883 53.8694 l
389.322 72.0313 l
404.198 109.6 l
407.917 118.554 l
411.636 126.967 l
415.355 134.476 l
419.074 140.378 l
422.793 143.294 l
426.512 145.394 l
430.231 147.931 l
433.95 151.033 l
437.669 154.814 l
441.388 159.339 l
445.107 164.587 l
448.826 170.416 l
456.265 182.575 l
459.984 187.771 l
463.703 190.754 l
538.084 212.171 l
549.241 215.256 l
552.96 216.233 l
552.96 216.233 l
stroke
grestore
[3 5 1 5] 0 setdash
gsave
472.3 354.2 80.64 60.48 clipbox
80.64 142.457 m
84.3591 148.455 l
88.0781 154.242 l
91.7972 159.789 l
95.5162 165.068 l
99.2353 170.05 l
102.954 174.698 l
106.673 179.056 l
110.392 183.165 l
117.831 190.936 l
136.426 210.128 l
140.145 213.686 l
143.864 216.963 l
147.583 219.888 l
151.302 222.412 l
155.021 224.521 l
158.74 226.235 l
162.459 227.64 l
169.897 229.982 l
195.931 237.47 l
218.245 243.731 l
229.402 246.679 l
236.84 248.486 l
244.278 250.067 l
247.997 250.719 l
251.717 251.248 l
255.436 251.62 l
259.155 251.793 l
262.874 251.711 l
266.593 251.306 l
270.312 250.49 l
274.031 249.147 l
277.75 247.069 l
281.469 244.121 l
285.188 240.073 l
288.907 234.633 l
292.626 227.435 l
296.345 218.017 l
300.064 205.799 l
303.783 189.925 l
307.502 169.131 l
311.221 142.526 l
314.94 109.1 l
318.66 71.7607 l
322.379 51.515 l
326.098 52.3165 l
333.536 60.2848 l
370.726 100.528 l
378.164 109.122 l
381.883 113.734 l
385.603 118.67 l
389.322 124.016 l
393.041 129.84 l
396.76 136.164 l
400.479 142.949 l
411.636 164.571 l
415.355 171.225 l
419.074 176.62 l
422.793 179.436 l
426.512 181.533 l
430.231 184.012 l
433.95 186.989 l
437.669 190.576 l
441.388 194.849 l
445.107 199.808 l
448.826 205.347 l
456.265 217.023 l
459.984 222.069 l
463.703 224.996 l
500.893 235.828 l
526.927 243.188 l
545.522 248.272 l
552.96 250.177 l
552.96 250.177 l
stroke
grestore
[6 6] 0 setdash
gsave
472.3 354.2 80.64 60.48 clipbox
80.64 228.049 m
84.3591 234.045 l
88.0781 239.83 l
91.7972 245.374 l
95.5162 250.65 l
99.2353 255.629 l
102.954 260.274 l
106.673 264.629 l
110.392 268.737 l
117.831 276.506 l
136.426 295.651 l
140.145 299.182 l
143.864 302.427 l
147.583 305.312 l
151.302 307.79 l
155.021 309.851 l
158.74 311.513 l
162.459 312.866 l
169.897 315.097 l
184.774 319.09 l
195.931 321.919 l
207.088 324.527 l
214.526 326.073 l
221.964 327.372 l
229.402 328.325 l
233.121 328.626 l
236.84 328.778 l
240.559 328.752 l
244.278 328.512 l
247.997 327.983 l
251.717 327.142 l
255.436 325.934 l
259.155 324.302 l
262.874 322.182 l
266.593 319.503 l
270.312 316.186 l
274.031 312.121 l
277.75 307.066 l
281.469 300.969 l
285.188 293.63 l
288.907 284.808 l
292.626 274.222 l
296.345 261.613 l
300.064 246.959 l
303.783 231.105 l
307.502 217.526 l
311.221 211.777 l
314.94 212.95 l
318.66 216.556 l
340.974 240.628 l
352.131 252.322 l
359.569 259.906 l
367.007 267.203 l
374.445 274.086 l
381.883 280.47 l
389.322 286.359 l
396.76 291.864 l
411.636 302.43 l
419.074 307.506 l
422.793 309.627 l
437.669 317.678 l
445.107 322.114 l
448.826 324.551 l
459.984 332.37 l
463.703 334.221 l
471.141 336.702 l
478.579 338.997 l
486.017 341.085 l
493.455 342.944 l
500.893 344.561 l
508.331 345.934 l
515.769 347.083 l
523.208 348.04 l
530.646 348.827 l
538.084 349.428 l
545.522 349.765 l
549.241 349.79 l
552.96 349.682 l
552.96 349.682 l
stroke
grestore
2 setlinecap
[] 0 setdash
gsave
472.3 354.2 80.64 60.48 clipbox
80.64 291.849 m
84.3591 297.191 l
88.0781 302.211 l
91.7972 306.869 l
95.5162 311.132 l
99.2353 314.968 l
102.954 318.326 l
106.673 321.268 l
110.392 323.825 l
114.111 326.034 l
117.831 327.922 l
121.55 329.504 l
125.269 330.784 l
128.988 331.737 l
132.707 332.332 l
136.426 332.645 l
140.145 332.687 l
143.864 332.46 l
147.583 331.956 l
151.302 331.173 l
155.021 330.13 l
158.74 328.836 l
166.178 325.823 l
195.931 313.175 l
214.526 305.002 l
233.121 296.568 l
240.559 293.537 l
244.278 292.252 l
247.997 291.161 l
251.717 290.425 l
255.436 290.159 l
259.155 290.472 l
262.874 291.449 l
266.593 293.128 l
270.312 295.486 l
274.031 298.443 l
277.75 301.872 l
281.469 305.677 l
288.907 313.95 l
303.783 330.998 l
311.221 339.13 l
318.66 346.781 l
322.379 350.386 l
326.098 353.825 l
329.817 357.088 l
333.536 360.169 l
337.255 363.062 l
340.974 365.768 l
344.693 368.288 l
348.412 370.627 l
352.131 372.787 l
355.85 374.774 l
359.569 376.592 l
363.288 378.246 l
367.007 379.742 l
370.726 381.084 l
374.445 382.281 l
378.164 383.34 l
381.883 384.271 l
389.322 385.797 l
396.76 386.974 l
404.198 387.925 l
411.636 388.69 l
419.074 389.169 l
430.231 389.518 l
437.669 389.374 l
445.107 388.926 l
452.546 388.211 l
456.265 387.714 l
459.984 387.091 l
467.422 385.508 l
474.86 383.683 l
482.298 381.626 l
489.736 379.333 l
497.174 376.81 l
504.612 374.061 l
512.05 371.085 l
519.489 367.872 l
526.927 364.4 l
534.365 360.628 l
541.803 356.477 l
545.522 354.214 l
549.241 351.789 l
552.96 349.161 l
552.96 349.161 l
stroke
grestore
0 setlinecap
[1 3] 0 setdash
0.000 0.500 0.000 setrgbcolor
gsave
472.3 354.2 80.64 60.48 clipbox
80.64 109.862 m
85.947 118.351 l
91.2539 126.406 l
96.5609 133.865 l
101.868 140.732 l
107.175 147.047 l
112.482 152.917 l
117.789 158.445 l
123.096 163.904 l
128.403 169.326 l
133.71 174.574 l
139.017 179.296 l
144.324 183.363 l
149.631 186.655 l
154.938 189.181 l
160.244 191.077 l
165.551 192.712 l
170.858 194.261 l
176.165 195.794 l
181.472 197.326 l
186.779 198.858 l
192.086 200.39 l
197.393 201.921 l
202.7 203.451 l
208.007 204.98 l
213.314 206.509 l
218.621 208.035 l
223.928 209.558 l
229.235 211.078 l
234.542 212.593 l
239.849 214.099 l
245.156 215.592 l
250.463 217.068 l
255.77 218.521 l
261.077 219.934 l
266.384 221.291 l
271.691 222.573 l
276.998 223.747 l
282.305 224.749 l
287.612 225.509 l
292.919 225.944 l
298.226 225.928 l
303.533 225.187 l
308.84 223.462 l
314.147 220.425 l
319.453 215.583 l
324.76 207.82 l
330.067 196.217 l
335.374 179.469 l
340.681 155.653 l
345.988 120.226 l
351.295 70.5792 l
356.602 18.2031 l
361.909 14.719 l
367.216 23.8058 l
372.523 34.1038 l
377.83 45.4969 l
383.137 57.8443 l
388.444 70.8951 l
393.751 84.3464 l
399.058 97.8781 l
404.365 111.138 l
409.672 123.662 l
414.979 134.64 l
420.286 142.106 l
425.593 145.461 l
430.9 149.787 l
436.207 155.49 l
441.514 162.66 l
446.821 170.947 l
452.128 179.417 l
457.435 186.139 l
462.742 188.309 l
468.049 189.844 l
473.356 191.38 l
478.662 192.916 l
483.969 194.451 l
489.276 195.986 l
494.583 197.521 l
499.89 199.055 l
505.197 200.589 l
510.504 202.121 l
515.811 203.652 l
521.118 205.181 l
526.425 206.706 l
531.732 208.224 l
537.039 209.732 l
542.346 211.223 l
547.653 212.683 l
552.96 214.087 l
stroke
grestore
[3 5 1 5] 0 setdash
gsave
472.3 354.2 80.64 60.48 clipbox
80.64 143.616 m
85.947 152.108 l
91.2539 160.167 l
96.5609 167.63 l
101.868 174.503 l
107.175 180.826 l
112.482 186.707 l
117.789 192.246 l
123.096 197.716 l
128.403 203.149 l
133.71 208.404 l
139.017 213.131 l
144.324 217.203 l
149.631 220.496 l
154.938 223.023 l
160.244 224.918 l
165.551 226.552 l
170.858 228.1 l
176.165 229.632 l
181.472 231.163 l
186.779 232.693 l
192.086 234.222 l
197.393 235.75 l
202.7 237.277 l
208.007 238.802 l
213.314 240.326 l
218.621 241.847 l
223.928 243.363 l
229.235 244.875 l
234.542 246.379 l
239.849 247.873 l
245.156 249.351 l
250.463 250.809 l
255.77 252.239 l
261.077 253.624 l
266.384 254.945 l
271.691 256.181 l
276.998 257.298 l
282.305 258.226 l
287.612 258.888 l
292.919 259.195 l
298.226 259.012 l
303.533 258.043 l
308.84 256.009 l
314.147 252.561 l
319.453 247.173 l
324.76 238.649 l
330.067 226.027 l
335.374 207.949 l
340.681 182.483 l
345.988 145.49 l
351.295 102.011 l
356.602 87.5229 l
361.909 92.0617 l
367.216 97.5001 l
372.523 103.054 l
377.83 108.911 l
383.137 115.34 l
388.444 122.638 l
393.751 131.019 l
399.058 140.492 l
404.365 150.779 l
409.672 161.295 l
414.979 171.044 l
420.286 177.964 l
425.593 181.269 l
430.9 185.444 l
436.207 190.877 l
441.514 197.696 l
446.821 205.626 l
452.128 213.805 l
457.435 220.359 l
462.742 222.537 l
468.049 224.104 l
473.356 225.67 l
478.662 227.234 l
483.969 228.797 l
489.276 230.358 l
494.583 231.916 l
499.89 233.47 l
505.197 235.019 l
510.504 236.562 l
515.811 238.096 l
521.118 239.618 l
526.425 241.123 l
531.732 242.606 l
537.039 244.064 l
542.346 245.498 l
547.653 246.897 l
552.96 248.236 l
stroke
grestore
[6 6] 0 setdash
gsave
472.3 354.2 80.64 60.48 clipbox
80.64 229.207 m
85.947 237.696 l
91.2539 245.751 l
96.5609 253.21 l
101.868 260.079 l
107.175 266.397 l
112.482 272.274 l
117.789 277.81 l
123.096 283.272 l
128.403 288.69 l
133.71 293.922 l
139.017 298.612 l
144.324 302.635 l
149.631 305.871 l
154.938 308.335 l
160.244 310.165 l
165.551 311.731 l
170.858 313.203 l
176.165 314.645 l
181.472 316.065 l
186.779 317.462 l
192.086 318.832 l
197.393 320.168 l
202.7 321.459 l
208.007 322.698 l
213.314 323.877 l
218.621 324.976 l
223.928 325.97 l
229.235 326.846 l
234.542 327.58 l
239.849 328.125 l
245.156 328.431 l
250.463 328.477 l
255.77 328.225 l
261.077 327.585 l
266.384 326.51 l
271.691 325.027 l
276.998 323.13 l
282.305 320.689 l
287.612 317.69 l
292.919 314.146 l
298.226 309.957 l
303.533 304.717 l
308.84 298.296 l
314.147 290.534 l
319.453 281.171 l
324.76 269.575 l
330.067 257.047 l
335.374 247.346 l
340.681 244.839 l
345.988 248.071 l
351.295 253.165 l
356.602 258.381 l
361.909 263.41 l
367.216 268.196 l
372.523 272.716 l
377.83 276.967 l
383.137 280.975 l
388.444 284.784 l
393.751 288.452 l
399.058 292.046 l
404.365 295.634 l
409.672 299.269 l
414.979 302.918 l
420.286 306.275 l
425.593 309.088 l
430.9 311.963 l
436.207 314.995 l
441.514 318.29 l
446.821 321.931 l
452.128 325.838 l
457.435 329.412 l
462.742 331.53 l
468.049 333.417 l
473.356 335.244 l
478.662 337.007 l
483.969 338.701 l
489.276 340.322 l
494.583 341.865 l
499.89 343.326 l
505.197 344.701 l
510.504 345.982 l
515.811 347.161 l
521.118 348.227 l
526.425 349.163 l
531.732 349.952 l
537.039 350.584 l
542.346 351.067 l
547.653 351.387 l
552.96 351.515 l
stroke
grestore
2 setlinecap
[] 0 setdash
gsave
472.3 354.2 80.64 60.48 clipbox
80.64 292.901 m
85.947 300.419 l
91.2539 307.276 l
96.5609 313.237 l
101.868 318.333 l
107.175 322.61 l
112.482 326.134 l
117.789 328.771 l
123.096 330.716 l
128.403 332.002 l
133.71 332.654 l
139.017 332.403 l
144.324 331.597 l
149.631 330.28 l
154.938 328.523 l
160.244 326.33 l
165.551 324.089 l
170.858 321.869 l
176.165 319.661 l
181.472 317.365 l
186.779 315.116 l
192.086 312.907 l
197.393 310.694 l
202.7 308.402 l
208.007 306.159 l
213.314 303.97 l
218.621 301.793 l
223.928 299.612 l
229.235 297.585 l
234.542 295.784 l
239.849 294.25 l
245.156 293.133 l
250.463 292.728 l
255.77 293.238 l
261.077 294.761 l
266.384 297.382 l
271.691 301.058 l
276.998 305.575 l
282.305 310.654 l
287.612 316.095 l
292.919 321.73 l
298.226 327.429 l
303.533 333.084 l
308.84 338.623 l
314.147 343.974 l
319.453 349.067 l
324.76 353.846 l
330.067 358.275 l
335.374 362.333 l
340.681 366.01 l
345.988 369.31 l
351.295 372.239 l
356.602 374.81 l
361.909 377.038 l
367.216 378.939 l
372.523 380.536 l
377.83 381.86 l
383.137 382.943 l
388.444 383.826 l
393.751 384.552 l
399.058 385.167 l
404.365 385.712 l
409.672 386.189 l
414.979 386.54 l
420.286 386.768 l
425.593 386.943 l
430.9 387.016 l
436.207 386.897 l
441.514 386.622 l
446.821 386.219 l
452.128 385.643 l
457.435 384.823 l
462.742 383.818 l
468.049 382.733 l
473.356 381.566 l
478.662 380.311 l
483.969 378.977 l
489.276 377.562 l
494.583 376.071 l
499.89 374.506 l
505.197 372.866 l
510.504 371.151 l
515.811 369.355 l
521.118 367.466 l
526.425 365.462 l
531.732 363.311 l
537.039 360.975 l
542.346 358.427 l
547.653 355.607 l
552.96 352.429 l
stroke
grestore
0 setlinecap
[1 3] 0 setdash
1.000 0.000 0.000 setrgbcolor
gsave
472.3 354.2 80.64 60.48 clipbox
80.64 108.458 m
84.3591 114.494 l
88.0781 120.326 l
91.7972 125.922 l
95.5162 131.255 l
99.2353 136.295 l
102.954 141.001 l
106.673 145.411 l
110.392 149.563 l
117.831 157.377 l
128.988 169.024 l
136.426 176.816 l
140.145 180.527 l
143.864 183.996 l
147.583 187.14 l
151.302 189.898 l
155.021 192.236 l
158.74 194.144 l
162.459 195.689 l
166.178 196.987 l
173.616 199.216 l
188.493 203.325 l
199.65 206.178 l
207.088 207.86 l
214.526 209.229 l
218.245 209.724 l
221.964 210.047 l
225.683 210.154 l
229.402 209.984 l
233.121 209.465 l
236.84 208.5 l
240.559 206.972 l
244.278 204.732 l
247.997 201.481 l
251.717 197.036 l
255.436 191.085 l
259.155 183.23 l
262.874 172.968 l
266.593 159.666 l
270.312 142.52 l
274.031 120.448 l
277.75 91.5073 l
281.469 54.4571 l
285.767 -1 l
352.194 -1 m
355.85 4.21347 l
359.569 9.872 l
363.288 15.9422 l
367.007 22.4708 l
370.726 29.4886 l
374.445 37.0052 l
378.164 45.0044 l
381.883 53.4443 l
385.603 62.2608 l
393.041 80.6881 l
404.198 108.811 l
407.917 117.825 l
411.636 126.359 l
415.355 134.085 l
419.074 140.4 l
422.793 143.945 l
426.512 145.911 l
430.231 148.268 l
433.95 151.144 l
437.669 154.664 l
441.388 158.918 l
445.107 163.928 l
448.826 169.605 l
456.265 181.98 l
459.984 187.79 l
463.703 192.23 l
467.422 193.897 l
515.769 207.765 l
526.927 210.809 l
534.365 212.631 l
538.084 213.405 l
541.803 214.018 l
545.522 214.383 l
549.241 214.364 l
552.96 213.739 l
552.96 213.739 l
stroke
grestore
[3 5 1 5] 0 setdash
gsave
472.3 354.2 80.64 60.48 clipbox
80.64 142.207 m
84.3591 148.244 l
88.0781 154.077 l
91.7972 159.676 l
95.5162 165.012 l
99.2353 170.055 l
102.954 174.766 l
106.673 179.182 l
110.392 183.34 l
117.831 191.169 l
128.988 202.842 l
136.426 210.647 l
140.145 214.363 l
143.864 217.835 l
147.583 220.982 l
151.302 223.741 l
155.021 226.08 l
158.74 227.989 l
162.459 229.533 l
166.178 230.83 l
173.616 233.057 l
188.493 237.16 l
199.65 240.006 l
207.088 241.681 l
214.526 243.038 l
218.245 243.526 l
221.964 243.84 l
225.683 243.936 l
229.402 243.754 l
233.121 243.218 l
236.84 242.233 l
240.559 240.681 l
244.278 238.41 l
247.997 235.12 l
251.717 230.626 l
255.436 224.614 l
259.155 216.683 l
262.874 206.325 l
266.593 192.902 l
270.312 175.606 l
274.031 153.35 l
277.75 124.205 l
281.469 87.1679 l
285.188 43.1551 l
288.907 14.2609 l
292.626 14.4323 l
303.783 27.7143 l
314.94 40.3673 l
329.817 56.8092 l
370.726 101.667 l
378.164 110.326 l
381.883 114.913 l
385.603 119.772 l
389.322 124.985 l
393.041 130.625 l
396.76 136.735 l
400.479 143.302 l
407.917 157.41 l
411.636 164.544 l
415.355 171.271 l
419.074 176.956 l
422.793 180.299 l
426.512 182.267 l
430.231 184.568 l
433.95 187.317 l
437.669 190.636 l
441.388 194.621 l
445.107 199.316 l
448.826 204.666 l
459.984 222.084 l
463.703 226.4 l
467.422 228.042 l
497.174 236.453 l
519.489 242.605 l
530.646 245.463 l
538.084 247.05 l
541.803 247.629 l
545.522 247.96 l
549.241 247.902 l
552.96 247.234 l
552.96 247.234 l
stroke
grestore
[6 6] 0 setdash
gsave
472.3 354.2 80.64 60.48 clipbox
80.64 227.802 m
84.3591 233.837 l
88.0781 239.668 l
91.7972 245.264 l
95.5162 250.597 l
99.2353 255.637 l
102.954 260.345 l
106.673 264.758 l
110.392 268.914 l
117.831 276.743 l
128.988 288.404 l
136.426 296.179 l
140.145 299.87 l
143.864 303.309 l
147.583 306.417 l
151.302 309.129 l
155.021 311.416 l
158.74 313.269 l
162.459 314.755 l
166.178 315.993 l
173.616 318.088 l
184.774 320.918 l
192.212 322.634 l
199.65 324.133 l
207.088 325.294 l
210.807 325.692 l
214.526 325.926 l
218.245 325.934 l
221.964 325.67 l
225.683 325.071 l
229.402 324.054 l
233.121 322.517 l
236.84 320.338 l
240.559 317.366 l
244.278 313.422 l
247.997 308.134 l
251.717 301.331 l
255.436 292.697 l
259.155 281.844 l
262.874 268.308 l
266.593 251.55 l
270.312 231.081 l
274.031 207.166 l
277.75 184.265 l
281.469 175.071 l
285.188 177.411 l
296.345 191.378 l
303.783 200.194 l
314.94 212.841 l
329.817 229.243 l
344.693 245.303 l
355.85 257.082 l
363.288 264.729 l
370.726 272.085 l
378.164 279.015 l
385.603 285.428 l
393.041 291.326 l
400.479 296.82 l
411.636 304.673 l
419.074 309.653 l
422.793 311.769 l
445.107 323.108 l
448.826 325.227 l
452.546 327.499 l
459.984 332.314 l
463.703 334.346 l
467.422 335.396 l
474.86 336.917 l
482.298 338.112 l
489.736 339.033 l
497.174 339.747 l
508.331 340.533 l
515.769 340.863 l
523.208 340.981 l
530.646 340.769 l
534.365 340.462 l
538.084 339.947 l
541.803 339.126 l
545.522 337.845 l
549.241 335.866 l
552.96 332.819 l
552.96 332.819 l
stroke
grestore
2 setlinecap
[] 0 setdash
gsave
472.3 354.2 80.64 60.48 clipbox
80.64 291.857 m
84.3591 297.247 l
88.0781 302.322 l
91.7972 307.041 l
95.5162 311.37 l
99.2353 315.275 l
102.954 318.705 l
106.673 321.716 l
110.392 324.34 l
114.111 326.612 l
117.831 328.567 l
121.55 330.224 l
125.269 331.592 l
128.988 332.649 l
132.707 333.368 l
136.426 333.822 l
140.145 334.021 l
143.864 333.961 l
147.583 333.625 l
151.302 333 l
155.021 332.089 l
158.74 330.884 l
162.459 329.45 l
169.897 326.269 l
181.054 321.218 l
188.493 317.68 l
195.931 313.893 l
203.369 309.847 l
210.807 305.425 l
214.526 303.025 l
218.245 300.405 l
221.964 297.583 l
225.683 294.554 l
229.402 291.303 l
233.121 287.838 l
240.559 280.555 l
244.278 277.136 l
247.997 274.28 l
251.717 272.721 l
255.436 272.99 l
259.155 275.193 l
262.874 278.944 l
266.593 283.632 l
281.469 304.063 l
288.907 313.662 l
296.345 322.771 l
303.783 331.462 l
311.221 339.755 l
318.66 347.587 l
322.379 351.296 l
326.098 354.845 l
329.817 358.222 l
333.536 361.418 l
337.255 364.425 l
340.974 367.243 l
344.693 369.872 l
348.412 372.314 l
352.131 374.573 l
355.85 376.655 l
359.569 378.563 l
363.288 380.304 l
367.007 381.881 l
370.726 383.3 l
374.445 384.566 l
378.164 385.686 l
381.883 386.666 l
385.603 387.518 l
393.041 388.882 l
400.479 389.89 l
407.917 390.645 l
415.355 391.107 l
422.793 391.223 l
430.231 391.091 l
433.95 390.876 l
441.388 390.101 l
448.826 388.967 l
452.546 388.249 l
456.265 387.404 l
459.984 386.398 l
463.703 385.212 l
471.141 382.44 l
478.579 379.282 l
486.017 375.742 l
493.455 371.82 l
500.893 367.483 l
508.331 362.673 l
512.05 360.063 l
515.769 357.3 l
519.489 354.368 l
523.208 351.249 l
526.927 347.92 l
530.646 344.358 l
534.365 340.531 l
538.084 336.4 l
541.803 331.917 l
545.522 327.017 l
549.241 321.616 l
552.96 315.596 l
552.96 315.596 l
stroke
grestore
0 setlinecap
0.000 setgray
gsave
/o {
gsave
newpath
translate
2.0 setlinewidth
1 setlinejoin
0 setlinecap
0 0 m
0 8 l
gsave
0.000 setgray
fill
grestore
stroke
grestore
} bind def
80.64 60.48 o
grestore
gsave
/o {
gsave
newpath
translate
2.0 setlinewidth
1 setlinejoin
0 setlinecap
0 0 m
0 -8 l
gsave
0.000 setgray
fill
grestore
stroke
grestore
} bind def
80.64 414.72 o
grestore
gsave
63.640000 43.386250 translate
0.000000 rotate
/BitstreamVeraSans-Roman findfont
14.0 scalefont
setfont
0.000000 0.376563 moveto
/one glyphshow

8.907227 0.376563 moveto
/zero glyphshow

/BitstreamVeraSans-Roman findfont
9.8 scalefont
setfont
17.814453 7.726563 moveto
/one glyphshow

24.049512 7.726563 moveto
/two glyphshow


grestore
gsave
/o {
gsave
newpath
translate
2.0 setlinewidth
1 setlinejoin
0 setlinecap
0 0 m
0 8 l
gsave
0.000 setgray
fill
grestore
stroke
grestore
} bind def
115.686 60.48 o
grestore
gsave
/o {
gsave
newpath
translate
2.0 setlinewidth
1 setlinejoin
0 setlinecap
0 0 m
0 -8 l
gsave
0.000 setgray
fill
grestore
stroke
grestore
} bind def
115.686 414.72 o
grestore
gsave
98.686060 43.386250 translate
0.000000 rotate
/BitstreamVeraSans-Roman findfont
14.0 scalefont
setfont
0.000000 0.376563 moveto
/one glyphshow

8.907227 0.376563 moveto
/zero glyphshow

/BitstreamVeraSans-Roman findfont
9.8 scalefont
setfont
17.814453 7.726563 moveto
/one glyphshow

24.049512 7.726563 moveto
/three glyphshow


grestore
gsave
/o {
gsave
newpath
translate
2.0 setlinewidth
1 setlinejoin
0 setlinecap
0 0 m
0 8 l
gsave
0.000 setgray
fill
grestore
stroke
grestore
} bind def
150.732 60.48 o
grestore
gsave
/o {
gsave
newpath
translate
2.0 setlinewidth
1 setlinejoin
0 setlinecap
0 0 m
0 -8 l
gsave
0.000 setgray
fill
grestore
stroke
grestore
} bind def
150.732 414.72 o
grestore
gsave
133.732120 43.386250 translate
0.000000 rotate
/BitstreamVeraSans-Roman findfont
14.0 scalefont
setfont
0.000000 0.507812 moveto
/one glyphshow

8.907227 0.507812 moveto
/zero glyphshow

/BitstreamVeraSans-Roman findfont
9.8 scalefont
setfont
17.814453 7.857813 moveto
/one glyphshow

24.049512 7.857813 moveto
/four glyphshow


grestore
gsave
/o {
gsave
newpath
translate
2.0 setlinewidth
1 setlinejoin
0 setlinecap
0 0 m
0 8 l
gsave
0.000 setgray
fill
grestore
stroke
grestore
} bind def
185.778 60.48 o
grestore
gsave
/o {
gsave
newpath
translate
2.0 setlinewidth
1 setlinejoin
0 setlinecap
0 0 m
0 -8 l
gsave
0.000 setgray
fill
grestore
stroke
grestore
} bind def
185.778 414.72 o
grestore
gsave
168.778180 43.386250 translate
0.000000 rotate
/BitstreamVeraSans-Roman findfont
14.0 scalefont
setfont
0.000000 0.507812 moveto
/one glyphshow

8.907227 0.507812 moveto
/zero glyphshow

/BitstreamVeraSans-Roman findfont
9.8 scalefont
setfont
17.814453 7.857813 moveto
/one glyphshow

24.049512 7.857813 moveto
/five glyphshow


grestore
gsave
/o {
gsave
newpath
translate
2.0 setlinewidth
1 setlinejoin
0 setlinecap
0 0 m
0 8 l
gsave
0.000 setgray
fill
grestore
stroke
grestore
} bind def
220.824 60.48 o
grestore
gsave
/o {
gsave
newpath
translate
2.0 setlinewidth
1 setlinejoin
0 setlinecap
0 0 m
0 -8 l
gsave
0.000 setgray
fill
grestore
stroke
grestore
} bind def
220.824 414.72 o
grestore
gsave
203.824240 43.386250 translate
0.000000 rotate
/BitstreamVeraSans-Roman findfont
14.0 scalefont
setfont
0.000000 0.376563 moveto
/one glyphshow

8.907227 0.376563 moveto
/zero glyphshow

/BitstreamVeraSans-Roman findfont
9.8 scalefont
setfont
17.814453 7.726563 moveto
/one glyphshow

24.049512 7.726563 moveto
/six glyphshow


grestore
gsave
/o {
gsave
newpath
translate
2.0 setlinewidth
1 setlinejoin
0 setlinecap
0 0 m
0 8 l
gsave
0.000 setgray
fill
grestore
stroke
grestore
} bind def
255.87 60.48 o
grestore
gsave
/o {
gsave
newpath
translate
2.0 setlinewidth
1 setlinejoin
0 setlinecap
0 0 m
0 -8 l
gsave
0.000 setgray
fill
grestore
stroke
grestore
} bind def
255.87 414.72 o
grestore
gsave
238.870300 43.386250 translate
0.000000 rotate
/BitstreamVeraSans-Roman findfont
14.0 scalefont
setfont
0.000000 0.507812 moveto
/one glyphshow

8.907227 0.507812 moveto
/zero glyphshow

/BitstreamVeraSans-Roman findfont
9.8 scalefont
setfont
17.814453 7.857813 moveto
/one glyphshow

24.049512 7.857813 moveto
/seven glyphshow


grestore
gsave
/o {
gsave
newpath
translate
2.0 setlinewidth
1 setlinejoin
0 setlinecap
0 0 m
0 8 l
gsave
0.000 setgray
fill
grestore
stroke
grestore
} bind def
290.916 60.48 o
grestore
gsave
/o {
gsave
newpath
translate
2.0 setlinewidth
1 setlinejoin
0 setlinecap
0 0 m
0 -8 l
gsave
0.000 setgray
fill
grestore
stroke
grestore
} bind def
290.916 414.72 o
grestore
gsave
273.916360 43.386250 translate
0.000000 rotate
/BitstreamVeraSans-Roman findfont
14.0 scalefont
setfont
0.000000 0.376563 moveto
/one glyphshow

8.907227 0.376563 moveto
/zero glyphshow

/BitstreamVeraSans-Roman findfont
9.8 scalefont
setfont
17.814453 7.726563 moveto
/one glyphshow

24.049512 7.726563 moveto
/eight glyphshow


grestore
gsave
/o {
gsave
newpath
translate
2.0 setlinewidth
1 setlinejoin
0 setlinecap
0 0 m
0 8 l
gsave
0.000 setgray
fill
grestore
stroke
grestore
} bind def
325.962 60.48 o
grestore
gsave
/o {
gsave
newpath
translate
2.0 setlinewidth
1 setlinejoin
0 setlinecap
0 0 m
0 -8 l
gsave
0.000 setgray
fill
grestore
stroke
grestore
} bind def
325.962 414.72 o
grestore
gsave
308.962420 43.386250 translate
0.000000 rotate
/BitstreamVeraSans-Roman findfont
14.0 scalefont
setfont
0.000000 0.376563 moveto
/one glyphshow

8.907227 0.376563 moveto
/zero glyphshow

/BitstreamVeraSans-Roman findfont
9.8 scalefont
setfont
17.814453 7.726563 moveto
/one glyphshow

24.049512 7.726563 moveto
/nine glyphshow


grestore
gsave
/o {
gsave
newpath
translate
2.0 setlinewidth
1 setlinejoin
0 setlinecap
0 0 m
0 8 l
gsave
0.000 setgray
fill
grestore
stroke
grestore
} bind def
361.008 60.48 o
grestore
gsave
/o {
gsave
newpath
translate
2.0 setlinewidth
1 setlinejoin
0 setlinecap
0 0 m
0 -8 l
gsave
0.000 setgray
fill
grestore
stroke
grestore
} bind def
361.008 414.72 o
grestore
gsave
344.008480 43.386250 translate
0.000000 rotate
/BitstreamVeraSans-Roman findfont
14.0 scalefont
setfont
0.000000 0.376563 moveto
/one glyphshow

8.907227 0.376563 moveto
/zero glyphshow

/BitstreamVeraSans-Roman findfont
9.8 scalefont
setfont
17.814453 7.726563 moveto
/two glyphshow

24.049512 7.726563 moveto
/zero glyphshow


grestore
gsave
/o {
gsave
newpath
translate
2.0 setlinewidth
1 setlinejoin
0 setlinecap
0 0 m
0 8 l
gsave
0.000 setgray
fill
grestore
stroke
grestore
} bind def
396.055 60.48 o
grestore
gsave
/o {
gsave
newpath
translate
2.0 setlinewidth
1 setlinejoin
0 setlinecap
0 0 m
0 -8 l
gsave
0.000 setgray
fill
grestore
stroke
grestore
} bind def
396.055 414.72 o
grestore
gsave
379.054540 43.386250 translate
0.000000 rotate
/BitstreamVeraSans-Roman findfont
14.0 scalefont
setfont
0.000000 0.376563 moveto
/one glyphshow

8.907227 0.376563 moveto
/zero glyphshow

/BitstreamVeraSans-Roman findfont
9.8 scalefont
setfont
17.814453 7.726563 moveto
/two glyphshow

24.049512 7.726563 moveto
/one glyphshow


grestore
gsave
/o {
gsave
newpath
translate
2.0 setlinewidth
1 setlinejoin
0 setlinecap
0 0 m
0 8 l
gsave
0.000 setgray
fill
grestore
stroke
grestore
} bind def
431.101 60.48 o
grestore
gsave
/o {
gsave
newpath
translate
2.0 setlinewidth
1 setlinejoin
0 setlinecap
0 0 m
0 -8 l
gsave
0.000 setgray
fill
grestore
stroke
grestore
} bind def
431.101 414.72 o
grestore
gsave
414.100600 43.386250 translate
0.000000 rotate
/BitstreamVeraSans-Roman findfont
14.0 scalefont
setfont
0.000000 0.376563 moveto
/one glyphshow

8.907227 0.376563 moveto
/zero glyphshow

/BitstreamVeraSans-Roman findfont
9.8 scalefont
setfont
17.814453 7.726563 moveto
/two glyphshow

24.049512 7.726563 moveto
/two glyphshow


grestore
gsave
/o {
gsave
newpath
translate
2.0 setlinewidth
1 setlinejoin
0 setlinecap
0 0 m
0 8 l
gsave
0.000 setgray
fill
grestore
stroke
grestore
} bind def
466.147 60.48 o
grestore
gsave
/o {
gsave
newpath
translate
2.0 setlinewidth
1 setlinejoin
0 setlinecap
0 0 m
0 -8 l
gsave
0.000 setgray
fill
grestore
stroke
grestore
} bind def
466.147 414.72 o
grestore
gsave
449.146660 43.386250 translate
0.000000 rotate
/BitstreamVeraSans-Roman findfont
14.0 scalefont
setfont
0.000000 0.376563 moveto
/one glyphshow

8.907227 0.376563 moveto
/zero glyphshow

/BitstreamVeraSans-Roman findfont
9.8 scalefont
setfont
17.814453 7.726563 moveto
/two glyphshow

24.049512 7.726563 moveto
/three glyphshow


grestore
gsave
/o {
gsave
newpath
translate
2.0 setlinewidth
1 setlinejoin
0 setlinecap
0 0 m
0 8 l
gsave
0.000 setgray
fill
grestore
stroke
grestore
} bind def
501.193 60.48 o
grestore
gsave
/o {
gsave
newpath
translate
2.0 setlinewidth
1 setlinejoin
0 setlinecap
0 0 m
0 -8 l
gsave
0.000 setgray
fill
grestore
stroke
grestore
} bind def
501.193 414.72 o
grestore
gsave
484.192720 43.386250 translate
0.000000 rotate
/BitstreamVeraSans-Roman findfont
14.0 scalefont
setfont
0.000000 0.376563 moveto
/one glyphshow

8.907227 0.376563 moveto
/zero glyphshow

/BitstreamVeraSans-Roman findfont
9.8 scalefont
setfont
17.814453 7.726563 moveto
/two glyphshow

24.049512 7.726563 moveto
/four glyphshow


grestore
gsave
/o {
gsave
newpath
translate
2.0 setlinewidth
1 setlinejoin
0 setlinecap
0 0 m
0 8 l
gsave
0.000 setgray
fill
grestore
stroke
grestore
} bind def
536.239 60.48 o
grestore
gsave
/o {
gsave
newpath
translate
2.0 setlinewidth
1 setlinejoin
0 setlinecap
0 0 m
0 -8 l
gsave
0.000 setgray
fill
grestore
stroke
grestore
} bind def
536.239 414.72 o
grestore
gsave
519.238780 43.386250 translate
0.000000 rotate
/BitstreamVeraSans-Roman findfont
14.0 scalefont
setfont
0.000000 0.376563 moveto
/one glyphshow

8.907227 0.376563 moveto
/zero glyphshow

/BitstreamVeraSans-Roman findfont
9.8 scalefont
setfont
17.814453 7.726563 moveto
/two glyphshow

24.049512 7.726563 moveto
/five glyphshow


grestore
gsave
/o {
gsave
newpath
translate
2.0 setlinewidth
1 setlinejoin
0 setlinecap
0 0 m
0 5 l
gsave
0.000 setgray
fill
grestore
stroke
grestore
} bind def
80.64 60.48 o
grestore
gsave
/o {
gsave
newpath
translate
2.0 setlinewidth
1 setlinejoin
0 setlinecap
0 0 m
0 -5 l
gsave
0.000 setgray
fill
grestore
stroke
grestore
} bind def
80.64 414.72 o
grestore
gsave
/o {
gsave
newpath
translate
2.0 setlinewidth
1 setlinejoin
0 setlinecap
0 0 m
0 5 l
gsave
0.000 setgray
fill
grestore
stroke
grestore
} bind def
115.686 60.48 o
grestore
gsave
/o {
gsave
newpath
translate
2.0 setlinewidth
1 setlinejoin
0 setlinecap
0 0 m
0 -5 l
gsave
0.000 setgray
fill
grestore
stroke
grestore
} bind def
115.686 414.72 o
grestore
gsave
/o {
gsave
newpath
translate
2.0 setlinewidth
1 setlinejoin
0 setlinecap
0 0 m
0 5 l
gsave
0.000 setgray
fill
grestore
stroke
grestore
} bind def
150.732 60.48 o
grestore
gsave
/o {
gsave
newpath
translate
2.0 setlinewidth
1 setlinejoin
0 setlinecap
0 0 m
0 -5 l
gsave
0.000 setgray
fill
grestore
stroke
grestore
} bind def
150.732 414.72 o
grestore
gsave
/o {
gsave
newpath
translate
2.0 setlinewidth
1 setlinejoin
0 setlinecap
0 0 m
0 5 l
gsave
0.000 setgray
fill
grestore
stroke
grestore
} bind def
185.778 60.48 o
grestore
gsave
/o {
gsave
newpath
translate
2.0 setlinewidth
1 setlinejoin
0 setlinecap
0 0 m
0 -5 l
gsave
0.000 setgray
fill
grestore
stroke
grestore
} bind def
185.778 414.72 o
grestore
gsave
/o {
gsave
newpath
translate
2.0 setlinewidth
1 setlinejoin
0 setlinecap
0 0 m
0 5 l
gsave
0.000 setgray
fill
grestore
stroke
grestore
} bind def
220.824 60.48 o
grestore
gsave
/o {
gsave
newpath
translate
2.0 setlinewidth
1 setlinejoin
0 setlinecap
0 0 m
0 -5 l
gsave
0.000 setgray
fill
grestore
stroke
grestore
} bind def
220.824 414.72 o
grestore
gsave
/o {
gsave
newpath
translate
2.0 setlinewidth
1 setlinejoin
0 setlinecap
0 0 m
0 5 l
gsave
0.000 setgray
fill
grestore
stroke
grestore
} bind def
255.87 60.48 o
grestore
gsave
/o {
gsave
newpath
translate
2.0 setlinewidth
1 setlinejoin
0 setlinecap
0 0 m
0 -5 l
gsave
0.000 setgray
fill
grestore
stroke
grestore
} bind def
255.87 414.72 o
grestore
gsave
/o {
gsave
newpath
translate
2.0 setlinewidth
1 setlinejoin
0 setlinecap
0 0 m
0 5 l
gsave
0.000 setgray
fill
grestore
stroke
grestore
} bind def
290.916 60.48 o
grestore
gsave
/o {
gsave
newpath
translate
2.0 setlinewidth
1 setlinejoin
0 setlinecap
0 0 m
0 -5 l
gsave
0.000 setgray
fill
grestore
stroke
grestore
} bind def
290.916 414.72 o
grestore
gsave
/o {
gsave
newpath
translate
2.0 setlinewidth
1 setlinejoin
0 setlinecap
0 0 m
0 5 l
gsave
0.000 setgray
fill
grestore
stroke
grestore
} bind def
325.962 60.48 o
grestore
gsave
/o {
gsave
newpath
translate
2.0 setlinewidth
1 setlinejoin
0 setlinecap
0 0 m
0 -5 l
gsave
0.000 setgray
fill
grestore
stroke
grestore
} bind def
325.962 414.72 o
grestore
gsave
/o {
gsave
newpath
translate
2.0 setlinewidth
1 setlinejoin
0 setlinecap
0 0 m
0 5 l
gsave
0.000 setgray
fill
grestore
stroke
grestore
} bind def
361.008 60.48 o
grestore
gsave
/o {
gsave
newpath
translate
2.0 setlinewidth
1 setlinejoin
0 setlinecap
0 0 m
0 -5 l
gsave
0.000 setgray
fill
grestore
stroke
grestore
} bind def
361.008 414.72 o
grestore
gsave
/o {
gsave
newpath
translate
2.0 setlinewidth
1 setlinejoin
0 setlinecap
0 0 m
0 5 l
gsave
0.000 setgray
fill
grestore
stroke
grestore
} bind def
396.055 60.48 o
grestore
gsave
/o {
gsave
newpath
translate
2.0 setlinewidth
1 setlinejoin
0 setlinecap
0 0 m
0 -5 l
gsave
0.000 setgray
fill
grestore
stroke
grestore
} bind def
396.055 414.72 o
grestore
gsave
/o {
gsave
newpath
translate
2.0 setlinewidth
1 setlinejoin
0 setlinecap
0 0 m
0 5 l
gsave
0.000 setgray
fill
grestore
stroke
grestore
} bind def
431.101 60.48 o
grestore
gsave
/o {
gsave
newpath
translate
2.0 setlinewidth
1 setlinejoin
0 setlinecap
0 0 m
0 -5 l
gsave
0.000 setgray
fill
grestore
stroke
grestore
} bind def
431.101 414.72 o
grestore
gsave
/o {
gsave
newpath
translate
2.0 setlinewidth
1 setlinejoin
0 setlinecap
0 0 m
0 5 l
gsave
0.000 setgray
fill
grestore
stroke
grestore
} bind def
466.147 60.48 o
grestore
gsave
/o {
gsave
newpath
translate
2.0 setlinewidth
1 setlinejoin
0 setlinecap
0 0 m
0 -5 l
gsave
0.000 setgray
fill
grestore
stroke
grestore
} bind def
466.147 414.72 o
grestore
gsave
/o {
gsave
newpath
translate
2.0 setlinewidth
1 setlinejoin
0 setlinecap
0 0 m
0 5 l
gsave
0.000 setgray
fill
grestore
stroke
grestore
} bind def
501.193 60.48 o
grestore
gsave
/o {
gsave
newpath
translate
2.0 setlinewidth
1 setlinejoin
0 setlinecap
0 0 m
0 -5 l
gsave
0.000 setgray
fill
grestore
stroke
grestore
} bind def
501.193 414.72 o
grestore
gsave
/o {
gsave
newpath
translate
2.0 setlinewidth
1 setlinejoin
0 setlinecap
0 0 m
0 5 l
gsave
0.000 setgray
fill
grestore
stroke
grestore
} bind def
536.239 60.48 o
grestore
gsave
/o {
gsave
newpath
translate
2.0 setlinewidth
1 setlinejoin
0 setlinecap
0 0 m
0 -5 l
gsave
0.000 setgray
fill
grestore
stroke
grestore
} bind def
536.239 414.72 o
grestore
gsave
282.300000 17.245625 translate
0.000000 rotate
/Cmmi10 findfont
24.0 scalefont
setfont
0.000000 0.765625 moveto
/nu glyphshow

/BitstreamVeraSans-Roman findfont
24.0 scalefont
setfont
11.859375 0.765625 moveto
/space glyphshow

19.488281 0.765625 moveto
/bracketleft glyphshow

28.101562 0.765625 moveto
/H glyphshow

46.148438 0.765625 moveto
/z glyphshow

58.746094 0.765625 moveto
/bracketright glyphshow


grestore
gsave
/o {
gsave
newpath
translate
2.0 setlinewidth
1 setlinejoin
0 setlinecap
0 0 m
8 0 l
gsave
0.000 setgray
fill
grestore
stroke
grestore
} bind def
80.64 60.48 o
grestore
gsave
/o {
gsave
newpath
translate
2.0 setlinewidth
1 setlinejoin
0 setlinecap
0 0 m
-8 0 l
gsave
0.000 setgray
fill
grestore
stroke
grestore
} bind def
552.96 60.48 o
grestore
gsave
49.640000 55.386250 translate
0.000000 rotate
/BitstreamVeraSans-Roman findfont
14.0 scalefont
setfont
0.000000 0.507812 moveto
/one glyphshow

8.907227 0.507812 moveto
/zero glyphshow

/BitstreamVeraSans-Roman findfont
9.8 scalefont
setfont
17.814453 7.857813 moveto
/seven glyphshow


grestore
gsave
/o {
gsave
newpath
translate
2.0 setlinewidth
1 setlinejoin
0 setlinecap
0 0 m
8 0 l
gsave
0.000 setgray
fill
grestore
stroke
grestore
} bind def
80.64 111.086 o
grestore
gsave
/o {
gsave
newpath
translate
2.0 setlinewidth
1 setlinejoin
0 setlinecap
0 0 m
-8 0 l
gsave
0.000 setgray
fill
grestore
stroke
grestore
} bind def
552.96 111.086 o
grestore
gsave
49.640000 105.991964 translate
0.000000 rotate
/BitstreamVeraSans-Roman findfont
14.0 scalefont
setfont
0.000000 0.376563 moveto
/one glyphshow

8.907227 0.376563 moveto
/zero glyphshow

/BitstreamVeraSans-Roman findfont
9.8 scalefont
setfont
17.814453 7.726563 moveto
/eight glyphshow


grestore
gsave
/o {
gsave
newpath
translate
2.0 setlinewidth
1 setlinejoin
0 setlinecap
0 0 m
8 0 l
gsave
0.000 setgray
fill
grestore
stroke
grestore
} bind def
80.64 161.691 o
grestore
gsave
/o {
gsave
newpath
translate
2.0 setlinewidth
1 setlinejoin
0 setlinecap
0 0 m
-8 0 l
gsave
0.000 setgray
fill
grestore
stroke
grestore
} bind def
552.96 161.691 o
grestore
gsave
49.640000 156.597679 translate
0.000000 rotate
/BitstreamVeraSans-Roman findfont
14.0 scalefont
setfont
0.000000 0.376563 moveto
/one glyphshow

8.907227 0.376563 moveto
/zero glyphshow

/BitstreamVeraSans-Roman findfont
9.8 scalefont
setfont
17.814453 7.726563 moveto
/nine glyphshow


grestore
gsave
/o {
gsave
newpath
translate
2.0 setlinewidth
1 setlinejoin
0 setlinecap
0 0 m
8 0 l
gsave
0.000 setgray
fill
grestore
stroke
grestore
} bind def
80.64 212.297 o
grestore
gsave
/o {
gsave
newpath
translate
2.0 setlinewidth
1 setlinejoin
0 setlinecap
0 0 m
-8 0 l
gsave
0.000 setgray
fill
grestore
stroke
grestore
} bind def
552.96 212.297 o
grestore
gsave
42.640000 207.203393 translate
0.000000 rotate
/BitstreamVeraSans-Roman findfont
14.0 scalefont
setfont
0.000000 0.376563 moveto
/one glyphshow

8.907227 0.376563 moveto
/zero glyphshow

/BitstreamVeraSans-Roman findfont
9.8 scalefont
setfont
17.814453 7.726563 moveto
/one glyphshow

24.049512 7.726563 moveto
/zero glyphshow


grestore
gsave
/o {
gsave
newpath
translate
2.0 setlinewidth
1 setlinejoin
0 setlinecap
0 0 m
8 0 l
gsave
0.000 setgray
fill
grestore
stroke
grestore
} bind def
80.64 262.903 o
grestore
gsave
/o {
gsave
newpath
translate
2.0 setlinewidth
1 setlinejoin
0 setlinecap
0 0 m
-8 0 l
gsave
0.000 setgray
fill
grestore
stroke
grestore
} bind def
552.96 262.903 o
grestore
gsave
42.640000 257.809107 translate
0.000000 rotate
/BitstreamVeraSans-Roman findfont
14.0 scalefont
setfont
0.000000 0.507812 moveto
/one glyphshow

8.907227 0.507812 moveto
/zero glyphshow

/BitstreamVeraSans-Roman findfont
9.8 scalefont
setfont
17.814453 7.857813 moveto
/one glyphshow

24.049512 7.857813 moveto
/one glyphshow


grestore
gsave
/o {
gsave
newpath
translate
2.0 setlinewidth
1 setlinejoin
0 setlinecap
0 0 m
8 0 l
gsave
0.000 setgray
fill
grestore
stroke
grestore
} bind def
80.64 313.509 o
grestore
gsave
/o {
gsave
newpath
translate
2.0 setlinewidth
1 setlinejoin
0 setlinecap
0 0 m
-8 0 l
gsave
0.000 setgray
fill
grestore
stroke
grestore
} bind def
552.96 313.509 o
grestore
gsave
42.640000 308.414821 translate
0.000000 rotate
/BitstreamVeraSans-Roman findfont
14.0 scalefont
setfont
0.000000 0.376563 moveto
/one glyphshow

8.907227 0.376563 moveto
/zero glyphshow

/BitstreamVeraSans-Roman findfont
9.8 scalefont
setfont
17.814453 7.726563 moveto
/one glyphshow

24.049512 7.726563 moveto
/two glyphshow


grestore
gsave
/o {
gsave
newpath
translate
2.0 setlinewidth
1 setlinejoin
0 setlinecap
0 0 m
8 0 l
gsave
0.000 setgray
fill
grestore
stroke
grestore
} bind def
80.64 364.114 o
grestore
gsave
/o {
gsave
newpath
translate
2.0 setlinewidth
1 setlinejoin
0 setlinecap
0 0 m
-8 0 l
gsave
0.000 setgray
fill
grestore
stroke
grestore
} bind def
552.96 364.114 o
grestore
gsave
42.640000 359.020536 translate
0.000000 rotate
/BitstreamVeraSans-Roman findfont
14.0 scalefont
setfont
0.000000 0.376563 moveto
/one glyphshow

8.907227 0.376563 moveto
/zero glyphshow

/BitstreamVeraSans-Roman findfont
9.8 scalefont
setfont
17.814453 7.726563 moveto
/one glyphshow

24.049512 7.726563 moveto
/three glyphshow


grestore
gsave
/o {
gsave
newpath
translate
2.0 setlinewidth
1 setlinejoin
0 setlinecap
0 0 m
8 0 l
gsave
0.000 setgray
fill
grestore
stroke
grestore
} bind def
80.64 414.72 o
grestore
gsave
/o {
gsave
newpath
translate
2.0 setlinewidth
1 setlinejoin
0 setlinecap
0 0 m
-8 0 l
gsave
0.000 setgray
fill
grestore
stroke
grestore
} bind def
552.96 414.72 o
grestore
gsave
42.640000 409.626250 translate
0.000000 rotate
/BitstreamVeraSans-Roman findfont
14.0 scalefont
setfont
0.000000 0.507812 moveto
/one glyphshow

8.907227 0.507812 moveto
/zero glyphshow

/BitstreamVeraSans-Roman findfont
9.8 scalefont
setfont
17.814453 7.857813 moveto
/one glyphshow

24.049512 7.857813 moveto
/four glyphshow


grestore
gsave
/o {
gsave
newpath
translate
2.0 setlinewidth
1 setlinejoin
0 setlinecap
0 0 m
5 0 l
gsave
0.000 setgray
fill
grestore
stroke
grestore
} bind def
80.64 75.7138 o
grestore
gsave
/o {
gsave
newpath
translate
2.0 setlinewidth
1 setlinejoin
0 setlinecap
0 0 m
-5 0 l
gsave
0.000 setgray
fill
grestore
stroke
grestore
} bind def
552.96 75.7138 o
grestore
gsave
/o {
gsave
newpath
translate
2.0 setlinewidth
1 setlinejoin
0 setlinecap
0 0 m
5 0 l
gsave
0.000 setgray
fill
grestore
stroke
grestore
} bind def
80.64 90.9477 o
grestore
gsave
/o {
gsave
newpath
translate
2.0 setlinewidth
1 setlinejoin
0 setlinecap
0 0 m
-5 0 l
gsave
0.000 setgray
fill
grestore
stroke
grestore
} bind def
552.96 90.9477 o
grestore
gsave
/o {
gsave
newpath
translate
2.0 setlinewidth
1 setlinejoin
0 setlinecap
0 0 m
5 0 l
gsave
0.000 setgray
fill
grestore
stroke
grestore
} bind def
80.64 99.8589 o
grestore
gsave
/o {
gsave
newpath
translate
2.0 setlinewidth
1 setlinejoin
0 setlinecap
0 0 m
-5 0 l
gsave
0.000 setgray
fill
grestore
stroke
grestore
} bind def
552.96 99.8589 o
grestore
gsave
/o {
gsave
newpath
translate
2.0 setlinewidth
1 setlinejoin
0 setlinecap
0 0 m
5 0 l
gsave
0.000 setgray
fill
grestore
stroke
grestore
} bind def
80.64 106.182 o
grestore
gsave
/o {
gsave
newpath
translate
2.0 setlinewidth
1 setlinejoin
0 setlinecap
0 0 m
-5 0 l
gsave
0.000 setgray
fill
grestore
stroke
grestore
} bind def
552.96 106.182 o
grestore
gsave
/o {
gsave
newpath
translate
2.0 setlinewidth
1 setlinejoin
0 setlinecap
0 0 m
5 0 l
gsave
0.000 setgray
fill
grestore
stroke
grestore
} bind def
80.64 126.32 o
grestore
gsave
/o {
gsave
newpath
translate
2.0 setlinewidth
1 setlinejoin
0 setlinecap
0 0 m
-5 0 l
gsave
0.000 setgray
fill
grestore
stroke
grestore
} bind def
552.96 126.32 o
grestore
gsave
/o {
gsave
newpath
translate
2.0 setlinewidth
1 setlinejoin
0 setlinecap
0 0 m
5 0 l
gsave
0.000 setgray
fill
grestore
stroke
grestore
} bind def
80.64 141.553 o
grestore
gsave
/o {
gsave
newpath
translate
2.0 setlinewidth
1 setlinejoin
0 setlinecap
0 0 m
-5 0 l
gsave
0.000 setgray
fill
grestore
stroke
grestore
} bind def
552.96 141.553 o
grestore
gsave
/o {
gsave
newpath
translate
2.0 setlinewidth
1 setlinejoin
0 setlinecap
0 0 m
5 0 l
gsave
0.000 setgray
fill
grestore
stroke
grestore
} bind def
80.64 150.465 o
grestore
gsave
/o {
gsave
newpath
translate
2.0 setlinewidth
1 setlinejoin
0 setlinecap
0 0 m
-5 0 l
gsave
0.000 setgray
fill
grestore
stroke
grestore
} bind def
552.96 150.465 o
grestore
gsave
/o {
gsave
newpath
translate
2.0 setlinewidth
1 setlinejoin
0 setlinecap
0 0 m
5 0 l
gsave
0.000 setgray
fill
grestore
stroke
grestore
} bind def
80.64 156.787 o
grestore
gsave
/o {
gsave
newpath
translate
2.0 setlinewidth
1 setlinejoin
0 setlinecap
0 0 m
-5 0 l
gsave
0.000 setgray
fill
grestore
stroke
grestore
} bind def
552.96 156.787 o
grestore
gsave
/o {
gsave
newpath
translate
2.0 setlinewidth
1 setlinejoin
0 setlinecap
0 0 m
5 0 l
gsave
0.000 setgray
fill
grestore
stroke
grestore
} bind def
80.64 176.925 o
grestore
gsave
/o {
gsave
newpath
translate
2.0 setlinewidth
1 setlinejoin
0 setlinecap
0 0 m
-5 0 l
gsave
0.000 setgray
fill
grestore
stroke
grestore
} bind def
552.96 176.925 o
grestore
gsave
/o {
gsave
newpath
translate
2.0 setlinewidth
1 setlinejoin
0 setlinecap
0 0 m
5 0 l
gsave
0.000 setgray
fill
grestore
stroke
grestore
} bind def
80.64 192.159 o
grestore
gsave
/o {
gsave
newpath
translate
2.0 setlinewidth
1 setlinejoin
0 setlinecap
0 0 m
-5 0 l
gsave
0.000 setgray
fill
grestore
stroke
grestore
} bind def
552.96 192.159 o
grestore
gsave
/o {
gsave
newpath
translate
2.0 setlinewidth
1 setlinejoin
0 setlinecap
0 0 m
5 0 l
gsave
0.000 setgray
fill
grestore
stroke
grestore
} bind def
80.64 201.07 o
grestore
gsave
/o {
gsave
newpath
translate
2.0 setlinewidth
1 setlinejoin
0 setlinecap
0 0 m
-5 0 l
gsave
0.000 setgray
fill
grestore
stroke
grestore
} bind def
552.96 201.07 o
grestore
gsave
/o {
gsave
newpath
translate
2.0 setlinewidth
1 setlinejoin
0 setlinecap
0 0 m
5 0 l
gsave
0.000 setgray
fill
grestore
stroke
grestore
} bind def
80.64 207.393 o
grestore
gsave
/o {
gsave
newpath
translate
2.0 setlinewidth
1 setlinejoin
0 setlinecap
0 0 m
-5 0 l
gsave
0.000 setgray
fill
grestore
stroke
grestore
} bind def
552.96 207.393 o
grestore
gsave
/o {
gsave
newpath
translate
2.0 setlinewidth
1 setlinejoin
0 setlinecap
0 0 m
5 0 l
gsave
0.000 setgray
fill
grestore
stroke
grestore
} bind def
80.64 227.531 o
grestore
gsave
/o {
gsave
newpath
translate
2.0 setlinewidth
1 setlinejoin
0 setlinecap
0 0 m
-5 0 l
gsave
0.000 setgray
fill
grestore
stroke
grestore
} bind def
552.96 227.531 o
grestore
gsave
/o {
gsave
newpath
translate
2.0 setlinewidth
1 setlinejoin
0 setlinecap
0 0 m
5 0 l
gsave
0.000 setgray
fill
grestore
stroke
grestore
} bind def
80.64 242.765 o
grestore
gsave
/o {
gsave
newpath
translate
2.0 setlinewidth
1 setlinejoin
0 setlinecap
0 0 m
-5 0 l
gsave
0.000 setgray
fill
grestore
stroke
grestore
} bind def
552.96 242.765 o
grestore
gsave
/o {
gsave
newpath
translate
2.0 setlinewidth
1 setlinejoin
0 setlinecap
0 0 m
5 0 l
gsave
0.000 setgray
fill
grestore
stroke
grestore
} bind def
80.64 251.676 o
grestore
gsave
/o {
gsave
newpath
translate
2.0 setlinewidth
1 setlinejoin
0 setlinecap
0 0 m
-5 0 l
gsave
0.000 setgray
fill
grestore
stroke
grestore
} bind def
552.96 251.676 o
grestore
gsave
/o {
gsave
newpath
translate
2.0 setlinewidth
1 setlinejoin
0 setlinecap
0 0 m
5 0 l
gsave
0.000 setgray
fill
grestore
stroke
grestore
} bind def
80.64 257.999 o
grestore
gsave
/o {
gsave
newpath
translate
2.0 setlinewidth
1 setlinejoin
0 setlinecap
0 0 m
-5 0 l
gsave
0.000 setgray
fill
grestore
stroke
grestore
} bind def
552.96 257.999 o
grestore
gsave
/o {
gsave
newpath
translate
2.0 setlinewidth
1 setlinejoin
0 setlinecap
0 0 m
5 0 l
gsave
0.000 setgray
fill
grestore
stroke
grestore
} bind def
80.64 278.137 o
grestore
gsave
/o {
gsave
newpath
translate
2.0 setlinewidth
1 setlinejoin
0 setlinecap
0 0 m
-5 0 l
gsave
0.000 setgray
fill
grestore
stroke
grestore
} bind def
552.96 278.137 o
grestore
gsave
/o {
gsave
newpath
translate
2.0 setlinewidth
1 setlinejoin
0 setlinecap
0 0 m
5 0 l
gsave
0.000 setgray
fill
grestore
stroke
grestore
} bind def
80.64 293.371 o
grestore
gsave
/o {
gsave
newpath
translate
2.0 setlinewidth
1 setlinejoin
0 setlinecap
0 0 m
-5 0 l
gsave
0.000 setgray
fill
grestore
stroke
grestore
} bind def
552.96 293.371 o
grestore
gsave
/o {
gsave
newpath
translate
2.0 setlinewidth
1 setlinejoin
0 setlinecap
0 0 m
5 0 l
gsave
0.000 setgray
fill
grestore
stroke
grestore
} bind def
80.64 302.282 o
grestore
gsave
/o {
gsave
newpath
translate
2.0 setlinewidth
1 setlinejoin
0 setlinecap
0 0 m
-5 0 l
gsave
0.000 setgray
fill
grestore
stroke
grestore
} bind def
552.96 302.282 o
grestore
gsave
/o {
gsave
newpath
translate
2.0 setlinewidth
1 setlinejoin
0 setlinecap
0 0 m
5 0 l
gsave
0.000 setgray
fill
grestore
stroke
grestore
} bind def
80.64 308.604 o
grestore
gsave
/o {
gsave
newpath
translate
2.0 setlinewidth
1 setlinejoin
0 setlinecap
0 0 m
-5 0 l
gsave
0.000 setgray
fill
grestore
stroke
grestore
} bind def
552.96 308.604 o
grestore
gsave
/o {
gsave
newpath
translate
2.0 setlinewidth
1 setlinejoin
0 setlinecap
0 0 m
5 0 l
gsave
0.000 setgray
fill
grestore
stroke
grestore
} bind def
80.64 328.742 o
grestore
gsave
/o {
gsave
newpath
translate
2.0 setlinewidth
1 setlinejoin
0 setlinecap
0 0 m
-5 0 l
gsave
0.000 setgray
fill
grestore
stroke
grestore
} bind def
552.96 328.742 o
grestore
gsave
/o {
gsave
newpath
translate
2.0 setlinewidth
1 setlinejoin
0 setlinecap
0 0 m
5 0 l
gsave
0.000 setgray
fill
grestore
stroke
grestore
} bind def
80.64 343.976 o
grestore
gsave
/o {
gsave
newpath
translate
2.0 setlinewidth
1 setlinejoin
0 setlinecap
0 0 m
-5 0 l
gsave
0.000 setgray
fill
grestore
stroke
grestore
} bind def
552.96 343.976 o
grestore
gsave
/o {
gsave
newpath
translate
2.0 setlinewidth
1 setlinejoin
0 setlinecap
0 0 m
5 0 l
gsave
0.000 setgray
fill
grestore
stroke
grestore
} bind def
80.64 352.887 o
grestore
gsave
/o {
gsave
newpath
translate
2.0 setlinewidth
1 setlinejoin
0 setlinecap
0 0 m
-5 0 l
gsave
0.000 setgray
fill
grestore
stroke
grestore
} bind def
552.96 352.887 o
grestore
gsave
/o {
gsave
newpath
translate
2.0 setlinewidth
1 setlinejoin
0 setlinecap
0 0 m
5 0 l
gsave
0.000 setgray
fill
grestore
stroke
grestore
} bind def
80.64 359.21 o
grestore
gsave
/o {
gsave
newpath
translate
2.0 setlinewidth
1 setlinejoin
0 setlinecap
0 0 m
-5 0 l
gsave
0.000 setgray
fill
grestore
stroke
grestore
} bind def
552.96 359.21 o
grestore
gsave
/o {
gsave
newpath
translate
2.0 setlinewidth
1 setlinejoin
0 setlinecap
0 0 m
5 0 l
gsave
0.000 setgray
fill
grestore
stroke
grestore
} bind def
80.64 379.348 o
grestore
gsave
/o {
gsave
newpath
translate
2.0 setlinewidth
1 setlinejoin
0 setlinecap
0 0 m
-5 0 l
gsave
0.000 setgray
fill
grestore
stroke
grestore
} bind def
552.96 379.348 o
grestore
gsave
/o {
gsave
newpath
translate
2.0 setlinewidth
1 setlinejoin
0 setlinecap
0 0 m
5 0 l
gsave
0.000 setgray
fill
grestore
stroke
grestore
} bind def
80.64 394.582 o
grestore
gsave
/o {
gsave
newpath
translate
2.0 setlinewidth
1 setlinejoin
0 setlinecap
0 0 m
-5 0 l
gsave
0.000 setgray
fill
grestore
stroke
grestore
} bind def
552.96 394.582 o
grestore
gsave
/o {
gsave
newpath
translate
2.0 setlinewidth
1 setlinejoin
0 setlinecap
0 0 m
5 0 l
gsave
0.000 setgray
fill
grestore
stroke
grestore
} bind def
80.64 403.493 o
grestore
gsave
/o {
gsave
newpath
translate
2.0 setlinewidth
1 setlinejoin
0 setlinecap
0 0 m
-5 0 l
gsave
0.000 setgray
fill
grestore
stroke
grestore
} bind def
552.96 403.493 o
grestore
gsave
/o {
gsave
newpath
translate
2.0 setlinewidth
1 setlinejoin
0 setlinecap
0 0 m
5 0 l
gsave
0.000 setgray
fill
grestore
stroke
grestore
} bind def
80.64 409.816 o
grestore
gsave
/o {
gsave
newpath
translate
2.0 setlinewidth
1 setlinejoin
0 setlinecap
0 0 m
-5 0 l
gsave
0.000 setgray
fill
grestore
stroke
grestore
} bind def
552.96 409.816 o
grestore
gsave
30.640000 173.100000 translate
90.000000 rotate
/Cmmi10 findfont
24.0 scalefont
setfont
0.000000 0.765625 moveto
/nu glyphshow

/Cmss10 findfont
24.0 scalefont
setfont
20.287500 0.765625 moveto
/F glyphshow

/Cmmi10 findfont
16.8 scalefont
setfont
33.939844 -5.356625 moveto
/nu glyphshow

/BitstreamVeraSans-Roman findfont
24.0 scalefont
setfont
42.241406 0.765625 moveto
/space glyphshow

49.870312 0.765625 moveto
/bracketleft glyphshow

59.233594 0.765625 moveto
/J glyphshow

66.311719 0.765625 moveto
/y glyphshow

80.514844 0.765625 moveto
/space glyphshow

88.143750 0.765625 moveto
/H glyphshow

106.190625 0.765625 moveto
/z glyphshow

118.788281 0.765625 moveto
/bracketright glyphshow


grestore
3.000 setlinewidth
gsave
80.64 414.72 m
552.96 414.72 l
stroke
grestore
gsave
552.96 60.48 m
552.96 414.72 l
stroke
grestore
gsave
80.64 60.48 m
552.96 60.48 l
stroke
grestore
gsave
80.64 60.48 m
80.64 414.72 l
stroke
grestore
1.000 setlinewidth
gsave
438.56 67.48 m
545.96 67.48 l
545.96 143.68 l
438.56 143.68 l
438.56 67.48 l
cl
gsave
1.000 setgray
fill
grestore
stroke
grestore
2.000 setlinewidth
2 setlinecap
0.000 0.000 1.000 setrgbcolor
gsave
448.36 129.98 m
467.96 129.98 l
stroke
grestore
0.000 setgray
gsave
483.360000 125.080000 translate
0.000000 rotate
/Cmmi10 findfont
14.0 scalefont
setfont
0.000000 0.518125 moveto
/a glyphshow

/Cmmi10 findfont
9.8 scalefont
setfont
7.389648 -3.053187 moveto
/a glyphshow

12.562402 -3.053187 moveto
/c glyphshow

16.797266 -3.053187 moveto
/c glyphshow

/Cmr10 findfont
14.0 scalefont
setfont
23.490332 0.518125 moveto
/equal glyphshow

35.245410 0.518125 moveto
/one glyphshow

42.245410 0.518125 moveto
/zero glyphshow

/Cmr10 findfont
9.8 scalefont
setfont
49.245410 6.470313 moveto
/two glyphshow


grestore
0.000 0.500 0.000 setrgbcolor
gsave
448.36 105.98 m
467.96 105.98 l
stroke
grestore
0.000 setgray
gsave
483.360000 101.080000 translate
0.000000 rotate
/Cmmi10 findfont
14.0 scalefont
setfont
0.000000 0.518125 moveto
/a glyphshow

/Cmmi10 findfont
9.8 scalefont
setfont
7.389648 -3.053187 moveto
/a glyphshow

12.562402 -3.053187 moveto
/c glyphshow

16.797266 -3.053187 moveto
/c glyphshow

/Cmr10 findfont
14.0 scalefont
setfont
23.490332 0.518125 moveto
/equal glyphshow

35.245410 0.518125 moveto
/one glyphshow

42.245410 0.518125 moveto
/zero glyphshow

/Cmr10 findfont
9.8 scalefont
setfont
49.245410 6.470313 moveto
/four glyphshow


grestore
1.000 0.000 0.000 setrgbcolor
gsave
448.36 81.98 m
467.96 81.98 l
stroke
grestore
0.000 setgray
gsave
483.360000 77.080000 translate
0.000000 rotate
/Cmmi10 findfont
14.0 scalefont
setfont
0.000000 0.518125 moveto
/a glyphshow

/Cmmi10 findfont
9.8 scalefont
setfont
7.389648 -3.053187 moveto
/a glyphshow

12.562402 -3.053187 moveto
/c glyphshow

16.797266 -3.053187 moveto
/c glyphshow

/Cmr10 findfont
14.0 scalefont
setfont
23.490332 0.518125 moveto
/equal glyphshow

35.245410 0.518125 moveto
/one glyphshow

42.245410 0.518125 moveto
/zero glyphshow

/Cmr10 findfont
9.8 scalefont
setfont
49.245410 6.470313 moveto
/six glyphshow


grestore
1.000 setlinewidth
0 setlinecap
gsave
87.64 67.48 m
233.04 67.48 l
233.04 154.774 l
87.64 154.774 l
87.64 67.48 l
cl
gsave
1.000 setgray
fill
grestore
stroke
grestore
2.000 setlinewidth
[1 3] 0 setdash
gsave
97.44 143.433 m
117.04 143.433 l
stroke
grestore
gsave
132.440000 138.533125 translate
0.000000 rotate
/Cmmi10 findfont
14.0 scalefont
setfont
0.000000 0.671875 moveto
/t glyphshow

/Cmr10 findfont
14.0 scalefont
setfont
7.509961 0.671875 moveto
/equal glyphshow

19.265039 0.671875 moveto
/three glyphshow

/Cmmi10 findfont
14.0 scalefont
setfont
26.265039 0.671875 moveto
/period glyphshow

/Cmr10 findfont
14.0 scalefont
setfont
30.254492 0.671875 moveto
/zero glyphshow

37.254492 0.671875 moveto
/one glyphshow

44.254492 0.671875 moveto
/eight glyphshow

56.170898 0.671875 moveto
/s glyphshow


grestore
[3 5 1 5] 0 setdash
gsave
97.44 122.886 m
117.04 122.886 l
stroke
grestore
gsave
132.440000 117.986250 translate
0.000000 rotate
/Cmmi10 findfont
14.0 scalefont
setfont
0.000000 0.671875 moveto
/t glyphshow

/Cmr10 findfont
14.0 scalefont
setfont
7.509961 0.671875 moveto
/equal glyphshow

19.265039 0.671875 moveto
/one glyphshow

26.265039 0.671875 moveto
/nine glyphshow

/Cmmi10 findfont
14.0 scalefont
setfont
33.265039 0.671875 moveto
/period glyphshow

/Cmr10 findfont
14.0 scalefont
setfont
37.254492 0.671875 moveto
/two glyphshow

44.254492 0.671875 moveto
/four glyphshow

51.254492 0.671875 moveto
/eight glyphshow

63.170898 0.671875 moveto
/s glyphshow


grestore
[6 6] 0 setdash
gsave
97.44 101.886 m
117.04 101.886 l
stroke
grestore
gsave
132.440000 96.986250 translate
0.000000 rotate
/Cmmi10 findfont
14.0 scalefont
setfont
0.000000 0.518125 moveto
/t glyphshow

/Cmr10 findfont
14.0 scalefont
setfont
7.509961 0.518125 moveto
/equal glyphshow

19.265039 0.518125 moveto
/one glyphshow

/Cmmi10 findfont
14.0 scalefont
setfont
26.265039 0.518125 moveto
/period glyphshow

/Cmr10 findfont
14.0 scalefont
setfont
30.254492 0.518125 moveto
/zero glyphshow

37.254492 0.518125 moveto
/one glyphshow

44.254492 0.518125 moveto
/two glyphshow

/Cmsy10 findfont
14.0 scalefont
setfont
53.712695 0.518125 moveto
/multiply glyphshow

/Cmr10 findfont
14.0 scalefont
setfont
62.920898 0.518125 moveto
/one glyphshow

69.920898 0.518125 moveto
/zero glyphshow

/Cmr10 findfont
9.8 scalefont
setfont
76.920898 6.470313 moveto
/three glyphshow

/Cmr10 findfont
14.0 scalefont
setfont
89.118180 0.518125 moveto
/s glyphshow


grestore
2 setlinecap
[] 0 setdash
gsave
97.44 80.8862 m
117.04 80.8862 l
stroke
grestore
gsave
132.440000 75.986250 translate
0.000000 rotate
/Cmmi10 findfont
14.0 scalefont
setfont
0.000000 0.518125 moveto
/t glyphshow

/Cmr10 findfont
14.0 scalefont
setfont
7.509961 0.518125 moveto
/equal glyphshow

19.265039 0.518125 moveto
/nine glyphshow

/Cmmi10 findfont
14.0 scalefont
setfont
26.265039 0.518125 moveto
/period glyphshow

/Cmr10 findfont
14.0 scalefont
setfont
30.254492 0.518125 moveto
/eight glyphshow

37.254492 0.518125 moveto
/seven glyphshow

44.254492 0.518125 moveto
/zero glyphshow

/Cmsy10 findfont
14.0 scalefont
setfont
53.712695 0.518125 moveto
/multiply glyphshow

/Cmr10 findfont
14.0 scalefont
setfont
62.920898 0.518125 moveto
/one glyphshow

69.920898 0.518125 moveto
/zero glyphshow

/Cmr10 findfont
9.8 scalefont
setfont
76.920898 6.470313 moveto
/four glyphshow

/Cmr10 findfont
14.0 scalefont
setfont
89.118180 0.518125 moveto
/s glyphshow


grestore

end
showpage
