%!PS-Adobe-3.0 EPSF-3.0
%%Title: Deltaaacc_vs_time-modmag.eps
%%Creator: matplotlib version 1.3.1, http://matplotlib.org/
%%CreationDate: Mon Jul 14 17:17:36 2014
%%Orientation: portrait
%%BoundingBox: 18 180 594 612
%%EndComments
%%BeginProlog
/mpldict 12 dict def
mpldict begin
/m { moveto } bind def
/l { lineto } bind def
/r { rlineto } bind def
/c { curveto } bind def
/cl { closepath } bind def
/box {
m
1 index 0 r
0 exch r
neg 0 r
cl
} bind def
/clipbox {
box
clip
newpath
} bind def
%!PS-Adobe-3.0 Resource-Font
%%Title: cmsy10
%%Copyright: Copyright (C) 1994, Basil K. Malyshev. All Rights Reserved.012BaKoMa Fonts Collection, Level-B.
%%Creator: Converted from TrueType to type 3 by PPR
25 dict begin
/_d{bind def}bind def
/_m{moveto}_d
/_l{lineto}_d
/_cl{closepath eofill}_d
/_c{curveto}_d
/_sc{7 -1 roll{setcachedevice}{pop pop pop pop pop pop}ifelse}_d
/_e{exec}_d
/FontName /Cmsy10 def
/PaintType 0 def
/FontMatrix[.001 0 0 .001 0 0]def
/FontBBox[-29 -960 1123 779]def
/FontType 3 def
/Encoding [ /multiply ] def
/FontInfo 10 dict dup begin
/FamilyName (cmsy10) def
/FullName (cmsy10) def
/Notice (Copyright (C) 1994, Basil K. Malyshev. All Rights Reserved.012BaKoMa Fonts Collection, Level-B. ) def
/Weight (Regular) def
/Version (1.1/12-Nov-94) def
/ItalicAngle 0.0 def
/isFixedPitch false def
/UnderlinePosition -133 def
/UnderlineThickness 20 def
end readonly def
/CharStrings 1 dict dup begin
/multiply{{777 0 147 9 630 491 _sc
147 29 _m
147 34 148 39 152 43 _c
360 250 _l
152 458 _l
148 461 147 465 147 471 _c
147 476 149 481 153 485 _c
157 489 161 491 167 491 _c
171 491 176 489 182 485 _c
389 278 _l
595 485 _l
601 489 606 491 610 491 _c
615 491 620 489 624 485 _c
628 481 630 476 630 471 _c
630 465 628 461 625 458 _c
417 250 _l
625 43 _l
628 39 630 34 630 29 _c
}_e{630 23 628 19 624 15 _c
620 11 615 9 610 9 _c
605 9 600 11 595 16 _c
389 222 _l
182 16 _l
177 11 172 9 167 9 _c
161 9 157 11 153 15 _c
149 19 147 23 147 29 _c
_cl}_e}_d
end readonly def

/BuildGlyph
 {exch begin
 CharStrings exch
 2 copy known not{pop /.notdef}if
 true 3 1 roll get exec
 end}_d

/BuildChar {
 1 index /Encoding get exch get
 1 index /BuildGlyph get exec
}_d

FontName currentdict end definefont pop
%!PS-Adobe-3.0 Resource-Font
%%Title: cmmi10
%%Copyright: Copyright (C) 1994, Basil K. Malyshev. All Rights Reserved.012BaKoMa Fonts Collection, Level-B.
%%Creator: Converted from TrueType to type 3 by PPR
25 dict begin
/_d{bind def}bind def
/_m{moveto}_d
/_l{lineto}_d
/_cl{closepath eofill}_d
/_c{curveto}_d
/_sc{7 -1 roll{setcachedevice}{pop pop pop pop pop pop}ifelse}_d
/_e{exec}_d
/FontName /Cmmi10 def
/PaintType 0 def
/FontMatrix[.001 0 0 .001 0 0]def
/FontBBox[-34 -250 1048 750]def
/FontType 3 def
/Encoding [ /nu /t /period /a /c ] def
/FontInfo 10 dict dup begin
/FamilyName (cmmi10) def
/FullName (cmmi10) def
/Notice (Copyright (C) 1994, Basil K. Malyshev. All Rights Reserved.012BaKoMa Fonts Collection, Level-B. ) def
/Weight (Regular) def
/Version (1.1/12-Nov-94) def
/ItalicAngle 0.0 def
/isFixedPitch false def
/UnderlinePosition -133 def
/UnderlineThickness 20 def
end readonly def
/CharStrings 5 dict dup begin
/nu{{494 0 51 0 526 442 _sc
63 0 _m
55 0 51 4 51 13 _c
136 353 _l
138 364 140 373 141 380 _c
141 390 119 396 76 396 _c
69 396 66 400 66 409 _c
66 411 66 414 68 418 _c
69 422 70 425 72 427 _c
74 429 76 431 80 431 _c
215 442 _l
223 442 227 437 227 429 _c
129 37 _l
181 54 230 81 274 119 _c
318 157 356 201 387 252 _c
418 302 440 355 454 410 _c
}_e{456 419 461 427 469 433 _c
477 439 486 442 496 442 _c
504 442 511 439 517 434 _c
523 428 526 421 526 413 _c
526 402 521 386 513 364 _c
504 342 495 322 487 305 _c
460 253 425 205 382 161 _c
354 133 325 109 294 88 _c
262 67 229 49 195 34 _c
161 19 125 8 87 0 _c
63 0 _l
_cl}_e}_d
/t{{361 0 22 -10 330 626 _sc
62 81 _m
62 91 63 100 65 109 _c
137 396 _l
32 396 _l
25 396 22 400 22 409 _c
24 423 29 431 35 431 _c
146 431 _l
186 594 _l
188 602 193 610 201 616 _c
209 622 218 626 228 626 _c
236 626 243 623 249 618 _c
255 613 258 606 258 598 _c
258 596 257 594 257 593 _c
257 592 257 591 257 590 _c
217 431 _l
320 431 _l
326 431 330 426 330 418 _c
}_e{330 416 329 414 328 410 _c
327 406 326 402 324 400 _c
322 397 320 396 317 396 _c
208 396 _l
136 107 _l
131 88 129 72 129 58 _c
129 29 138 15 158 15 _c
187 15 213 28 236 56 _c
258 84 276 114 288 147 _c
290 151 293 153 296 153 _c
308 153 _l
310 153 312 152 314 150 _c
316 148 317 146 317 144 _c
317 142 316 141 316 141 _c
301 101 280 65 252 35 _c
}_e{224 5 192 -10 156 -10 _c
129 -10 107 -1 89 15 _c
71 32 62 54 62 81 _c
_cl}_e}_d
/period{277 0 84 0 194 110 _sc
84 55 _m
84 70 89 83 100 94 _c
111 104 124 110 139 110 _c
148 110 157 107 166 102 _c
174 97 181 90 186 82 _c
191 73 194 64 194 55 _c
194 40 188 27 178 16 _c
167 5 154 0 139 0 _c
124 0 111 5 100 16 _c
89 27 84 40 84 55 _c
_cl}_d
/a{{528 0 38 -10 501 442 _sc
174 -10 _m
132 -10 98 5 74 37 _c
50 68 38 105 38 149 _c
38 191 49 236 71 282 _c
93 328 122 366 160 396 _c
198 426 238 442 282 442 _c
302 442 319 436 335 426 _c
351 415 363 400 372 382 _c
379 408 394 422 416 422 _c
424 422 431 419 437 414 _c
443 409 446 402 446 394 _c
446 392 445 390 445 389 _c
445 388 445 387 445 386 _c
375 107 _l
}_e{370 87 368 70 368 58 _c
368 29 377 15 397 15 _c
417 15 433 28 444 55 _c
455 81 464 112 472 147 _c
473 151 476 153 480 153 _c
492 153 _l
494 153 496 151 498 149 _c
500 147 501 145 501 143 _c
489 96 476 59 462 31 _c
448 3 426 -10 395 -10 _c
372 -10 352 -3 335 9 _c
318 21 307 39 303 61 _c
260 13 217 -10 174 -10 _c
175 15 _m
199 15 222 24 245 42 _c
}_e{267 60 287 81 303 106 _c
303 106 304 107 304 109 _c
358 326 _l
359 329 _l
355 353 346 373 333 390 _c
319 407 302 416 280 416 _c
257 416 236 406 217 388 _c
197 370 181 348 168 323 _c
154 296 142 259 130 213 _c
118 167 113 131 113 105 _c
113 81 118 60 128 42 _c
138 24 153 15 175 15 _c
_cl}_e}_d
/c{{432 0 40 -10 430 442 _sc
117 119 _m
117 90 124 65 139 45 _c
154 25 175 15 203 15 _c
243 15 281 24 318 42 _c
354 60 384 86 407 118 _c
409 120 411 121 415 121 _c
418 121 421 119 425 115 _c
428 111 430 108 430 105 _c
430 102 429 100 428 99 _c
404 65 371 38 330 19 _c
288 0 245 -10 201 -10 _c
169 -10 140 -2 116 12 _c
92 26 73 46 60 72 _c
}_e{46 97 40 126 40 158 _c
40 203 52 248 77 292 _c
102 336 135 372 177 400 _c
219 428 263 442 309 442 _c
339 442 366 434 390 420 _c
414 405 426 384 426 356 _c
426 338 420 322 410 309 _c
399 296 385 290 367 290 _c
356 290 347 293 340 300 _c
332 306 329 315 329 326 _c
329 342 334 355 346 366 _c
357 377 370 383 386 383 _c
388 383 _l
380 394 368 402 354 408 _c
}_e{339 413 324 416 308 416 _c
269 416 235 399 206 366 _c
176 332 154 292 139 246 _c
124 200 117 157 117 119 _c
_cl}_e}_d
end readonly def

/BuildGlyph
 {exch begin
 CharStrings exch
 2 copy known not{pop /.notdef}if
 true 3 1 roll get exec
 end}_d

/BuildChar {
 1 index /Encoding get exch get
 1 index /BuildGlyph get exec
}_d

FontName currentdict end definefont pop
%!PS-Adobe-3.0 Resource-Font
%%Title: cmss10
%%Copyright: Copyright (C) 1994, Basil K. Malyshev. All Rights Reserved.012BaKoMa Fonts Collection, Level-B.
%%Creator: Converted from TrueType to type 3 by PPR
25 dict begin
/_d{bind def}bind def
/_m{moveto}_d
/_l{lineto}_d
/_cl{closepath eofill}_d
/_c{curveto}_d
/_sc{7 -1 roll{setcachedevice}{pop pop pop pop pop pop}ifelse}_d
/_e{exec}_d
/FontName /Cmss10 def
/PaintType 0 def
/FontMatrix[.001 0 0 .001 0 0]def
/FontBBox[-61 -250 999 760]def
/FontType 3 def
/Encoding [ /F ] def
/FontInfo 10 dict dup begin
/FamilyName (cmss10) def
/FullName (cmss10) def
/Notice (Copyright (C) 1994, Basil K. Malyshev. All Rights Reserved.012BaKoMa Fonts Collection, Level-B. ) def
/Weight (Regular) def
/Version (1.1/12-Nov-94) def
/ItalicAngle 0.0 def
/isFixedPitch false def
/UnderlinePosition -133 def
/UnderlineThickness 20 def
end readonly def
/CharStrings 1 dict dup begin
/F{569 0 92 0 526 694 _sc
92 0 _m
92 694 _l
526 694 _l
526 625 _l
185 626 _l
185 380 _l
485 380 _l
485 315 _l
185 315 _l
185 0 _l
92 0 _l
_cl}_d
end readonly def

/BuildGlyph
 {exch begin
 CharStrings exch
 2 copy known not{pop /.notdef}if
 true 3 1 roll get exec
 end}_d

/BuildChar {
 1 index /Encoding get exch get
 1 index /BuildGlyph get exec
}_d

FontName currentdict end definefont pop
%!PS-Adobe-3.0 Resource-Font
%%Title: Bitstream Vera Sans
%%Copyright: Copyright (c) 2003 by Bitstream, Inc. All Rights Reserved.
%%Creator: Converted from TrueType to type 3 by PPR
25 dict begin
/_d{bind def}bind def
/_m{moveto}_d
/_l{lineto}_d
/_cl{closepath eofill}_d
/_c{curveto}_d
/_sc{7 -1 roll{setcachedevice}{pop pop pop pop pop pop}ifelse}_d
/_e{exec}_d
/FontName /BitstreamVeraSans-Roman def
/PaintType 0 def
/FontMatrix[.001 0 0 .001 0 0]def
/FontBBox[-183 -236 1287 928]def
/FontType 3 def
/Encoding [ /space /zero /one /two /three /four /five /six /seven /eight /nine /H /J /bracketleft /bracketright /y /z ] def
/FontInfo 10 dict dup begin
/FamilyName (Bitstream Vera Sans) def
/FullName (Bitstream Vera Sans) def
/Notice (Copyright (c) 2003 by Bitstream, Inc. All Rights Reserved. Bitstream Vera is a trademark of Bitstream, Inc.) def
/Weight (Roman) def
/Version (Release 1.10) def
/ItalicAngle 0.0 def
/isFixedPitch false def
/UnderlinePosition -213 def
/UnderlineThickness 143 def
end readonly def
/CharStrings 17 dict dup begin
/space{318 0 0 0 0 0 _sc
}_d
/zero{636 0 66 -13 570 742 _sc
318 664 _m
267 664 229 639 203 589 _c
177 539 165 464 165 364 _c
165 264 177 189 203 139 _c
229 89 267 64 318 64 _c
369 64 407 89 433 139 _c
458 189 471 264 471 364 _c
471 464 458 539 433 589 _c
407 639 369 664 318 664 _c
318 742 _m
399 742 461 709 505 645 _c
548 580 570 486 570 364 _c
570 241 548 147 505 83 _c
461 19 399 -13 318 -13 _c
236 -13 173 19 130 83 _c
87 147 66 241 66 364 _c
66 486 87 580 130 645 _c
173 709 236 742 318 742 _c
_cl}_d
/one{636 0 110 0 544 729 _sc
124 83 _m
285 83 _l
285 639 _l
110 604 _l
110 694 _l
284 729 _l
383 729 _l
383 83 _l
544 83 _l
544 0 _l
124 0 _l
124 83 _l
_cl}_d
/two{{636 0 73 0 536 742 _sc
192 83 _m
536 83 _l
536 0 _l
73 0 _l
73 83 _l
110 121 161 173 226 239 _c
290 304 331 346 348 365 _c
380 400 402 430 414 455 _c
426 479 433 504 433 528 _c
433 566 419 598 392 622 _c
365 646 330 659 286 659 _c
255 659 222 653 188 643 _c
154 632 117 616 78 594 _c
78 694 _l
118 710 155 722 189 730 _c
223 738 255 742 284 742 _c
}_e{359 742 419 723 464 685 _c
509 647 532 597 532 534 _c
532 504 526 475 515 449 _c
504 422 484 390 454 354 _c
446 344 420 317 376 272 _c
332 227 271 164 192 83 _c
_cl}_e}_d
/three{{636 0 76 -13 556 742 _sc
406 393 _m
453 383 490 362 516 330 _c
542 298 556 258 556 212 _c
556 140 531 84 482 45 _c
432 6 362 -13 271 -13 _c
240 -13 208 -10 176 -4 _c
144 1 110 10 76 22 _c
76 117 _l
103 101 133 89 166 81 _c
198 73 232 69 268 69 _c
330 69 377 81 409 105 _c
441 129 458 165 458 212 _c
458 254 443 288 413 312 _c
383 336 341 349 287 349 _c
}_e{202 349 _l
202 430 _l
291 430 _l
339 430 376 439 402 459 _c
428 478 441 506 441 543 _c
441 580 427 609 401 629 _c
374 649 336 659 287 659 _c
260 659 231 656 200 650 _c
169 644 135 635 98 623 _c
98 711 _l
135 721 170 729 203 734 _c
235 739 266 742 296 742 _c
370 742 429 725 473 691 _c
517 657 539 611 539 553 _c
539 513 527 479 504 451 _c
481 423 448 403 406 393 _c
_cl}_e}_d
/four{636 0 49 0 580 729 _sc
378 643 _m
129 254 _l
378 254 _l
378 643 _l
352 729 _m
476 729 _l
476 254 _l
580 254 _l
580 172 _l
476 172 _l
476 0 _l
378 0 _l
378 172 _l
49 172 _l
49 267 _l
352 729 _l
_cl}_d
/five{{636 0 77 -13 549 729 _sc
108 729 _m
495 729 _l
495 646 _l
198 646 _l
198 467 _l
212 472 227 476 241 478 _c
255 480 270 482 284 482 _c
365 482 429 459 477 415 _c
525 370 549 310 549 234 _c
549 155 524 94 475 51 _c
426 8 357 -13 269 -13 _c
238 -13 207 -10 175 -6 _c
143 -1 111 6 77 17 _c
77 116 _l
106 100 136 88 168 80 _c
199 72 232 69 267 69 _c
}_e{323 69 368 83 401 113 _c
433 143 450 183 450 234 _c
450 284 433 324 401 354 _c
368 384 323 399 267 399 _c
241 399 214 396 188 390 _c
162 384 135 375 108 363 _c
108 729 _l
_cl}_e}_d
/six{{636 0 70 -13 573 742 _sc
330 404 _m
286 404 251 388 225 358 _c
199 328 186 286 186 234 _c
186 181 199 139 225 109 _c
251 79 286 64 330 64 _c
374 64 409 79 435 109 _c
461 139 474 181 474 234 _c
474 286 461 328 435 358 _c
409 388 374 404 330 404 _c
526 713 _m
526 623 _l
501 635 476 644 451 650 _c
425 656 400 659 376 659 _c
310 659 260 637 226 593 _c
}_e{192 549 172 482 168 394 _c
187 422 211 444 240 459 _c
269 474 301 482 336 482 _c
409 482 467 459 509 415 _c
551 371 573 310 573 234 _c
573 159 550 99 506 54 _c
462 9 403 -13 330 -13 _c
246 -13 181 19 137 83 _c
92 147 70 241 70 364 _c
70 479 97 571 152 639 _c
206 707 280 742 372 742 _c
396 742 421 739 447 735 _c
472 730 498 723 526 713 _c
_cl}_e}_d
/seven{636 0 82 0 551 729 _sc
82 729 _m
551 729 _l
551 687 _l
286 0 _l
183 0 _l
432 646 _l
82 646 _l
82 729 _l
_cl}_d
/eight{{636 0 68 -13 568 742 _sc
318 346 _m
271 346 234 333 207 308 _c
180 283 167 249 167 205 _c
167 161 180 126 207 101 _c
234 76 271 64 318 64 _c
364 64 401 76 428 102 _c
455 127 469 161 469 205 _c
469 249 455 283 429 308 _c
402 333 365 346 318 346 _c
219 388 _m
177 398 144 418 120 447 _c
96 476 85 511 85 553 _c
85 611 105 657 147 691 _c
188 725 245 742 318 742 _c
}_e{390 742 447 725 489 691 _c
530 657 551 611 551 553 _c
551 511 539 476 515 447 _c
491 418 459 398 417 388 _c
464 377 501 355 528 323 _c
554 291 568 251 568 205 _c
568 134 546 80 503 43 _c
459 5 398 -13 318 -13 _c
237 -13 175 5 132 43 _c
89 80 68 134 68 205 _c
68 251 81 291 108 323 _c
134 355 171 377 219 388 _c
183 544 _m
183 506 194 476 218 455 _c
}_e{242 434 275 424 318 424 _c
360 424 393 434 417 455 _c
441 476 453 506 453 544 _c
453 582 441 611 417 632 _c
393 653 360 664 318 664 _c
275 664 242 653 218 632 _c
194 611 183 582 183 544 _c
_cl}_e}_d
/nine{{636 0 63 -13 566 742 _sc
110 15 _m
110 105 _l
134 93 159 84 185 78 _c
210 72 235 69 260 69 _c
324 69 374 90 408 134 _c
442 178 462 244 468 334 _c
448 306 424 284 396 269 _c
367 254 335 247 300 247 _c
226 247 168 269 126 313 _c
84 357 63 417 63 494 _c
63 568 85 628 129 674 _c
173 719 232 742 306 742 _c
390 742 455 709 499 645 _c
543 580 566 486 566 364 _c
}_e{566 248 538 157 484 89 _c
429 21 356 -13 264 -13 _c
239 -13 214 -10 189 -6 _c
163 -2 137 5 110 15 _c
306 324 _m
350 324 385 339 411 369 _c
437 399 450 441 450 494 _c
450 546 437 588 411 618 _c
385 648 350 664 306 664 _c
262 664 227 648 201 618 _c
175 588 162 546 162 494 _c
162 441 175 399 201 369 _c
227 339 262 324 306 324 _c
_cl}_e}_d
/H{752 0 98 0 654 729 _sc
98 729 _m
197 729 _l
197 430 _l
555 430 _l
555 729 _l
654 729 _l
654 0 _l
555 0 _l
555 347 _l
197 347 _l
197 0 _l
98 0 _l
98 729 _l
_cl}_d
/J{295 0 -51 -199 197 729 _sc
98 729 _m
197 729 _l
197 51 _l
197 -36 180 -99 147 -139 _c
113 -179 60 -199 -13 -199 _c
-51 -199 _l
-51 -116 _l
-20 -116 _l
22 -116 53 -103 71 -79 _c
89 -55 98 -11 98 51 _c
98 729 _l
_cl}_d
/bracketleft{390 0 86 -131 293 760 _sc
86 760 _m
293 760 _l
293 690 _l
176 690 _l
176 -61 _l
293 -61 _l
293 -131 _l
86 -131 _l
86 760 _l
_cl}_d
/bracketright{390 0 97 -131 304 760 _sc
304 760 _m
304 -131 _l
97 -131 _l
97 -61 _l
214 -61 _l
214 690 _l
97 690 _l
97 760 _l
304 760 _l
_cl}_d
/y{592 0 30 -207 562 547 _sc
322 -50 _m
296 -114 271 -157 247 -177 _c
223 -197 191 -207 151 -207 _c
79 -207 _l
79 -132 _l
132 -132 _l
156 -132 175 -126 189 -114 _c
203 -102 218 -75 235 -31 _c
251 9 _l
30 547 _l
125 547 _l
296 119 _l
467 547 _l
562 547 _l
322 -50 _l
_cl}_d
/z{525 0 43 0 482 547 _sc
55 547 _m
482 547 _l
482 465 _l
144 72 _l
482 72 _l
482 0 _l
43 0 _l
43 82 _l
381 475 _l
55 475 _l
55 547 _l
_cl}_d
end readonly def

/BuildGlyph
 {exch begin
 CharStrings exch
 2 copy known not{pop /.notdef}if
 true 3 1 roll get exec
 end}_d

/BuildChar {
 1 index /Encoding get exch get
 1 index /BuildGlyph get exec
}_d

FontName currentdict end definefont pop
%!PS-Adobe-3.0 Resource-Font
%%Title: cmr10
%%Copyright: Copyright (C) 1994, Basil K. Malyshev. All Rights Reserved.012BaKoMa Fonts Collection, Level-B.
%%Creator: Converted from TrueType to type 3 by PPR
25 dict begin
/_d{bind def}bind def
/_m{moveto}_d
/_l{lineto}_d
/_cl{closepath eofill}_d
/_c{curveto}_d
/_sc{7 -1 roll{setcachedevice}{pop pop pop pop pop pop}ifelse}_d
/_e{exec}_d
/FontName /Cmr10 def
/PaintType 0 def
/FontMatrix[.001 0 0 .001 0 0]def
/FontBBox[-44 -250 1009 750]def
/FontType 3 def
/Encoding [ /Delta /nine /zero /equal /two /four /eight /s /one /three /seven ] def
/FontInfo 10 dict dup begin
/FamilyName (cmr10) def
/FullName (cmr10) def
/Notice (Copyright (C) 1994, Basil K. Malyshev. All Rights Reserved.012BaKoMa Fonts Collection, Level-B. ) def
/Weight (Regular) def
/Version (1.1/12-Nov-94) def
/ItalicAngle 0.0 def
/isFixedPitch false def
/UnderlinePosition -133 def
/UnderlineThickness 20 def
end readonly def
/CharStrings 11 dict dup begin
/Delta{833 0 46 0 786 716 _sc
54 0 _m
48 0 46 2 46 8 _c
46 8 46 9 46 9 _c
46 9 47 10 47 11 _c
391 705 _l
394 712 400 716 409 716 _c
423 716 _l
432 716 438 712 441 705 _c
785 11 _l
785 10 786 9 786 9 _c
786 9 786 8 786 8 _c
786 2 783 0 778 0 _c
54 0 _l
120 80 _m
647 80 _l
384 611 _l
120 80 _l
_cl}_d
/nine{{500 0 42 -21 457 666 _sc
113 42 _m
131 20 162 10 208 10 _c
233 10 257 18 279 36 _c
301 53 318 74 330 99 _c
344 127 353 158 357 190 _c
361 222 363 261 363 309 _c
351 282 335 260 314 243 _c
292 225 268 217 240 217 _c
201 217 166 227 136 248 _c
106 269 82 297 66 331 _c
50 365 42 402 42 441 _c
42 481 51 518 69 553 _c
87 587 113 615 145 635 _c
}_e{177 655 213 666 255 666 _c
295 666 328 655 356 633 _c
383 611 404 582 418 548 _c
432 513 442 476 448 438 _c
454 399 457 361 457 323 _c
457 271 447 219 428 165 _c
409 111 381 67 344 32 _c
306 -3 261 -21 208 -21 _c
168 -21 135 -12 108 6 _c
80 24 67 52 67 90 _c
67 103 71 114 81 124 _c
90 133 101 138 115 138 _c
128 138 139 133 149 124 _c
}_e{158 114 163 103 163 90 _c
163 76 158 65 149 56 _c
139 46 128 42 115 42 _c
113 42 _l
244 243 _m
271 243 293 252 311 270 _c
328 288 341 311 349 339 _c
357 366 361 393 361 421 _c
361 440 _l
361 444 _l
361 494 353 538 339 578 _c
324 617 296 637 255 637 _c
228 637 206 631 190 620 _c
174 608 162 593 154 574 _c
146 554 141 534 139 512 _c
137 490 136 466 136 441 _c
}_e{136 403 137 370 141 344 _c
145 317 155 293 171 273 _c
187 253 211 243 244 243 _c
_cl}_e}_d
/zero{{500 0 39 -21 460 666 _sc
250 -21 _m
168 -21 112 12 83 79 _c
53 146 39 226 39 319 _c
39 377 44 431 55 482 _c
65 533 86 576 118 612 _c
149 648 193 666 250 666 _c
294 666 330 655 358 634 _c
386 612 407 585 422 551 _c
436 517 446 480 452 441 _c
457 402 460 361 460 319 _c
460 261 454 208 444 158 _c
433 108 412 65 381 31 _c
350 -3 306 -21 250 -21 _c
250 4 _m
}_e{287 4 315 23 333 61 _c
351 99 362 141 366 187 _c
370 233 373 283 373 335 _c
373 385 370 431 366 473 _c
362 515 351 554 333 588 _c
315 622 287 640 250 640 _c
212 640 184 622 166 588 _c
148 554 136 515 132 473 _c
128 431 126 385 126 335 _c
126 297 126 262 128 230 _c
130 197 135 163 143 128 _c
151 93 163 64 181 40 _c
198 16 221 4 250 4 _c
_cl}_e}_d
/equal{{777 0 56 133 721 367 _sc
75 133 _m
69 133 65 135 61 139 _c
57 143 56 148 56 153 _c
56 158 57 163 61 167 _c
65 171 69 173 75 173 _c
703 173 _l
707 173 711 171 715 167 _c
719 163 721 158 721 153 _c
721 148 719 143 715 139 _c
711 135 707 133 703 133 _c
75 133 _l
75 327 _m
69 327 65 329 61 333 _c
57 337 56 341 56 347 _c
56 351 57 356 61 360 _c
}_e{65 364 69 367 75 367 _c
703 367 _l
707 367 711 364 715 360 _c
719 356 721 351 721 347 _c
721 341 719 337 715 333 _c
711 329 707 327 703 327 _c
75 327 _l
_cl}_e}_d
/two{{500 0 50 0 449 666 _sc
50 0 _m
50 27 _l
50 28 50 30 52 32 _c
207 204 _l
230 229 249 250 264 268 _c
278 285 293 305 307 327 _c
321 349 333 372 341 396 _c
349 419 354 444 354 470 _c
354 497 349 523 339 548 _c
329 573 314 593 294 608 _c
274 623 249 631 221 631 _c
192 631 166 622 143 605 _c
119 587 103 565 94 537 _c
96 537 100 538 105 538 _c
}_e{119 538 132 533 143 523 _c
153 513 159 500 159 484 _c
159 468 153 455 143 445 _c
132 434 119 429 105 429 _c
89 429 76 434 66 445 _c
55 456 50 469 50 484 _c
50 508 54 532 64 554 _c
73 576 86 595 104 613 _c
122 630 142 643 164 652 _c
186 661 210 666 236 666 _c
274 666 309 658 342 642 _c
375 626 401 603 420 573 _c
439 543 449 509 449 470 _c
}_e{449 441 442 414 430 388 _c
417 362 401 338 381 317 _c
361 295 336 271 305 244 _c
274 217 254 199 244 190 _c
131 81 _l
227 81 _l
274 81 313 81 345 82 _c
377 82 394 84 396 86 _c
404 94 412 125 420 178 _c
449 178 _l
421 0 _l
50 0 _l
_cl}_e}_d
/four{{500 0 28 0 471 666 _sc
28 165 _m
28 200 _l
337 661 _l
339 664 342 666 347 666 _c
362 666 _l
369 666 373 662 373 655 _c
373 200 _l
471 200 _l
471 165 _l
373 165 _l
373 67 _l
373 53 382 44 402 40 _c
422 36 444 35 470 35 _c
470 0 _l
195 0 _l
195 35 _l
220 35 242 36 262 40 _c
282 44 292 53 292 67 _c
292 165 _l
28 165 _l
61 200 _m
298 200 _l
}_e{298 554 _l
61 200 _l
_cl}_e}_d
/eight{{500 0 42 -21 457 666 _sc
42 152 _m
42 192 55 227 81 258 _c
107 288 141 314 183 335 _c
146 359 _l
123 373 104 393 90 418 _c
76 443 69 469 69 497 _c
69 529 77 557 94 583 _c
110 609 133 629 161 644 _c
189 658 218 666 250 666 _c
279 666 307 660 335 648 _c
363 636 385 618 403 596 _c
421 574 430 547 430 516 _c
430 493 424 472 414 453 _c
403 434 388 417 370 402 _c
}_e{352 386 332 373 312 363 _c
369 326 _l
395 308 417 286 433 258 _c
449 230 457 200 457 170 _c
457 134 447 101 428 71 _c
408 41 383 19 351 3 _c
319 -13 285 -21 250 -21 _c
215 -21 182 -14 150 0 _c
118 13 92 33 72 60 _c
52 86 42 117 42 152 _c
96 152 _m
96 125 103 101 118 79 _c
132 57 151 40 175 28 _c
199 16 224 10 250 10 _c
288 10 323 21 355 44 _c
}_e{387 66 403 96 403 134 _c
403 146 400 159 395 171 _c
390 183 383 195 374 205 _c
365 215 355 224 344 231 _c
210 318 _l
189 306 170 292 152 275 _c
134 258 121 239 111 218 _c
101 197 96 175 96 152 _c
165 457 _m
286 379 _l
314 395 337 414 355 438 _c
373 461 382 487 382 516 _c
382 538 375 559 363 578 _c
350 596 334 611 314 621 _c
294 631 272 637 249 637 _c
}_e{229 637 208 633 188 625 _c
167 617 150 606 137 590 _c
123 574 117 556 117 536 _c
117 504 133 478 165 457 _c
_cl}_e}_d
/s{{394 0 33 -10 360 448 _sc
33 -2 _m
33 160 _l
33 165 36 168 42 168 _c
54 168 _l
58 168 60 165 62 160 _c
80 63 125 15 197 15 _c
228 15 254 22 276 36 _c
297 50 308 73 308 103 _c
308 124 299 142 283 158 _c
266 173 246 183 224 189 _c
157 202 _l
135 206 114 214 96 224 _c
77 234 62 248 50 265 _c
38 281 33 301 33 323 _c
33 352 40 376 56 395 _c
}_e{72 413 92 427 117 435 _c
141 443 168 448 197 448 _c
231 448 260 439 286 421 _c
315 446 _l
315 447 316 448 320 448 _c
327 448 _l
329 448 330 447 332 445 _c
334 443 335 442 335 440 _c
335 309 _l
335 303 332 300 327 300 _c
315 300 _l
309 300 306 303 306 309 _c
306 343 296 371 277 393 _c
257 414 230 425 196 425 _c
166 425 140 419 118 408 _c
96 397 85 378 85 351 _c
}_e{85 332 92 317 108 305 _c
124 293 142 285 164 280 _c
232 267 _l
254 261 275 252 295 240 _c
315 228 330 212 342 194 _c
354 175 360 154 360 130 _c
360 106 355 85 347 67 _c
339 49 327 35 313 23 _c
298 11 280 2 260 -2 _c
240 -7 219 -10 197 -10 _c
155 -10 119 3 90 31 _c
53 -8 _l
53 -9 51 -10 48 -10 _c
42 -10 _l
36 -10 33 -7 33 -2 _c
_cl}_e}_d
/one{500 0 87 0 421 666 _sc
93 0 _m
93 35 _l
176 35 218 45 218 67 _c
218 592 _l
183 575 139 567 87 567 _c
87 602 _l
168 602 230 623 272 666 _c
286 666 _l
288 666 291 665 293 663 _c
295 661 296 659 296 657 _c
296 67 _l
296 45 337 35 421 35 _c
421 0 _l
93 0 _l
_cl}_d
/three{{500 0 42 -21 457 666 _sc
95 77 _m
111 54 132 37 158 26 _c
184 15 213 10 243 10 _c
281 10 309 26 325 59 _c
341 92 350 130 350 172 _c
350 190 348 209 345 228 _c
341 247 335 265 327 281 _c
319 297 308 310 294 320 _c
280 330 262 335 242 335 _c
176 335 _l
170 335 167 338 167 344 _c
167 353 _l
167 358 170 361 176 361 _c
231 365 _l
254 365 273 373 289 391 _c
}_e{305 409 316 430 323 456 _c
330 481 334 505 334 528 _c
334 560 326 586 311 606 _c
296 626 273 637 243 637 _c
217 637 193 632 170 622 _c
147 612 129 598 115 579 _c
116 579 117 580 118 580 _c
119 580 120 580 122 580 _c
137 580 150 574 160 564 _c
170 554 175 541 175 527 _c
175 512 170 499 160 489 _c
150 479 137 474 122 474 _c
107 474 94 479 84 489 _c
}_e{74 499 69 512 69 527 _c
69 555 77 580 95 601 _c
112 622 134 638 161 649 _c
188 660 215 666 243 666 _c
263 666 284 663 307 657 _c
329 651 350 642 368 631 _c
386 619 401 605 413 588 _c
424 570 430 550 430 528 _c
430 500 423 474 411 450 _c
399 426 382 406 360 389 _c
338 371 314 358 288 350 _c
317 344 345 333 371 317 _c
397 301 417 280 433 255 _c
}_e{449 229 457 202 457 173 _c
457 136 446 103 426 73 _c
406 43 379 19 347 3 _c
314 -13 279 -21 243 -21 _c
211 -21 180 -15 149 -3 _c
117 8 92 25 72 49 _c
52 73 42 101 42 135 _c
42 151 47 165 58 176 _c
69 187 83 193 100 193 _c
110 193 120 190 129 185 _c
138 180 145 173 150 164 _c
155 154 158 145 158 135 _c
158 118 152 104 141 93 _c
}_e{129 82 116 77 100 77 _c
95 77 _l
_cl}_e}_d
/seven{{500 0 56 -21 485 676 _sc
174 26 _m
174 63 177 99 183 135 _c
189 170 199 205 212 240 _c
224 274 239 308 257 342 _c
275 375 294 406 316 436 _c
407 563 _l
293 563 _l
174 563 113 561 110 558 _c
101 547 93 516 85 466 _c
56 466 _l
89 676 _l
118 676 _l
118 673 _l
118 661 138 653 179 649 _c
219 645 259 644 299 644 _c
485 644 _l
485 618 _l
485 617 484 616 484 616 _c
}_e{484 616 484 615 484 615 _c
346 422 _l
312 372 290 316 282 255 _c
274 193 270 117 270 26 _c
270 12 265 1 256 -7 _c
246 -16 235 -21 222 -21 _c
208 -21 197 -16 188 -7 _c
178 1 174 12 174 26 _c
_cl}_e}_d
end readonly def

/BuildGlyph
 {exch begin
 CharStrings exch
 2 copy known not{pop /.notdef}if
 true 3 1 roll get exec
 end}_d

/BuildChar {
 1 index /Encoding get exch get
 1 index /BuildGlyph get exec
}_d

FontName currentdict end definefont pop
end
%%EndProlog
mpldict begin
18 180 translate
576 432 0 0 clipbox
gsave
0 0 m
576 0 l
576 432 l
0 432 l
cl
1.000 setgray
fill
grestore
gsave
80.64 60.48 m
552.96 60.48 l
552.96 414.72 l
80.64 414.72 l
cl
1.000 setgray
fill
grestore
2.000 setlinewidth
1 setlinejoin
0 setlinecap
[1 3] 0 setdash
0.000 0.000 1.000 setrgbcolor
gsave
472.3 354.2 80.64 60.48 clipbox
80.64 137.157 m
84.3591 141.851 l
88.0781 146.387 l
91.7972 150.74 l
95.5162 154.887 l
99.2353 158.807 l
102.954 162.467 l
106.673 165.898 l
110.392 169.127 l
117.831 175.204 l
128.988 184.263 l
136.426 190.324 l
140.145 193.21 l
143.864 195.908 l
147.583 198.353 l
151.302 200.498 l
155.021 202.317 l
158.74 203.801 l
162.459 205.003 l
169.897 206.907 l
184.774 210.16 l
195.931 212.447 l
203.369 213.838 l
210.807 215.04 l
218.245 215.919 l
221.964 216.17 l
225.683 216.253 l
229.402 216.121 l
233.121 215.717 l
236.84 214.967 l
240.559 213.778 l
244.278 212.036 l
247.997 209.508 l
251.717 206.05 l
255.436 201.422 l
259.155 195.312 l
262.874 187.331 l
266.593 176.984 l
270.312 163.649 l
274.031 146.482 l
277.75 123.972 l
281.469 95.1556 l
285.188 58.5701 l
288.907 16.499 l
292.553 -1 l
293.161 -1 m
296.345 1.09781 l
303.783 7.8933 l
314.94 17.6878 l
329.817 30.6582 l
337.255 37.3402 l
344.693 44.3528 l
348.412 48.0597 l
352.131 51.9529 l
355.85 56.0771 l
359.569 60.4782 l
363.288 65.1995 l
367.007 70.2773 l
370.726 75.7356 l
374.445 81.5818 l
378.164 87.8034 l
381.883 94.3678 l
389.322 108.312 l
407.917 144.442 l
411.636 151.079 l
415.355 157.088 l
419.074 162 l
422.793 164.757 l
426.512 166.286 l
430.231 168.12 l
433.95 170.357 l
437.669 173.094 l
441.388 176.403 l
445.107 180.299 l
448.826 184.715 l
459.984 198.859 l
463.703 202.312 l
467.422 203.609 l
519.489 215.201 l
530.646 217.498 l
538.084 218.781 l
541.803 219.258 l
545.522 219.542 l
549.241 219.528 l
552.96 219.042 l
552.96 219.042 l
stroke
grestore
[3 5 1 5] 0 setdash
gsave
472.3 354.2 80.64 60.48 clipbox
80.64 163.405 m
84.3591 168.101 l
88.0781 172.638 l
91.7972 176.993 l
95.5162 181.143 l
99.2353 185.065 l
102.954 188.729 l
106.673 192.164 l
110.392 195.398 l
117.831 201.487 l
128.988 210.566 l
136.426 216.637 l
140.145 219.527 l
143.864 222.227 l
147.583 224.675 l
151.302 226.821 l
155.021 228.64 l
158.74 230.125 l
162.459 231.326 l
169.897 233.229 l
184.774 236.478 l
195.931 238.76 l
203.369 240.146 l
210.807 241.341 l
218.245 242.209 l
221.964 242.454 l
225.683 242.528 l
229.402 242.386 l
233.121 241.969 l
236.84 241.204 l
240.559 239.996 l
244.278 238.23 l
247.997 235.671 l
251.717 232.176 l
255.436 227.5 l
259.155 221.331 l
262.874 213.275 l
266.593 202.835 l
270.312 189.382 l
274.031 172.072 l
277.75 149.404 l
281.469 120.597 l
285.188 86.3651 l
288.907 63.8918 l
292.626 64.0251 l
303.783 74.3556 l
314.94 84.1968 l
333.536 100.152 l
370.726 131.874 l
378.164 138.609 l
381.883 142.177 l
385.603 145.956 l
389.322 150.01 l
393.041 154.398 l
396.76 159.15 l
400.479 164.257 l
407.917 175.23 l
411.636 180.779 l
415.355 186.011 l
419.074 190.433 l
422.793 193.033 l
426.512 194.563 l
430.231 196.353 l
433.95 198.491 l
437.669 201.072 l
441.388 204.172 l
445.107 207.824 l
448.826 211.984 l
459.984 225.532 l
463.703 228.889 l
467.422 230.166 l
500.893 237.515 l
523.208 242.26 l
530.646 243.716 l
538.084 244.95 l
541.803 245.401 l
545.522 245.658 l
549.241 245.613 l
552.96 245.093 l
552.96 245.093 l
stroke
grestore
[6 6] 0 setdash
gsave
472.3 354.2 80.64 60.48 clipbox
80.64 229.979 m
84.3591 234.673 l
88.0781 239.208 l
91.7972 243.561 l
95.5162 247.709 l
99.2353 251.629 l
102.954 255.29 l
106.673 258.723 l
110.392 261.956 l
117.831 268.044 l
128.988 277.115 l
136.426 283.162 l
140.145 286.032 l
143.864 288.707 l
147.583 291.124 l
151.302 293.234 l
155.021 295.013 l
158.74 296.454 l
162.459 297.61 l
166.178 298.572 l
173.616 300.201 l
184.774 302.403 l
195.931 304.346 l
203.369 305.396 l
210.807 306.116 l
214.526 306.298 l
218.245 306.304 l
221.964 306.099 l
225.683 305.633 l
229.402 304.842 l
233.121 303.647 l
236.84 301.952 l
240.559 299.64 l
244.278 296.572 l
247.997 292.46 l
251.717 287.169 l
255.436 280.453 l
259.155 272.012 l
262.874 261.484 l
266.593 248.45 l
270.312 232.529 l
274.031 213.929 l
277.75 196.117 l
281.469 188.967 l
285.188 190.787 l
296.345 201.65 l
303.783 208.506 l
314.94 218.343 l
329.817 231.1 l
344.693 243.591 l
355.85 252.752 l
363.288 258.7 l
370.726 264.422 l
378.164 269.812 l
385.603 274.799 l
393.041 279.387 l
400.479 283.66 l
411.636 289.768 l
419.074 293.642 l
422.793 295.287 l
445.107 304.107 l
452.546 307.521 l
459.984 311.267 l
463.703 312.847 l
467.422 313.664 l
474.86 314.846 l
482.298 315.776 l
489.736 316.492 l
500.893 317.279 l
512.05 317.804 l
519.489 317.986 l
526.927 317.966 l
530.646 317.842 l
534.365 317.604 l
538.084 317.203 l
541.803 316.565 l
545.522 315.569 l
549.241 314.029 l
552.96 311.659 l
552.96 311.659 l
stroke
grestore
2 setlinecap
[] 0 setdash
gsave
472.3 354.2 80.64 60.48 clipbox
80.64 279.8 m
84.3591 283.992 l
88.0781 287.939 l
91.7972 291.609 l
95.5162 294.977 l
99.2353 298.014 l
102.954 300.681 l
106.673 303.024 l
110.392 305.064 l
114.111 306.832 l
117.831 308.352 l
121.55 309.641 l
125.269 310.705 l
128.988 311.527 l
132.707 312.086 l
136.426 312.439 l
140.145 312.594 l
143.864 312.547 l
147.583 312.286 l
151.302 311.8 l
155.021 311.091 l
158.74 310.154 l
166.178 307.828 l
177.335 303.963 l
188.493 299.884 l
195.931 296.939 l
203.369 293.792 l
210.807 290.353 l
214.526 288.486 l
218.245 286.449 l
221.964 284.254 l
225.683 281.897 l
229.402 279.369 l
236.84 273.853 l
240.559 271.009 l
244.278 268.35 l
247.997 266.129 l
251.717 264.916 l
255.436 265.125 l
259.155 266.839 l
262.874 269.756 l
266.593 273.403 l
281.469 289.293 l
288.907 296.76 l
296.345 303.844 l
303.783 310.604 l
311.221 317.054 l
318.66 323.146 l
326.098 328.79 l
329.817 331.417 l
333.536 333.903 l
337.255 336.242 l
340.974 338.434 l
344.693 340.478 l
348.412 342.377 l
352.131 344.135 l
355.85 345.754 l
359.569 347.238 l
363.288 348.592 l
367.007 349.819 l
370.726 350.922 l
378.164 352.778 l
385.603 354.203 l
393.041 355.264 l
400.479 356.048 l
407.917 356.635 l
415.355 356.994 l
422.793 357.084 l
430.231 356.982 l
437.669 356.553 l
445.107 355.806 l
452.546 354.772 l
456.265 354.114 l
459.984 353.332 l
463.703 352.409 l
471.141 350.253 l
478.579 347.797 l
486.017 345.044 l
493.455 341.993 l
500.893 338.62 l
508.331 334.879 l
515.769 330.7 l
519.489 328.42 l
523.208 325.993 l
526.927 323.405 l
530.646 320.634 l
534.365 317.657 l
538.084 314.445 l
541.803 310.958 l
545.522 307.147 l
549.241 302.946 l
552.96 298.264 l
552.96 298.264 l
stroke
grestore
0 setlinecap
[1 3] 0 setdash
0.000 0.500 0.000 setrgbcolor
gsave
472.3 354.2 80.64 60.48 clipbox
80.64 91.8474 m
84.3591 96.472 l
88.0781 100.92 l
91.7972 105.164 l
95.5162 109.175 l
99.2353 112.923 l
102.954 116.365 l
106.673 119.526 l
110.392 122.428 l
117.831 127.683 l
128.988 135.328 l
140.145 143.155 l
143.864 145.588 l
147.583 147.823 l
151.302 149.809 l
155.021 151.514 l
158.74 152.927 l
162.459 154.089 l
169.897 155.966 l
184.774 159.217 l
195.931 161.504 l
203.369 162.895 l
210.807 164.097 l
218.245 164.977 l
221.964 165.229 l
225.683 165.313 l
229.402 165.182 l
233.121 164.787 l
236.84 164.039 l
240.559 162.853 l
244.278 161.114 l
247.997 158.59 l
251.717 155.138 l
255.436 150.517 l
259.155 144.416 l
262.874 136.446 l
266.593 126.114 l
270.312 112.797 l
274.031 95.6519 l
277.75 73.1694 l
281.469 44.3707 l
285.188 7.57468 l
285.873 -1 l
349.836 -1 m
359.569 20.322 l
389.322 85.7581 l
396.76 101.608 l
404.198 116.832 l
407.917 124.041 l
411.636 130.813 l
415.355 136.91 l
419.074 141.867 l
422.793 144.619 l
426.512 146.107 l
430.231 147.889 l
433.95 150.063 l
437.669 152.726 l
441.388 155.953 l
445.107 159.763 l
448.826 164.098 l
459.984 178.074 l
463.703 181.503 l
467.422 182.796 l
519.489 194.415 l
530.646 196.719 l
538.084 198.008 l
541.803 198.487 l
545.522 198.775 l
549.241 198.764 l
552.96 198.283 l
552.96 198.283 l
stroke
grestore
[3 5 1 5] 0 setdash
gsave
472.3 354.2 80.64 60.48 clipbox
80.64 158.661 m
84.3591 163.353 l
88.0781 167.885 l
91.7972 172.234 l
95.5162 176.377 l
99.2353 180.29 l
102.954 183.942 l
106.673 187.363 l
110.392 190.58 l
117.831 196.629 l
128.988 205.642 l
136.426 211.679 l
140.145 214.556 l
143.864 217.245 l
147.583 219.685 l
151.302 221.825 l
155.021 223.64 l
158.74 225.122 l
162.459 226.322 l
169.897 228.224 l
184.774 231.474 l
195.931 233.756 l
203.369 235.143 l
210.807 236.339 l
218.245 237.209 l
221.964 237.455 l
225.683 237.531 l
229.402 237.391 l
233.121 236.977 l
236.84 236.215 l
240.559 235.011 l
244.278 233.25 l
247.997 230.698 l
251.717 227.212 l
255.436 222.547 l
259.155 216.391 l
262.874 208.353 l
266.593 197.934 l
270.312 184.508 l
274.031 167.227 l
277.75 144.578 l
281.469 115.632 l
285.188 79.4368 l
288.907 44.563 l
292.626 38.1723 l
296.345 41.3713 l
303.783 48.1412 l
314.94 57.8438 l
344.693 83.2905 l
352.131 89.9328 l
359.569 96.9544 l
363.288 100.682 l
367.007 104.606 l
370.726 108.772 l
374.445 113.229 l
378.164 118.027 l
381.883 123.2 l
385.603 128.767 l
389.322 134.714 l
393.041 140.999 l
400.479 154.27 l
407.917 167.718 l
411.636 174.116 l
415.355 179.962 l
419.074 184.772 l
422.793 187.493 l
426.512 189.014 l
430.231 190.829 l
433.95 193.032 l
437.669 195.721 l
441.388 198.97 l
445.107 202.798 l
448.826 207.144 l
459.984 221.133 l
463.703 224.561 l
467.422 225.852 l
515.769 236.588 l
526.927 238.938 l
534.365 240.342 l
538.084 240.935 l
541.803 241.403 l
545.522 241.676 l
549.241 241.648 l
552.96 241.143 l
552.96 241.143 l
stroke
grestore
[6 6] 0 setdash
gsave
472.3 354.2 80.64 60.48 clipbox
80.64 229.892 m
84.3591 234.587 l
88.0781 239.121 l
91.7972 243.474 l
95.5162 247.622 l
99.2353 251.542 l
102.954 255.203 l
106.673 258.635 l
110.392 261.868 l
117.831 267.956 l
128.988 277.025 l
136.426 283.072 l
140.145 285.942 l
143.864 288.617 l
147.583 291.034 l
151.302 293.144 l
155.021 294.922 l
158.74 296.364 l
162.459 297.52 l
166.178 298.482 l
173.616 300.112 l
184.774 302.314 l
195.931 304.258 l
203.369 305.308 l
210.807 306.03 l
214.526 306.213 l
218.245 306.221 l
221.964 306.017 l
225.683 305.553 l
229.402 304.764 l
233.121 303.572 l
236.84 301.88 l
240.559 299.572 l
244.278 296.509 l
247.997 292.402 l
251.717 287.117 l
255.436 280.408 l
259.155 271.974 l
262.874 261.454 l
266.593 248.43 l
270.312 232.518 l
274.031 213.922 l
277.75 196.092 l
281.469 188.903 l
285.188 190.709 l
296.345 201.57 l
303.783 208.425 l
314.94 218.261 l
329.817 231.016 l
344.693 243.505 l
355.85 252.666 l
363.288 258.614 l
370.726 264.335 l
378.164 269.726 l
385.603 274.713 l
393.041 279.301 l
400.479 283.576 l
411.636 289.685 l
419.074 293.56 l
422.793 295.206 l
445.107 304.03 l
452.546 307.446 l
459.984 311.194 l
463.703 312.775 l
467.422 313.593 l
474.86 314.779 l
482.298 315.711 l
489.736 316.429 l
500.893 317.219 l
512.05 317.747 l
519.489 317.931 l
526.927 317.914 l
530.646 317.791 l
534.365 317.555 l
538.084 317.157 l
541.803 316.522 l
545.522 315.531 l
549.241 313.998 l
552.96 311.639 l
552.96 311.639 l
stroke
grestore
2 setlinecap
[] 0 setdash
gsave
472.3 354.2 80.64 60.48 clipbox
80.64 279.797 m
84.3591 283.989 l
88.0781 287.936 l
91.7972 291.606 l
95.5162 294.974 l
99.2353 298.011 l
102.954 300.678 l
106.673 303.021 l
110.392 305.061 l
114.111 306.829 l
117.831 308.35 l
121.55 309.639 l
125.269 310.703 l
128.988 311.526 l
132.707 312.085 l
136.426 312.439 l
140.145 312.594 l
143.864 312.547 l
147.583 312.286 l
151.302 311.8 l
155.021 311.092 l
158.74 310.155 l
166.178 307.829 l
177.335 303.965 l
188.493 299.886 l
195.931 296.941 l
203.369 293.795 l
210.807 290.357 l
214.526 288.491 l
218.245 286.454 l
221.964 284.26 l
225.683 281.905 l
229.402 279.377 l
236.84 273.863 l
240.559 271.019 l
244.278 268.359 l
247.997 266.136 l
251.717 264.922 l
255.436 265.128 l
259.155 266.84 l
262.874 269.755 l
266.593 273.401 l
281.469 289.291 l
288.907 296.757 l
296.345 303.841 l
303.783 310.601 l
311.221 317.052 l
318.66 323.144 l
326.098 328.789 l
329.817 331.416 l
333.536 333.902 l
337.255 336.241 l
340.974 338.433 l
344.693 340.478 l
348.412 342.378 l
352.131 344.135 l
355.85 345.755 l
359.569 347.239 l
363.288 348.594 l
367.007 349.821 l
370.726 350.925 l
378.164 352.781 l
385.603 354.207 l
393.041 355.27 l
400.479 356.055 l
407.917 356.643 l
415.355 357.004 l
422.793 357.095 l
430.231 356.995 l
437.669 356.567 l
445.107 355.823 l
452.546 354.791 l
456.265 354.135 l
459.984 353.354 l
463.703 352.432 l
471.141 350.279 l
478.579 347.826 l
486.017 345.075 l
493.455 342.028 l
500.893 338.658 l
508.331 334.92 l
515.769 330.746 l
519.489 328.468 l
523.208 326.045 l
526.927 323.459 l
530.646 320.692 l
534.365 317.719 l
538.084 314.51 l
541.803 311.028 l
545.522 307.222 l
549.241 303.027 l
552.96 298.352 l
552.96 298.352 l
stroke
grestore
0 setlinecap
[1 3] 0 setdash
1.000 0.000 0.000 setrgbcolor
gsave
472.3 354.2 80.64 60.48 clipbox
367.8 -1 m
381.883 30.17 l
393.041 54.3642 l
400.479 69.9575 l
404.198 77.4665 l
407.917 84.6771 l
411.636 91.4505 l
415.355 97.5478 l
419.074 102.506 l
422.793 105.257 l
426.512 106.745 l
430.231 108.528 l
433.95 110.702 l
437.669 113.365 l
441.388 116.591 l
445.107 120.402 l
448.826 124.737 l
459.984 138.713 l
463.703 142.142 l
467.422 143.436 l
519.489 155.055 l
530.646 157.358 l
538.084 158.648 l
541.803 159.127 l
545.522 159.415 l
549.241 159.404 l
552.96 158.924 l
552.96 158.924 l
stroke
grestore
[3 5 1 5] 0 setdash
gsave
472.3 354.2 80.64 60.48 clipbox
344.323 -1 m
370.726 58.0065 l
385.603 90.8022 l
393.041 106.86 l
400.479 122.454 l
404.198 129.963 l
407.917 137.173 l
411.636 143.947 l
415.355 150.044 l
419.074 155.002 l
422.793 157.754 l
426.512 159.241 l
430.231 161.024 l
433.95 163.198 l
437.669 165.86 l
441.388 169.087 l
445.107 172.898 l
448.826 177.233 l
459.984 191.209 l
463.703 194.637 l
467.422 195.931 l
519.489 207.542 l
530.646 209.842 l
538.084 211.128 l
541.803 211.605 l
545.522 211.891 l
549.241 211.878 l
552.96 211.394 l
552.96 211.394 l
stroke
grestore
[6 6] 0 setdash
gsave
472.3 354.2 80.64 60.48 clipbox
80.64 229.014 m
84.3591 233.707 l
88.0781 238.242 l
91.7972 242.593 l
95.5162 246.74 l
99.2353 250.658 l
102.954 254.318 l
106.673 257.748 l
110.392 260.978 l
117.831 267.058 l
128.988 276.117 l
136.426 282.159 l
140.145 285.028 l
143.864 287.703 l
147.583 290.12 l
151.302 292.231 l
155.021 294.011 l
158.74 295.454 l
162.459 296.611 l
166.178 297.575 l
173.616 299.208 l
184.774 301.415 l
195.931 303.372 l
203.369 304.437 l
210.807 305.182 l
214.526 305.381 l
218.245 305.409 l
221.964 305.231 l
225.683 304.799 l
229.402 304.051 l
233.121 302.908 l
236.84 301.277 l
240.559 299.043 l
244.278 296.068 l
247.997 292.07 l
251.717 286.913 l
255.436 280.354 l
259.155 272.096 l
262.874 261.781 l
266.593 248.99 l
270.312 233.324 l
277.75 196.475 l
281.469 188.064 l
285.188 189.427 l
300.064 203.682 l
307.502 210.375 l
318.66 220.077 l
333.536 232.732 l
348.412 245.124 l
359.569 254.191 l
367.007 260.034 l
374.445 265.6 l
381.883 270.796 l
389.322 275.584 l
396.76 280.011 l
407.917 286.245 l
415.355 290.276 l
419.074 292.185 l
422.793 293.841 l
445.107 302.739 l
448.826 304.415 l
456.265 308.125 l
459.984 310.039 l
463.703 311.655 l
467.422 312.493 l
474.86 313.711 l
482.298 314.68 l
489.736 315.435 l
500.893 316.28 l
512.05 316.867 l
519.489 317.097 l
526.927 317.135 l
534.365 316.848 l
538.084 316.496 l
541.803 315.919 l
545.522 315.005 l
549.241 313.58 l
552.96 311.372 l
552.96 311.372 l
stroke
grestore
2 setlinecap
[] 0 setdash
gsave
472.3 354.2 80.64 60.48 clipbox
80.64 279.752 m
84.3591 283.943 l
88.0781 287.889 l
91.7972 291.558 l
95.5162 294.923 l
99.2353 297.959 l
102.954 300.623 l
106.673 302.963 l
110.392 305.001 l
114.111 306.766 l
117.831 308.284 l
121.55 309.571 l
125.269 310.634 l
128.988 311.456 l
132.707 312.016 l
136.426 312.369 l
140.145 312.526 l
143.864 312.482 l
147.583 312.226 l
151.302 311.746 l
155.021 311.044 l
158.74 310.114 l
166.178 307.798 l
177.335 303.943 l
188.493 299.877 l
195.931 296.943 l
203.369 293.811 l
210.807 290.391 l
214.526 288.538 l
218.245 286.515 l
221.964 284.338 l
225.683 282.003 l
229.402 279.499 l
236.84 274.039 l
240.559 271.221 l
244.278 268.579 l
247.997 266.355 l
251.717 265.112 l
255.436 265.262 l
259.155 266.908 l
262.874 269.769 l
266.593 273.38 l
285.188 293.025 l
292.626 300.292 l
300.064 307.208 l
307.502 313.816 l
314.94 320.098 l
322.379 325.98 l
329.817 331.369 l
333.536 333.856 l
337.255 336.196 l
340.974 338.389 l
344.693 340.435 l
348.412 342.336 l
352.131 344.095 l
355.85 345.716 l
359.569 347.203 l
363.288 348.56 l
367.007 349.79 l
370.726 350.897 l
378.164 352.762 l
385.603 354.199 l
393.041 355.274 l
400.479 356.072 l
407.917 356.675 l
415.355 357.053 l
422.793 357.162 l
430.231 357.081 l
437.669 356.677 l
445.107 355.957 l
452.546 354.951 l
456.265 354.31 l
459.984 353.548 l
463.703 352.648 l
471.141 350.532 l
478.579 348.116 l
486.017 345.408 l
493.455 342.403 l
500.893 339.082 l
508.331 335.4 l
515.769 331.291 l
519.489 329.05 l
523.208 326.667 l
526.927 324.126 l
530.646 321.409 l
534.365 318.491 l
538.084 315.345 l
541.803 311.935 l
545.522 308.213 l
549.241 304.117 l
552.96 299.564 l
552.96 299.564 l
stroke
grestore
0 setlinecap
0.000 setgray
gsave
/o {
gsave
newpath
translate
2.0 setlinewidth
1 setlinejoin
0 setlinecap
0 0 m
0 8 l
gsave
0.000 setgray
fill
grestore
stroke
grestore
} bind def
80.64 60.48 o
grestore
gsave
/o {
gsave
newpath
translate
2.0 setlinewidth
1 setlinejoin
0 setlinecap
0 0 m
0 -8 l
gsave
0.000 setgray
fill
grestore
stroke
grestore
} bind def
80.64 414.72 o
grestore
gsave
63.640000 43.386250 translate
0.000000 rotate
/BitstreamVeraSans-Roman findfont
14.0 scalefont
setfont
0.000000 0.376563 moveto
/one glyphshow

8.907227 0.376563 moveto
/zero glyphshow

/BitstreamVeraSans-Roman findfont
9.8 scalefont
setfont
17.814453 7.726563 moveto
/one glyphshow

24.049512 7.726563 moveto
/two glyphshow


grestore
gsave
/o {
gsave
newpath
translate
2.0 setlinewidth
1 setlinejoin
0 setlinecap
0 0 m
0 8 l
gsave
0.000 setgray
fill
grestore
stroke
grestore
} bind def
115.686 60.48 o
grestore
gsave
/o {
gsave
newpath
translate
2.0 setlinewidth
1 setlinejoin
0 setlinecap
0 0 m
0 -8 l
gsave
0.000 setgray
fill
grestore
stroke
grestore
} bind def
115.686 414.72 o
grestore
gsave
98.686060 43.386250 translate
0.000000 rotate
/BitstreamVeraSans-Roman findfont
14.0 scalefont
setfont
0.000000 0.376563 moveto
/one glyphshow

8.907227 0.376563 moveto
/zero glyphshow

/BitstreamVeraSans-Roman findfont
9.8 scalefont
setfont
17.814453 7.726563 moveto
/one glyphshow

24.049512 7.726563 moveto
/three glyphshow


grestore
gsave
/o {
gsave
newpath
translate
2.0 setlinewidth
1 setlinejoin
0 setlinecap
0 0 m
0 8 l
gsave
0.000 setgray
fill
grestore
stroke
grestore
} bind def
150.732 60.48 o
grestore
gsave
/o {
gsave
newpath
translate
2.0 setlinewidth
1 setlinejoin
0 setlinecap
0 0 m
0 -8 l
gsave
0.000 setgray
fill
grestore
stroke
grestore
} bind def
150.732 414.72 o
grestore
gsave
133.732120 43.386250 translate
0.000000 rotate
/BitstreamVeraSans-Roman findfont
14.0 scalefont
setfont
0.000000 0.507812 moveto
/one glyphshow

8.907227 0.507812 moveto
/zero glyphshow

/BitstreamVeraSans-Roman findfont
9.8 scalefont
setfont
17.814453 7.857813 moveto
/one glyphshow

24.049512 7.857813 moveto
/four glyphshow


grestore
gsave
/o {
gsave
newpath
translate
2.0 setlinewidth
1 setlinejoin
0 setlinecap
0 0 m
0 8 l
gsave
0.000 setgray
fill
grestore
stroke
grestore
} bind def
185.778 60.48 o
grestore
gsave
/o {
gsave
newpath
translate
2.0 setlinewidth
1 setlinejoin
0 setlinecap
0 0 m
0 -8 l
gsave
0.000 setgray
fill
grestore
stroke
grestore
} bind def
185.778 414.72 o
grestore
gsave
168.778180 43.386250 translate
0.000000 rotate
/BitstreamVeraSans-Roman findfont
14.0 scalefont
setfont
0.000000 0.507812 moveto
/one glyphshow

8.907227 0.507812 moveto
/zero glyphshow

/BitstreamVeraSans-Roman findfont
9.8 scalefont
setfont
17.814453 7.857813 moveto
/one glyphshow

24.049512 7.857813 moveto
/five glyphshow


grestore
gsave
/o {
gsave
newpath
translate
2.0 setlinewidth
1 setlinejoin
0 setlinecap
0 0 m
0 8 l
gsave
0.000 setgray
fill
grestore
stroke
grestore
} bind def
220.824 60.48 o
grestore
gsave
/o {
gsave
newpath
translate
2.0 setlinewidth
1 setlinejoin
0 setlinecap
0 0 m
0 -8 l
gsave
0.000 setgray
fill
grestore
stroke
grestore
} bind def
220.824 414.72 o
grestore
gsave
203.824240 43.386250 translate
0.000000 rotate
/BitstreamVeraSans-Roman findfont
14.0 scalefont
setfont
0.000000 0.376563 moveto
/one glyphshow

8.907227 0.376563 moveto
/zero glyphshow

/BitstreamVeraSans-Roman findfont
9.8 scalefont
setfont
17.814453 7.726563 moveto
/one glyphshow

24.049512 7.726563 moveto
/six glyphshow


grestore
gsave
/o {
gsave
newpath
translate
2.0 setlinewidth
1 setlinejoin
0 setlinecap
0 0 m
0 8 l
gsave
0.000 setgray
fill
grestore
stroke
grestore
} bind def
255.87 60.48 o
grestore
gsave
/o {
gsave
newpath
translate
2.0 setlinewidth
1 setlinejoin
0 setlinecap
0 0 m
0 -8 l
gsave
0.000 setgray
fill
grestore
stroke
grestore
} bind def
255.87 414.72 o
grestore
gsave
238.870300 43.386250 translate
0.000000 rotate
/BitstreamVeraSans-Roman findfont
14.0 scalefont
setfont
0.000000 0.507812 moveto
/one glyphshow

8.907227 0.507812 moveto
/zero glyphshow

/BitstreamVeraSans-Roman findfont
9.8 scalefont
setfont
17.814453 7.857813 moveto
/one glyphshow

24.049512 7.857813 moveto
/seven glyphshow


grestore
gsave
/o {
gsave
newpath
translate
2.0 setlinewidth
1 setlinejoin
0 setlinecap
0 0 m
0 8 l
gsave
0.000 setgray
fill
grestore
stroke
grestore
} bind def
290.916 60.48 o
grestore
gsave
/o {
gsave
newpath
translate
2.0 setlinewidth
1 setlinejoin
0 setlinecap
0 0 m
0 -8 l
gsave
0.000 setgray
fill
grestore
stroke
grestore
} bind def
290.916 414.72 o
grestore
gsave
273.916360 43.386250 translate
0.000000 rotate
/BitstreamVeraSans-Roman findfont
14.0 scalefont
setfont
0.000000 0.376563 moveto
/one glyphshow

8.907227 0.376563 moveto
/zero glyphshow

/BitstreamVeraSans-Roman findfont
9.8 scalefont
setfont
17.814453 7.726563 moveto
/one glyphshow

24.049512 7.726563 moveto
/eight glyphshow


grestore
gsave
/o {
gsave
newpath
translate
2.0 setlinewidth
1 setlinejoin
0 setlinecap
0 0 m
0 8 l
gsave
0.000 setgray
fill
grestore
stroke
grestore
} bind def
325.962 60.48 o
grestore
gsave
/o {
gsave
newpath
translate
2.0 setlinewidth
1 setlinejoin
0 setlinecap
0 0 m
0 -8 l
gsave
0.000 setgray
fill
grestore
stroke
grestore
} bind def
325.962 414.72 o
grestore
gsave
308.962420 43.386250 translate
0.000000 rotate
/BitstreamVeraSans-Roman findfont
14.0 scalefont
setfont
0.000000 0.376563 moveto
/one glyphshow

8.907227 0.376563 moveto
/zero glyphshow

/BitstreamVeraSans-Roman findfont
9.8 scalefont
setfont
17.814453 7.726563 moveto
/one glyphshow

24.049512 7.726563 moveto
/nine glyphshow


grestore
gsave
/o {
gsave
newpath
translate
2.0 setlinewidth
1 setlinejoin
0 setlinecap
0 0 m
0 8 l
gsave
0.000 setgray
fill
grestore
stroke
grestore
} bind def
361.008 60.48 o
grestore
gsave
/o {
gsave
newpath
translate
2.0 setlinewidth
1 setlinejoin
0 setlinecap
0 0 m
0 -8 l
gsave
0.000 setgray
fill
grestore
stroke
grestore
} bind def
361.008 414.72 o
grestore
gsave
344.008480 43.386250 translate
0.000000 rotate
/BitstreamVeraSans-Roman findfont
14.0 scalefont
setfont
0.000000 0.376563 moveto
/one glyphshow

8.907227 0.376563 moveto
/zero glyphshow

/BitstreamVeraSans-Roman findfont
9.8 scalefont
setfont
17.814453 7.726563 moveto
/two glyphshow

24.049512 7.726563 moveto
/zero glyphshow


grestore
gsave
/o {
gsave
newpath
translate
2.0 setlinewidth
1 setlinejoin
0 setlinecap
0 0 m
0 8 l
gsave
0.000 setgray
fill
grestore
stroke
grestore
} bind def
396.055 60.48 o
grestore
gsave
/o {
gsave
newpath
translate
2.0 setlinewidth
1 setlinejoin
0 setlinecap
0 0 m
0 -8 l
gsave
0.000 setgray
fill
grestore
stroke
grestore
} bind def
396.055 414.72 o
grestore
gsave
379.054540 43.386250 translate
0.000000 rotate
/BitstreamVeraSans-Roman findfont
14.0 scalefont
setfont
0.000000 0.376563 moveto
/one glyphshow

8.907227 0.376563 moveto
/zero glyphshow

/BitstreamVeraSans-Roman findfont
9.8 scalefont
setfont
17.814453 7.726563 moveto
/two glyphshow

24.049512 7.726563 moveto
/one glyphshow


grestore
gsave
/o {
gsave
newpath
translate
2.0 setlinewidth
1 setlinejoin
0 setlinecap
0 0 m
0 8 l
gsave
0.000 setgray
fill
grestore
stroke
grestore
} bind def
431.101 60.48 o
grestore
gsave
/o {
gsave
newpath
translate
2.0 setlinewidth
1 setlinejoin
0 setlinecap
0 0 m
0 -8 l
gsave
0.000 setgray
fill
grestore
stroke
grestore
} bind def
431.101 414.72 o
grestore
gsave
414.100600 43.386250 translate
0.000000 rotate
/BitstreamVeraSans-Roman findfont
14.0 scalefont
setfont
0.000000 0.376563 moveto
/one glyphshow

8.907227 0.376563 moveto
/zero glyphshow

/BitstreamVeraSans-Roman findfont
9.8 scalefont
setfont
17.814453 7.726563 moveto
/two glyphshow

24.049512 7.726563 moveto
/two glyphshow


grestore
gsave
/o {
gsave
newpath
translate
2.0 setlinewidth
1 setlinejoin
0 setlinecap
0 0 m
0 8 l
gsave
0.000 setgray
fill
grestore
stroke
grestore
} bind def
466.147 60.48 o
grestore
gsave
/o {
gsave
newpath
translate
2.0 setlinewidth
1 setlinejoin
0 setlinecap
0 0 m
0 -8 l
gsave
0.000 setgray
fill
grestore
stroke
grestore
} bind def
466.147 414.72 o
grestore
gsave
449.146660 43.386250 translate
0.000000 rotate
/BitstreamVeraSans-Roman findfont
14.0 scalefont
setfont
0.000000 0.376563 moveto
/one glyphshow

8.907227 0.376563 moveto
/zero glyphshow

/BitstreamVeraSans-Roman findfont
9.8 scalefont
setfont
17.814453 7.726563 moveto
/two glyphshow

24.049512 7.726563 moveto
/three glyphshow


grestore
gsave
/o {
gsave
newpath
translate
2.0 setlinewidth
1 setlinejoin
0 setlinecap
0 0 m
0 8 l
gsave
0.000 setgray
fill
grestore
stroke
grestore
} bind def
501.193 60.48 o
grestore
gsave
/o {
gsave
newpath
translate
2.0 setlinewidth
1 setlinejoin
0 setlinecap
0 0 m
0 -8 l
gsave
0.000 setgray
fill
grestore
stroke
grestore
} bind def
501.193 414.72 o
grestore
gsave
484.192720 43.386250 translate
0.000000 rotate
/BitstreamVeraSans-Roman findfont
14.0 scalefont
setfont
0.000000 0.376563 moveto
/one glyphshow

8.907227 0.376563 moveto
/zero glyphshow

/BitstreamVeraSans-Roman findfont
9.8 scalefont
setfont
17.814453 7.726563 moveto
/two glyphshow

24.049512 7.726563 moveto
/four glyphshow


grestore
gsave
/o {
gsave
newpath
translate
2.0 setlinewidth
1 setlinejoin
0 setlinecap
0 0 m
0 8 l
gsave
0.000 setgray
fill
grestore
stroke
grestore
} bind def
536.239 60.48 o
grestore
gsave
/o {
gsave
newpath
translate
2.0 setlinewidth
1 setlinejoin
0 setlinecap
0 0 m
0 -8 l
gsave
0.000 setgray
fill
grestore
stroke
grestore
} bind def
536.239 414.72 o
grestore
gsave
519.238780 43.386250 translate
0.000000 rotate
/BitstreamVeraSans-Roman findfont
14.0 scalefont
setfont
0.000000 0.376563 moveto
/one glyphshow

8.907227 0.376563 moveto
/zero glyphshow

/BitstreamVeraSans-Roman findfont
9.8 scalefont
setfont
17.814453 7.726563 moveto
/two glyphshow

24.049512 7.726563 moveto
/five glyphshow


grestore
gsave
/o {
gsave
newpath
translate
2.0 setlinewidth
1 setlinejoin
0 setlinecap
0 0 m
0 5 l
gsave
0.000 setgray
fill
grestore
stroke
grestore
} bind def
80.64 60.48 o
grestore
gsave
/o {
gsave
newpath
translate
2.0 setlinewidth
1 setlinejoin
0 setlinecap
0 0 m
0 -5 l
gsave
0.000 setgray
fill
grestore
stroke
grestore
} bind def
80.64 414.72 o
grestore
gsave
/o {
gsave
newpath
translate
2.0 setlinewidth
1 setlinejoin
0 setlinecap
0 0 m
0 5 l
gsave
0.000 setgray
fill
grestore
stroke
grestore
} bind def
115.686 60.48 o
grestore
gsave
/o {
gsave
newpath
translate
2.0 setlinewidth
1 setlinejoin
0 setlinecap
0 0 m
0 -5 l
gsave
0.000 setgray
fill
grestore
stroke
grestore
} bind def
115.686 414.72 o
grestore
gsave
/o {
gsave
newpath
translate
2.0 setlinewidth
1 setlinejoin
0 setlinecap
0 0 m
0 5 l
gsave
0.000 setgray
fill
grestore
stroke
grestore
} bind def
150.732 60.48 o
grestore
gsave
/o {
gsave
newpath
translate
2.0 setlinewidth
1 setlinejoin
0 setlinecap
0 0 m
0 -5 l
gsave
0.000 setgray
fill
grestore
stroke
grestore
} bind def
150.732 414.72 o
grestore
gsave
/o {
gsave
newpath
translate
2.0 setlinewidth
1 setlinejoin
0 setlinecap
0 0 m
0 5 l
gsave
0.000 setgray
fill
grestore
stroke
grestore
} bind def
185.778 60.48 o
grestore
gsave
/o {
gsave
newpath
translate
2.0 setlinewidth
1 setlinejoin
0 setlinecap
0 0 m
0 -5 l
gsave
0.000 setgray
fill
grestore
stroke
grestore
} bind def
185.778 414.72 o
grestore
gsave
/o {
gsave
newpath
translate
2.0 setlinewidth
1 setlinejoin
0 setlinecap
0 0 m
0 5 l
gsave
0.000 setgray
fill
grestore
stroke
grestore
} bind def
220.824 60.48 o
grestore
gsave
/o {
gsave
newpath
translate
2.0 setlinewidth
1 setlinejoin
0 setlinecap
0 0 m
0 -5 l
gsave
0.000 setgray
fill
grestore
stroke
grestore
} bind def
220.824 414.72 o
grestore
gsave
/o {
gsave
newpath
translate
2.0 setlinewidth
1 setlinejoin
0 setlinecap
0 0 m
0 5 l
gsave
0.000 setgray
fill
grestore
stroke
grestore
} bind def
255.87 60.48 o
grestore
gsave
/o {
gsave
newpath
translate
2.0 setlinewidth
1 setlinejoin
0 setlinecap
0 0 m
0 -5 l
gsave
0.000 setgray
fill
grestore
stroke
grestore
} bind def
255.87 414.72 o
grestore
gsave
/o {
gsave
newpath
translate
2.0 setlinewidth
1 setlinejoin
0 setlinecap
0 0 m
0 5 l
gsave
0.000 setgray
fill
grestore
stroke
grestore
} bind def
290.916 60.48 o
grestore
gsave
/o {
gsave
newpath
translate
2.0 setlinewidth
1 setlinejoin
0 setlinecap
0 0 m
0 -5 l
gsave
0.000 setgray
fill
grestore
stroke
grestore
} bind def
290.916 414.72 o
grestore
gsave
/o {
gsave
newpath
translate
2.0 setlinewidth
1 setlinejoin
0 setlinecap
0 0 m
0 5 l
gsave
0.000 setgray
fill
grestore
stroke
grestore
} bind def
325.962 60.48 o
grestore
gsave
/o {
gsave
newpath
translate
2.0 setlinewidth
1 setlinejoin
0 setlinecap
0 0 m
0 -5 l
gsave
0.000 setgray
fill
grestore
stroke
grestore
} bind def
325.962 414.72 o
grestore
gsave
/o {
gsave
newpath
translate
2.0 setlinewidth
1 setlinejoin
0 setlinecap
0 0 m
0 5 l
gsave
0.000 setgray
fill
grestore
stroke
grestore
} bind def
361.008 60.48 o
grestore
gsave
/o {
gsave
newpath
translate
2.0 setlinewidth
1 setlinejoin
0 setlinecap
0 0 m
0 -5 l
gsave
0.000 setgray
fill
grestore
stroke
grestore
} bind def
361.008 414.72 o
grestore
gsave
/o {
gsave
newpath
translate
2.0 setlinewidth
1 setlinejoin
0 setlinecap
0 0 m
0 5 l
gsave
0.000 setgray
fill
grestore
stroke
grestore
} bind def
396.055 60.48 o
grestore
gsave
/o {
gsave
newpath
translate
2.0 setlinewidth
1 setlinejoin
0 setlinecap
0 0 m
0 -5 l
gsave
0.000 setgray
fill
grestore
stroke
grestore
} bind def
396.055 414.72 o
grestore
gsave
/o {
gsave
newpath
translate
2.0 setlinewidth
1 setlinejoin
0 setlinecap
0 0 m
0 5 l
gsave
0.000 setgray
fill
grestore
stroke
grestore
} bind def
431.101 60.48 o
grestore
gsave
/o {
gsave
newpath
translate
2.0 setlinewidth
1 setlinejoin
0 setlinecap
0 0 m
0 -5 l
gsave
0.000 setgray
fill
grestore
stroke
grestore
} bind def
431.101 414.72 o
grestore
gsave
/o {
gsave
newpath
translate
2.0 setlinewidth
1 setlinejoin
0 setlinecap
0 0 m
0 5 l
gsave
0.000 setgray
fill
grestore
stroke
grestore
} bind def
466.147 60.48 o
grestore
gsave
/o {
gsave
newpath
translate
2.0 setlinewidth
1 setlinejoin
0 setlinecap
0 0 m
0 -5 l
gsave
0.000 setgray
fill
grestore
stroke
grestore
} bind def
466.147 414.72 o
grestore
gsave
/o {
gsave
newpath
translate
2.0 setlinewidth
1 setlinejoin
0 setlinecap
0 0 m
0 5 l
gsave
0.000 setgray
fill
grestore
stroke
grestore
} bind def
501.193 60.48 o
grestore
gsave
/o {
gsave
newpath
translate
2.0 setlinewidth
1 setlinejoin
0 setlinecap
0 0 m
0 -5 l
gsave
0.000 setgray
fill
grestore
stroke
grestore
} bind def
501.193 414.72 o
grestore
gsave
/o {
gsave
newpath
translate
2.0 setlinewidth
1 setlinejoin
0 setlinecap
0 0 m
0 5 l
gsave
0.000 setgray
fill
grestore
stroke
grestore
} bind def
536.239 60.48 o
grestore
gsave
/o {
gsave
newpath
translate
2.0 setlinewidth
1 setlinejoin
0 setlinecap
0 0 m
0 -5 l
gsave
0.000 setgray
fill
grestore
stroke
grestore
} bind def
536.239 414.72 o
grestore
gsave
282.300000 17.245625 translate
0.000000 rotate
/Cmmi10 findfont
24.0 scalefont
setfont
0.000000 0.765625 moveto
/nu glyphshow

/BitstreamVeraSans-Roman findfont
24.0 scalefont
setfont
11.859375 0.765625 moveto
/space glyphshow

19.488281 0.765625 moveto
/bracketleft glyphshow

28.101562 0.765625 moveto
/H glyphshow

46.148438 0.765625 moveto
/z glyphshow

58.746094 0.765625 moveto
/bracketright glyphshow


grestore
gsave
/o {
gsave
newpath
translate
2.0 setlinewidth
1 setlinejoin
0 setlinecap
0 0 m
8 0 l
gsave
0.000 setgray
fill
grestore
stroke
grestore
} bind def
80.64 60.48 o
grestore
gsave
/o {
gsave
newpath
translate
2.0 setlinewidth
1 setlinejoin
0 setlinecap
0 0 m
-8 0 l
gsave
0.000 setgray
fill
grestore
stroke
grestore
} bind def
552.96 60.48 o
grestore
gsave
49.640000 55.386250 translate
0.000000 rotate
/BitstreamVeraSans-Roman findfont
14.0 scalefont
setfont
0.000000 0.376563 moveto
/one glyphshow

8.907227 0.376563 moveto
/zero glyphshow

/BitstreamVeraSans-Roman findfont
9.8 scalefont
setfont
17.814453 7.726563 moveto
/six glyphshow


grestore
gsave
/o {
gsave
newpath
translate
2.0 setlinewidth
1 setlinejoin
0 setlinecap
0 0 m
8 0 l
gsave
0.000 setgray
fill
grestore
stroke
grestore
} bind def
80.64 99.84 o
grestore
gsave
/o {
gsave
newpath
translate
2.0 setlinewidth
1 setlinejoin
0 setlinecap
0 0 m
-8 0 l
gsave
0.000 setgray
fill
grestore
stroke
grestore
} bind def
552.96 99.84 o
grestore
gsave
49.640000 94.746250 translate
0.000000 rotate
/BitstreamVeraSans-Roman findfont
14.0 scalefont
setfont
0.000000 0.507812 moveto
/one glyphshow

8.907227 0.507812 moveto
/zero glyphshow

/BitstreamVeraSans-Roman findfont
9.8 scalefont
setfont
17.814453 7.857813 moveto
/seven glyphshow


grestore
gsave
/o {
gsave
newpath
translate
2.0 setlinewidth
1 setlinejoin
0 setlinecap
0 0 m
8 0 l
gsave
0.000 setgray
fill
grestore
stroke
grestore
} bind def
80.64 139.2 o
grestore
gsave
/o {
gsave
newpath
translate
2.0 setlinewidth
1 setlinejoin
0 setlinecap
0 0 m
-8 0 l
gsave
0.000 setgray
fill
grestore
stroke
grestore
} bind def
552.96 139.2 o
grestore
gsave
49.640000 134.106250 translate
0.000000 rotate
/BitstreamVeraSans-Roman findfont
14.0 scalefont
setfont
0.000000 0.376563 moveto
/one glyphshow

8.907227 0.376563 moveto
/zero glyphshow

/BitstreamVeraSans-Roman findfont
9.8 scalefont
setfont
17.814453 7.726563 moveto
/eight glyphshow


grestore
gsave
/o {
gsave
newpath
translate
2.0 setlinewidth
1 setlinejoin
0 setlinecap
0 0 m
8 0 l
gsave
0.000 setgray
fill
grestore
stroke
grestore
} bind def
80.64 178.56 o
grestore
gsave
/o {
gsave
newpath
translate
2.0 setlinewidth
1 setlinejoin
0 setlinecap
0 0 m
-8 0 l
gsave
0.000 setgray
fill
grestore
stroke
grestore
} bind def
552.96 178.56 o
grestore
gsave
49.640000 173.466250 translate
0.000000 rotate
/BitstreamVeraSans-Roman findfont
14.0 scalefont
setfont
0.000000 0.376563 moveto
/one glyphshow

8.907227 0.376563 moveto
/zero glyphshow

/BitstreamVeraSans-Roman findfont
9.8 scalefont
setfont
17.814453 7.726563 moveto
/nine glyphshow


grestore
gsave
/o {
gsave
newpath
translate
2.0 setlinewidth
1 setlinejoin
0 setlinecap
0 0 m
8 0 l
gsave
0.000 setgray
fill
grestore
stroke
grestore
} bind def
80.64 217.92 o
grestore
gsave
/o {
gsave
newpath
translate
2.0 setlinewidth
1 setlinejoin
0 setlinecap
0 0 m
-8 0 l
gsave
0.000 setgray
fill
grestore
stroke
grestore
} bind def
552.96 217.92 o
grestore
gsave
42.640000 212.826250 translate
0.000000 rotate
/BitstreamVeraSans-Roman findfont
14.0 scalefont
setfont
0.000000 0.376563 moveto
/one glyphshow

8.907227 0.376563 moveto
/zero glyphshow

/BitstreamVeraSans-Roman findfont
9.8 scalefont
setfont
17.814453 7.726563 moveto
/one glyphshow

24.049512 7.726563 moveto
/zero glyphshow


grestore
gsave
/o {
gsave
newpath
translate
2.0 setlinewidth
1 setlinejoin
0 setlinecap
0 0 m
8 0 l
gsave
0.000 setgray
fill
grestore
stroke
grestore
} bind def
80.64 257.28 o
grestore
gsave
/o {
gsave
newpath
translate
2.0 setlinewidth
1 setlinejoin
0 setlinecap
0 0 m
-8 0 l
gsave
0.000 setgray
fill
grestore
stroke
grestore
} bind def
552.96 257.28 o
grestore
gsave
42.640000 252.186250 translate
0.000000 rotate
/BitstreamVeraSans-Roman findfont
14.0 scalefont
setfont
0.000000 0.507812 moveto
/one glyphshow

8.907227 0.507812 moveto
/zero glyphshow

/BitstreamVeraSans-Roman findfont
9.8 scalefont
setfont
17.814453 7.857813 moveto
/one glyphshow

24.049512 7.857813 moveto
/one glyphshow


grestore
gsave
/o {
gsave
newpath
translate
2.0 setlinewidth
1 setlinejoin
0 setlinecap
0 0 m
8 0 l
gsave
0.000 setgray
fill
grestore
stroke
grestore
} bind def
80.64 296.64 o
grestore
gsave
/o {
gsave
newpath
translate
2.0 setlinewidth
1 setlinejoin
0 setlinecap
0 0 m
-8 0 l
gsave
0.000 setgray
fill
grestore
stroke
grestore
} bind def
552.96 296.64 o
grestore
gsave
42.640000 291.546250 translate
0.000000 rotate
/BitstreamVeraSans-Roman findfont
14.0 scalefont
setfont
0.000000 0.376563 moveto
/one glyphshow

8.907227 0.376563 moveto
/zero glyphshow

/BitstreamVeraSans-Roman findfont
9.8 scalefont
setfont
17.814453 7.726563 moveto
/one glyphshow

24.049512 7.726563 moveto
/two glyphshow


grestore
gsave
/o {
gsave
newpath
translate
2.0 setlinewidth
1 setlinejoin
0 setlinecap
0 0 m
8 0 l
gsave
0.000 setgray
fill
grestore
stroke
grestore
} bind def
80.64 336 o
grestore
gsave
/o {
gsave
newpath
translate
2.0 setlinewidth
1 setlinejoin
0 setlinecap
0 0 m
-8 0 l
gsave
0.000 setgray
fill
grestore
stroke
grestore
} bind def
552.96 336 o
grestore
gsave
42.640000 330.906250 translate
0.000000 rotate
/BitstreamVeraSans-Roman findfont
14.0 scalefont
setfont
0.000000 0.376563 moveto
/one glyphshow

8.907227 0.376563 moveto
/zero glyphshow

/BitstreamVeraSans-Roman findfont
9.8 scalefont
setfont
17.814453 7.726563 moveto
/one glyphshow

24.049512 7.726563 moveto
/three glyphshow


grestore
gsave
/o {
gsave
newpath
translate
2.0 setlinewidth
1 setlinejoin
0 setlinecap
0 0 m
8 0 l
gsave
0.000 setgray
fill
grestore
stroke
grestore
} bind def
80.64 375.36 o
grestore
gsave
/o {
gsave
newpath
translate
2.0 setlinewidth
1 setlinejoin
0 setlinecap
0 0 m
-8 0 l
gsave
0.000 setgray
fill
grestore
stroke
grestore
} bind def
552.96 375.36 o
grestore
gsave
42.640000 370.266250 translate
0.000000 rotate
/BitstreamVeraSans-Roman findfont
14.0 scalefont
setfont
0.000000 0.507812 moveto
/one glyphshow

8.907227 0.507812 moveto
/zero glyphshow

/BitstreamVeraSans-Roman findfont
9.8 scalefont
setfont
17.814453 7.857813 moveto
/one glyphshow

24.049512 7.857813 moveto
/four glyphshow


grestore
gsave
/o {
gsave
newpath
translate
2.0 setlinewidth
1 setlinejoin
0 setlinecap
0 0 m
8 0 l
gsave
0.000 setgray
fill
grestore
stroke
grestore
} bind def
80.64 414.72 o
grestore
gsave
/o {
gsave
newpath
translate
2.0 setlinewidth
1 setlinejoin
0 setlinecap
0 0 m
-8 0 l
gsave
0.000 setgray
fill
grestore
stroke
grestore
} bind def
552.96 414.72 o
grestore
gsave
42.640000 409.626250 translate
0.000000 rotate
/BitstreamVeraSans-Roman findfont
14.0 scalefont
setfont
0.000000 0.507812 moveto
/one glyphshow

8.907227 0.507812 moveto
/zero glyphshow

/BitstreamVeraSans-Roman findfont
9.8 scalefont
setfont
17.814453 7.857813 moveto
/one glyphshow

24.049512 7.857813 moveto
/five glyphshow


grestore
gsave
/o {
gsave
newpath
translate
2.0 setlinewidth
1 setlinejoin
0 setlinecap
0 0 m
5 0 l
gsave
0.000 setgray
fill
grestore
stroke
grestore
} bind def
80.64 72.3285 o
grestore
gsave
/o {
gsave
newpath
translate
2.0 setlinewidth
1 setlinejoin
0 setlinecap
0 0 m
-5 0 l
gsave
0.000 setgray
fill
grestore
stroke
grestore
} bind def
552.96 72.3285 o
grestore
gsave
/o {
gsave
newpath
translate
2.0 setlinewidth
1 setlinejoin
0 setlinecap
0 0 m
5 0 l
gsave
0.000 setgray
fill
grestore
stroke
grestore
} bind def
80.64 84.1771 o
grestore
gsave
/o {
gsave
newpath
translate
2.0 setlinewidth
1 setlinejoin
0 setlinecap
0 0 m
-5 0 l
gsave
0.000 setgray
fill
grestore
stroke
grestore
} bind def
552.96 84.1771 o
grestore
gsave
/o {
gsave
newpath
translate
2.0 setlinewidth
1 setlinejoin
0 setlinecap
0 0 m
5 0 l
gsave
0.000 setgray
fill
grestore
stroke
grestore
} bind def
80.64 91.108 o
grestore
gsave
/o {
gsave
newpath
translate
2.0 setlinewidth
1 setlinejoin
0 setlinecap
0 0 m
-5 0 l
gsave
0.000 setgray
fill
grestore
stroke
grestore
} bind def
552.96 91.108 o
grestore
gsave
/o {
gsave
newpath
translate
2.0 setlinewidth
1 setlinejoin
0 setlinecap
0 0 m
5 0 l
gsave
0.000 setgray
fill
grestore
stroke
grestore
} bind def
80.64 96.0256 o
grestore
gsave
/o {
gsave
newpath
translate
2.0 setlinewidth
1 setlinejoin
0 setlinecap
0 0 m
-5 0 l
gsave
0.000 setgray
fill
grestore
stroke
grestore
} bind def
552.96 96.0256 o
grestore
gsave
/o {
gsave
newpath
translate
2.0 setlinewidth
1 setlinejoin
0 setlinecap
0 0 m
5 0 l
gsave
0.000 setgray
fill
grestore
stroke
grestore
} bind def
80.64 111.689 o
grestore
gsave
/o {
gsave
newpath
translate
2.0 setlinewidth
1 setlinejoin
0 setlinecap
0 0 m
-5 0 l
gsave
0.000 setgray
fill
grestore
stroke
grestore
} bind def
552.96 111.689 o
grestore
gsave
/o {
gsave
newpath
translate
2.0 setlinewidth
1 setlinejoin
0 setlinecap
0 0 m
5 0 l
gsave
0.000 setgray
fill
grestore
stroke
grestore
} bind def
80.64 123.537 o
grestore
gsave
/o {
gsave
newpath
translate
2.0 setlinewidth
1 setlinejoin
0 setlinecap
0 0 m
-5 0 l
gsave
0.000 setgray
fill
grestore
stroke
grestore
} bind def
552.96 123.537 o
grestore
gsave
/o {
gsave
newpath
translate
2.0 setlinewidth
1 setlinejoin
0 setlinecap
0 0 m
5 0 l
gsave
0.000 setgray
fill
grestore
stroke
grestore
} bind def
80.64 130.468 o
grestore
gsave
/o {
gsave
newpath
translate
2.0 setlinewidth
1 setlinejoin
0 setlinecap
0 0 m
-5 0 l
gsave
0.000 setgray
fill
grestore
stroke
grestore
} bind def
552.96 130.468 o
grestore
gsave
/o {
gsave
newpath
translate
2.0 setlinewidth
1 setlinejoin
0 setlinecap
0 0 m
5 0 l
gsave
0.000 setgray
fill
grestore
stroke
grestore
} bind def
80.64 135.386 o
grestore
gsave
/o {
gsave
newpath
translate
2.0 setlinewidth
1 setlinejoin
0 setlinecap
0 0 m
-5 0 l
gsave
0.000 setgray
fill
grestore
stroke
grestore
} bind def
552.96 135.386 o
grestore
gsave
/o {
gsave
newpath
translate
2.0 setlinewidth
1 setlinejoin
0 setlinecap
0 0 m
5 0 l
gsave
0.000 setgray
fill
grestore
stroke
grestore
} bind def
80.64 151.049 o
grestore
gsave
/o {
gsave
newpath
translate
2.0 setlinewidth
1 setlinejoin
0 setlinecap
0 0 m
-5 0 l
gsave
0.000 setgray
fill
grestore
stroke
grestore
} bind def
552.96 151.049 o
grestore
gsave
/o {
gsave
newpath
translate
2.0 setlinewidth
1 setlinejoin
0 setlinecap
0 0 m
5 0 l
gsave
0.000 setgray
fill
grestore
stroke
grestore
} bind def
80.64 162.897 o
grestore
gsave
/o {
gsave
newpath
translate
2.0 setlinewidth
1 setlinejoin
0 setlinecap
0 0 m
-5 0 l
gsave
0.000 setgray
fill
grestore
stroke
grestore
} bind def
552.96 162.897 o
grestore
gsave
/o {
gsave
newpath
translate
2.0 setlinewidth
1 setlinejoin
0 setlinecap
0 0 m
5 0 l
gsave
0.000 setgray
fill
grestore
stroke
grestore
} bind def
80.64 169.828 o
grestore
gsave
/o {
gsave
newpath
translate
2.0 setlinewidth
1 setlinejoin
0 setlinecap
0 0 m
-5 0 l
gsave
0.000 setgray
fill
grestore
stroke
grestore
} bind def
552.96 169.828 o
grestore
gsave
/o {
gsave
newpath
translate
2.0 setlinewidth
1 setlinejoin
0 setlinecap
0 0 m
5 0 l
gsave
0.000 setgray
fill
grestore
stroke
grestore
} bind def
80.64 174.746 o
grestore
gsave
/o {
gsave
newpath
translate
2.0 setlinewidth
1 setlinejoin
0 setlinecap
0 0 m
-5 0 l
gsave
0.000 setgray
fill
grestore
stroke
grestore
} bind def
552.96 174.746 o
grestore
gsave
/o {
gsave
newpath
translate
2.0 setlinewidth
1 setlinejoin
0 setlinecap
0 0 m
5 0 l
gsave
0.000 setgray
fill
grestore
stroke
grestore
} bind def
80.64 190.409 o
grestore
gsave
/o {
gsave
newpath
translate
2.0 setlinewidth
1 setlinejoin
0 setlinecap
0 0 m
-5 0 l
gsave
0.000 setgray
fill
grestore
stroke
grestore
} bind def
552.96 190.409 o
grestore
gsave
/o {
gsave
newpath
translate
2.0 setlinewidth
1 setlinejoin
0 setlinecap
0 0 m
5 0 l
gsave
0.000 setgray
fill
grestore
stroke
grestore
} bind def
80.64 202.257 o
grestore
gsave
/o {
gsave
newpath
translate
2.0 setlinewidth
1 setlinejoin
0 setlinecap
0 0 m
-5 0 l
gsave
0.000 setgray
fill
grestore
stroke
grestore
} bind def
552.96 202.257 o
grestore
gsave
/o {
gsave
newpath
translate
2.0 setlinewidth
1 setlinejoin
0 setlinecap
0 0 m
5 0 l
gsave
0.000 setgray
fill
grestore
stroke
grestore
} bind def
80.64 209.188 o
grestore
gsave
/o {
gsave
newpath
translate
2.0 setlinewidth
1 setlinejoin
0 setlinecap
0 0 m
-5 0 l
gsave
0.000 setgray
fill
grestore
stroke
grestore
} bind def
552.96 209.188 o
grestore
gsave
/o {
gsave
newpath
translate
2.0 setlinewidth
1 setlinejoin
0 setlinecap
0 0 m
5 0 l
gsave
0.000 setgray
fill
grestore
stroke
grestore
} bind def
80.64 214.106 o
grestore
gsave
/o {
gsave
newpath
translate
2.0 setlinewidth
1 setlinejoin
0 setlinecap
0 0 m
-5 0 l
gsave
0.000 setgray
fill
grestore
stroke
grestore
} bind def
552.96 214.106 o
grestore
gsave
/o {
gsave
newpath
translate
2.0 setlinewidth
1 setlinejoin
0 setlinecap
0 0 m
5 0 l
gsave
0.000 setgray
fill
grestore
stroke
grestore
} bind def
80.64 229.769 o
grestore
gsave
/o {
gsave
newpath
translate
2.0 setlinewidth
1 setlinejoin
0 setlinecap
0 0 m
-5 0 l
gsave
0.000 setgray
fill
grestore
stroke
grestore
} bind def
552.96 229.769 o
grestore
gsave
/o {
gsave
newpath
translate
2.0 setlinewidth
1 setlinejoin
0 setlinecap
0 0 m
5 0 l
gsave
0.000 setgray
fill
grestore
stroke
grestore
} bind def
80.64 241.617 o
grestore
gsave
/o {
gsave
newpath
translate
2.0 setlinewidth
1 setlinejoin
0 setlinecap
0 0 m
-5 0 l
gsave
0.000 setgray
fill
grestore
stroke
grestore
} bind def
552.96 241.617 o
grestore
gsave
/o {
gsave
newpath
translate
2.0 setlinewidth
1 setlinejoin
0 setlinecap
0 0 m
5 0 l
gsave
0.000 setgray
fill
grestore
stroke
grestore
} bind def
80.64 248.548 o
grestore
gsave
/o {
gsave
newpath
translate
2.0 setlinewidth
1 setlinejoin
0 setlinecap
0 0 m
-5 0 l
gsave
0.000 setgray
fill
grestore
stroke
grestore
} bind def
552.96 248.548 o
grestore
gsave
/o {
gsave
newpath
translate
2.0 setlinewidth
1 setlinejoin
0 setlinecap
0 0 m
5 0 l
gsave
0.000 setgray
fill
grestore
stroke
grestore
} bind def
80.64 253.466 o
grestore
gsave
/o {
gsave
newpath
translate
2.0 setlinewidth
1 setlinejoin
0 setlinecap
0 0 m
-5 0 l
gsave
0.000 setgray
fill
grestore
stroke
grestore
} bind def
552.96 253.466 o
grestore
gsave
/o {
gsave
newpath
translate
2.0 setlinewidth
1 setlinejoin
0 setlinecap
0 0 m
5 0 l
gsave
0.000 setgray
fill
grestore
stroke
grestore
} bind def
80.64 269.129 o
grestore
gsave
/o {
gsave
newpath
translate
2.0 setlinewidth
1 setlinejoin
0 setlinecap
0 0 m
-5 0 l
gsave
0.000 setgray
fill
grestore
stroke
grestore
} bind def
552.96 269.129 o
grestore
gsave
/o {
gsave
newpath
translate
2.0 setlinewidth
1 setlinejoin
0 setlinecap
0 0 m
5 0 l
gsave
0.000 setgray
fill
grestore
stroke
grestore
} bind def
80.64 280.977 o
grestore
gsave
/o {
gsave
newpath
translate
2.0 setlinewidth
1 setlinejoin
0 setlinecap
0 0 m
-5 0 l
gsave
0.000 setgray
fill
grestore
stroke
grestore
} bind def
552.96 280.977 o
grestore
gsave
/o {
gsave
newpath
translate
2.0 setlinewidth
1 setlinejoin
0 setlinecap
0 0 m
5 0 l
gsave
0.000 setgray
fill
grestore
stroke
grestore
} bind def
80.64 287.908 o
grestore
gsave
/o {
gsave
newpath
translate
2.0 setlinewidth
1 setlinejoin
0 setlinecap
0 0 m
-5 0 l
gsave
0.000 setgray
fill
grestore
stroke
grestore
} bind def
552.96 287.908 o
grestore
gsave
/o {
gsave
newpath
translate
2.0 setlinewidth
1 setlinejoin
0 setlinecap
0 0 m
5 0 l
gsave
0.000 setgray
fill
grestore
stroke
grestore
} bind def
80.64 292.826 o
grestore
gsave
/o {
gsave
newpath
translate
2.0 setlinewidth
1 setlinejoin
0 setlinecap
0 0 m
-5 0 l
gsave
0.000 setgray
fill
grestore
stroke
grestore
} bind def
552.96 292.826 o
grestore
gsave
/o {
gsave
newpath
translate
2.0 setlinewidth
1 setlinejoin
0 setlinecap
0 0 m
5 0 l
gsave
0.000 setgray
fill
grestore
stroke
grestore
} bind def
80.64 308.489 o
grestore
gsave
/o {
gsave
newpath
translate
2.0 setlinewidth
1 setlinejoin
0 setlinecap
0 0 m
-5 0 l
gsave
0.000 setgray
fill
grestore
stroke
grestore
} bind def
552.96 308.489 o
grestore
gsave
/o {
gsave
newpath
translate
2.0 setlinewidth
1 setlinejoin
0 setlinecap
0 0 m
5 0 l
gsave
0.000 setgray
fill
grestore
stroke
grestore
} bind def
80.64 320.337 o
grestore
gsave
/o {
gsave
newpath
translate
2.0 setlinewidth
1 setlinejoin
0 setlinecap
0 0 m
-5 0 l
gsave
0.000 setgray
fill
grestore
stroke
grestore
} bind def
552.96 320.337 o
grestore
gsave
/o {
gsave
newpath
translate
2.0 setlinewidth
1 setlinejoin
0 setlinecap
0 0 m
5 0 l
gsave
0.000 setgray
fill
grestore
stroke
grestore
} bind def
80.64 327.268 o
grestore
gsave
/o {
gsave
newpath
translate
2.0 setlinewidth
1 setlinejoin
0 setlinecap
0 0 m
-5 0 l
gsave
0.000 setgray
fill
grestore
stroke
grestore
} bind def
552.96 327.268 o
grestore
gsave
/o {
gsave
newpath
translate
2.0 setlinewidth
1 setlinejoin
0 setlinecap
0 0 m
5 0 l
gsave
0.000 setgray
fill
grestore
stroke
grestore
} bind def
80.64 332.186 o
grestore
gsave
/o {
gsave
newpath
translate
2.0 setlinewidth
1 setlinejoin
0 setlinecap
0 0 m
-5 0 l
gsave
0.000 setgray
fill
grestore
stroke
grestore
} bind def
552.96 332.186 o
grestore
gsave
/o {
gsave
newpath
translate
2.0 setlinewidth
1 setlinejoin
0 setlinecap
0 0 m
5 0 l
gsave
0.000 setgray
fill
grestore
stroke
grestore
} bind def
80.64 347.849 o
grestore
gsave
/o {
gsave
newpath
translate
2.0 setlinewidth
1 setlinejoin
0 setlinecap
0 0 m
-5 0 l
gsave
0.000 setgray
fill
grestore
stroke
grestore
} bind def
552.96 347.849 o
grestore
gsave
/o {
gsave
newpath
translate
2.0 setlinewidth
1 setlinejoin
0 setlinecap
0 0 m
5 0 l
gsave
0.000 setgray
fill
grestore
stroke
grestore
} bind def
80.64 359.697 o
grestore
gsave
/o {
gsave
newpath
translate
2.0 setlinewidth
1 setlinejoin
0 setlinecap
0 0 m
-5 0 l
gsave
0.000 setgray
fill
grestore
stroke
grestore
} bind def
552.96 359.697 o
grestore
gsave
/o {
gsave
newpath
translate
2.0 setlinewidth
1 setlinejoin
0 setlinecap
0 0 m
5 0 l
gsave
0.000 setgray
fill
grestore
stroke
grestore
} bind def
80.64 366.628 o
grestore
gsave
/o {
gsave
newpath
translate
2.0 setlinewidth
1 setlinejoin
0 setlinecap
0 0 m
-5 0 l
gsave
0.000 setgray
fill
grestore
stroke
grestore
} bind def
552.96 366.628 o
grestore
gsave
/o {
gsave
newpath
translate
2.0 setlinewidth
1 setlinejoin
0 setlinecap
0 0 m
5 0 l
gsave
0.000 setgray
fill
grestore
stroke
grestore
} bind def
80.64 371.546 o
grestore
gsave
/o {
gsave
newpath
translate
2.0 setlinewidth
1 setlinejoin
0 setlinecap
0 0 m
-5 0 l
gsave
0.000 setgray
fill
grestore
stroke
grestore
} bind def
552.96 371.546 o
grestore
gsave
/o {
gsave
newpath
translate
2.0 setlinewidth
1 setlinejoin
0 setlinecap
0 0 m
5 0 l
gsave
0.000 setgray
fill
grestore
stroke
grestore
} bind def
80.64 387.209 o
grestore
gsave
/o {
gsave
newpath
translate
2.0 setlinewidth
1 setlinejoin
0 setlinecap
0 0 m
-5 0 l
gsave
0.000 setgray
fill
grestore
stroke
grestore
} bind def
552.96 387.209 o
grestore
gsave
/o {
gsave
newpath
translate
2.0 setlinewidth
1 setlinejoin
0 setlinecap
0 0 m
5 0 l
gsave
0.000 setgray
fill
grestore
stroke
grestore
} bind def
80.64 399.057 o
grestore
gsave
/o {
gsave
newpath
translate
2.0 setlinewidth
1 setlinejoin
0 setlinecap
0 0 m
-5 0 l
gsave
0.000 setgray
fill
grestore
stroke
grestore
} bind def
552.96 399.057 o
grestore
gsave
/o {
gsave
newpath
translate
2.0 setlinewidth
1 setlinejoin
0 setlinecap
0 0 m
5 0 l
gsave
0.000 setgray
fill
grestore
stroke
grestore
} bind def
80.64 405.988 o
grestore
gsave
/o {
gsave
newpath
translate
2.0 setlinewidth
1 setlinejoin
0 setlinecap
0 0 m
-5 0 l
gsave
0.000 setgray
fill
grestore
stroke
grestore
} bind def
552.96 405.988 o
grestore
gsave
/o {
gsave
newpath
translate
2.0 setlinewidth
1 setlinejoin
0 setlinecap
0 0 m
5 0 l
gsave
0.000 setgray
fill
grestore
stroke
grestore
} bind def
80.64 410.906 o
grestore
gsave
/o {
gsave
newpath
translate
2.0 setlinewidth
1 setlinejoin
0 setlinecap
0 0 m
-5 0 l
gsave
0.000 setgray
fill
grestore
stroke
grestore
} bind def
552.96 410.906 o
grestore
gsave
30.640000 173.100000 translate
90.000000 rotate
/Cmmi10 findfont
24.0 scalefont
setfont
0.000000 0.765625 moveto
/nu glyphshow

/Cmss10 findfont
24.0 scalefont
setfont
20.287500 0.765625 moveto
/F glyphshow

/Cmmi10 findfont
16.8 scalefont
setfont
33.939844 -5.356625 moveto
/nu glyphshow

/BitstreamVeraSans-Roman findfont
24.0 scalefont
setfont
42.241406 0.765625 moveto
/space glyphshow

49.870312 0.765625 moveto
/bracketleft glyphshow

59.233594 0.765625 moveto
/J glyphshow

66.311719 0.765625 moveto
/y glyphshow

80.514844 0.765625 moveto
/space glyphshow

88.143750 0.765625 moveto
/H glyphshow

106.190625 0.765625 moveto
/z glyphshow

118.788281 0.765625 moveto
/bracketright glyphshow


grestore
3.000 setlinewidth
gsave
80.64 414.72 m
552.96 414.72 l
stroke
grestore
gsave
552.96 60.48 m
552.96 414.72 l
stroke
grestore
gsave
80.64 60.48 m
552.96 60.48 l
stroke
grestore
gsave
80.64 60.48 m
80.64 414.72 l
stroke
grestore
1.000 setlinewidth
gsave
87.64 335.52 m
199.04 335.52 l
199.04 407.72 l
87.64 407.72 l
87.64 335.52 l
cl
gsave
1.000 setgray
fill
grestore
stroke
grestore
2.000 setlinewidth
2 setlinecap
0.000 0.000 1.000 setrgbcolor
gsave
97.44 396.02 m
117.04 396.02 l
stroke
grestore
0.000 setgray
gsave
132.440000 391.120000 translate
0.000000 rotate
/Cmr10 findfont
14.0 scalefont
setfont
0.000000 0.984375 moveto
/Delta glyphshow

/Cmmi10 findfont
9.8 scalefont
setfont
11.662109 -2.586937 moveto
/a glyphshow

16.834863 -2.586937 moveto
/c glyphshow

21.069727 -2.586937 moveto
/c glyphshow

/Cmr10 findfont
14.0 scalefont
setfont
27.762793 0.984375 moveto
/equal glyphshow

39.517871 0.984375 moveto
/one glyphshow

46.517871 0.984375 moveto
/zero glyphshow


grestore
0.000 0.500 0.000 setrgbcolor
gsave
97.44 374.02 m
117.04 374.02 l
stroke
grestore
0.000 setgray
gsave
132.440000 369.120000 translate
0.000000 rotate
/Cmr10 findfont
14.0 scalefont
setfont
0.000000 0.984375 moveto
/Delta glyphshow

/Cmmi10 findfont
9.8 scalefont
setfont
11.662109 -2.586937 moveto
/a glyphshow

16.834863 -2.586937 moveto
/c glyphshow

21.069727 -2.586937 moveto
/c glyphshow

/Cmr10 findfont
14.0 scalefont
setfont
27.762793 0.984375 moveto
/equal glyphshow

39.517871 0.984375 moveto
/one glyphshow

46.517871 0.984375 moveto
/zero glyphshow

53.517871 0.984375 moveto
/zero glyphshow


grestore
1.000 0.000 0.000 setrgbcolor
gsave
97.44 350.02 m
117.04 350.02 l
stroke
grestore
0.000 setgray
gsave
132.440000 345.120000 translate
0.000000 rotate
/Cmr10 findfont
14.0 scalefont
setfont
0.000000 0.518125 moveto
/Delta glyphshow

/Cmmi10 findfont
9.8 scalefont
setfont
11.662109 -3.053187 moveto
/a glyphshow

16.834863 -3.053187 moveto
/c glyphshow

21.069727 -3.053187 moveto
/c glyphshow

/Cmr10 findfont
14.0 scalefont
setfont
27.762793 0.518125 moveto
/equal glyphshow

39.517871 0.518125 moveto
/one glyphshow

46.517871 0.518125 moveto
/zero glyphshow

/Cmr10 findfont
9.8 scalefont
setfont
53.517871 6.470313 moveto
/three glyphshow


grestore
1.000 setlinewidth
0 setlinecap
gsave
87.64 67.48 m
233.04 67.48 l
233.04 154.774 l
87.64 154.774 l
87.64 67.48 l
cl
gsave
1.000 setgray
fill
grestore
stroke
grestore
2.000 setlinewidth
[1 3] 0 setdash
gsave
97.44 143.433 m
117.04 143.433 l
stroke
grestore
gsave
132.440000 138.533125 translate
0.000000 rotate
/Cmmi10 findfont
14.0 scalefont
setfont
0.000000 0.671875 moveto
/t glyphshow

/Cmr10 findfont
14.0 scalefont
setfont
7.509961 0.671875 moveto
/equal glyphshow

19.265039 0.671875 moveto
/three glyphshow

/Cmmi10 findfont
14.0 scalefont
setfont
26.265039 0.671875 moveto
/period glyphshow

/Cmr10 findfont
14.0 scalefont
setfont
30.254492 0.671875 moveto
/zero glyphshow

37.254492 0.671875 moveto
/one glyphshow

44.254492 0.671875 moveto
/eight glyphshow

56.170898 0.671875 moveto
/s glyphshow


grestore
[3 5 1 5] 0 setdash
gsave
97.44 122.886 m
117.04 122.886 l
stroke
grestore
gsave
132.440000 117.986250 translate
0.000000 rotate
/Cmmi10 findfont
14.0 scalefont
setfont
0.000000 0.671875 moveto
/t glyphshow

/Cmr10 findfont
14.0 scalefont
setfont
7.509961 0.671875 moveto
/equal glyphshow

19.265039 0.671875 moveto
/one glyphshow

26.265039 0.671875 moveto
/nine glyphshow

/Cmmi10 findfont
14.0 scalefont
setfont
33.265039 0.671875 moveto
/period glyphshow

/Cmr10 findfont
14.0 scalefont
setfont
37.254492 0.671875 moveto
/two glyphshow

44.254492 0.671875 moveto
/four glyphshow

51.254492 0.671875 moveto
/eight glyphshow

63.170898 0.671875 moveto
/s glyphshow


grestore
[6 6] 0 setdash
gsave
97.44 101.886 m
117.04 101.886 l
stroke
grestore
gsave
132.440000 96.986250 translate
0.000000 rotate
/Cmmi10 findfont
14.0 scalefont
setfont
0.000000 0.518125 moveto
/t glyphshow

/Cmr10 findfont
14.0 scalefont
setfont
7.509961 0.518125 moveto
/equal glyphshow

19.265039 0.518125 moveto
/one glyphshow

/Cmmi10 findfont
14.0 scalefont
setfont
26.265039 0.518125 moveto
/period glyphshow

/Cmr10 findfont
14.0 scalefont
setfont
30.254492 0.518125 moveto
/zero glyphshow

37.254492 0.518125 moveto
/one glyphshow

44.254492 0.518125 moveto
/two glyphshow

/Cmsy10 findfont
14.0 scalefont
setfont
53.712695 0.518125 moveto
/multiply glyphshow

/Cmr10 findfont
14.0 scalefont
setfont
62.920898 0.518125 moveto
/one glyphshow

69.920898 0.518125 moveto
/zero glyphshow

/Cmr10 findfont
9.8 scalefont
setfont
76.920898 6.470313 moveto
/three glyphshow

/Cmr10 findfont
14.0 scalefont
setfont
89.118180 0.518125 moveto
/s glyphshow


grestore
2 setlinecap
[] 0 setdash
gsave
97.44 80.8862 m
117.04 80.8862 l
stroke
grestore
gsave
132.440000 75.986250 translate
0.000000 rotate
/Cmmi10 findfont
14.0 scalefont
setfont
0.000000 0.518125 moveto
/t glyphshow

/Cmr10 findfont
14.0 scalefont
setfont
7.509961 0.518125 moveto
/equal glyphshow

19.265039 0.518125 moveto
/nine glyphshow

/Cmmi10 findfont
14.0 scalefont
setfont
26.265039 0.518125 moveto
/period glyphshow

/Cmr10 findfont
14.0 scalefont
setfont
30.254492 0.518125 moveto
/eight glyphshow

37.254492 0.518125 moveto
/seven glyphshow

44.254492 0.518125 moveto
/zero glyphshow

/Cmsy10 findfont
14.0 scalefont
setfont
53.712695 0.518125 moveto
/multiply glyphshow

/Cmr10 findfont
14.0 scalefont
setfont
62.920898 0.518125 moveto
/one glyphshow

69.920898 0.518125 moveto
/zero glyphshow

/Cmr10 findfont
9.8 scalefont
setfont
76.920898 6.470313 moveto
/four glyphshow

/Cmr10 findfont
14.0 scalefont
setfont
89.118180 0.518125 moveto
/s glyphshow


grestore

end
showpage
