%!PS-Adobe-3.0 EPSF-3.0
%%BoundingBox: (atend)
%%LanguageLevel: 2
%%Creator: Grace-5.1.25
%%CreationDate: Thu Oct  6 17:10:07 2016
%%DocumentData: Clean8Bit
%%Orientation: Portrait
%%Title: Untitled
%%For: jesus
%%DocumentNeededResources: (atend)
%%EndComments
%%BeginProlog
/m {moveto} def
/l {lineto} def
/s {stroke} def
/n {newpath} def
/c {closepath} def
/RL {rlineto} def
/SLW {setlinewidth} def
/GS {gsave} def
/GR {grestore} def
/SC {setcolor} def
/SGRY {setgray} def
/SRGB {setrgbcolor} def
/SD {setdash} def
/SLC {setlinecap} def
/SLJ {setlinejoin} def
/SCS {setcolorspace} def
/FFSF {findfont setfont} def
/CC {concat} def
/PXL {n m 0 0 RL s} def
/Color0 {1.0000 1.0000 1.0000} def
/Color1 {0.0000 0.0000 0.0000} def
/Color2 {1.0000 0.0000 0.0000} def
/Color3 {0.0000 1.0000 0.0000} def
/Color4 {0.0000 0.0000 1.0000} def
/Color5 {1.0000 1.0000 0.0000} def
/Color6 {0.7373 0.5608 0.5608} def
/Color7 {0.8627 0.8627 0.8627} def
/Color8 {0.5804 0.0000 0.8275} def
/Color9 {0.0000 1.0000 1.0000} def
/Color10 {1.0000 0.0000 1.0000} def
/Color11 {1.0000 0.6471 0.0000} def
/Color12 {0.4471 0.1294 0.7373} def
/Color13 {0.4039 0.0275 0.2824} def
/Color14 {0.2510 0.8784 0.8157} def
/Color15 {0.0000 0.5451 0.0000} def
/PTRN {
 /pat_bits exch def 
 <<
  /PaintType 2
  /PatternType 1 /TilingType 1
  /BBox[0 0 16 16]
  /XStep 16 /YStep 16
  /PaintProc {
   pop
   16 16 true [-1 0 0 -1 16 16] pat_bits imagemask
  }
 >>
 [0.0016 0 0 0.0016 0 0]
 makepattern
} def
/Pattern0 {<0000000000000000000000000000000000000000000000000000000000000000> PTRN} bind def
/Pattern1 {<ffffffffffffffffffffffffffffffffffffffffffffffffffffffffffffffff> PTRN} bind def
/Pattern2 {<eeeeffffbbbbffffeeeeffffbbbbffffeeeeffffbbbbffffeeeeffffbbbbffff> PTRN} bind def
/Pattern3 {<eeeebbbbeeeebbbbeeeebbbbeeeebbbbeeeebbbbeeeebbbbeeeebbbbeeeebbbb> PTRN} bind def
/Pattern4 {<5555aaaa5555aaaa5555aaaa5555aaaa5555aaaa5555aaaa5555aaaa5555aaaa> PTRN} bind def
/Pattern5 {<1111444411114444111144441111444411114444111144441111444411114444> PTRN} bind def
/Pattern6 {<1111000044440000111100004444000011110000444400001111000044440000> PTRN} bind def
/Pattern7 {<1010000000000000010100000000000010100000000000000101000000000000> PTRN} bind def
/Pattern8 {<0000000000000000000000000000000000000000000000000000000000000000> PTRN} bind def
/Pattern9 {<1e1e0f0f8787c3c3e1e1f0f078783c3c1e1e0f0f8787c3c3e1e1f0f078783c3c> PTRN} bind def
/Pattern10 {<7878f0f0e1e1c3c387870f0f1e1e3c3c7878f0f0e1e1c3c387870f0f1e1e3c3c> PTRN} bind def
/Pattern11 {<3333333333333333333333333333333333333333333333333333333333333333> PTRN} bind def
/Pattern12 {<ffffffff00000000ffffffff00000000ffffffff00000000ffffffff00000000> PTRN} bind def
/Pattern13 {<8181424224241818181824244242818181814242242418181818242442428181> PTRN} bind def
/Pattern14 {<8080404020201010080804040202010180804040202010100808040402020101> PTRN} bind def
/Pattern15 {<0101020204040808101020204040808001010202040408081010202040408080> PTRN} bind def
/Pattern16 {<2222222222222222222222222222222222222222222222222222222222222222> PTRN} bind def
/Pattern17 {<0000ffff000000000000ffff000000000000ffff000000000000ffff00000000> PTRN} bind def
/Pattern18 {<2222ffff222222222222ffff222222222222ffff222222222222ffff22222222> PTRN} bind def
/Pattern19 {<ffffffff33333333ffffffff33333333ffffffff33333333ffffffff33333333> PTRN} bind def
/Pattern20 {<0f0f0f0f0f0f0f0ff0f0f0f0f0f0f0f00f0f0f0f0f0f0f0ff0f0f0f0f0f0f0f0> PTRN} bind def
/Pattern21 {<ff00ff00ff00ff00ff00ff00ff00ff0000ff00ff00ff00ff00ff00ff00ff00ff> PTRN} bind def
/Pattern22 {<8001800180018001800180018001ffffffff8001800180018001800180018001> PTRN} bind def
/Pattern23 {<c003c003c003c003c003c003ffffffffffffffffc003c003c003c003c003c003> PTRN} bind def
/Pattern24 {<040404040404ffff404040404040ffff040404040404ffff404040404040ffff> PTRN} bind def
/Pattern25 {<180018001800180018001800ffffffff001800180018001800180018ffffffff> PTRN} bind def
/Pattern26 {<1111b8b87c7c3a3a1111a3a3c7c78b8b1111b8b87c7c3a3a1111a3a3c7c78b8b> PTRN} bind def
/Pattern27 {<101010102828c7c70101010182827c7c101010102828c7c70101010182827c7c> PTRN} bind def
/Pattern28 {<1c1c121211112121c1c12121111112121c1c121211112121c1c1212111111212> PTRN} bind def
/Pattern29 {<3e3e414180808080e3e31414080808083e3e414180808080e3e3141408080808> PTRN} bind def
/Pattern30 {<4848888884848383848488884848383848488888848483838484888848483838> PTRN} bind def
/Pattern31 {<03030404080808080c0c12122121c0c003030404080808080c0c12122121c0c0> PTRN} bind def
/ellipsedict 8 dict def
ellipsedict /mtrx matrix put
/EARC {
 ellipsedict begin
  /endangle exch def
  /startangle exch def
  /yrad exch def
  /xrad exch def
  /y exch def
  /x exch def
  /savematrix mtrx currentmatrix def
  x y translate
  xrad yrad scale
  0 0 1 startangle endangle arc
  savematrix setmatrix
 end
} def
/TL {
  /kcomp exch def
  /linewidth exch def
  /offset exch def
  GS
  0 offset rmoveto
  linewidth SLW
  dup stringwidth exch kcomp add exch RL s
  GR
} def
/KINIT
{
 /kvector exch def
 /kid 0 def
} def
/KPROC
{
 pop pop
 kvector kid get
 0 rmoveto
 /kid 1 kid add def
} def
/DefEncoding [
 /.notdef
 /.notdef
 /.notdef
 /.notdef
 /.notdef
 /.notdef
 /.notdef
 /.notdef
 /.notdef
 /.notdef
 /.notdef
 /.notdef
 /.notdef
 /.notdef
 /.notdef
 /.notdef
 /.notdef
 /.notdef
 /.notdef
 /.notdef
 /.notdef
 /.notdef
 /.notdef
 /.notdef
 /.notdef
 /.notdef
 /.notdef
 /.notdef
 /.notdef
 /.notdef
 /.notdef
 /.notdef
 /space
 /exclam
 /quotedbl
 /numbersign
 /dollar
 /percent
 /ampersand
 /quoteright
 /parenleft
 /parenright
 /asterisk
 /plus
 /comma
 /hyphen
 /period
 /slash
 /zero
 /one
 /two
 /three
 /four
 /five
 /six
 /seven
 /eight
 /nine
 /colon
 /semicolon
 /less
 /equal
 /greater
 /question
 /at
 /A
 /B
 /C
 /D
 /E
 /F
 /G
 /H
 /I
 /J
 /K
 /L
 /M
 /N
 /O
 /P
 /Q
 /R
 /S
 /T
 /U
 /V
 /W
 /X
 /Y
 /Z
 /bracketleft
 /backslash
 /bracketright
 /asciicircum
 /underscore
 /grave
 /a
 /b
 /c
 /d
 /e
 /f
 /g
 /h
 /i
 /j
 /k
 /l
 /m
 /n
 /o
 /p
 /q
 /r
 /s
 /t
 /u
 /v
 /w
 /x
 /y
 /z
 /braceleft
 /bar
 /braceright
 /asciitilde
 /.notdef
 /.notdef
 /.notdef
 /.notdef
 /.notdef
 /.notdef
 /.notdef
 /.notdef
 /.notdef
 /.notdef
 /.notdef
 /.notdef
 /.notdef
 /.notdef
 /.notdef
 /.notdef
 /.notdef
 /.notdef
 /.notdef
 /.notdef
 /.notdef
 /.notdef
 /.notdef
 /.notdef
 /.notdef
 /.notdef
 /.notdef
 /.notdef
 /.notdef
 /.notdef
 /.notdef
 /.notdef
 /.notdef
 /space
 /exclamdown
 /cent
 /sterling
 /currency
 /yen
 /brokenbar
 /section
 /dieresis
 /copyright
 /ordfeminine
 /guillemotleft
 /logicalnot
 /hyphen
 /registered
 /macron
 /degree
 /plusminus
 /twosuperior
 /threesuperior
 /acute
 /mu
 /paragraph
 /periodcentered
 /cedilla
 /onesuperior
 /ordmasculine
 /guillemotright
 /onequarter
 /onehalf
 /threequarters
 /questiondown
 /Agrave
 /Aacute
 /Acircumflex
 /Atilde
 /Adieresis
 /Aring
 /AE
 /Ccedilla
 /Egrave
 /Eacute
 /Ecircumflex
 /Edieresis
 /Igrave
 /Iacute
 /Icircumflex
 /Idieresis
 /Eth
 /Ntilde
 /Ograve
 /Oacute
 /Ocircumflex
 /Otilde
 /Odieresis
 /multiply
 /Oslash
 /Ugrave
 /Uacute
 /Ucircumflex
 /Udieresis
 /Yacute
 /Thorn
 /germandbls
 /agrave
 /aacute
 /acircumflex
 /atilde
 /adieresis
 /aring
 /ae
 /ccedilla
 /egrave
 /eacute
 /ecircumflex
 /edieresis
 /igrave
 /iacute
 /icircumflex
 /idieresis
 /eth
 /ntilde
 /ograve
 /oacute
 /ocircumflex
 /otilde
 /odieresis
 /divide
 /oslash
 /ugrave
 /uacute
 /ucircumflex
 /udieresis
 /yacute
 /thorn
 /ydieresis
] def
%%EndProlog
%%BeginSetup
%%EndSetup
612.00 612.00 scale
n
0.0000 0.0000 m
0.0000 1.0000 l
1.2941 1.0000 l
1.2941 0.0000 l
c
[/DeviceRGB] SCS
Color0 SC
fill
[/DeviceRGB] SCS
Color1 SC
[] 0 SD
0.0030 SLW
0 SLC
0 SLJ
n
0.1941 0.8952 m
0.1962 0.8993 l
0.1983 0.8950 l
0.2003 0.8992 l
0.2024 0.8948 l
0.2045 0.8991 l
0.2066 0.9032 l
0.2086 0.8904 l
0.2107 0.8859 l
0.2128 0.8904 l
0.2149 0.8859 l
0.2169 0.8903 l
0.2190 0.8947 l
0.2211 0.8903 l
0.2232 0.8947 l
0.2252 0.8903 l
0.2273 0.8947 l
0.2294 0.8990 l
0.2315 0.8947 l
0.2335 0.8990 l
0.2356 0.9032 l
0.2377 0.8904 l
0.2398 0.8860 l
0.2418 0.8904 l
0.2439 0.8861 l
0.2460 0.8905 l
0.2481 0.8948 l
0.2501 0.8905 l
0.2522 0.8949 l
0.2543 0.8905 l
0.2564 0.8949 l
0.2584 0.8992 l
0.2605 0.8949 l
0.2626 0.8992 l
0.2647 0.8949 l
0.2667 0.8992 l
0.2688 0.8862 l
0.2709 0.8906 l
0.2730 0.8863 l
0.2750 0.8907 l
0.2771 0.8863 l
0.2792 0.8907 l
0.2813 0.8951 l
0.2833 0.8907 l
0.2854 0.8951 l
0.2875 0.8908 l
0.2896 0.8951 l
0.2916 0.8994 l
0.2937 0.8951 l
0.2958 0.8994 l
0.2979 0.9036 l
0.2999 0.8909 l
0.3020 0.8865 l
0.3041 0.8909 l
0.3062 0.8865 l
0.3082 0.8909 l
0.3103 0.8953 l
0.3124 0.8909 l
0.3145 0.8953 l
0.3165 0.8910 l
0.3186 0.8953 l
0.3207 0.8996 l
0.3228 0.8954 l
0.3248 0.8996 l
0.3269 0.8954 l
0.3290 0.8822 l
0.3311 0.8867 l
0.3331 0.8911 l
0.3352 0.8867 l
0.3373 0.8911 l
0.3393 0.8867 l
0.3414 0.8912 l
0.3435 0.8955 l
0.3456 0.8912 l
0.3476 0.8955 l
0.3497 0.8912 l
0.3518 0.8955 l
0.3539 0.8998 l
0.3559 0.8956 l
0.3580 0.8998 l
0.3601 0.8869 l
0.3622 0.8913 l
0.3642 0.8869 l
0.3663 0.8913 l
0.3684 0.8869 l
0.3705 0.8913 l
0.3725 0.8956 l
0.3746 0.8914 l
0.3767 0.8957 l
0.3788 0.8914 l
0.3808 0.8957 l
0.3829 0.9000 l
0.3850 0.8957 l
0.3871 0.9000 l
0.3891 0.8957 l
0.3912 0.8826 l
0.3933 0.8871 l
0.3954 0.8915 l
0.3974 0.8871 l
0.3995 0.8915 l
0.4016 0.8871 l
0.4037 0.8915 l
0.4057 0.8958 l
0.4078 0.8915 l
0.4099 0.8958 l
0.4120 0.9001 l
0.4140 0.8959 l
0.4161 0.9001 l
0.4182 0.8959 l
0.4203 0.8827 l
0.4223 0.8872 l
0.4244 0.8916 l
0.4265 0.8872 l
0.4286 0.8916 l
0.4306 0.8872 l
0.4327 0.8916 l
0.4348 0.8959 l
0.4369 0.8916 l
0.4389 0.8959 l
0.4410 0.8916 l
0.4431 0.8960 l
0.4452 0.9002 l
0.4472 0.8960 l
0.4493 0.9002 l
0.4514 0.8873 l
0.4535 0.8829 l
0.4555 0.8873 l
0.4576 0.8917 l
0.4597 0.8873 l
0.4618 0.8917 l
0.4638 0.8873 l
0.4659 0.8917 l
0.4680 0.8960 l
0.4701 0.8917 l
0.4721 0.8960 l
0.4742 0.9002 l
0.4763 0.8960 l
0.4784 0.9002 l
0.4804 0.8960 l
0.4825 0.8829 l
0.4846 0.8874 l
0.4867 0.8917 l
0.4887 0.8874 l
0.4908 0.8917 l
0.4929 0.8874 l
0.4950 0.8917 l
0.4970 0.8960 l
0.4991 0.8917 l
0.5012 0.8960 l
0.5033 0.8917 l
0.5053 0.8960 l
0.5074 0.9002 l
0.5095 0.8960 l
0.5116 0.9002 l
0.5136 0.8873 l
0.5157 0.8829 l
0.5178 0.8873 l
0.5199 0.8917 l
0.5219 0.8873 l
0.5240 0.8916 l
0.5261 0.8873 l
0.5282 0.8916 l
0.5302 0.8959 l
0.5323 0.8916 l
0.5344 0.8959 l
0.5364 0.9001 l
0.5385 0.8872 l
0.5406 0.8737 l
0.5427 0.8593 l
0.5447 0.8436 l
0.5468 0.8261 l
0.5489 0.8058 l
0.5510 0.7805 l
0.5530 0.7449 l
0.5551 0.6725 l
0.5568 0.1499 l
s
n
0.9157 0.1499 m
0.9161 0.1527 l
0.9182 0.1616 l
0.9203 0.1673 l
0.9224 0.1705 l
0.9244 0.1713 l
0.9265 0.1697 l
0.9286 0.1652 l
0.9306 0.1569 l
0.9316 0.1499 l
s
n
0.9430 0.1499 m
0.9431 0.1510 l
0.9452 0.1684 l
0.9472 0.1798 l
0.9493 0.1874 l
0.9514 0.1922 l
0.9535 0.1946 l
0.9555 0.1948 l
0.9576 0.1924 l
0.9597 0.1870 l
0.9618 0.1774 l
0.9638 0.1604 l
0.9645 0.1499 l
s
n
0.9718 0.1499 m
0.9721 0.1582 l
0.9742 0.1820 l
0.9763 0.1967 l
0.9784 0.2065 l
0.9804 0.2131 l
0.9825 0.2170 l
0.9846 0.2187 l
0.9867 0.2180 l
0.9887 0.2149 l
0.9908 0.2084 l
0.9929 0.1971 l
0.9950 0.1770 l
0.9962 0.1499 l
s
n
1.0011 0.1499 m
1.0012 0.1563 l
1.0033 0.1917 l
1.0053 0.2112 l
1.0074 0.2239 l
1.0095 0.2323 l
1.0116 0.2379 l
1.0136 0.2410 l
1.0157 0.2418 l
1.0178 0.2404 l
1.0199 0.2362 l
1.0219 0.2285 l
1.0240 0.2151 l
1.0261 0.1906 l
1.0274 0.1499 l
s
n
1.0309 0.1499 m
1.0323 0.1940 l
1.0344 0.2217 l
1.0365 0.2382 l
1.0385 0.2490 l
1.0406 0.2563 l
1.0427 0.2608 l
1.0448 0.2630 l
1.0468 0.2630 l
1.0489 0.2606 l
1.0510 0.2552 l
1.0531 0.2458 l
1.0551 0.2298 l
1.0572 0.1989 l
1.0581 0.1499 l
s
n
1.0607 0.1499 m
1.0614 0.1800 l
1.0634 0.2251 l
1.0655 0.2476 l
1.0676 0.2616 l
1.0697 0.2708 l
1.0717 0.2768 l
1.0738 0.2803 l
1.0759 0.2815 l
1.0780 0.2805 l
1.0800 0.2769 l
1.0821 0.2702 l
1.0842 0.2588 l
1.0863 0.2392 l
1.0883 0.1984 l
1.0892 0.1499 l
s
n
1.0915 0.1499 m
1.0925 0.2158 l
1.0946 0.2496 l
1.0966 0.2682 l
1.0987 0.2799 l
1.1008 0.2876 l
1.1029 0.2924 l
1.1049 0.2947 l
1.1070 0.2948 l
1.1091 0.2926 l
1.1112 0.2877 l
1.1132 0.2792 l
1.1153 0.2657 l
1.1174 0.2431 l
1.1195 0.1831 l
1.1215 0.1822 l
1.1236 0.2402 l
1.1257 0.2678 l
1.1277 0.2822 l
1.1298 0.2922 l
1.1319 0.2981 l
1.1340 0.3014 l
1.1360 0.3026 l
1.1381 0.3013 l
1.1402 0.2977 l
1.1423 0.2915 l
1.1443 0.2805 l
1.1464 0.2646 l
1.1485 0.2330 l
1.1503 0.1499 l
s
n
1.1510 0.1499 m
1.1526 0.2117 l
1.1547 0.2524 l
1.1568 0.2744 l
1.1589 0.2860 l
1.1609 0.2936 l
1.1630 0.2981 l
1.1651 0.2995 l
1.1672 0.2989 l
1.1692 0.2962 l
1.1713 0.2903 l
1.1734 0.2819 l
1.1755 0.2691 l
1.1775 0.2466 l
1.1796 0.2076 l
1.1807 0.1499 l
s
n
1.1826 0.1499 m
1.1838 0.2152 l
1.1858 0.2484 l
1.1879 0.2639 l
1.1900 0.2721 l
1.1921 0.2774 l
1.1941 0.2791 l
1.1962 0.2777 l
1.1983 0.2746 l
1.2004 0.2694 l
1.2024 0.2603 l
1.2045 0.2476 l
1.2066 0.2315 l
1.2087 0.2042 l
1.2104 0.1499 l
s
n
1.2135 0.1499 m
1.2149 0.1964 l
1.2170 0.2152 l
1.2190 0.2317 l
1.2211 0.2431 l
1.2232 0.2485 l
1.2253 0.2477 l
1.2273 0.2506 l
1.2294 0.2493 l
s
[/DeviceRGB] SCS
Color2 SC
n
0.1941 0.8053 m
0.1962 0.8068 l
0.1983 0.8031 l
0.2003 0.8048 l
0.2024 0.8013 l
0.2045 0.8031 l
0.2066 0.8049 l
0.2086 0.7961 l
0.2107 0.7926 l
0.2128 0.7948 l
0.2149 0.7913 l
0.2169 0.7936 l
0.2190 0.7958 l
0.2211 0.7926 l
0.2232 0.7949 l
0.2252 0.7917 l
0.2273 0.7940 l
0.2294 0.7963 l
0.2315 0.7932 l
0.2335 0.7956 l
0.2356 0.7978 l
0.2377 0.7895 l
0.2398 0.7864 l
0.2418 0.7889 l
0.2439 0.7859 l
0.2460 0.7884 l
0.2481 0.7910 l
0.2501 0.7880 l
0.2522 0.7905 l
0.2543 0.7876 l
0.2564 0.7902 l
0.2584 0.7926 l
0.2605 0.7898 l
0.2626 0.7923 l
0.2647 0.7895 l
0.2667 0.7920 l
0.2688 0.7837 l
0.2709 0.7864 l
0.2730 0.7834 l
0.2750 0.7862 l
0.2771 0.7832 l
0.2792 0.7860 l
0.2813 0.7886 l
0.2833 0.7858 l
0.2854 0.7884 l
0.2875 0.7856 l
0.2896 0.7883 l
0.2916 0.7909 l
0.2937 0.7882 l
0.2958 0.7907 l
0.2979 0.7933 l
0.2999 0.7852 l
0.3020 0.7824 l
0.3041 0.7851 l
0.3062 0.7823 l
0.3082 0.7850 l
0.3103 0.7877 l
0.3124 0.7850 l
0.3145 0.7877 l
0.3165 0.7849 l
0.3186 0.7876 l
0.3207 0.7902 l
0.3228 0.7875 l
0.3248 0.7902 l
0.3269 0.7875 l
0.3290 0.7790 l
0.3311 0.7819 l
0.3331 0.7847 l
0.3352 0.7819 l
0.3373 0.7847 l
0.3393 0.7818 l
0.3414 0.7846 l
0.3435 0.7873 l
0.3456 0.7846 l
0.3476 0.7873 l
0.3497 0.7846 l
0.3518 0.7873 l
0.3539 0.7899 l
0.3559 0.7872 l
0.3580 0.7899 l
0.3601 0.7817 l
0.3622 0.7845 l
0.3642 0.7817 l
0.3663 0.7845 l
0.3684 0.7816 l
0.3705 0.7844 l
0.3725 0.7872 l
0.3746 0.7844 l
0.3767 0.7871 l
0.3788 0.7844 l
0.3808 0.7871 l
0.3829 0.7898 l
0.3850 0.7871 l
0.3871 0.7897 l
0.3891 0.7871 l
0.3912 0.7787 l
0.3933 0.7816 l
0.3954 0.7844 l
0.3974 0.7815 l
0.3995 0.7843 l
0.4016 0.7815 l
0.4037 0.7843 l
0.4057 0.7870 l
0.4078 0.7843 l
0.4099 0.7870 l
0.4120 0.7896 l
0.4140 0.7870 l
0.4161 0.7896 l
0.4182 0.7870 l
0.4203 0.7786 l
0.4223 0.7815 l
0.4244 0.7842 l
0.4265 0.7815 l
0.4286 0.7842 l
0.4306 0.7814 l
0.4327 0.7842 l
0.4348 0.7869 l
0.4369 0.7842 l
0.4389 0.7869 l
0.4410 0.7842 l
0.4431 0.7869 l
0.4452 0.7895 l
0.4472 0.7868 l
0.4493 0.7894 l
0.4514 0.7813 l
0.4535 0.7784 l
0.4555 0.7813 l
0.4576 0.7841 l
0.4597 0.7813 l
0.4618 0.7840 l
0.4638 0.7812 l
0.4659 0.7840 l
0.4680 0.7867 l
0.4701 0.7840 l
0.4721 0.7866 l
0.4742 0.7892 l
0.4763 0.7866 l
0.4784 0.7892 l
0.4804 0.7866 l
0.4825 0.7782 l
0.4846 0.7811 l
0.4867 0.7838 l
0.4887 0.7810 l
0.4908 0.7838 l
0.4929 0.7810 l
0.4950 0.7837 l
0.4970 0.7864 l
0.4991 0.7837 l
0.5012 0.7863 l
0.5033 0.7836 l
0.5053 0.7863 l
0.5074 0.7888 l
0.5095 0.7862 l
0.5116 0.7888 l
0.5136 0.7807 l
0.5157 0.7778 l
0.5178 0.7806 l
0.5199 0.7834 l
0.5219 0.7806 l
0.5240 0.7833 l
0.5261 0.7805 l
0.5282 0.7832 l
0.5302 0.7859 l
0.5323 0.7831 l
0.5344 0.7858 l
0.5364 0.7883 l
0.5385 0.7803 l
0.5406 0.7714 l
0.5427 0.7615 l
0.5447 0.7502 l
0.5468 0.7369 l
0.5489 0.7208 l
0.5510 0.6995 l
0.5530 0.6680 l
0.5551 0.6004 l
0.5572 0.3919 l
0.5593 0.3918 l
0.5613 0.3919 l
0.5634 0.3920 l
0.5655 0.3920 l
0.5676 0.3920 l
0.5696 0.3920 l
0.5717 0.3922 l
0.5738 0.3921 l
0.5759 0.3922 l
0.5779 0.3921 l
0.5800 0.3921 l
0.5821 0.3922 l
0.5842 0.3922 l
0.5862 0.3922 l
0.5883 0.3921 l
0.5904 0.3922 l
0.5925 0.3922 l
0.5945 0.3922 l
0.5966 0.3923 l
0.5987 0.3924 l
0.6008 0.3925 l
0.6028 0.3925 l
0.6049 0.3924 l
0.6070 0.3924 l
0.6091 0.3925 l
0.6111 0.3924 l
0.6132 0.3924 l
0.6153 0.3925 l
0.6174 0.3925 l
0.6194 0.3925 l
0.6215 0.3926 l
0.6236 0.3926 l
0.6257 0.3927 l
0.6277 0.3926 l
0.6298 0.3928 l
0.6319 0.3927 l
0.6340 0.3928 l
0.6360 0.3928 l
0.6381 0.3927 l
0.6402 0.3928 l
0.6423 0.3929 l
0.6443 0.3928 l
0.6464 0.3928 l
0.6485 0.3929 l
0.6506 0.3929 l
0.6526 0.3929 l
0.6547 0.3929 l
0.6568 0.3930 l
0.6589 0.3932 l
0.6609 0.3932 l
0.6630 0.3931 l
0.6651 0.3931 l
0.6672 0.3931 l
0.6692 0.3932 l
0.6713 0.3933 l
0.6734 0.3933 l
0.6755 0.3933 l
0.6775 0.3933 l
0.6796 0.3934 l
0.6817 0.3934 l
0.6838 0.3935 l
0.6858 0.3935 l
0.6879 0.3936 l
0.6900 0.3936 l
0.6921 0.3937 l
0.6941 0.3937 l
0.6962 0.3937 l
0.6983 0.3937 l
0.7004 0.3937 l
0.7024 0.3937 l
0.7045 0.3938 l
0.7066 0.3938 l
0.7087 0.3938 l
0.7107 0.3938 l
0.7128 0.3939 l
0.7149 0.3939 l
0.7170 0.3940 l
0.7190 0.3940 l
0.7211 0.3941 l
0.7232 0.3942 l
0.7253 0.3942 l
0.7273 0.3942 l
0.7294 0.3942 l
0.7315 0.3942 l
0.7335 0.3942 l
0.7356 0.3943 l
0.7377 0.3943 l
0.7398 0.3943 l
0.7418 0.3943 l
0.7439 0.3944 l
0.7460 0.3944 l
0.7481 0.3945 l
0.7501 0.3946 l
0.7522 0.3947 l
0.7543 0.3947 l
0.7564 0.3948 l
0.7584 0.3948 l
0.7605 0.3948 l
0.7626 0.3948 l
0.7647 0.3948 l
0.7667 0.3948 l
0.7688 0.3948 l
0.7709 0.3949 l
0.7730 0.3949 l
0.7750 0.3950 l
0.7771 0.3950 l
0.7792 0.3951 l
0.7813 0.3952 l
0.7833 0.3953 l
0.7854 0.3954 l
0.7875 0.3954 l
0.7896 0.3954 l
0.7916 0.3954 l
0.7937 0.3954 l
0.7958 0.3954 l
0.7979 0.3954 l
0.7999 0.3955 l
0.8020 0.3955 l
0.8041 0.3956 l
0.8062 0.3956 l
0.8082 0.3957 l
0.8103 0.3958 l
0.8124 0.3959 l
0.8145 0.3960 l
0.8165 0.3961 l
0.8186 0.3961 l
0.8207 0.3961 l
0.8228 0.3961 l
0.8248 0.3961 l
0.8269 0.3961 l
0.8290 0.3961 l
0.8311 0.3962 l
0.8331 0.3962 l
0.8352 0.3963 l
0.8373 0.3964 l
0.8394 0.3965 l
0.8414 0.3966 l
0.8435 0.3967 l
0.8456 0.3968 l
0.8477 0.3969 l
0.8497 0.3969 l
0.8518 0.3968 l
0.8539 0.3968 l
0.8560 0.3969 l
0.8580 0.3969 l
0.8601 0.3969 l
0.8622 0.3970 l
0.8643 0.3970 l
0.8663 0.3971 l
0.8684 0.3972 l
0.8705 0.3974 l
0.8726 0.3975 l
0.8746 0.3977 l
0.8767 0.3978 l
0.8788 0.3978 l
0.8809 0.3978 l
0.8829 0.3978 l
0.8850 0.3978 l
0.8871 0.3978 l
0.8892 0.3978 l
0.8912 0.3978 l
0.8933 0.3979 l
0.8954 0.3980 l
0.8975 0.3981 l
0.8995 0.3983 l
0.9016 0.3984 l
0.9037 0.3986 l
0.9058 0.3988 l
0.9078 0.3990 l
0.9099 0.3990 l
0.9120 0.3989 l
0.9141 0.3989 l
0.9161 0.3989 l
0.9182 0.3989 l
0.9203 0.3989 l
0.9224 0.3990 l
0.9244 0.3991 l
0.9265 0.3992 l
0.9286 0.3993 l
0.9306 0.3995 l
0.9327 0.3998 l
0.9348 0.4000 l
0.9369 0.4003 l
0.9389 0.4004 l
0.9410 0.4003 l
0.9431 0.4003 l
0.9452 0.4002 l
0.9472 0.4002 l
0.9493 0.4002 l
0.9514 0.4003 l
0.9535 0.4004 l
0.9555 0.4005 l
0.9576 0.4007 l
0.9597 0.4009 l
0.9618 0.4011 l
0.9638 0.4014 l
0.9659 0.4018 l
0.9680 0.4022 l
0.9701 0.4022 l
0.9721 0.4020 l
0.9742 0.4019 l
0.9763 0.4019 l
0.9784 0.4019 l
0.9804 0.4019 l
0.9825 0.4020 l
0.9846 0.4021 l
0.9867 0.4023 l
0.9887 0.4025 l
0.9908 0.4028 l
0.9929 0.4032 l
0.9950 0.4036 l
0.9970 0.4041 l
0.9991 0.4046 l
1.0012 0.4044 l
1.0033 0.4042 l
1.0053 0.4041 l
1.0074 0.4040 l
1.0095 0.4040 l
1.0116 0.4041 l
1.0136 0.4042 l
1.0157 0.4044 l
1.0178 0.4047 l
1.0199 0.4050 l
1.0219 0.4054 l
1.0240 0.4059 l
1.0261 0.4065 l
1.0282 0.4072 l
1.0302 0.4074 l
1.0323 0.4072 l
1.0344 0.4070 l
1.0365 0.4069 l
1.0385 0.4068 l
1.0406 0.4069 l
1.0427 0.4070 l
1.0448 0.4072 l
1.0468 0.4074 l
1.0489 0.4078 l
1.0510 0.4083 l
1.0531 0.4088 l
1.0551 0.4094 l
1.0572 0.4102 l
1.0593 0.4110 l
1.0614 0.4109 l
1.0634 0.4107 l
1.0655 0.4105 l
1.0676 0.4104 l
1.0697 0.4104 l
1.0717 0.4105 l
1.0738 0.4107 l
1.0759 0.4110 l
1.0780 0.4113 l
1.0800 0.4118 l
1.0821 0.4123 l
1.0842 0.4130 l
1.0863 0.4137 l
1.0883 0.4145 l
1.0904 0.4152 l
1.0925 0.4149 l
1.0946 0.4147 l
1.0966 0.4146 l
1.0987 0.4146 l
1.1008 0.4147 l
1.1029 0.4149 l
1.1049 0.4151 l
1.1070 0.4155 l
1.1091 0.4159 l
1.1112 0.4163 l
1.1132 0.4169 l
1.1153 0.4175 l
1.1174 0.4180 l
1.1195 0.4188 l
1.1215 0.4190 l
1.1236 0.4189 l
1.1257 0.4187 l
1.1277 0.4188 l
1.1298 0.4182 l
1.1319 0.4183 l
1.1340 0.4179 l
1.1360 0.4175 l
1.1381 0.4172 l
1.1402 0.4177 l
1.1423 0.4175 l
1.1443 0.4174 l
1.1464 0.4174 l
1.1485 0.4181 l
1.1506 0.4182 l
1.1526 0.4178 l
1.1547 0.4171 l
1.1568 0.4171 l
1.1589 0.4167 l
1.1609 0.4162 l
1.1630 0.4159 l
1.1651 0.4162 l
1.1672 0.4160 l
1.1692 0.4158 l
1.1713 0.4157 l
1.1734 0.4163 l
1.1755 0.4164 l
1.1775 0.4165 l
1.1796 0.4166 l
1.1817 0.4174 l
1.1838 0.4168 l
1.1858 0.4162 l
1.1879 0.4158 l
1.1900 0.4160 l
1.1921 0.4157 l
1.1941 0.4154 l
1.1962 0.4152 l
1.1983 0.4156 l
1.2004 0.4156 l
1.2024 0.4155 l
1.2045 0.4155 l
1.2066 0.4163 l
1.2087 0.4164 l
1.2107 0.4166 l
1.2128 0.4166 l
1.2149 0.4165 l
1.2170 0.4161 l
1.2190 0.4156 l
1.2211 0.4152 l
1.2232 0.4156 l
1.2253 0.4153 l
1.2273 0.4151 l
1.2294 0.4157 l
s
[/DeviceRGB] SCS
Color4 SC
n
0.1941 0.7685 m
0.1962 0.7687 l
0.1983 0.7646 l
0.2003 0.7650 l
0.2024 0.7610 l
0.2045 0.7615 l
0.2066 0.7620 l
0.2086 0.7538 l
0.2107 0.7499 l
0.2128 0.7508 l
0.2149 0.7470 l
0.2169 0.7481 l
0.2190 0.7491 l
0.2211 0.7455 l
0.2232 0.7466 l
0.2252 0.7431 l
0.2273 0.7443 l
0.2294 0.7454 l
0.2315 0.7421 l
0.2335 0.7433 l
0.2356 0.7444 l
0.2377 0.7368 l
0.2398 0.7334 l
0.2418 0.7349 l
0.2439 0.7316 l
0.2460 0.7331 l
0.2481 0.7345 l
0.2501 0.7314 l
0.2522 0.7329 l
0.2543 0.7298 l
0.2564 0.7313 l
0.2584 0.7328 l
0.2605 0.7298 l
0.2626 0.7313 l
0.2647 0.7284 l
0.2667 0.7299 l
0.2688 0.7224 l
0.2709 0.7241 l
0.2730 0.7211 l
0.2750 0.7228 l
0.2771 0.7199 l
0.2792 0.7216 l
0.2813 0.7233 l
0.2833 0.7205 l
0.2854 0.7222 l
0.2875 0.7194 l
0.2896 0.7211 l
0.2916 0.7228 l
0.2937 0.7201 l
0.2958 0.7218 l
0.2979 0.7234 l
0.2999 0.7163 l
0.3020 0.7135 l
0.3041 0.7154 l
0.3062 0.7126 l
0.3082 0.7145 l
0.3103 0.7163 l
0.3124 0.7136 l
0.3145 0.7154 l
0.3165 0.7128 l
0.3186 0.7146 l
0.3207 0.7164 l
0.3228 0.7138 l
0.3248 0.7156 l
0.3269 0.7131 l
0.3290 0.7056 l
0.3311 0.7077 l
0.3331 0.7097 l
0.3352 0.7070 l
0.3373 0.7090 l
0.3393 0.7063 l
0.3414 0.7083 l
0.3435 0.7102 l
0.3456 0.7077 l
0.3476 0.7096 l
0.3497 0.7070 l
0.3518 0.7090 l
0.3539 0.7109 l
0.3559 0.7084 l
0.3580 0.7103 l
0.3601 0.7032 l
0.3622 0.7053 l
0.3642 0.7026 l
0.3663 0.7047 l
0.3684 0.7021 l
0.3705 0.7042 l
0.3725 0.7061 l
0.3746 0.7036 l
0.3767 0.7056 l
0.3788 0.7031 l
0.3808 0.7051 l
0.3829 0.7070 l
0.3850 0.7046 l
0.3871 0.7065 l
0.3891 0.7041 l
0.3912 0.6970 l
0.3933 0.6991 l
0.3954 0.7012 l
0.3974 0.6987 l
0.3995 0.7008 l
0.4016 0.6983 l
0.4037 0.7004 l
0.4057 0.7024 l
0.4078 0.6999 l
0.4099 0.7019 l
0.4120 0.7039 l
0.4140 0.7015 l
0.4161 0.7035 l
0.4182 0.7011 l
0.4203 0.6940 l
0.4223 0.6962 l
0.4244 0.6983 l
0.4265 0.6959 l
0.4286 0.6980 l
0.4306 0.6955 l
0.4327 0.6976 l
0.4348 0.6996 l
0.4369 0.6972 l
0.4389 0.6992 l
0.4410 0.6969 l
0.4431 0.6989 l
0.4452 0.7008 l
0.4472 0.6985 l
0.4493 0.7005 l
0.4514 0.6937 l
0.4535 0.6912 l
0.4555 0.6934 l
0.4576 0.6955 l
0.4597 0.6931 l
0.4618 0.6952 l
0.4638 0.6927 l
0.4659 0.6948 l
0.4680 0.6968 l
0.4701 0.6945 l
0.4721 0.6965 l
0.4742 0.6985 l
0.4763 0.6962 l
0.4784 0.6981 l
0.4804 0.6959 l
0.4825 0.6890 l
0.4846 0.6911 l
0.4867 0.6932 l
0.4887 0.6908 l
0.4908 0.6929 l
0.4929 0.6905 l
0.4950 0.6926 l
0.4970 0.6946 l
0.4991 0.6923 l
0.5012 0.6943 l
0.5033 0.6920 l
0.5053 0.6940 l
0.5074 0.6959 l
0.5095 0.6936 l
0.5116 0.6956 l
0.5136 0.6890 l
0.5157 0.6865 l
0.5178 0.6886 l
0.5199 0.6907 l
0.5219 0.6883 l
0.5240 0.6904 l
0.5261 0.6880 l
0.5282 0.6901 l
0.5302 0.6920 l
0.5323 0.6897 l
0.5344 0.6917 l
0.5364 0.6936 l
0.5385 0.6870 l
0.5406 0.6798 l
0.5427 0.6716 l
0.5447 0.6622 l
0.5468 0.6512 l
0.5489 0.6378 l
0.5510 0.6207 l
0.5530 0.5968 l
0.5551 0.5563 l
0.5572 0.5208 l
0.5593 0.5208 l
0.5613 0.5208 l
0.5634 0.5208 l
0.5655 0.5208 l
0.5676 0.5208 l
0.5696 0.5209 l
0.5717 0.5209 l
0.5738 0.5209 l
0.5759 0.5209 l
0.5779 0.5209 l
0.5800 0.5209 l
0.5821 0.5209 l
0.5842 0.5209 l
0.5862 0.5209 l
0.5883 0.5209 l
0.5904 0.5210 l
0.5925 0.5210 l
0.5945 0.5210 l
0.5966 0.5210 l
0.5987 0.5210 l
0.6008 0.5210 l
0.6028 0.5210 l
0.6049 0.5210 l
0.6070 0.5210 l
0.6091 0.5211 l
0.6111 0.5211 l
0.6132 0.5211 l
0.6153 0.5211 l
0.6174 0.5211 l
0.6194 0.5211 l
0.6215 0.5211 l
0.6236 0.5211 l
0.6257 0.5212 l
0.6277 0.5212 l
0.6298 0.5212 l
0.6319 0.5212 l
0.6340 0.5212 l
0.6360 0.5212 l
0.6381 0.5212 l
0.6402 0.5212 l
0.6423 0.5212 l
0.6443 0.5212 l
0.6464 0.5213 l
0.6485 0.5213 l
0.6506 0.5213 l
0.6526 0.5213 l
0.6547 0.5213 l
0.6568 0.5213 l
0.6589 0.5213 l
0.6609 0.5214 l
0.6630 0.5214 l
0.6651 0.5214 l
0.6672 0.5214 l
0.6692 0.5214 l
0.6713 0.5214 l
0.6734 0.5214 l
0.6755 0.5214 l
0.6775 0.5215 l
0.6796 0.5215 l
0.6817 0.5215 l
0.6838 0.5215 l
0.6858 0.5215 l
0.6879 0.5215 l
0.6900 0.5215 l
0.6921 0.5216 l
0.6941 0.5216 l
0.6962 0.5216 l
0.6983 0.5216 l
0.7004 0.5216 l
0.7024 0.5216 l
0.7045 0.5216 l
0.7066 0.5217 l
0.7087 0.5217 l
0.7107 0.5217 l
0.7128 0.5217 l
0.7149 0.5217 l
0.7170 0.5217 l
0.7190 0.5217 l
0.7211 0.5218 l
0.7232 0.5218 l
0.7253 0.5218 l
0.7273 0.5218 l
0.7294 0.5218 l
0.7315 0.5218 l
0.7335 0.5218 l
0.7356 0.5219 l
0.7377 0.5219 l
0.7398 0.5219 l
0.7418 0.5219 l
0.7439 0.5219 l
0.7460 0.5219 l
0.7481 0.5220 l
0.7501 0.5220 l
0.7522 0.5220 l
0.7543 0.5220 l
0.7564 0.5220 l
0.7584 0.5220 l
0.7605 0.5220 l
0.7626 0.5221 l
0.7647 0.5221 l
0.7667 0.5221 l
0.7688 0.5221 l
0.7709 0.5221 l
0.7730 0.5221 l
0.7750 0.5222 l
0.7771 0.5222 l
0.7792 0.5222 l
0.7813 0.5222 l
0.7833 0.5222 l
0.7854 0.5223 l
0.7875 0.5223 l
0.7896 0.5223 l
0.7916 0.5223 l
0.7937 0.5223 l
0.7958 0.5223 l
0.7979 0.5223 l
0.7999 0.5224 l
0.8020 0.5224 l
0.8041 0.5224 l
0.8062 0.5224 l
0.8082 0.5224 l
0.8103 0.5224 l
0.8124 0.5225 l
0.8145 0.5225 l
0.8165 0.5225 l
0.8186 0.5225 l
0.8207 0.5225 l
0.8228 0.5225 l
0.8248 0.5226 l
0.8269 0.5226 l
0.8290 0.5226 l
0.8311 0.5226 l
0.8331 0.5226 l
0.8352 0.5226 l
0.8373 0.5227 l
0.8394 0.5227 l
0.8414 0.5227 l
0.8435 0.5227 l
0.8456 0.5227 l
0.8477 0.5228 l
0.8497 0.5228 l
0.8518 0.5228 l
0.8539 0.5228 l
0.8560 0.5228 l
0.8580 0.5228 l
0.8601 0.5229 l
0.8622 0.5229 l
0.8643 0.5229 l
0.8663 0.5229 l
0.8684 0.5229 l
0.8705 0.5229 l
0.8726 0.5230 l
0.8746 0.5230 l
0.8767 0.5230 l
0.8788 0.5230 l
0.8809 0.5230 l
0.8829 0.5230 l
0.8850 0.5231 l
0.8871 0.5231 l
0.8892 0.5231 l
0.8912 0.5231 l
0.8933 0.5231 l
0.8954 0.5231 l
0.8975 0.5232 l
0.8995 0.5232 l
0.9016 0.5232 l
0.9037 0.5232 l
0.9058 0.5232 l
0.9078 0.5233 l
0.9099 0.5233 l
0.9120 0.5233 l
0.9141 0.5233 l
0.9161 0.5233 l
0.9182 0.5233 l
0.9203 0.5233 l
0.9224 0.5233 l
0.9244 0.5233 l
0.9265 0.5234 l
0.9286 0.5234 l
0.9306 0.5234 l
0.9327 0.5228 l
0.9348 0.5223 l
0.9369 0.5223 l
0.9389 0.5218 l
0.9410 0.5212 l
0.9431 0.5212 l
0.9452 0.5207 l
0.9472 0.5202 l
0.9493 0.5202 l
0.9514 0.5196 l
0.9535 0.5191 l
0.9555 0.5191 l
0.9576 0.5186 l
0.9597 0.5180 l
0.9618 0.5181 l
0.9638 0.5175 l
0.9659 0.5170 l
0.9680 0.5171 l
0.9701 0.5165 l
0.9721 0.5160 l
0.9742 0.5160 l
0.9763 0.5155 l
0.9784 0.5149 l
0.9804 0.5150 l
0.9825 0.5145 l
0.9846 0.5139 l
0.9867 0.5140 l
0.9887 0.5135 l
0.9908 0.5129 l
0.9929 0.5130 l
0.9950 0.5125 l
0.9970 0.5120 l
0.9991 0.5120 l
1.0012 0.5115 l
1.0033 0.5110 l
1.0053 0.5111 l
1.0074 0.5105 l
1.0095 0.5100 l
1.0116 0.5101 l
1.0136 0.5096 l
1.0157 0.5091 l
1.0178 0.5092 l
1.0199 0.5087 l
1.0219 0.5082 l
1.0240 0.5083 l
1.0261 0.5078 l
1.0282 0.5073 l
1.0302 0.5074 l
1.0323 0.5069 l
1.0344 0.5064 l
1.0365 0.5065 l
1.0385 0.5060 l
1.0406 0.5055 l
1.0427 0.5056 l
1.0448 0.5051 l
1.0468 0.5046 l
1.0489 0.5048 l
1.0510 0.5043 l
1.0531 0.5038 l
1.0551 0.5039 l
1.0572 0.5035 l
1.0593 0.5030 l
1.0614 0.5031 l
1.0634 0.5027 l
1.0655 0.5022 l
1.0676 0.5023 l
1.0697 0.5018 l
1.0717 0.5014 l
1.0738 0.5015 l
1.0759 0.5011 l
1.0780 0.5006 l
1.0800 0.5008 l
1.0821 0.5003 l
1.0842 0.4999 l
1.0863 0.5001 l
1.0883 0.4996 l
1.0904 0.4992 l
1.0925 0.4994 l
1.0946 0.4989 l
1.0966 0.4984 l
1.0987 0.4986 l
1.1008 0.4982 l
1.1029 0.4984 l
1.1049 0.4979 l
1.1070 0.4975 l
1.1091 0.4977 l
1.1112 0.4972 l
1.1132 0.4968 l
1.1153 0.4970 l
1.1174 0.4966 l
1.1195 0.4961 l
1.1215 0.4964 l
1.1236 0.4959 l
1.1257 0.4955 l
1.1277 0.4957 l
1.1298 0.4952 l
1.1319 0.4948 l
1.1340 0.4950 l
1.1360 0.4946 l
1.1381 0.4942 l
1.1402 0.4944 l
1.1423 0.4939 l
1.1443 0.4935 l
1.1464 0.4937 l
1.1485 0.4933 l
1.1506 0.4936 l
1.1526 0.4931 l
1.1547 0.4927 l
1.1568 0.4929 l
1.1589 0.4925 l
1.1609 0.4920 l
1.1630 0.4922 l
1.1651 0.4918 l
1.1672 0.4913 l
1.1692 0.4915 l
1.1713 0.4911 l
1.1734 0.4907 l
1.1755 0.4910 l
1.1775 0.4905 l
1.1796 0.4901 l
1.1817 0.4903 l
1.1838 0.4899 l
1.1858 0.4900 l
1.1879 0.4896 l
1.1900 0.4891 l
1.1921 0.4894 l
1.1941 0.4889 l
1.1962 0.4885 l
1.1983 0.4887 l
1.2004 0.4883 l
1.2024 0.4878 l
1.2045 0.4881 l
1.2066 0.4876 l
1.2087 0.4872 l
1.2107 0.4874 l
1.2128 0.4870 l
1.2149 0.4872 l
1.2170 0.4867 l
1.2190 0.4862 l
1.2211 0.4864 l
1.2232 0.4860 l
1.2253 0.4855 l
1.2273 0.4857 l
1.2294 0.4853 l
s
[/DeviceRGB] SCS
Color15 SC
n
0.1941 0.6577 m
0.1962 0.6218 l
0.1983 0.5300 l
0.2003 0.4232 l
0.2024 0.4220 l
0.2045 0.4205 l
0.2066 0.4193 l
0.2086 0.4178 l
0.2107 0.4164 l
0.2128 0.4156 l
0.2149 0.4144 l
0.2169 0.4133 l
0.2190 0.4126 l
0.2211 0.4120 l
0.2232 0.4111 l
0.2252 0.4099 l
0.2273 0.4090 l
0.2294 0.4084 l
0.2315 0.4078 l
0.2335 0.4069 l
0.2356 0.4067 l
0.2377 0.4054 l
0.2398 0.4052 l
0.2418 0.4038 l
0.2439 0.4038 l
0.2460 0.4031 l
0.2481 0.4024 l
0.2501 0.4021 l
0.2522 0.4015 l
0.2543 0.4007 l
0.2564 0.4004 l
0.2584 0.4004 l
0.2605 0.3996 l
0.2626 0.3988 l
0.2647 0.3984 l
0.2667 0.3982 l
0.2688 0.3980 l
0.2709 0.3975 l
0.2730 0.3970 l
0.2750 0.3966 l
0.2771 0.3963 l
0.2792 0.3959 l
0.2813 0.3953 l
0.2833 0.3948 l
0.2854 0.3948 l
0.2875 0.3946 l
0.2896 0.3940 l
0.2916 0.3938 l
0.2937 0.3937 l
0.2958 0.3931 l
0.2979 0.3935 l
0.2999 0.3929 l
0.3020 0.3934 l
0.3041 0.3929 l
0.3062 0.3930 l
0.3082 0.3925 l
0.3103 0.3918 l
0.3124 0.3916 l
0.3145 0.3915 l
0.3165 0.3914 l
0.3186 0.3917 l
0.3207 0.3916 l
0.3228 0.3907 l
0.3248 0.3901 l
0.3269 0.3907 l
0.3290 0.3912 l
0.3311 0.3905 l
0.3331 0.3897 l
0.3352 0.3898 l
0.3373 0.3898 l
0.3393 0.3893 l
0.3414 0.3893 l
0.3435 0.3898 l
0.3456 0.3897 l
0.3476 0.3893 l
0.3497 0.3894 l
0.3518 0.3896 l
0.3539 0.3889 l
0.3559 0.3890 l
0.3580 0.3894 l
0.3601 0.3884 l
0.3622 0.3890 l
0.3642 0.3888 l
0.3663 0.3883 l
0.3684 0.3887 l
0.3705 0.3881 l
0.3725 0.3879 l
0.3746 0.3878 l
0.3767 0.3873 l
0.3788 0.3873 l
0.3808 0.3876 l
0.3829 0.3874 l
0.3850 0.3882 l
0.3871 0.3873 l
0.3891 0.3878 l
0.3912 0.3866 l
0.3933 0.3871 l
0.3954 0.3871 l
0.3974 0.3875 l
0.3995 0.3872 l
0.4016 0.3867 l
0.4037 0.3866 l
0.4057 0.3869 l
0.4078 0.3871 l
0.4099 0.3867 l
0.4120 0.3864 l
0.4140 0.3865 l
0.4161 0.3872 l
0.4182 0.3862 l
0.4203 0.3865 l
0.4223 0.3862 l
0.4244 0.3871 l
0.4265 0.3857 l
0.4286 0.3865 l
0.4306 0.3865 l
0.4327 0.3861 l
0.4348 0.3862 l
0.4369 0.3863 l
0.4389 0.3862 l
0.4410 0.3860 l
0.4431 0.3860 l
0.4452 0.3865 l
0.4472 0.3852 l
0.4493 0.3867 l
0.4514 0.3859 l
0.4535 0.3854 l
0.4555 0.3867 l
0.4576 0.3853 l
0.4597 0.3861 l
0.4618 0.3860 l
0.4638 0.3855 l
0.4659 0.3860 l
0.4680 0.3859 l
0.4701 0.3854 l
0.4721 0.3861 l
0.4742 0.3856 l
0.4763 0.3855 l
0.4784 0.3857 l
0.4804 0.3861 l
0.4825 0.3849 l
0.4846 0.3862 l
0.4867 0.3855 l
0.4887 0.3852 l
0.4908 0.3860 l
0.4929 0.3855 l
0.4950 0.3852 l
0.4970 0.3858 l
0.4991 0.3857 l
0.5012 0.3852 l
0.5033 0.3855 l
0.5053 0.3861 l
0.5074 0.3848 l
0.5095 0.3855 l
0.5116 0.3861 l
0.5136 0.3850 l
0.5157 0.3852 l
0.5178 0.3859 l
0.5199 0.3855 l
0.5219 0.3848 l
0.5240 0.3858 l
0.5261 0.3856 l
0.5282 0.3850 l
0.5302 0.3853 l
0.5323 0.3856 l
0.5344 0.3857 l
0.5364 0.3845 l
0.5385 0.3857 l
0.5406 0.3861 l
0.5427 0.3844 l
0.5447 0.3853 l
0.5468 0.3855 l
0.5489 0.3858 l
0.5510 0.3847 l
0.5530 0.3851 l
0.5551 0.3860 l
0.5572 0.3853 l
0.5593 0.3847 l
0.5613 0.3855 l
0.5634 0.3856 l
0.5655 0.3855 l
0.5676 0.3848 l
0.5696 0.3848 l
0.5717 0.3868 l
0.5738 0.3850 l
0.5759 0.3845 l
0.5779 0.3858 l
0.5800 0.3857 l
0.5821 0.3855 l
0.5842 0.3849 l
0.5862 0.3850 l
0.5883 0.3860 l
0.5904 0.3859 l
0.5925 0.3845 l
0.5945 0.3850 l
0.5966 0.3862 l
0.5987 0.3855 l
0.6008 0.3852 l
0.6028 0.3849 l
0.6049 0.3851 l
0.6070 0.3865 l
0.6091 0.3856 l
0.6111 0.3842 l
0.6132 0.3853 l
0.6153 0.3863 l
0.6174 0.3856 l
0.6194 0.3850 l
0.6215 0.3851 l
0.6236 0.3853 l
0.6257 0.3859 l
0.6277 0.3863 l
0.6298 0.3847 l
0.6319 0.3842 l
0.6340 0.3865 l
0.6360 0.3866 l
0.6381 0.3849 l
0.6402 0.3849 l
0.6423 0.3854 l
0.6443 0.3856 l
0.6464 0.3861 l
0.6485 0.3859 l
0.6506 0.3848 l
0.6526 0.3846 l
0.6547 0.3861 l
0.6568 0.3869 l
0.6589 0.3852 l
0.6609 0.3843 l
0.6630 0.3855 l
0.6651 0.3861 l
0.6672 0.3859 l
0.6692 0.3860 l
0.6713 0.3854 l
0.6734 0.3846 l
0.6755 0.3853 l
0.6775 0.3867 l
0.6796 0.3868 l
0.6817 0.3862 l
0.6838 0.3862 l
0.6858 0.3862 l
0.6879 0.3862 l
0.6900 0.3862 l
0.6921 0.3862 l
0.6941 0.3862 l
0.6962 0.3863 l
0.6983 0.3863 l
0.7004 0.3863 l
0.7024 0.3863 l
0.7045 0.3863 l
0.7066 0.3863 l
0.7087 0.3863 l
0.7107 0.3863 l
0.7128 0.3863 l
0.7149 0.3863 l
0.7170 0.3863 l
0.7190 0.3863 l
0.7211 0.3863 l
0.7232 0.3863 l
0.7253 0.3863 l
0.7273 0.3864 l
0.7294 0.3864 l
0.7315 0.3864 l
0.7335 0.3864 l
0.7356 0.3864 l
0.7377 0.3864 l
0.7398 0.3864 l
0.7418 0.3864 l
0.7439 0.3864 l
0.7460 0.3848 l
0.7481 0.3848 l
0.7501 0.3849 l
0.7522 0.3849 l
0.7543 0.3849 l
0.7564 0.3849 l
0.7584 0.3849 l
0.7605 0.3849 l
0.7626 0.3849 l
0.7647 0.3849 l
0.7667 0.3849 l
0.7688 0.3849 l
0.7709 0.3849 l
0.7730 0.3849 l
0.7750 0.3849 l
0.7771 0.3850 l
0.7792 0.3850 l
0.7813 0.3850 l
0.7833 0.3850 l
0.7854 0.3850 l
0.7875 0.3850 l
0.7896 0.3850 l
0.7916 0.3850 l
0.7937 0.3850 l
0.7958 0.3850 l
0.7979 0.3850 l
0.7999 0.3850 l
0.8020 0.3851 l
0.8041 0.3851 l
0.8062 0.3851 l
0.8082 0.3851 l
0.8103 0.3851 l
0.8124 0.3851 l
0.8145 0.3851 l
0.8165 0.3851 l
0.8186 0.3851 l
0.8207 0.3851 l
0.8228 0.3852 l
0.8248 0.3852 l
0.8269 0.3852 l
0.8290 0.3852 l
0.8311 0.3852 l
0.8331 0.3852 l
0.8352 0.3852 l
0.8373 0.3852 l
0.8394 0.3852 l
0.8414 0.3852 l
0.8435 0.3853 l
0.8456 0.3853 l
0.8477 0.3853 l
0.8497 0.3853 l
0.8518 0.3853 l
0.8539 0.3853 l
0.8560 0.3853 l
0.8580 0.3853 l
0.8601 0.3853 l
0.8622 0.3853 l
0.8643 0.3854 l
0.8663 0.3854 l
0.8684 0.3854 l
0.8705 0.3854 l
0.8726 0.3854 l
0.8746 0.3854 l
0.8767 0.3854 l
0.8788 0.3854 l
0.8809 0.3855 l
0.8829 0.3855 l
0.8850 0.3855 l
0.8871 0.3855 l
0.8892 0.3855 l
0.8912 0.3855 l
0.8933 0.3855 l
0.8954 0.3855 l
0.8975 0.3855 l
0.8995 0.3856 l
0.9016 0.3856 l
0.9037 0.3856 l
0.9058 0.3856 l
0.9078 0.3856 l
0.9099 0.3856 l
0.9120 0.3856 l
0.9141 0.3857 l
0.9161 0.3857 l
0.9182 0.3857 l
0.9203 0.3857 l
0.9224 0.3857 l
0.9244 0.3857 l
0.9265 0.3857 l
0.9286 0.3857 l
0.9306 0.3858 l
0.9327 0.3858 l
0.9348 0.3858 l
0.9369 0.3858 l
0.9389 0.3858 l
0.9410 0.3858 l
0.9431 0.3858 l
0.9452 0.3859 l
0.9472 0.3859 l
0.9493 0.3859 l
0.9514 0.3859 l
0.9535 0.3859 l
0.9555 0.3859 l
0.9576 0.3859 l
0.9597 0.3860 l
0.9618 0.3860 l
0.9638 0.3860 l
0.9659 0.3860 l
0.9680 0.3860 l
0.9701 0.3860 l
0.9721 0.3861 l
0.9742 0.3861 l
0.9763 0.3861 l
0.9784 0.3861 l
0.9804 0.3861 l
0.9825 0.3861 l
0.9846 0.3861 l
0.9867 0.3862 l
0.9887 0.3862 l
0.9908 0.3862 l
0.9929 0.3862 l
0.9950 0.3862 l
0.9970 0.3863 l
0.9991 0.3863 l
1.0012 0.3863 l
1.0033 0.3863 l
1.0053 0.3863 l
1.0074 0.3863 l
1.0095 0.3864 l
1.0116 0.3864 l
1.0136 0.3864 l
1.0157 0.3864 l
1.0178 0.3864 l
1.0199 0.3864 l
1.0219 0.3865 l
1.0240 0.3865 l
1.0261 0.3865 l
1.0282 0.3865 l
1.0302 0.3866 l
1.0323 0.3866 l
1.0344 0.3866 l
1.0365 0.3866 l
1.0385 0.3866 l
1.0406 0.3866 l
1.0427 0.3867 l
1.0448 0.3867 l
1.0468 0.3867 l
1.0489 0.3867 l
1.0510 0.3867 l
1.0531 0.3868 l
1.0551 0.3868 l
1.0572 0.3868 l
1.0593 0.3868 l
1.0614 0.3851 l
1.0634 0.3852 l
1.0655 0.3852 l
1.0676 0.3852 l
1.0697 0.3852 l
1.0717 0.3852 l
1.0738 0.3853 l
1.0759 0.3853 l
1.0780 0.3853 l
1.0800 0.3853 l
1.0821 0.3854 l
1.0842 0.3854 l
1.0863 0.3854 l
1.0883 0.3854 l
1.0904 0.3855 l
1.0925 0.3855 l
1.0946 0.3855 l
1.0966 0.3855 l
1.0987 0.3855 l
1.1008 0.3856 l
1.1029 0.3856 l
1.1049 0.3856 l
1.1070 0.3856 l
1.1091 0.3857 l
1.1112 0.3857 l
1.1132 0.3857 l
1.1153 0.3854 l
1.1174 0.3838 l
1.1195 0.3838 l
1.1215 0.3841 l
1.1236 0.3844 l
1.1257 0.3845 l
1.1277 0.3845 l
1.1298 0.3846 l
1.1319 0.3848 l
1.1340 0.3853 l
1.1360 0.3858 l
1.1381 0.3859 l
1.1402 0.3855 l
1.1423 0.3846 l
1.1443 0.3836 l
1.1464 0.3832 l
1.1485 0.3836 l
1.1506 0.3848 l
1.1526 0.3861 l
1.1547 0.3869 l
1.1568 0.3867 l
1.1589 0.3858 l
1.1609 0.3847 l
1.1630 0.3840 l
1.1651 0.3839 l
1.1672 0.3844 l
1.1692 0.3852 l
1.1713 0.3857 l
1.1734 0.3859 l
1.1755 0.3858 l
1.1775 0.3857 l
1.1796 0.3858 l
1.1817 0.3860 l
1.1838 0.3859 l
1.1858 0.3854 l
1.1879 0.3847 l
1.1900 0.3843 l
1.1921 0.3846 l
1.1941 0.3856 l
1.1962 0.3867 l
1.1983 0.3874 l
1.2004 0.3872 l
1.2024 0.3861 l
1.2045 0.3849 l
1.2066 0.3841 l
1.2087 0.3844 l
1.2107 0.3855 l
1.2128 0.3866 l
1.2149 0.3871 l
1.2170 0.3870 l
1.2190 0.3844 l
1.2211 0.3840 l
1.2232 0.3840 l
1.2253 0.3840 l
1.2273 0.3839 l
1.2294 0.3837 l
s
[/DeviceRGB] SCS
Color11 SC
n
0.1941 0.3203 m
0.1962 0.3186 l
0.1983 0.3244 l
0.2003 0.3181 l
0.2024 0.3186 l
0.2045 0.3264 l
0.2066 0.3171 l
0.2086 0.3117 l
0.2107 0.3162 l
0.2128 0.3154 l
0.2149 0.3116 l
0.2169 0.3099 l
0.2190 0.3120 l
0.2211 0.3152 l
0.2232 0.3150 l
0.2252 0.3118 l
0.2273 0.3141 l
0.2294 0.3210 l
0.2315 0.3164 l
0.2335 0.3047 l
0.2356 0.3175 l
0.2377 0.3130 l
0.2398 0.3143 l
0.2418 0.3093 l
0.2439 0.3169 l
0.2460 0.3103 l
0.2481 0.3112 l
0.2501 0.3160 l
0.2522 0.3105 l
0.2543 0.3092 l
0.2564 0.3149 l
0.2584 0.3133 l
0.2605 0.3133 l
0.2626 0.3080 l
0.2647 0.3028 l
0.2667 0.3141 l
0.2688 0.3236 l
0.2709 0.3193 l
0.2730 0.3082 l
0.2750 0.3008 l
0.2771 0.3016 l
0.2792 0.3062 l
0.2813 0.3096 l
0.2833 0.3104 l
0.2854 0.3089 l
0.2875 0.3061 l
0.2896 0.3031 l
0.2916 0.3006 l
0.2937 0.2992 l
0.2958 0.2997 l
0.2979 0.3026 l
0.2999 0.3077 l
0.3020 0.3139 l
0.3041 0.3191 l
0.3062 0.3214 l
0.3082 0.3199 l
0.3103 0.3151 l
0.3124 0.3101 l
0.3145 0.3088 l
0.3165 0.3108 l
0.3186 0.3114 l
0.3207 0.3074 l
0.3228 0.3031 l
0.3248 0.3088 l
0.3269 0.3206 l
0.3290 0.3207 l
0.3311 0.3016 l
0.3331 0.2945 l
0.3352 0.3155 l
0.3373 0.3228 l
0.3393 0.3072 l
0.3414 0.2983 l
0.3435 0.3139 l
0.3456 0.3189 l
0.3476 0.3061 l
0.3497 0.3041 l
0.3518 0.3168 l
0.3539 0.3120 l
0.3559 0.3052 l
0.3580 0.3133 l
0.3601 0.3103 l
0.3622 0.3123 l
0.3642 0.3079 l
0.3663 0.3109 l
0.3684 0.3143 l
0.3705 0.3051 l
0.3725 0.3133 l
0.3746 0.3126 l
0.3767 0.3055 l
0.3788 0.3144 l
0.3808 0.3119 l
0.3829 0.3018 l
0.3850 0.3234 l
0.3871 0.2897 l
0.3891 0.3257 l
0.3912 0.2983 l
0.3933 0.3149 l
0.3954 0.3110 l
0.3974 0.3076 l
0.3995 0.3141 l
0.4016 0.3077 l
0.4037 0.3119 l
0.4057 0.3111 l
0.4078 0.3084 l
0.4099 0.3112 l
0.4120 0.3037 l
0.4140 0.3096 l
0.4161 0.3013 l
0.4182 0.3085 l
0.4203 0.3051 l
0.4223 0.3032 l
0.4244 0.3078 l
0.4265 0.3054 l
0.4286 0.3089 l
0.4306 0.3084 l
0.4327 0.3032 l
0.4348 0.3050 l
0.4369 0.3011 l
0.4389 0.2907 l
0.4410 0.2873 l
0.4431 0.2724 l
0.4452 0.2947 l
0.4472 0.2853 l
0.4493 0.2850 l
0.4514 0.2968 l
0.4535 0.2303 l
0.4555 0.3066 l
0.4576 0.2712 l
0.4597 0.2900 l
0.4618 0.2993 l
0.4638 0.2793 l
0.4659 0.2949 l
0.4680 0.2946 l
0.4701 0.2628 l
0.4721 0.2987 l
0.4742 0.2943 l
0.4763 0.2434 l
0.4784 0.3023 l
0.4804 0.2574 l
0.4825 0.2564 l
0.4846 0.3032 l
0.4867 0.2559 l
0.4887 0.2884 l
0.4908 0.3055 l
0.4929 0.2860 l
0.4950 0.2908 l
0.4970 0.3056 l
0.4991 0.2962 l
0.5012 0.2897 l
0.5033 0.3039 l
0.5053 0.2948 l
0.5074 0.2807 l
0.5095 0.2934 l
0.5116 0.2902 l
0.5136 0.2857 l
0.5157 0.2921 l
0.5178 0.2994 l
0.5199 0.3029 l
0.5219 0.2990 l
0.5240 0.3020 l
0.5261 0.3112 l
0.5282 0.3057 l
0.5302 0.2944 l
0.5323 0.3035 l
0.5344 0.3112 l
0.5364 0.2875 l
0.5385 0.2874 l
0.5406 0.3200 l
0.5427 0.3043 l
0.5447 0.2669 l
0.5468 0.3106 l
0.5489 0.3193 l
0.5510 0.2870 l
0.5530 0.2906 l
0.5551 0.3207 l
0.5572 0.3174 l
0.5593 0.2837 l
0.5613 0.2942 l
0.5634 0.3254 l
0.5655 0.3148 l
0.5676 0.2685 l
0.5696 0.3008 l
0.5717 0.3342 l
0.5738 0.3068 l
0.5759 0.2582 l
0.5779 0.3054 l
0.5800 0.3254 l
0.5821 0.2948 l
0.5842 0.2528 l
0.5862 0.2963 l
0.5883 0.3189 l
0.5904 0.2969 l
0.5925 0.2404 l
0.5945 0.2814 l
0.5966 0.3154 l
0.5987 0.2976 l
0.6008 0.2104 l
0.6028 0.2459 l
0.6049 0.3090 l
0.6070 0.3066 l
0.6091 0.2425 l
0.6111 0.2349 l
0.6132 0.2885 l
0.6153 0.3039 l
0.6174 0.2822 l
0.6194 0.2508 l
0.6215 0.2668 l
0.6236 0.2995 l
0.6257 0.2960 l
0.6277 0.2545 l
0.6298 0.2331 l
0.6319 0.2693 l
0.6340 0.2794 l
0.6360 0.2763 l
0.6381 0.2378 l
0.6402 0.2563 l
0.6423 0.2847 l
0.6443 0.2862 l
0.6464 0.2811 l
0.6485 0.2802 l
0.6506 0.2806 l
0.6526 0.2790 l
0.6547 0.2801 l
0.6568 0.6362 l
0.6589 0.6361 l
0.6609 0.6361 l
0.6630 0.6363 l
0.6651 0.6363 l
0.6672 0.6363 l
0.6692 0.6751 l
0.6713 0.6750 l
0.6734 0.6751 l
0.6755 0.6751 l
0.6775 0.6751 l
0.6796 0.6751 l
0.6817 0.6973 l
0.6838 0.6973 l
0.6858 0.6973 l
0.6879 0.6973 l
0.6900 0.6973 l
0.6921 0.6973 l
0.6941 0.7127 l
0.6962 0.7127 l
0.6983 0.7127 l
0.7004 0.7127 l
0.7024 0.7127 l
0.7045 0.7127 l
0.7066 0.7244 l
0.7087 0.7244 l
0.7107 0.7244 l
0.7128 0.7244 l
0.7149 0.7244 l
0.7170 0.7244 l
0.7190 0.7244 l
0.7211 0.7244 l
0.7232 0.7244 l
0.7253 0.7244 l
0.7273 0.7244 l
0.7294 0.7244 l
0.7315 0.7244 l
0.7335 0.7244 l
0.7356 0.7244 l
0.7377 0.7244 l
0.7398 0.7244 l
0.7418 0.7244 l
0.7439 0.7244 l
0.7460 0.7244 l
0.7481 0.7244 l
0.7501 0.7244 l
0.7522 0.7244 l
0.7543 0.7244 l
0.7564 0.7244 l
0.7584 0.7244 l
0.7605 0.7244 l
0.7626 0.7244 l
0.7647 0.7245 l
0.7667 0.7245 l
0.7688 0.7245 l
0.7709 0.7245 l
0.7730 0.7245 l
0.7750 0.7245 l
0.7771 0.7245 l
0.7792 0.7245 l
0.7813 0.7245 l
0.7833 0.7245 l
0.7854 0.7245 l
0.7875 0.7245 l
0.7896 0.7245 l
0.7916 0.7245 l
0.7937 0.7245 l
0.7958 0.7245 l
0.7979 0.7245 l
0.7999 0.7245 l
0.8020 0.7245 l
0.8041 0.7245 l
0.8062 0.7245 l
0.8082 0.7245 l
0.8103 0.7245 l
0.8124 0.7245 l
0.8145 0.7245 l
0.8165 0.7245 l
0.8186 0.7245 l
0.8207 0.7245 l
0.8228 0.7245 l
0.8248 0.7245 l
0.8269 0.7245 l
0.8290 0.7245 l
0.8311 0.7245 l
0.8331 0.7245 l
0.8352 0.7245 l
0.8373 0.7245 l
0.8394 0.7245 l
0.8414 0.7245 l
0.8435 0.7246 l
0.8456 0.7246 l
0.8477 0.7246 l
0.8497 0.7246 l
0.8518 0.7246 l
0.8539 0.7246 l
0.8560 0.7246 l
0.8580 0.7246 l
0.8601 0.7246 l
0.8622 0.7246 l
0.8643 0.7246 l
0.8663 0.7246 l
0.8684 0.7246 l
0.8705 0.7246 l
0.8726 0.7246 l
0.8746 0.7246 l
0.8767 0.7246 l
0.8788 0.7246 l
0.8809 0.7246 l
0.8829 0.7246 l
0.8850 0.7246 l
0.8871 0.7246 l
0.8892 0.7246 l
0.8912 0.7246 l
0.8933 0.7246 l
0.8954 0.7246 l
0.8975 0.7246 l
0.8995 0.7246 l
0.9016 0.7246 l
0.9037 0.7247 l
0.9058 0.7247 l
0.9078 0.7247 l
0.9099 0.7247 l
0.9120 0.7247 l
0.9141 0.7247 l
0.9161 0.7247 l
0.9182 0.7247 l
0.9203 0.7247 l
0.9224 0.7247 l
0.9244 0.7247 l
0.9265 0.7247 l
0.9286 0.7247 l
0.9306 0.7247 l
0.9327 0.7247 l
0.9348 0.7247 l
0.9369 0.7247 l
0.9389 0.7247 l
0.9410 0.7247 l
0.9431 0.7247 l
0.9452 0.7247 l
0.9472 0.7247 l
0.9493 0.7247 l
0.9514 0.7247 l
0.9535 0.7247 l
0.9555 0.7248 l
0.9576 0.7248 l
0.9597 0.7248 l
0.9618 0.7248 l
0.9638 0.7248 l
0.9659 0.7248 l
0.9680 0.7248 l
0.9701 0.7248 l
0.9721 0.7248 l
0.9742 0.7248 l
0.9763 0.7248 l
0.9784 0.7248 l
0.9804 0.7248 l
0.9825 0.7248 l
0.9846 0.7248 l
0.9867 0.7248 l
0.9887 0.7248 l
0.9908 0.7248 l
0.9929 0.7248 l
0.9950 0.7248 l
0.9970 0.7248 l
0.9991 0.7248 l
1.0012 0.7249 l
1.0033 0.7249 l
1.0053 0.7249 l
1.0074 0.7249 l
1.0095 0.7249 l
1.0116 0.7249 l
1.0136 0.7249 l
1.0157 0.7249 l
1.0178 0.7249 l
1.0199 0.7249 l
1.0219 0.7249 l
1.0240 0.7249 l
1.0261 0.7249 l
1.0282 0.7249 l
1.0302 0.7249 l
1.0323 0.7249 l
1.0344 0.7249 l
1.0365 0.7249 l
1.0385 0.7249 l
1.0406 0.7250 l
1.0427 0.7250 l
1.0448 0.7250 l
1.0468 0.7250 l
1.0489 0.7250 l
1.0510 0.7250 l
1.0531 0.7250 l
1.0551 0.7250 l
1.0572 0.7250 l
1.0593 0.7250 l
1.0614 0.7250 l
1.0634 0.7250 l
1.0655 0.7250 l
1.0676 0.7250 l
1.0697 0.7250 l
1.0717 0.7250 l
1.0738 0.7251 l
1.0759 0.7251 l
1.0780 0.7251 l
1.0800 0.7251 l
1.0821 0.7251 l
1.0842 0.7251 l
1.0863 0.7251 l
1.0883 0.7251 l
1.0904 0.7251 l
1.0925 0.7251 l
1.0946 0.7251 l
1.0966 0.7251 l
1.0987 0.7251 l
1.1008 0.7251 l
1.1029 0.7251 l
1.1049 0.7252 l
1.1070 0.7252 l
1.1091 0.7252 l
1.1112 0.7252 l
1.1132 0.7252 l
1.1153 0.7252 l
1.1174 0.7252 l
1.1195 0.7252 l
1.1215 0.7252 l
1.1236 0.7252 l
1.1257 0.7252 l
1.1277 0.7252 l
1.1298 0.7252 l
1.1319 0.7252 l
1.1340 0.7252 l
1.1360 0.7252 l
1.1381 0.7252 l
1.1402 0.7253 l
1.1423 0.7253 l
1.1443 0.7253 l
1.1464 0.7253 l
1.1485 0.7253 l
1.1506 0.7253 l
1.1526 0.7137 l
1.1547 0.7137 l
1.1568 0.7253 l
1.1589 0.7253 l
1.1609 0.7253 l
1.1630 0.7253 l
1.1651 0.7253 l
1.1672 0.7254 l
1.1692 0.7137 l
1.1713 0.7138 l
1.1734 0.7138 l
1.1755 0.7138 l
1.1775 0.7138 l
1.1796 0.7138 l
1.1817 0.7254 l
1.1838 0.7254 l
1.1858 0.7138 l
1.1879 0.7138 l
1.1900 0.7138 l
1.1921 0.7138 l
1.1941 0.7138 l
1.1962 0.7138 l
1.1983 0.7139 l
1.2004 0.7139 l
1.2024 0.7139 l
1.2045 0.7139 l
1.2066 0.7139 l
1.2087 0.7139 l
1.2107 0.7139 l
1.2128 0.7139 l
1.2149 0.7140 l
1.2170 0.7140 l
1.2190 0.7140 l
1.2211 0.7140 l
1.2232 0.7140 l
1.2253 0.7140 l
1.2273 0.7140 l
1.2294 0.7140 l
s
[/DeviceRGB] SCS
Color10 SC
n
0.2045 0.1499 m
0.2045 0.3746 l
0.2066 0.3362 l
0.2066 0.1499 l
s
n
0.2107 0.1499 m
0.2107 0.3135 l
0.2128 0.3374 l
0.2149 0.2909 l
0.2169 0.3693 l
0.2190 0.3645 l
0.2211 0.3813 l
0.2232 0.4101 l
0.2252 0.4267 l
0.2273 0.3914 l
0.2294 0.3770 l
0.2315 0.3956 l
0.2335 0.3382 l
0.2356 0.3390 l
0.2377 0.4210 l
0.2398 0.4549 l
0.2418 0.4580 l
0.2439 0.4575 l
0.2460 0.4309 l
0.2481 0.4383 l
0.2501 0.4252 l
0.2522 0.4147 l
0.2543 0.4242 l
0.2564 0.4175 l
0.2584 0.4339 l
0.2605 0.4442 l
0.2626 0.4549 l
0.2647 0.4454 l
0.2667 0.4446 l
0.2688 0.4357 l
0.2709 0.4559 l
0.2730 0.4336 l
0.2750 0.4044 l
0.2771 0.3924 l
0.2792 0.3908 l
0.2813 0.4006 l
0.2833 0.3912 l
0.2854 0.3898 l
0.2875 0.3728 l
0.2896 0.3580 l
0.2916 0.3485 l
0.2937 0.3302 l
0.2958 0.3840 l
0.2979 0.3932 l
0.2999 0.4305 l
0.3020 0.4146 l
0.3041 0.4125 l
0.3062 0.4146 l
0.3082 0.4014 l
0.3103 0.3770 l
0.3124 0.3829 l
0.3145 0.3609 l
0.3165 0.3658 l
0.3186 0.4092 l
0.3207 0.4322 l
0.3228 0.4501 l
0.3248 0.4640 l
0.3269 0.4848 l
0.3290 0.4574 l
0.3311 0.4853 l
0.3331 0.4536 l
0.3352 0.4998 l
0.3373 0.4896 l
0.3393 0.4628 l
0.3414 0.4926 l
0.3435 0.4855 l
0.3456 0.4910 l
0.3476 0.4901 l
0.3497 0.4924 l
0.3518 0.4791 l
0.3539 0.4789 l
0.3559 0.4737 l
0.3580 0.4961 l
0.3601 0.4974 l
0.3622 0.4976 l
0.3642 0.5125 l
0.3663 0.5271 l
0.3684 0.5269 l
0.3705 0.4815 l
0.3725 0.4552 l
0.3746 0.5050 l
0.3767 0.5168 l
0.3788 0.4858 l
0.3808 0.4713 l
0.3829 0.5167 l
0.3850 0.4843 l
0.3871 0.4806 l
0.3891 0.5040 l
0.3912 0.4956 l
0.3933 0.5182 l
0.3954 0.5067 l
0.3974 0.4896 l
0.3995 0.4926 l
0.4016 0.4815 l
0.4037 0.5019 l
0.4057 0.4910 l
0.4078 0.4642 l
0.4099 0.4791 l
0.4120 0.4979 l
0.4140 0.4819 l
0.4161 0.4753 l
0.4182 0.4870 l
0.4203 0.5169 l
0.4223 0.5067 l
0.4244 0.4916 l
0.4265 0.4994 l
0.4286 0.4806 l
0.4306 0.4665 l
0.4327 0.4483 l
0.4348 0.4460 l
0.4369 0.4532 l
0.4389 0.4369 l
0.4410 0.4441 l
0.4431 0.4668 l
0.4452 0.4789 l
0.4472 0.4817 l
0.4493 0.4992 l
0.4514 0.5013 l
0.4535 0.4724 l
0.4555 0.4710 l
0.4576 0.4475 l
0.4597 0.4520 l
0.4618 0.4342 l
0.4638 0.4253 l
0.4659 0.4241 l
0.4680 0.4160 l
0.4701 0.4308 l
0.4721 0.4457 l
0.4742 0.4398 l
0.4763 0.4531 l
0.4784 0.4724 l
0.4804 0.4659 l
0.4825 0.4757 l
0.4846 0.4556 l
0.4867 0.4352 l
0.4887 0.4403 l
0.4908 0.4308 l
0.4929 0.3880 l
0.4950 0.3605 l
0.4970 0.3525 l
0.4991 0.3459 l
0.5012 0.3749 l
0.5033 0.3972 l
0.5053 0.4284 l
0.5074 0.4505 l
0.5095 0.4604 l
0.5116 0.4578 l
0.5136 0.4571 l
0.5157 0.4419 l
0.5178 0.4154 l
0.5199 0.3796 l
0.5219 0.3272 l
0.5240 0.2010 l
0.5258 0.1499 l
s
n
0.5262 0.1499 m
0.5282 0.3141 l
0.5302 0.2218 l
0.5323 0.1562 l
0.5344 0.3821 l
0.5364 0.3881 l
0.5385 0.4089 l
0.5406 0.4230 l
0.5427 0.4145 l
0.5447 0.3106 l
0.5468 0.3034 l
0.5489 0.3246 l
0.5510 0.2232 l
0.5530 0.3205 l
0.5551 0.2358 l
0.5572 0.1896 l
0.5593 0.2720 l
0.5613 0.2384 l
0.5634 0.3279 l
0.5655 0.2436 l
0.5676 0.3289 l
0.5696 0.3434 l
0.5717 0.3100 l
0.5738 0.3861 l
0.5759 0.3010 l
0.5779 0.3686 l
0.5800 0.2843 l
0.5821 0.3456 l
0.5842 0.3443 l
0.5862 0.3079 l
0.5883 0.3430 l
0.5904 0.2733 l
0.5925 0.3211 l
0.5945 0.3705 l
0.5966 0.3913 l
0.5987 0.3506 l
0.6008 0.4049 l
0.6028 0.4138 l
0.6049 0.3731 l
0.6070 0.4171 l
0.6091 0.3467 l
0.6111 0.3847 l
0.6132 0.4089 l
0.6153 0.3503 l
0.6174 0.3783 l
0.6194 0.3961 l
0.6215 0.3503 l
0.6236 0.3811 l
0.6257 0.4103 l
0.6277 0.4204 l
0.6298 0.3931 l
0.6319 0.4238 l
0.6340 0.4448 l
0.6360 0.3896 l
0.6381 0.4177 l
0.6402 0.4360 l
0.6423 0.3853 l
0.6443 0.4072 l
0.6464 0.4185 l
0.6485 0.3794 l
0.6506 0.3997 l
0.6526 0.4222 l
0.6547 0.4344 l
0.6568 0.4063 l
0.6589 0.4282 l
0.6609 0.4416 l
0.6630 0.4647 l
0.6651 0.4129 l
0.6672 0.4369 l
0.6692 0.4597 l
0.6713 0.4534 l
0.6734 0.4278 l
0.6755 0.4384 l
0.6775 0.4425 l
0.6796 0.4410 l
0.6817 0.4680 l
0.6838 0.4680 l
0.6858 0.4680 l
0.6879 0.4680 l
0.6900 0.4680 l
0.6921 0.4680 l
0.6941 0.4680 l
0.6962 0.4680 l
0.6983 0.4680 l
0.7004 0.4680 l
0.7024 0.4680 l
0.7045 0.4680 l
0.7066 0.4680 l
0.7087 0.4680 l
0.7107 0.4680 l
0.7128 0.4680 l
0.7149 0.4680 l
0.7170 0.4680 l
0.7190 0.4680 l
0.7211 0.4680 l
0.7232 0.4679 l
0.7253 0.4679 l
0.7273 0.4679 l
0.7294 0.4679 l
0.7315 0.4679 l
0.7335 0.4679 l
0.7356 0.4679 l
0.7377 0.4679 l
0.7398 0.4679 l
0.7418 0.4679 l
0.7439 0.4679 l
0.7460 0.4679 l
0.7481 0.4679 l
0.7501 0.4679 l
0.7522 0.4679 l
0.7543 0.4679 l
0.7564 0.4679 l
0.7584 0.4679 l
0.7605 0.4679 l
0.7626 0.4679 l
0.7647 0.4679 l
0.7667 0.4679 l
0.7688 0.4679 l
0.7709 0.4678 l
0.7730 0.4678 l
0.7750 0.4678 l
0.7771 0.4678 l
0.7792 0.4678 l
0.7813 0.4678 l
0.7833 0.4678 l
0.7854 0.4678 l
0.7875 0.4678 l
0.7896 0.4678 l
0.7916 0.4678 l
0.7937 0.4678 l
0.7958 0.4678 l
0.7979 0.4678 l
0.7999 0.4678 l
0.8020 0.4678 l
0.8041 0.4678 l
0.8062 0.4678 l
0.8082 0.4678 l
0.8103 0.4678 l
0.8124 0.4677 l
0.8145 0.4677 l
0.8165 0.4677 l
0.8186 0.4677 l
0.8207 0.4677 l
0.8228 0.4677 l
0.8248 0.4677 l
0.8269 0.4677 l
0.8290 0.4677 l
0.8311 0.4677 l
0.8331 0.4677 l
0.8352 0.4677 l
0.8373 0.4677 l
0.8394 0.4677 l
0.8414 0.4677 l
0.8435 0.4677 l
0.8456 0.4677 l
0.8477 0.4676 l
0.8497 0.4676 l
0.8518 0.4676 l
0.8539 0.4676 l
0.8560 0.4676 l
0.8580 0.4676 l
0.8601 0.4676 l
0.8622 0.4676 l
0.8643 0.4676 l
0.8663 0.4676 l
0.8684 0.4676 l
0.8705 0.4676 l
0.8726 0.4676 l
0.8746 0.4676 l
0.8767 0.4676 l
0.8788 0.4675 l
0.8809 0.4675 l
0.8829 0.4675 l
0.8850 0.4675 l
0.8871 0.4675 l
0.8892 0.4675 l
0.8912 0.4675 l
0.8933 0.4675 l
0.8954 0.4675 l
0.8975 0.4675 l
0.8995 0.4675 l
0.9016 0.4675 l
0.9037 0.4675 l
0.9058 0.4675 l
0.9078 0.4674 l
0.9099 0.4674 l
0.9120 0.4674 l
0.9141 0.4674 l
0.9161 0.4674 l
0.9182 0.4674 l
0.9203 0.4674 l
0.9224 0.4674 l
0.9244 0.4674 l
0.9265 0.4674 l
0.9286 0.4674 l
0.9306 0.4674 l
0.9327 0.4673 l
0.9348 0.4673 l
0.9369 0.4673 l
0.9389 0.4673 l
0.9410 0.4673 l
0.9431 0.4673 l
0.9452 0.4673 l
0.9472 0.4673 l
0.9493 0.4673 l
0.9514 0.4673 l
0.9535 0.4673 l
0.9555 0.4673 l
0.9576 0.4672 l
0.9597 0.4672 l
0.9618 0.4672 l
0.9638 0.4672 l
0.9659 0.4672 l
0.9680 0.4672 l
0.9701 0.4672 l
0.9721 0.4672 l
0.9742 0.4672 l
0.9763 0.4672 l
0.9784 0.4671 l
0.9804 0.4671 l
0.9825 0.4671 l
0.9846 0.4671 l
0.9867 0.4671 l
0.9887 0.4671 l
0.9908 0.4671 l
0.9929 0.4671 l
0.9950 0.4671 l
0.9970 0.4671 l
0.9991 0.4670 l
1.0012 0.4670 l
1.0033 0.4670 l
1.0053 0.4670 l
1.0074 0.4670 l
1.0095 0.4670 l
1.0116 0.4670 l
1.0136 0.4670 l
1.0157 0.4670 l
1.0178 0.4670 l
1.0199 0.4669 l
1.0219 0.4669 l
1.0240 0.4669 l
1.0261 0.4669 l
1.0282 0.4669 l
1.0302 0.4669 l
1.0323 0.4669 l
1.0344 0.4669 l
1.0365 0.4668 l
1.0385 0.4668 l
1.0406 0.4668 l
1.0427 0.4668 l
1.0448 0.4668 l
1.0468 0.4668 l
1.0489 0.4668 l
1.0510 0.4668 l
1.0531 0.4668 l
1.0551 0.4667 l
1.0572 0.4667 l
1.0593 0.4667 l
1.0614 0.4667 l
1.0634 0.4667 l
1.0655 0.4667 l
1.0676 0.4667 l
1.0697 0.4666 l
1.0717 0.4666 l
1.0738 0.4666 l
1.0759 0.4666 l
1.0780 0.4666 l
1.0800 0.4666 l
1.0821 0.4666 l
1.0842 0.4666 l
1.0863 0.4665 l
1.0883 0.4665 l
1.0904 0.4665 l
1.0925 0.4665 l
1.0946 0.4665 l
1.0966 0.4665 l
1.0987 0.4665 l
1.1008 0.4664 l
1.1029 0.4664 l
1.1049 0.4664 l
1.1070 0.4664 l
1.1091 0.4664 l
1.1112 0.4664 l
1.1132 0.4664 l
1.1153 0.4143 l
1.1174 0.4407 l
1.1195 0.4330 l
1.1215 0.4231 l
1.1236 0.4601 l
1.1257 0.4641 l
1.1277 0.4652 l
1.1298 0.4562 l
1.1319 0.4422 l
1.1340 0.4347 l
1.1360 0.4222 l
1.1381 0.4105 l
1.1402 0.4502 l
1.1423 0.4627 l
1.1443 0.4552 l
1.1464 0.4422 l
1.1485 0.4388 l
1.1506 0.4197 l
1.1526 0.4182 l
1.1547 0.4467 l
1.1568 0.4640 l
1.1589 0.4602 l
1.1609 0.4466 l
1.1630 0.4241 l
1.1651 0.4235 l
1.1672 0.4047 l
1.1692 0.4024 l
1.1713 0.4598 l
1.1734 0.4449 l
1.1755 0.4435 l
1.1775 0.4297 l
1.1796 0.4168 l
1.1817 0.4008 l
1.1838 0.4238 l
1.1858 0.4537 l
1.1879 0.4501 l
1.1900 0.4378 l
1.1921 0.4208 l
1.1941 0.4072 l
1.1962 0.3936 l
1.1983 0.3781 l
1.2004 0.4423 l
1.2024 0.4490 l
1.2045 0.4340 l
1.2066 0.4058 l
1.2087 0.3946 l
1.2107 0.3772 l
1.2128 0.4338 l
1.2149 0.4422 l
1.2170 0.4336 l
1.2190 0.4187 l
1.2211 0.3923 l
1.2232 0.3760 l
1.2253 0.3611 l
1.2273 0.4414 l
1.2294 0.4320 l
s
[/DeviceRGB] SCS
Color1 SC
n
0.1941 0.1500 m
1.2294 0.1500 l
s
n
0.1941 0.9500 m
1.2294 0.9500 l
s
[] 0 SD
0.0023 SLW
n
0.2564 0.1500 m
0.2564 0.1700 l
s
n
0.2564 0.9500 m
0.2564 0.9300 l
s
n
0.2929 0.1500 m
0.2929 0.1700 l
s
n
0.2929 0.9500 m
0.2929 0.9300 l
s
n
0.3188 0.1500 m
0.3188 0.1700 l
s
n
0.3188 0.9500 m
0.3188 0.9300 l
s
n
0.3388 0.1500 m
0.3388 0.1700 l
s
n
0.3388 0.9500 m
0.3388 0.9300 l
s
n
0.3552 0.1500 m
0.3552 0.1700 l
s
n
0.3552 0.9500 m
0.3552 0.9300 l
s
n
0.3691 0.1500 m
0.3691 0.1700 l
s
n
0.3691 0.9500 m
0.3691 0.9300 l
s
n
0.3811 0.1500 m
0.3811 0.1700 l
s
n
0.3811 0.9500 m
0.3811 0.9300 l
s
n
0.3917 0.1500 m
0.3917 0.1700 l
s
n
0.3917 0.9500 m
0.3917 0.9300 l
s
n
0.4635 0.1500 m
0.4635 0.1700 l
s
n
0.4635 0.9500 m
0.4635 0.9300 l
s
n
0.5000 0.1500 m
0.5000 0.1700 l
s
n
0.5000 0.9500 m
0.5000 0.9300 l
s
n
0.5258 0.1500 m
0.5258 0.1700 l
s
n
0.5258 0.9500 m
0.5258 0.9300 l
s
n
0.5459 0.1500 m
0.5459 0.1700 l
s
n
0.5459 0.9500 m
0.5459 0.9300 l
s
n
0.5623 0.1500 m
0.5623 0.1700 l
s
n
0.5623 0.9500 m
0.5623 0.9300 l
s
n
0.5762 0.1500 m
0.5762 0.1700 l
s
n
0.5762 0.9500 m
0.5762 0.9300 l
s
n
0.5882 0.1500 m
0.5882 0.1700 l
s
n
0.5882 0.9500 m
0.5882 0.9300 l
s
n
0.5988 0.1500 m
0.5988 0.1700 l
s
n
0.5988 0.9500 m
0.5988 0.9300 l
s
n
0.6706 0.1500 m
0.6706 0.1700 l
s
n
0.6706 0.9500 m
0.6706 0.9300 l
s
n
0.7070 0.1500 m
0.7070 0.1700 l
s
n
0.7070 0.9500 m
0.7070 0.9300 l
s
n
0.7329 0.1500 m
0.7329 0.1700 l
s
n
0.7329 0.9500 m
0.7329 0.9300 l
s
n
0.7530 0.1500 m
0.7530 0.1700 l
s
n
0.7530 0.9500 m
0.7530 0.9300 l
s
n
0.7694 0.1500 m
0.7694 0.1700 l
s
n
0.7694 0.9500 m
0.7694 0.9300 l
s
n
0.7832 0.1500 m
0.7832 0.1700 l
s
n
0.7832 0.9500 m
0.7832 0.9300 l
s
n
0.7952 0.1500 m
0.7952 0.1700 l
s
n
0.7952 0.9500 m
0.7952 0.9300 l
s
n
0.8058 0.1500 m
0.8058 0.1700 l
s
n
0.8058 0.9500 m
0.8058 0.9300 l
s
n
0.8776 0.1500 m
0.8776 0.1700 l
s
n
0.8776 0.9500 m
0.8776 0.9300 l
s
n
0.9141 0.1500 m
0.9141 0.1700 l
s
n
0.9141 0.9500 m
0.9141 0.9300 l
s
n
0.9400 0.1500 m
0.9400 0.1700 l
s
n
0.9400 0.9500 m
0.9400 0.9300 l
s
n
0.9600 0.1500 m
0.9600 0.1700 l
s
n
0.9600 0.9500 m
0.9600 0.9300 l
s
n
0.9764 0.1500 m
0.9764 0.1700 l
s
n
0.9764 0.9500 m
0.9764 0.9300 l
s
n
0.9903 0.1500 m
0.9903 0.1700 l
s
n
0.9903 0.9500 m
0.9903 0.9300 l
s
n
1.0023 0.1500 m
1.0023 0.1700 l
s
n
1.0023 0.9500 m
1.0023 0.9300 l
s
n
1.0129 0.1500 m
1.0129 0.1700 l
s
n
1.0129 0.9500 m
1.0129 0.9300 l
s
n
1.0847 0.1500 m
1.0847 0.1700 l
s
n
1.0847 0.9500 m
1.0847 0.9300 l
s
n
1.1211 0.1500 m
1.1211 0.1700 l
s
n
1.1211 0.9500 m
1.1211 0.9300 l
s
n
1.1470 0.1500 m
1.1470 0.1700 l
s
n
1.1470 0.9500 m
1.1470 0.9300 l
s
n
1.1671 0.1500 m
1.1671 0.1700 l
s
n
1.1671 0.9500 m
1.1671 0.9300 l
s
n
1.1835 0.1500 m
1.1835 0.1700 l
s
n
1.1835 0.9500 m
1.1835 0.9300 l
s
n
1.1973 0.1500 m
1.1973 0.1700 l
s
n
1.1973 0.9500 m
1.1973 0.9300 l
s
n
1.2093 0.1500 m
1.2093 0.1700 l
s
n
1.2093 0.9500 m
1.2093 0.9300 l
s
n
1.2199 0.1500 m
1.2199 0.1700 l
s
n
1.2199 0.9500 m
1.2199 0.9300 l
s
[] 0 SD
0.0030 SLW
n
0.1941 0.1500 m
0.1941 0.1800 l
s
n
0.1941 0.9500 m
0.1941 0.9200 l
s
n
0.4012 0.1500 m
0.4012 0.1800 l
s
n
0.4012 0.9500 m
0.4012 0.9200 l
s
n
0.6082 0.1500 m
0.6082 0.1800 l
s
n
0.6082 0.9500 m
0.6082 0.9200 l
s
n
0.8153 0.1500 m
0.8153 0.1800 l
s
n
0.8153 0.9500 m
0.8153 0.9200 l
s
n
1.0224 0.1500 m
1.0224 0.1800 l
s
n
1.0224 0.9500 m
1.0224 0.9200 l
s
n
1.2294 0.1500 m
1.2294 0.1800 l
s
n
1.2294 0.9500 m
1.2294 0.9200 l
s
/Helvetica findfont
dup length dict begin
 {1 index /FID ne {def} {pop pop} ifelse} forall
 /Encoding DefEncoding def
 currentdict
end
/Font4 exch definefont pop
/Font4 FFSF
0.1673 0.0997 m
GS
[0.0364 0.0000 0.0000 0.0364 0 0] CC
(10) show
GR
/Font4 FFSF
0.2076 0.1216 m
GS
[0.0257 0.0000 0.0000 0.0257 0 0] CC
(5) show
GR
/Font4 FFSF
0.3743 0.0997 m
GS
[0.0364 0.0000 0.0000 0.0364 0 0] CC
(10) show
GR
/Font4 FFSF
0.4147 0.1216 m
GS
[0.0257 0.0000 0.0000 0.0257 0 0] CC
(6) show
GR
/Font4 FFSF
0.5814 0.0997 m
GS
[0.0364 0.0000 0.0000 0.0364 0 0] CC
(10) show
GR
/Font4 FFSF
0.6218 0.1216 m
GS
[0.0257 0.0000 0.0000 0.0257 0 0] CC
(7) show
GR
/Font4 FFSF
0.7884 0.0997 m
GS
[0.0364 0.0000 0.0000 0.0364 0 0] CC
(10) show
GR
/Font4 FFSF
0.8288 0.1216 m
GS
[0.0257 0.0000 0.0000 0.0257 0 0] CC
(8) show
GR
/Font4 FFSF
0.9957 0.0997 m
GS
[0.0364 0.0000 0.0000 0.0364 0 0] CC
(10) show
GR
/Font4 FFSF
1.0361 0.1216 m
GS
[0.0257 0.0000 0.0000 0.0257 0 0] CC
(9) show
GR
/Font4 FFSF
1.1957 0.0997 m
GS
[0.0364 0.0000 0.0000 0.0364 0 0] CC
(10) show
GR
/Font4 FFSF
1.2361 0.1216 m
GS
[0.0257 0.0000 0.0000 0.0257 0 0] CC
(10) show
GR
/Symbol findfont
/Font12 exch definefont pop
/Font12 FFSF
0.6418 0.0482 m
GS
[0.0560 0.0000 0.0000 0.0560 0 0] CC
(n) show
GR
/Font4 FFSF
0.6708 0.0482 m
GS
[0.0560 0.0000 0.0000 0.0560 0 0] CC
( [Hz]) show
GR
n
0.1941 0.1500 m
0.1941 0.9500 l
s
n
1.2294 0.1500 m
1.2294 0.9500 l
s
[] 0 SD
0.0023 SLW
n
0.1941 0.1901 m
0.2141 0.1901 l
s
n
1.2294 0.1901 m
1.2094 0.1901 l
s
n
0.1941 0.2136 m
0.2141 0.2136 l
s
n
1.2294 0.2136 m
1.2094 0.2136 l
s
n
0.1941 0.2303 m
0.2141 0.2303 l
s
n
1.2294 0.2303 m
1.2094 0.2303 l
s
n
0.1941 0.2432 m
0.2141 0.2432 l
s
n
1.2294 0.2432 m
1.2094 0.2432 l
s
n
0.1941 0.2538 m
0.2141 0.2538 l
s
n
1.2294 0.2538 m
1.2094 0.2538 l
s
n
0.1941 0.2627 m
0.2141 0.2627 l
s
n
1.2294 0.2627 m
1.2094 0.2627 l
s
n
0.1941 0.2704 m
0.2141 0.2704 l
s
n
1.2294 0.2704 m
1.2094 0.2704 l
s
n
0.1941 0.2772 m
0.2141 0.2772 l
s
n
1.2294 0.2772 m
1.2094 0.2772 l
s
n
0.1941 0.3235 m
0.2141 0.3235 l
s
n
1.2294 0.3235 m
1.2094 0.3235 l
s
n
0.1941 0.3469 m
0.2141 0.3469 l
s
n
1.2294 0.3469 m
1.2094 0.3469 l
s
n
0.1941 0.3636 m
0.2141 0.3636 l
s
n
1.2294 0.3636 m
1.2094 0.3636 l
s
n
0.1941 0.3765 m
0.2141 0.3765 l
s
n
1.2294 0.3765 m
1.2094 0.3765 l
s
n
0.1941 0.3871 m
0.2141 0.3871 l
s
n
1.2294 0.3871 m
1.2094 0.3871 l
s
n
0.1941 0.3960 m
0.2141 0.3960 l
s
n
1.2294 0.3960 m
1.2094 0.3960 l
s
n
0.1941 0.4037 m
0.2141 0.4037 l
s
n
1.2294 0.4037 m
1.2094 0.4037 l
s
n
0.1941 0.4106 m
0.2141 0.4106 l
s
n
1.2294 0.4106 m
1.2094 0.4106 l
s
n
0.1941 0.4568 m
0.2141 0.4568 l
s
n
1.2294 0.4568 m
1.2094 0.4568 l
s
n
0.1941 0.4803 m
0.2141 0.4803 l
s
n
1.2294 0.4803 m
1.2094 0.4803 l
s
n
0.1941 0.4969 m
0.2141 0.4969 l
s
n
1.2294 0.4969 m
1.2094 0.4969 l
s
n
0.1941 0.5099 m
0.2141 0.5099 l
s
n
1.2294 0.5099 m
1.2094 0.5099 l
s
n
0.1941 0.5204 m
0.2141 0.5204 l
s
n
1.2294 0.5204 m
1.2094 0.5204 l
s
n
0.1941 0.5293 m
0.2141 0.5293 l
s
n
1.2294 0.5293 m
1.2094 0.5293 l
s
n
0.1941 0.5371 m
0.2141 0.5371 l
s
n
1.2294 0.5371 m
1.2094 0.5371 l
s
n
0.1941 0.5439 m
0.2141 0.5439 l
s
n
1.2294 0.5439 m
1.2094 0.5439 l
s
n
0.1941 0.5901 m
0.2141 0.5901 l
s
n
1.2294 0.5901 m
1.2094 0.5901 l
s
n
0.1941 0.6136 m
0.2141 0.6136 l
s
n
1.2294 0.6136 m
1.2094 0.6136 l
s
n
0.1941 0.6303 m
0.2141 0.6303 l
s
n
1.2294 0.6303 m
1.2094 0.6303 l
s
n
0.1941 0.6432 m
0.2141 0.6432 l
s
n
1.2294 0.6432 m
1.2094 0.6432 l
s
n
0.1941 0.6538 m
0.2141 0.6538 l
s
n
1.2294 0.6538 m
1.2094 0.6538 l
s
n
0.1941 0.6627 m
0.2141 0.6627 l
s
n
1.2294 0.6627 m
1.2094 0.6627 l
s
n
0.1941 0.6704 m
0.2141 0.6704 l
s
n
1.2294 0.6704 m
1.2094 0.6704 l
s
n
0.1941 0.6772 m
0.2141 0.6772 l
s
n
1.2294 0.6772 m
1.2094 0.6772 l
s
n
0.1941 0.7235 m
0.2141 0.7235 l
s
n
1.2294 0.7235 m
1.2094 0.7235 l
s
n
0.1941 0.7469 m
0.2141 0.7469 l
s
n
1.2294 0.7469 m
1.2094 0.7469 l
s
n
0.1941 0.7636 m
0.2141 0.7636 l
s
n
1.2294 0.7636 m
1.2094 0.7636 l
s
n
0.1941 0.7765 m
0.2141 0.7765 l
s
n
1.2294 0.7765 m
1.2094 0.7765 l
s
n
0.1941 0.7871 m
0.2141 0.7871 l
s
n
1.2294 0.7871 m
1.2094 0.7871 l
s
n
0.1941 0.7960 m
0.2141 0.7960 l
s
n
1.2294 0.7960 m
1.2094 0.7960 l
s
n
0.1941 0.8037 m
0.2141 0.8037 l
s
n
1.2294 0.8037 m
1.2094 0.8037 l
s
n
0.1941 0.8106 m
0.2141 0.8106 l
s
n
1.2294 0.8106 m
1.2094 0.8106 l
s
n
0.1941 0.8568 m
0.2141 0.8568 l
s
n
1.2294 0.8568 m
1.2094 0.8568 l
s
n
0.1941 0.8803 m
0.2141 0.8803 l
s
n
1.2294 0.8803 m
1.2094 0.8803 l
s
n
0.1941 0.8969 m
0.2141 0.8969 l
s
n
1.2294 0.8969 m
1.2094 0.8969 l
s
n
0.1941 0.9099 m
0.2141 0.9099 l
s
n
1.2294 0.9099 m
1.2094 0.9099 l
s
n
0.1941 0.9204 m
0.2141 0.9204 l
s
n
1.2294 0.9204 m
1.2094 0.9204 l
s
n
0.1941 0.9293 m
0.2141 0.9293 l
s
n
1.2294 0.9293 m
1.2094 0.9293 l
s
n
0.1941 0.9371 m
0.2141 0.9371 l
s
n
1.2294 0.9371 m
1.2094 0.9371 l
s
n
0.1941 0.9439 m
0.2141 0.9439 l
s
n
1.2294 0.9439 m
1.2094 0.9439 l
s
[] 0 SD
0.0030 SLW
n
0.1941 0.1500 m
0.2241 0.1500 l
s
n
1.2294 0.1500 m
1.1994 0.1500 l
s
n
0.1941 0.2833 m
0.2241 0.2833 l
s
n
1.2294 0.2833 m
1.1994 0.2833 l
s
n
0.1941 0.4167 m
0.2241 0.4167 l
s
n
1.2294 0.4167 m
1.1994 0.4167 l
s
n
0.1941 0.5500 m
0.2241 0.5500 l
s
n
1.2294 0.5500 m
1.1994 0.5500 l
s
n
0.1941 0.6833 m
0.2241 0.6833 l
s
n
1.2294 0.6833 m
1.1994 0.6833 l
s
n
0.1941 0.8167 m
0.2241 0.8167 l
s
n
1.2294 0.8167 m
1.1994 0.8167 l
s
n
0.1941 0.9500 m
0.2241 0.9500 l
s
n
1.2294 0.9500 m
1.1994 0.9500 l
s
/Font4 FFSF
0.1218 0.1303 m
GS
[0.0364 0.0000 0.0000 0.0364 0 0] CC
(10) show
GR
/Font4 FFSF
0.1622 0.1521 m
GS
[0.0257 0.0000 0.0000 0.0257 0 0] CC
(-5) show
GR
/Font4 FFSF
0.1218 0.2636 m
GS
[0.0364 0.0000 0.0000 0.0364 0 0] CC
(10) show
GR
/Font4 FFSF
0.1622 0.2854 m
GS
[0.0257 0.0000 0.0000 0.0257 0 0] CC
(-4) show
GR
/Font4 FFSF
0.1222 0.3969 m
GS
[0.0364 0.0000 0.0000 0.0364 0 0] CC
(10) show
GR
/Font4 FFSF
0.1625 0.4188 m
GS
[0.0257 0.0000 0.0000 0.0257 0 0] CC
(-3) show
GR
/Font4 FFSF
0.1218 0.5303 m
GS
[0.0364 0.0000 0.0000 0.0364 0 0] CC
(10) show
GR
/Font4 FFSF
0.1622 0.5521 m
GS
[0.0257 0.0000 0.0000 0.0257 0 0] CC
(-2) show
GR
/Font4 FFSF
0.1261 0.6636 m
GS
[0.0364 0.0000 0.0000 0.0364 0 0] CC
(10) show
GR
/Font4 FFSF
0.1665 0.6854 m
GS
[0.0257 0.0000 0.0000 0.0257 0 0] CC
(-1) show
GR
/Font4 FFSF
0.1308 0.7969 m
GS
[0.0364 0.0000 0.0000 0.0364 0 0] CC
(10) show
GR
/Font4 FFSF
0.1712 0.8188 m
GS
[0.0257 0.0000 0.0000 0.0257 0 0] CC
(0) show
GR
/Font4 FFSF
0.1347 0.9303 m
GS
[0.0364 0.0000 0.0000 0.0364 0 0] CC
(10) show
GR
/Font4 FFSF
0.1751 0.9521 m
GS
[0.0257 0.0000 0.0000 0.0257 0 0] CC
(1) show
GR
/Font4 FFSF
0.1106 0.3792 m
GS
[0.0000 0.0560 -0.0560 0.0000 0 0] CC
(Relative Error) show
GR
[] 0 SD
0.0037 SLW
n
0.1941 0.1500 m
0.1941 0.9500 l
1.2294 0.9500 l
1.2294 0.1500 l
0.1941 0.1500 l
c
s
/Font4 FFSF
0.9865 0.8691 m
GS
[0.0364 0.0000 0.0000 0.0364 0 0] CC
(q=+8.0) show
GR
[] 0 SD
0.0030 SLW
n
0.9115 0.8781 m
0.9715 0.8781 l
s
/Font4 FFSF
0.9865 0.8254 m
GS
[0.0364 0.0000 0.0000 0.0364 0 0] CC
(q=+2.6) show
GR
[/DeviceRGB] SCS
Color2 SC
n
0.9115 0.8344 m
0.9715 0.8344 l
s
/Font4 FFSF
[/DeviceRGB] SCS
Color1 SC
0.9865 0.7817 m
GS
[0.0364 0.0000 0.0000 0.0364 0 0] CC
(q=+0.8) show
GR
[/DeviceRGB] SCS
Color4 SC
n
0.9115 0.7907 m
0.9715 0.7907 l
s
/Font4 FFSF
[/DeviceRGB] SCS
Color1 SC
0.9865 0.7379 m
GS
[0.0364 0.0000 0.0000 0.0364 0 0] CC
(q=-0.8) show
GR
[/DeviceRGB] SCS
Color15 SC
n
0.9115 0.7470 m
0.9715 0.7470 l
s
/Font4 FFSF
[/DeviceRGB] SCS
Color1 SC
0.9865 0.6942 m
GS
[0.0364 0.0000 0.0000 0.0364 0 0] CC
(q=-2.6) show
GR
[/DeviceRGB] SCS
Color11 SC
n
0.9115 0.7032 m
0.9715 0.7032 l
s
/Font4 FFSF
[/DeviceRGB] SCS
Color1 SC
0.9865 0.6505 m
GS
[0.0364 0.0000 0.0000 0.0364 0 0] CC
(q=-8.0) show
GR
[/DeviceRGB] SCS
Color10 SC
n
0.9115 0.6595 m
0.9715 0.6595 l
s
%%Trailer
%%BoundingBox: 41 21 775 595
%%DocumentNeededResources: font Helvetica
%%+ font Symbol
%%EOF
