%!PS-Adobe-3.0 EPSF-3.0
%%BoundingBox: (atend)
%%LanguageLevel: 2
%%Creator: Grace-5.1.25
%%CreationDate: Thu Oct  6 17:26:58 2016
%%DocumentData: Clean8Bit
%%Orientation: Portrait
%%Title: Untitled
%%For: jesus
%%DocumentNeededResources: (atend)
%%EndComments
%%BeginProlog
/m {moveto} def
/l {lineto} def
/s {stroke} def
/n {newpath} def
/c {closepath} def
/RL {rlineto} def
/SLW {setlinewidth} def
/GS {gsave} def
/GR {grestore} def
/SC {setcolor} def
/SGRY {setgray} def
/SRGB {setrgbcolor} def
/SD {setdash} def
/SLC {setlinecap} def
/SLJ {setlinejoin} def
/SCS {setcolorspace} def
/FFSF {findfont setfont} def
/CC {concat} def
/PXL {n m 0 0 RL s} def
/Color0 {1.0000 1.0000 1.0000} def
/Color1 {0.0000 0.0000 0.0000} def
/Color2 {1.0000 0.0000 0.0000} def
/Color3 {0.0000 1.0000 0.0000} def
/Color4 {0.0000 0.0000 1.0000} def
/Color5 {1.0000 1.0000 0.0000} def
/Color6 {0.7373 0.5608 0.5608} def
/Color7 {0.8627 0.8627 0.8627} def
/Color8 {0.5804 0.0000 0.8275} def
/Color9 {0.0000 1.0000 1.0000} def
/Color10 {1.0000 0.0000 1.0000} def
/Color11 {1.0000 0.6471 0.0000} def
/Color12 {0.4471 0.1294 0.7373} def
/Color13 {0.4039 0.0275 0.2824} def
/Color14 {0.2510 0.8784 0.8157} def
/Color15 {0.0000 0.5451 0.0000} def
/PTRN {
 /pat_bits exch def 
 <<
  /PaintType 2
  /PatternType 1 /TilingType 1
  /BBox[0 0 16 16]
  /XStep 16 /YStep 16
  /PaintProc {
   pop
   16 16 true [-1 0 0 -1 16 16] pat_bits imagemask
  }
 >>
 [0.0016 0 0 0.0016 0 0]
 makepattern
} def
/Pattern0 {<0000000000000000000000000000000000000000000000000000000000000000> PTRN} bind def
/Pattern1 {<ffffffffffffffffffffffffffffffffffffffffffffffffffffffffffffffff> PTRN} bind def
/Pattern2 {<eeeeffffbbbbffffeeeeffffbbbbffffeeeeffffbbbbffffeeeeffffbbbbffff> PTRN} bind def
/Pattern3 {<eeeebbbbeeeebbbbeeeebbbbeeeebbbbeeeebbbbeeeebbbbeeeebbbbeeeebbbb> PTRN} bind def
/Pattern4 {<5555aaaa5555aaaa5555aaaa5555aaaa5555aaaa5555aaaa5555aaaa5555aaaa> PTRN} bind def
/Pattern5 {<1111444411114444111144441111444411114444111144441111444411114444> PTRN} bind def
/Pattern6 {<1111000044440000111100004444000011110000444400001111000044440000> PTRN} bind def
/Pattern7 {<1010000000000000010100000000000010100000000000000101000000000000> PTRN} bind def
/Pattern8 {<0000000000000000000000000000000000000000000000000000000000000000> PTRN} bind def
/Pattern9 {<1e1e0f0f8787c3c3e1e1f0f078783c3c1e1e0f0f8787c3c3e1e1f0f078783c3c> PTRN} bind def
/Pattern10 {<7878f0f0e1e1c3c387870f0f1e1e3c3c7878f0f0e1e1c3c387870f0f1e1e3c3c> PTRN} bind def
/Pattern11 {<3333333333333333333333333333333333333333333333333333333333333333> PTRN} bind def
/Pattern12 {<ffffffff00000000ffffffff00000000ffffffff00000000ffffffff00000000> PTRN} bind def
/Pattern13 {<8181424224241818181824244242818181814242242418181818242442428181> PTRN} bind def
/Pattern14 {<8080404020201010080804040202010180804040202010100808040402020101> PTRN} bind def
/Pattern15 {<0101020204040808101020204040808001010202040408081010202040408080> PTRN} bind def
/Pattern16 {<2222222222222222222222222222222222222222222222222222222222222222> PTRN} bind def
/Pattern17 {<0000ffff000000000000ffff000000000000ffff000000000000ffff00000000> PTRN} bind def
/Pattern18 {<2222ffff222222222222ffff222222222222ffff222222222222ffff22222222> PTRN} bind def
/Pattern19 {<ffffffff33333333ffffffff33333333ffffffff33333333ffffffff33333333> PTRN} bind def
/Pattern20 {<0f0f0f0f0f0f0f0ff0f0f0f0f0f0f0f00f0f0f0f0f0f0f0ff0f0f0f0f0f0f0f0> PTRN} bind def
/Pattern21 {<ff00ff00ff00ff00ff00ff00ff00ff0000ff00ff00ff00ff00ff00ff00ff00ff> PTRN} bind def
/Pattern22 {<8001800180018001800180018001ffffffff8001800180018001800180018001> PTRN} bind def
/Pattern23 {<c003c003c003c003c003c003ffffffffffffffffc003c003c003c003c003c003> PTRN} bind def
/Pattern24 {<040404040404ffff404040404040ffff040404040404ffff404040404040ffff> PTRN} bind def
/Pattern25 {<180018001800180018001800ffffffff001800180018001800180018ffffffff> PTRN} bind def
/Pattern26 {<1111b8b87c7c3a3a1111a3a3c7c78b8b1111b8b87c7c3a3a1111a3a3c7c78b8b> PTRN} bind def
/Pattern27 {<101010102828c7c70101010182827c7c101010102828c7c70101010182827c7c> PTRN} bind def
/Pattern28 {<1c1c121211112121c1c12121111112121c1c121211112121c1c1212111111212> PTRN} bind def
/Pattern29 {<3e3e414180808080e3e31414080808083e3e414180808080e3e3141408080808> PTRN} bind def
/Pattern30 {<4848888884848383848488884848383848488888848483838484888848483838> PTRN} bind def
/Pattern31 {<03030404080808080c0c12122121c0c003030404080808080c0c12122121c0c0> PTRN} bind def
/ellipsedict 8 dict def
ellipsedict /mtrx matrix put
/EARC {
 ellipsedict begin
  /endangle exch def
  /startangle exch def
  /yrad exch def
  /xrad exch def
  /y exch def
  /x exch def
  /savematrix mtrx currentmatrix def
  x y translate
  xrad yrad scale
  0 0 1 startangle endangle arc
  savematrix setmatrix
 end
} def
/TL {
  /kcomp exch def
  /linewidth exch def
  /offset exch def
  GS
  0 offset rmoveto
  linewidth SLW
  dup stringwidth exch kcomp add exch RL s
  GR
} def
/KINIT
{
 /kvector exch def
 /kid 0 def
} def
/KPROC
{
 pop pop
 kvector kid get
 0 rmoveto
 /kid 1 kid add def
} def
/DefEncoding [
 /.notdef
 /.notdef
 /.notdef
 /.notdef
 /.notdef
 /.notdef
 /.notdef
 /.notdef
 /.notdef
 /.notdef
 /.notdef
 /.notdef
 /.notdef
 /.notdef
 /.notdef
 /.notdef
 /.notdef
 /.notdef
 /.notdef
 /.notdef
 /.notdef
 /.notdef
 /.notdef
 /.notdef
 /.notdef
 /.notdef
 /.notdef
 /.notdef
 /.notdef
 /.notdef
 /.notdef
 /.notdef
 /space
 /exclam
 /quotedbl
 /numbersign
 /dollar
 /percent
 /ampersand
 /quoteright
 /parenleft
 /parenright
 /asterisk
 /plus
 /comma
 /hyphen
 /period
 /slash
 /zero
 /one
 /two
 /three
 /four
 /five
 /six
 /seven
 /eight
 /nine
 /colon
 /semicolon
 /less
 /equal
 /greater
 /question
 /at
 /A
 /B
 /C
 /D
 /E
 /F
 /G
 /H
 /I
 /J
 /K
 /L
 /M
 /N
 /O
 /P
 /Q
 /R
 /S
 /T
 /U
 /V
 /W
 /X
 /Y
 /Z
 /bracketleft
 /backslash
 /bracketright
 /asciicircum
 /underscore
 /grave
 /a
 /b
 /c
 /d
 /e
 /f
 /g
 /h
 /i
 /j
 /k
 /l
 /m
 /n
 /o
 /p
 /q
 /r
 /s
 /t
 /u
 /v
 /w
 /x
 /y
 /z
 /braceleft
 /bar
 /braceright
 /asciitilde
 /.notdef
 /.notdef
 /.notdef
 /.notdef
 /.notdef
 /.notdef
 /.notdef
 /.notdef
 /.notdef
 /.notdef
 /.notdef
 /.notdef
 /.notdef
 /.notdef
 /.notdef
 /.notdef
 /.notdef
 /.notdef
 /.notdef
 /.notdef
 /.notdef
 /.notdef
 /.notdef
 /.notdef
 /.notdef
 /.notdef
 /.notdef
 /.notdef
 /.notdef
 /.notdef
 /.notdef
 /.notdef
 /.notdef
 /space
 /exclamdown
 /cent
 /sterling
 /currency
 /yen
 /brokenbar
 /section
 /dieresis
 /copyright
 /ordfeminine
 /guillemotleft
 /logicalnot
 /hyphen
 /registered
 /macron
 /degree
 /plusminus
 /twosuperior
 /threesuperior
 /acute
 /mu
 /paragraph
 /periodcentered
 /cedilla
 /onesuperior
 /ordmasculine
 /guillemotright
 /onequarter
 /onehalf
 /threequarters
 /questiondown
 /Agrave
 /Aacute
 /Acircumflex
 /Atilde
 /Adieresis
 /Aring
 /AE
 /Ccedilla
 /Egrave
 /Eacute
 /Ecircumflex
 /Edieresis
 /Igrave
 /Iacute
 /Icircumflex
 /Idieresis
 /Eth
 /Ntilde
 /Ograve
 /Oacute
 /Ocircumflex
 /Otilde
 /Odieresis
 /multiply
 /Oslash
 /Ugrave
 /Uacute
 /Ucircumflex
 /Udieresis
 /Yacute
 /Thorn
 /germandbls
 /agrave
 /aacute
 /acircumflex
 /atilde
 /adieresis
 /aring
 /ae
 /ccedilla
 /egrave
 /eacute
 /ecircumflex
 /edieresis
 /igrave
 /iacute
 /icircumflex
 /idieresis
 /eth
 /ntilde
 /ograve
 /oacute
 /ocircumflex
 /otilde
 /odieresis
 /divide
 /oslash
 /ugrave
 /uacute
 /ucircumflex
 /udieresis
 /yacute
 /thorn
 /ydieresis
] def
%%EndProlog
%%BeginSetup
%%EndSetup
612.00 612.00 scale
n
0.0000 0.0000 m
0.0000 1.0000 l
1.2941 1.0000 l
1.2941 0.0000 l
c
[/DeviceRGB] SCS
Color0 SC
fill
[/DeviceRGB] SCS
Color1 SC
[] 0 SD
0.0030 SLW
0 SLC
0 SLJ
n
0.1941 0.8068 m
0.1962 0.7690 l
0.1983 0.8066 l
0.2003 0.7685 l
0.2024 0.8063 l
0.2045 0.7681 l
0.2066 0.6644 l
0.2086 0.8292 l
0.2107 0.8457 l
0.2128 0.8291 l
0.2149 0.8456 l
0.2169 0.8289 l
0.2190 0.8054 l
0.2211 0.8287 l
0.2232 0.8051 l
0.2252 0.8286 l
0.2273 0.8049 l
0.2294 0.7655 l
0.2315 0.8047 l
0.2335 0.7650 l
0.2356 0.6477 l
0.2377 0.8281 l
0.2398 0.8448 l
0.2418 0.8279 l
0.2439 0.8447 l
0.2460 0.8278 l
0.2481 0.8036 l
0.2501 0.8276 l
0.2522 0.8033 l
0.2543 0.8274 l
0.2564 0.8031 l
0.2584 0.7624 l
0.2605 0.8029 l
0.2626 0.7619 l
0.2647 0.8026 l
0.2667 0.7615 l
0.2688 0.8440 l
0.2709 0.8268 l
0.2730 0.8439 l
0.2750 0.8267 l
0.2771 0.8438 l
0.2792 0.8265 l
0.2813 0.8017 l
0.2833 0.8263 l
0.2854 0.8014 l
0.2875 0.8262 l
0.2896 0.8012 l
0.2916 0.7587 l
0.2937 0.8009 l
0.2958 0.7582 l
0.2979 0.5948 l
0.2999 0.8257 l
0.3020 0.8430 l
0.3041 0.8255 l
0.3062 0.8429 l
0.3082 0.8254 l
0.3103 0.8000 l
0.3124 0.8252 l
0.3145 0.7996 l
0.3165 0.8249 l
0.3186 0.7994 l
0.3207 0.7549 l
0.3228 0.7991 l
0.3248 0.7544 l
0.3269 0.7989 l
0.3290 0.8556 l
0.3311 0.8422 l
0.3331 0.8242 l
0.3352 0.8420 l
0.3373 0.8241 l
0.3393 0.8419 l
0.3414 0.8239 l
0.3435 0.7978 l
0.3456 0.8237 l
0.3476 0.7976 l
0.3497 0.8236 l
0.3518 0.7973 l
0.3539 0.7507 l
0.3559 0.7971 l
0.3580 0.7502 l
0.3601 0.8413 l
0.3622 0.8230 l
0.3642 0.8412 l
0.3663 0.8229 l
0.3684 0.8410 l
0.3705 0.8227 l
0.3725 0.7960 l
0.3746 0.8225 l
0.3767 0.7957 l
0.3788 0.8224 l
0.3808 0.7955 l
0.3829 0.7469 l
0.3850 0.7952 l
0.3871 0.7463 l
0.3891 0.7949 l
0.3912 0.8541 l
0.3933 0.8402 l
0.3954 0.8216 l
0.3974 0.8400 l
0.3995 0.8214 l
0.4016 0.8399 l
0.4037 0.8212 l
0.4057 0.7936 l
0.4078 0.8211 l
0.4099 0.7933 l
0.4120 0.7426 l
0.4140 0.7931 l
0.4161 0.7420 l
0.4182 0.7928 l
0.4203 0.8534 l
0.4223 0.8392 l
0.4244 0.8203 l
0.4265 0.8391 l
0.4286 0.8201 l
0.4306 0.8390 l
0.4327 0.8199 l
0.4348 0.7916 l
0.4369 0.8198 l
0.4389 0.7913 l
0.4410 0.8196 l
0.4431 0.7910 l
0.4452 0.7375 l
0.4472 0.7907 l
0.4493 0.7368 l
0.4514 0.8383 l
0.4535 0.8525 l
0.4555 0.8381 l
0.4576 0.8188 l
0.4597 0.8380 l
0.4618 0.8186 l
0.4638 0.8378 l
0.4659 0.8184 l
0.4680 0.7892 l
0.4701 0.8182 l
0.4721 0.7889 l
0.4742 0.7322 l
0.4763 0.7885 l
0.4784 0.7315 l
0.4804 0.7882 l
0.4825 0.8516 l
0.4846 0.8371 l
0.4867 0.8173 l
0.4887 0.8369 l
0.4908 0.8171 l
0.4929 0.8368 l
0.4950 0.8169 l
0.4970 0.7869 l
0.4991 0.8166 l
0.5012 0.7866 l
0.5033 0.8164 l
0.5053 0.7862 l
0.5074 0.7261 l
0.5095 0.7859 l
0.5116 0.7254 l
0.5136 0.8360 l
0.5157 0.8506 l
0.5178 0.8358 l
0.5199 0.8156 l
0.5219 0.8357 l
0.5240 0.8154 l
0.5261 0.8355 l
0.5282 0.8152 l
0.5302 0.7842 l
0.5323 0.8149 l
0.5344 0.7839 l
0.5359 0.1499 l
s
n
0.9157 0.1499 m
0.9161 0.1533 l
0.9182 0.1640 l
0.9203 0.1708 l
0.9224 0.1746 l
0.9244 0.1756 l
0.9265 0.1737 l
0.9286 0.1683 l
0.9306 0.1582 l
0.9316 0.1499 l
s
n
0.9430 0.1499 m
0.9431 0.1511 l
0.9452 0.1721 l
0.9472 0.1858 l
0.9493 0.1949 l
0.9514 0.2007 l
0.9535 0.2036 l
0.9555 0.2037 l
0.9576 0.2009 l
0.9597 0.1944 l
0.9618 0.1828 l
0.9638 0.1625 l
0.9645 0.1499 l
s
n
0.9718 0.1499 m
0.9721 0.1599 l
0.9742 0.1884 l
0.9763 0.2060 l
0.9784 0.2178 l
0.9804 0.2257 l
0.9825 0.2304 l
0.9846 0.2324 l
0.9867 0.2317 l
0.9887 0.2278 l
0.9908 0.2201 l
0.9929 0.2065 l
0.9950 0.1824 l
0.9962 0.1499 l
s
n
1.0011 0.1499 m
1.0012 0.1576 l
1.0033 0.2000 l
1.0053 0.2235 l
1.0074 0.2386 l
1.0095 0.2488 l
1.0116 0.2554 l
1.0136 0.2592 l
1.0157 0.2602 l
1.0178 0.2585 l
1.0199 0.2535 l
1.0219 0.2442 l
1.0240 0.2281 l
1.0261 0.1987 l
1.0274 0.1499 l
s
n
1.0310 0.1499 m
1.0323 0.2028 l
1.0344 0.2360 l
1.0365 0.2558 l
1.0385 0.2688 l
1.0406 0.2775 l
1.0427 0.2829 l
1.0448 0.2856 l
1.0468 0.2856 l
1.0489 0.2827 l
1.0510 0.2763 l
1.0531 0.2650 l
1.0551 0.2457 l
1.0572 0.2087 l
1.0581 0.1499 l
s
n
1.0607 0.1499 m
1.0614 0.1860 l
1.0634 0.2402 l
1.0655 0.2672 l
1.0676 0.2839 l
1.0697 0.2950 l
1.0717 0.3022 l
1.0738 0.3064 l
1.0759 0.3078 l
1.0780 0.3066 l
1.0800 0.3023 l
1.0821 0.2942 l
1.0842 0.2805 l
1.0863 0.2570 l
1.0883 0.2081 l
1.0892 0.1499 l
s
n
1.0915 0.1499 m
1.0925 0.2290 l
1.0946 0.2695 l
1.0966 0.2918 l
1.0987 0.3059 l
1.1008 0.3152 l
1.1029 0.3208 l
1.1049 0.3236 l
1.1070 0.3237 l
1.1091 0.3211 l
1.1112 0.3152 l
1.1132 0.3051 l
1.1153 0.2888 l
1.1174 0.2618 l
1.1195 0.1897 l
1.1215 0.1886 l
1.1236 0.2582 l
1.1257 0.2914 l
1.1277 0.3086 l
1.1298 0.3206 l
1.1319 0.3278 l
1.1340 0.3317 l
1.1360 0.3331 l
1.1381 0.3315 l
1.1402 0.3272 l
1.1423 0.3198 l
1.1443 0.3066 l
1.1464 0.2875 l
1.1485 0.2496 l
1.1503 0.1499 l
s
n
1.1510 0.1499 m
1.1526 0.2240 l
1.1547 0.2729 l
1.1568 0.2992 l
1.1589 0.3132 l
1.1609 0.3223 l
1.1630 0.3277 l
1.1651 0.3293 l
1.1672 0.3287 l
1.1692 0.3255 l
1.1713 0.3184 l
1.1734 0.3083 l
1.1755 0.2929 l
1.1775 0.2659 l
1.1796 0.2191 l
1.1807 0.1499 l
s
n
1.1826 0.1499 m
1.1838 0.2282 l
1.1858 0.2681 l
1.1879 0.2867 l
1.1900 0.2965 l
1.1921 0.3029 l
1.1941 0.3050 l
1.1962 0.3032 l
1.1983 0.2995 l
1.2004 0.2933 l
1.2024 0.2824 l
1.2045 0.2672 l
1.2066 0.2479 l
1.2087 0.2150 l
1.2104 0.1499 l
s
n
1.2135 0.1499 m
1.2149 0.2057 l
1.2170 0.2282 l
1.2190 0.2480 l
1.2211 0.2618 l
1.2232 0.2683 l
1.2253 0.2672 l
1.2273 0.2707 l
1.2294 0.2692 l
s
[/DeviceRGB] SCS
Color2 SC
n
0.1941 0.7375 m
0.1962 0.6970 l
0.1983 0.7358 l
0.2003 0.6952 l
0.2024 0.7343 l
0.2045 0.6936 l
0.2066 0.5836 l
0.2086 0.7572 l
0.2107 0.7748 l
0.2128 0.7562 l
0.2149 0.7738 l
0.2169 0.7552 l
0.2190 0.7296 l
0.2211 0.7543 l
0.2232 0.7287 l
0.2252 0.7534 l
0.2273 0.7278 l
0.2294 0.6861 l
0.2315 0.7270 l
0.2335 0.6850 l
0.2356 0.5586 l
0.2377 0.7513 l
0.2398 0.7694 l
0.2418 0.7507 l
0.2439 0.7688 l
0.2460 0.7502 l
0.2481 0.7241 l
0.2501 0.7497 l
0.2522 0.7236 l
0.2543 0.7492 l
0.2564 0.7230 l
0.2584 0.6799 l
0.2605 0.7225 l
0.2626 0.6792 l
0.2647 0.7220 l
0.2667 0.6785 l
0.2688 0.7664 l
0.2709 0.7476 l
0.2730 0.7661 l
0.2750 0.7472 l
0.2771 0.7658 l
0.2792 0.7469 l
0.2813 0.7202 l
0.2833 0.7465 l
0.2854 0.7198 l
0.2875 0.7462 l
0.2896 0.7194 l
0.2916 0.6745 l
0.2937 0.7191 l
0.2958 0.6739 l
0.2979 0.4847 l
0.2999 0.7454 l
0.3020 0.7642 l
0.3041 0.7451 l
0.3062 0.7640 l
0.3082 0.7448 l
0.3103 0.7176 l
0.3124 0.7446 l
0.3145 0.7172 l
0.3165 0.7442 l
0.3186 0.7169 l
0.3207 0.6698 l
0.3228 0.7165 l
0.3248 0.6692 l
0.3269 0.7162 l
0.3290 0.7777 l
0.3311 0.7628 l
0.3331 0.7433 l
0.3352 0.7626 l
0.3373 0.7430 l
0.3393 0.7624 l
0.3414 0.7428 l
0.3435 0.7149 l
0.3456 0.7426 l
0.3476 0.7146 l
0.3497 0.7424 l
0.3518 0.7143 l
0.3539 0.6650 l
0.3559 0.7140 l
0.3580 0.6644 l
0.3601 0.7615 l
0.3622 0.7417 l
0.3642 0.7614 l
0.3663 0.7415 l
0.3684 0.7612 l
0.3705 0.7413 l
0.3725 0.7127 l
0.3746 0.7410 l
0.3767 0.7124 l
0.3788 0.7408 l
0.3808 0.7121 l
0.3829 0.6607 l
0.3850 0.7118 l
0.3871 0.6600 l
0.3891 0.7115 l
0.3912 0.7756 l
0.3933 0.7601 l
0.3954 0.7399 l
0.3974 0.7599 l
0.3995 0.7397 l
0.4016 0.7597 l
0.4037 0.7395 l
0.4057 0.7100 l
0.4078 0.7392 l
0.4099 0.7096 l
0.4120 0.6559 l
0.4140 0.7093 l
0.4161 0.6552 l
0.4182 0.7090 l
0.4203 0.7745 l
0.4223 0.7589 l
0.4244 0.7383 l
0.4265 0.7587 l
0.4286 0.7381 l
0.4306 0.7585 l
0.4327 0.7379 l
0.4348 0.7076 l
0.4369 0.7376 l
0.4389 0.7073 l
0.4410 0.7374 l
0.4431 0.7069 l
0.4452 0.6502 l
0.4472 0.7066 l
0.4493 0.6495 l
0.4514 0.7576 l
0.4535 0.7733 l
0.4555 0.7574 l
0.4576 0.7364 l
0.4597 0.7572 l
0.4618 0.7362 l
0.4638 0.7570 l
0.4659 0.7360 l
0.4680 0.7048 l
0.4701 0.7357 l
0.4721 0.7044 l
0.4742 0.6442 l
0.4763 0.7040 l
0.4784 0.6434 l
0.4804 0.7036 l
0.4825 0.7721 l
0.4846 0.7560 l
0.4867 0.7345 l
0.4887 0.7558 l
0.4908 0.7343 l
0.4929 0.7556 l
0.4950 0.7340 l
0.4970 0.7020 l
0.4991 0.7337 l
0.5012 0.7016 l
0.5033 0.7334 l
0.5053 0.7012 l
0.5074 0.6373 l
0.5095 0.7008 l
0.5116 0.6364 l
0.5136 0.7544 l
0.5157 0.7706 l
0.5178 0.7542 l
0.5199 0.7323 l
0.5219 0.7540 l
0.5240 0.7320 l
0.5261 0.7537 l
0.5282 0.7317 l
0.5302 0.6987 l
0.5323 0.7314 l
0.5344 0.6983 l
0.5364 0.4401 l
0.5385 0.4400 l
0.5406 0.4401 l
0.5427 0.4401 l
0.5447 0.4401 l
0.5468 0.4401 l
0.5489 0.4402 l
0.5510 0.4402 l
0.5530 0.4402 l
0.5551 0.4403 l
0.5572 0.4403 l
0.5593 0.4402 l
0.5613 0.4403 l
0.5634 0.4404 l
0.5655 0.4404 l
0.5676 0.4404 l
0.5696 0.4404 l
0.5717 0.4406 l
0.5738 0.4405 l
0.5759 0.4406 l
0.5779 0.4405 l
0.5800 0.4405 l
0.5821 0.4406 l
0.5842 0.4406 l
0.5862 0.4406 l
0.5883 0.4406 l
0.5904 0.4406 l
0.5925 0.4406 l
0.5945 0.4407 l
0.5966 0.4408 l
0.5987 0.4409 l
0.6008 0.4410 l
0.6028 0.4410 l
0.6049 0.4408 l
0.6070 0.4409 l
0.6091 0.4410 l
0.6111 0.4409 l
0.6132 0.4409 l
0.6153 0.4410 l
0.6174 0.4410 l
0.6194 0.4410 l
0.6215 0.4411 l
0.6236 0.4411 l
0.6257 0.4412 l
0.6277 0.4411 l
0.6298 0.4413 l
0.6319 0.4412 l
0.6340 0.4414 l
0.6360 0.4414 l
0.6381 0.4413 l
0.6402 0.4414 l
0.6423 0.4414 l
0.6443 0.4413 l
0.6464 0.4414 l
0.6485 0.4415 l
0.6506 0.4415 l
0.6526 0.4415 l
0.6547 0.4415 l
0.6568 0.4417 l
0.6589 0.4418 l
0.6609 0.4418 l
0.6630 0.4418 l
0.6651 0.4417 l
0.6672 0.4418 l
0.6692 0.4418 l
0.6713 0.4419 l
0.6734 0.4420 l
0.6755 0.4420 l
0.6775 0.4420 l
0.6796 0.4420 l
0.6817 0.4421 l
0.6838 0.4422 l
0.6858 0.4422 l
0.6879 0.4423 l
0.6900 0.4423 l
0.6921 0.4424 l
0.6941 0.4425 l
0.6962 0.4425 l
0.6983 0.4425 l
0.7004 0.4425 l
0.7024 0.4425 l
0.7045 0.4425 l
0.7066 0.4425 l
0.7087 0.4426 l
0.7107 0.4426 l
0.7128 0.4427 l
0.7149 0.4427 l
0.7170 0.4428 l
0.7190 0.4428 l
0.7211 0.4429 l
0.7232 0.4430 l
0.7253 0.4431 l
0.7273 0.4431 l
0.7294 0.4431 l
0.7315 0.4431 l
0.7335 0.4431 l
0.7356 0.4431 l
0.7377 0.4431 l
0.7398 0.4432 l
0.7418 0.4432 l
0.7439 0.4433 l
0.7460 0.4433 l
0.7481 0.4434 l
0.7501 0.4435 l
0.7522 0.4436 l
0.7543 0.4437 l
0.7564 0.4437 l
0.7584 0.4437 l
0.7605 0.4437 l
0.7626 0.4437 l
0.7647 0.4437 l
0.7667 0.4438 l
0.7688 0.4438 l
0.7709 0.4438 l
0.7730 0.4439 l
0.7750 0.4440 l
0.7771 0.4440 l
0.7792 0.4441 l
0.7813 0.4442 l
0.7833 0.4443 l
0.7854 0.4445 l
0.7875 0.4445 l
0.7896 0.4444 l
0.7916 0.4444 l
0.7937 0.4445 l
0.7958 0.4445 l
0.7979 0.4445 l
0.7999 0.4445 l
0.8020 0.4446 l
0.8041 0.4447 l
0.8062 0.4447 l
0.8082 0.4448 l
0.8103 0.4449 l
0.8124 0.4451 l
0.8145 0.4452 l
0.8165 0.4453 l
0.8186 0.4453 l
0.8207 0.4453 l
0.8228 0.4453 l
0.8248 0.4453 l
0.8269 0.4453 l
0.8290 0.4453 l
0.8311 0.4454 l
0.8331 0.4455 l
0.8352 0.4455 l
0.8373 0.4456 l
0.8394 0.4457 l
0.8414 0.4459 l
0.8435 0.4460 l
0.8456 0.4462 l
0.8477 0.4463 l
0.8497 0.4462 l
0.8518 0.4462 l
0.8539 0.4462 l
0.8560 0.4462 l
0.8580 0.4463 l
0.8601 0.4463 l
0.8622 0.4464 l
0.8643 0.4464 l
0.8663 0.4465 l
0.8684 0.4467 l
0.8705 0.4468 l
0.8726 0.4470 l
0.8746 0.4472 l
0.8767 0.4474 l
0.8788 0.4474 l
0.8809 0.4473 l
0.8829 0.4473 l
0.8850 0.4473 l
0.8871 0.4473 l
0.8892 0.4474 l
0.8912 0.4474 l
0.8933 0.4475 l
0.8954 0.4476 l
0.8975 0.4477 l
0.8995 0.4479 l
0.9016 0.4481 l
0.9037 0.4483 l
0.9058 0.4486 l
0.9078 0.4488 l
0.9099 0.4487 l
0.9120 0.4487 l
0.9141 0.4486 l
0.9161 0.4486 l
0.9182 0.4486 l
0.9203 0.4487 l
0.9224 0.4488 l
0.9244 0.4489 l
0.9265 0.4490 l
0.9286 0.4492 l
0.9306 0.4494 l
0.9327 0.4497 l
0.9348 0.4500 l
0.9369 0.4504 l
0.9389 0.4505 l
0.9410 0.4504 l
0.9431 0.4503 l
0.9452 0.4502 l
0.9472 0.4502 l
0.9493 0.4503 l
0.9514 0.4503 l
0.9535 0.4504 l
0.9555 0.4506 l
0.9576 0.4508 l
0.9597 0.4510 l
0.9618 0.4514 l
0.9638 0.4517 l
0.9659 0.4522 l
0.9680 0.4527 l
0.9701 0.4526 l
0.9721 0.4524 l
0.9742 0.4523 l
0.9763 0.4523 l
0.9784 0.4522 l
0.9804 0.4523 l
0.9825 0.4524 l
0.9846 0.4525 l
0.9867 0.4528 l
0.9887 0.4530 l
0.9908 0.4534 l
0.9929 0.4538 l
0.9950 0.4544 l
0.9970 0.4550 l
0.9991 0.4555 l
1.0012 0.4552 l
1.0033 0.4550 l
1.0053 0.4549 l
1.0074 0.4548 l
1.0095 0.4548 l
1.0116 0.4549 l
1.0136 0.4551 l
1.0157 0.4553 l
1.0178 0.4556 l
1.0199 0.4560 l
1.0219 0.4565 l
1.0240 0.4571 l
1.0261 0.4578 l
1.0282 0.4586 l
1.0302 0.4589 l
1.0323 0.4586 l
1.0344 0.4584 l
1.0365 0.4582 l
1.0385 0.4582 l
1.0406 0.4582 l
1.0427 0.4584 l
1.0448 0.4586 l
1.0468 0.4589 l
1.0489 0.4594 l
1.0510 0.4599 l
1.0531 0.4606 l
1.0551 0.4613 l
1.0572 0.4622 l
1.0593 0.4632 l
1.0614 0.4631 l
1.0634 0.4628 l
1.0655 0.4626 l
1.0676 0.4625 l
1.0697 0.4625 l
1.0717 0.4626 l
1.0738 0.4628 l
1.0759 0.4632 l
1.0780 0.4636 l
1.0800 0.4642 l
1.0821 0.4648 l
1.0842 0.4656 l
1.0863 0.4664 l
1.0883 0.4674 l
1.0904 0.4682 l
1.0925 0.4679 l
1.0946 0.4677 l
1.0966 0.4676 l
1.0987 0.4675 l
1.1008 0.4676 l
1.1029 0.4678 l
1.1049 0.4681 l
1.1070 0.4685 l
1.1091 0.4690 l
1.1112 0.4696 l
1.1132 0.4702 l
1.1153 0.4709 l
1.1174 0.4716 l
1.1195 0.4726 l
1.1215 0.4728 l
1.1236 0.4727 l
1.1257 0.4725 l
1.1277 0.4726 l
1.1298 0.4718 l
1.1319 0.4720 l
1.1340 0.4715 l
1.1360 0.4710 l
1.1381 0.4706 l
1.1402 0.4712 l
1.1423 0.4710 l
1.1443 0.4709 l
1.1464 0.4709 l
1.1485 0.4717 l
1.1506 0.4718 l
1.1526 0.4713 l
1.1547 0.4705 l
1.1568 0.4706 l
1.1589 0.4700 l
1.1609 0.4694 l
1.1630 0.4690 l
1.1651 0.4695 l
1.1672 0.4692 l
1.1692 0.4690 l
1.1713 0.4689 l
1.1734 0.4696 l
1.1755 0.4696 l
1.1775 0.4698 l
1.1796 0.4699 l
1.1817 0.4709 l
1.1838 0.4702 l
1.1858 0.4695 l
1.1879 0.4690 l
1.1900 0.4692 l
1.1921 0.4688 l
1.1941 0.4685 l
1.1962 0.4682 l
1.1983 0.4688 l
1.2004 0.4687 l
1.2024 0.4686 l
1.2045 0.4686 l
1.2066 0.4696 l
1.2087 0.4697 l
1.2107 0.4700 l
1.2128 0.4699 l
1.2149 0.4698 l
1.2170 0.4694 l
1.2190 0.4688 l
1.2211 0.4683 l
1.2232 0.4688 l
1.2253 0.4684 l
1.2273 0.4682 l
1.2294 0.4688 l
s
[/DeviceRGB] SCS
Color4 SC
n
0.1941 0.6962 m
0.1962 0.6528 l
0.1983 0.6925 l
0.2003 0.6488 l
0.2024 0.6890 l
0.2045 0.6450 l
0.2066 0.5137 l
0.2086 0.7101 l
0.2107 0.7276 l
0.2128 0.7072 l
0.2149 0.7248 l
0.2169 0.7044 l
0.2190 0.6765 l
0.2211 0.7017 l
0.2232 0.6737 l
0.2252 0.6991 l
0.2273 0.6710 l
0.2294 0.6245 l
0.2315 0.6683 l
0.2335 0.6213 l
0.2356 0.4207 l
0.2377 0.6919 l
0.2398 0.7103 l
0.2418 0.6897 l
0.2439 0.7083 l
0.2460 0.6875 l
0.2481 0.6584 l
0.2501 0.6854 l
0.2522 0.6562 l
0.2543 0.6834 l
0.2564 0.6540 l
0.2584 0.6034 l
0.2605 0.6518 l
0.2626 0.6006 l
0.2647 0.6497 l
0.2667 0.5977 l
0.2688 0.6971 l
0.2709 0.6759 l
0.2730 0.6955 l
0.2750 0.6741 l
0.2771 0.6938 l
0.2792 0.6723 l
0.2813 0.6415 l
0.2833 0.6707 l
0.2854 0.6395 l
0.2875 0.6690 l
0.2896 0.6376 l
0.2916 0.5802 l
0.2937 0.6357 l
0.2958 0.5771 l
0.2979 0.4957 l
0.2999 0.6641 l
0.3020 0.6848 l
0.3041 0.6626 l
0.3062 0.6834 l
0.3082 0.6610 l
0.3103 0.6281 l
0.3124 0.6595 l
0.3145 0.6261 l
0.3165 0.6578 l
0.3186 0.6242 l
0.3207 0.5572 l
0.3228 0.6223 l
0.3248 0.5537 l
0.3269 0.6205 l
0.3290 0.6930 l
0.3311 0.6754 l
0.3331 0.6519 l
0.3352 0.6742 l
0.3373 0.6505 l
0.3393 0.6729 l
0.3414 0.6491 l
0.3435 0.6129 l
0.3456 0.6476 l
0.3476 0.6110 l
0.3497 0.6462 l
0.3518 0.6091 l
0.3539 0.5247 l
0.3559 0.6072 l
0.3580 0.5198 l
0.3601 0.6668 l
0.3622 0.6419 l
0.3642 0.6656 l
0.3663 0.6405 l
0.3684 0.6645 l
0.3705 0.6391 l
0.3725 0.5992 l
0.3746 0.6377 l
0.3767 0.5972 l
0.3788 0.6363 l
0.3808 0.5951 l
0.3829 0.4809 l
0.3850 0.5930 l
0.3871 0.4719 l
0.3891 0.5909 l
0.3912 0.6769 l
0.3933 0.6573 l
0.3954 0.6305 l
0.3974 0.6562 l
0.3995 0.6290 l
0.4016 0.6550 l
0.4037 0.6276 l
0.4057 0.5815 l
0.4078 0.6261 l
0.4099 0.5791 l
0.4120 0.3576 l
0.4140 0.5767 l
0.4161 0.2791 l
0.4182 0.5742 l
0.4203 0.6698 l
0.4223 0.6492 l
0.4244 0.6200 l
0.4265 0.6480 l
0.4286 0.6185 l
0.4306 0.6468 l
0.4327 0.6169 l
0.4348 0.5633 l
0.4369 0.6153 l
0.4389 0.5604 l
0.4410 0.6137 l
0.4431 0.5574 l
0.4452 0.4587 l
0.4472 0.5542 l
0.4493 0.4686 l
0.4514 0.6407 l
0.4535 0.6617 l
0.4555 0.6395 l
0.4576 0.6070 l
0.4597 0.6382 l
0.4618 0.6052 l
0.4638 0.6370 l
0.4659 0.6034 l
0.4680 0.5362 l
0.4701 0.6016 l
0.4721 0.5320 l
0.4742 0.5095 l
0.4763 0.5272 l
0.4784 0.5142 l
0.4804 0.5224 l
0.4825 0.6541 l
0.4846 0.6303 l
0.4867 0.5936 l
0.4887 0.6289 l
0.4908 0.5915 l
0.4929 0.6274 l
0.4950 0.5894 l
0.4970 0.4995 l
0.4991 0.5871 l
0.5012 0.4924 l
0.5033 0.5849 l
0.5053 0.4844 l
0.5074 0.5406 l
0.5095 0.4755 l
0.5116 0.5437 l
0.5136 0.6199 l
0.5157 0.6448 l
0.5178 0.6183 l
0.5199 0.5750 l
0.5219 0.6167 l
0.5240 0.5722 l
0.5261 0.6150 l
0.5282 0.5694 l
0.5302 0.3940 l
0.5323 0.5664 l
0.5344 0.3535 l
0.5364 0.5949 l
0.5385 0.5949 l
0.5406 0.5949 l
0.5427 0.5949 l
0.5447 0.5949 l
0.5468 0.5949 l
0.5489 0.5949 l
0.5510 0.5949 l
0.5530 0.5949 l
0.5551 0.5950 l
0.5572 0.5950 l
0.5593 0.5950 l
0.5613 0.5950 l
0.5634 0.5950 l
0.5655 0.5950 l
0.5676 0.5950 l
0.5696 0.5950 l
0.5717 0.5951 l
0.5738 0.5951 l
0.5759 0.5951 l
0.5779 0.5951 l
0.5800 0.5951 l
0.5821 0.5951 l
0.5842 0.5951 l
0.5862 0.5951 l
0.5883 0.5951 l
0.5904 0.5951 l
0.5925 0.5952 l
0.5945 0.5952 l
0.5966 0.5952 l
0.5987 0.5952 l
0.6008 0.5952 l
0.6028 0.5952 l
0.6049 0.5952 l
0.6070 0.5953 l
0.6091 0.5953 l
0.6111 0.5953 l
0.6132 0.5953 l
0.6153 0.5953 l
0.6174 0.5953 l
0.6194 0.5953 l
0.6215 0.5953 l
0.6236 0.5954 l
0.6257 0.5954 l
0.6277 0.5954 l
0.6298 0.5954 l
0.6319 0.5954 l
0.6340 0.5954 l
0.6360 0.5955 l
0.6381 0.5955 l
0.6402 0.5955 l
0.6423 0.5955 l
0.6443 0.5955 l
0.6464 0.5955 l
0.6485 0.5955 l
0.6506 0.5955 l
0.6526 0.5955 l
0.6547 0.5956 l
0.6568 0.5956 l
0.6589 0.5956 l
0.6609 0.5956 l
0.6630 0.5956 l
0.6651 0.5956 l
0.6672 0.5957 l
0.6692 0.5957 l
0.6713 0.5957 l
0.6734 0.5957 l
0.6755 0.5957 l
0.6775 0.5958 l
0.6796 0.5958 l
0.6817 0.5958 l
0.6838 0.5958 l
0.6858 0.5958 l
0.6879 0.5958 l
0.6900 0.5959 l
0.6921 0.5959 l
0.6941 0.5959 l
0.6962 0.5959 l
0.6983 0.5959 l
0.7004 0.5959 l
0.7024 0.5960 l
0.7045 0.5960 l
0.7066 0.5960 l
0.7087 0.5960 l
0.7107 0.5960 l
0.7128 0.5960 l
0.7149 0.5961 l
0.7170 0.5961 l
0.7190 0.5961 l
0.7211 0.5961 l
0.7232 0.5961 l
0.7253 0.5962 l
0.7273 0.5962 l
0.7294 0.5962 l
0.7315 0.5962 l
0.7335 0.5962 l
0.7356 0.5962 l
0.7377 0.5962 l
0.7398 0.5963 l
0.7418 0.5963 l
0.7439 0.5963 l
0.7460 0.5963 l
0.7481 0.5963 l
0.7501 0.5964 l
0.7522 0.5964 l
0.7543 0.5964 l
0.7564 0.5964 l
0.7584 0.5964 l
0.7605 0.5965 l
0.7626 0.5965 l
0.7647 0.5965 l
0.7667 0.5965 l
0.7688 0.5965 l
0.7709 0.5965 l
0.7730 0.5966 l
0.7750 0.5966 l
0.7771 0.5966 l
0.7792 0.5966 l
0.7813 0.5967 l
0.7833 0.5967 l
0.7854 0.5967 l
0.7875 0.5967 l
0.7896 0.5967 l
0.7916 0.5968 l
0.7937 0.5968 l
0.7958 0.5968 l
0.7979 0.5968 l
0.7999 0.5968 l
0.8020 0.5968 l
0.8041 0.5969 l
0.8062 0.5969 l
0.8082 0.5969 l
0.8103 0.5969 l
0.8124 0.5970 l
0.8145 0.5970 l
0.8165 0.5970 l
0.8186 0.5970 l
0.8207 0.5970 l
0.8228 0.5971 l
0.8248 0.5971 l
0.8269 0.5971 l
0.8290 0.5971 l
0.8311 0.5971 l
0.8331 0.5972 l
0.8352 0.5972 l
0.8373 0.5972 l
0.8394 0.5972 l
0.8414 0.5972 l
0.8435 0.5973 l
0.8456 0.5973 l
0.8477 0.5973 l
0.8497 0.5973 l
0.8518 0.5973 l
0.8539 0.5974 l
0.8560 0.5974 l
0.8580 0.5974 l
0.8601 0.5974 l
0.8622 0.5974 l
0.8643 0.5975 l
0.8663 0.5975 l
0.8684 0.5975 l
0.8705 0.5975 l
0.8726 0.5976 l
0.8746 0.5976 l
0.8767 0.5976 l
0.8788 0.5976 l
0.8809 0.5976 l
0.8829 0.5977 l
0.8850 0.5977 l
0.8871 0.5977 l
0.8892 0.5977 l
0.8912 0.5977 l
0.8933 0.5977 l
0.8954 0.5978 l
0.8975 0.5978 l
0.8995 0.5978 l
0.9016 0.5978 l
0.9037 0.5979 l
0.9058 0.5979 l
0.9078 0.5979 l
0.9099 0.5979 l
0.9120 0.5979 l
0.9141 0.5979 l
0.9161 0.5980 l
0.9182 0.5980 l
0.9203 0.5980 l
0.9224 0.5980 l
0.9244 0.5980 l
0.9265 0.5980 l
0.9286 0.5980 l
0.9306 0.5981 l
0.9327 0.5974 l
0.9348 0.5968 l
0.9369 0.5968 l
0.9389 0.5961 l
0.9410 0.5955 l
0.9431 0.5955 l
0.9452 0.5948 l
0.9472 0.5942 l
0.9493 0.5942 l
0.9514 0.5936 l
0.9535 0.5929 l
0.9555 0.5929 l
0.9576 0.5923 l
0.9597 0.5916 l
0.9618 0.5917 l
0.9638 0.5910 l
0.9659 0.5904 l
0.9680 0.5905 l
0.9701 0.5898 l
0.9721 0.5892 l
0.9742 0.5892 l
0.9763 0.5886 l
0.9784 0.5879 l
0.9804 0.5880 l
0.9825 0.5873 l
0.9846 0.5867 l
0.9867 0.5868 l
0.9887 0.5862 l
0.9908 0.5855 l
0.9929 0.5856 l
0.9950 0.5850 l
0.9970 0.5844 l
0.9991 0.5844 l
1.0012 0.5838 l
1.0033 0.5832 l
1.0053 0.5833 l
1.0074 0.5826 l
1.0095 0.5820 l
1.0116 0.5821 l
1.0136 0.5815 l
1.0157 0.5809 l
1.0178 0.5810 l
1.0199 0.5804 l
1.0219 0.5798 l
1.0240 0.5799 l
1.0261 0.5793 l
1.0282 0.5787 l
1.0302 0.5788 l
1.0323 0.5783 l
1.0344 0.5777 l
1.0365 0.5778 l
1.0385 0.5772 l
1.0406 0.5766 l
1.0427 0.5767 l
1.0448 0.5761 l
1.0468 0.5756 l
1.0489 0.5757 l
1.0510 0.5751 l
1.0531 0.5745 l
1.0551 0.5747 l
1.0572 0.5742 l
1.0593 0.5736 l
1.0614 0.5738 l
1.0634 0.5732 l
1.0655 0.5726 l
1.0676 0.5728 l
1.0697 0.5722 l
1.0717 0.5717 l
1.0738 0.5718 l
1.0759 0.5713 l
1.0780 0.5707 l
1.0800 0.5709 l
1.0821 0.5704 l
1.0842 0.5699 l
1.0863 0.5701 l
1.0883 0.5696 l
1.0904 0.5690 l
1.0925 0.5692 l
1.0946 0.5687 l
1.0966 0.5681 l
1.0987 0.5683 l
1.1008 0.5678 l
1.1029 0.5680 l
1.1049 0.5675 l
1.1070 0.5670 l
1.1091 0.5672 l
1.1112 0.5667 l
1.1132 0.5662 l
1.1153 0.5664 l
1.1174 0.5659 l
1.1195 0.5654 l
1.1215 0.5656 l
1.1236 0.5651 l
1.1257 0.5646 l
1.1277 0.5648 l
1.1298 0.5643 l
1.1319 0.5638 l
1.1340 0.5640 l
1.1360 0.5635 l
1.1381 0.5630 l
1.1402 0.5632 l
1.1423 0.5627 l
1.1443 0.5622 l
1.1464 0.5625 l
1.1485 0.5620 l
1.1506 0.5623 l
1.1526 0.5617 l
1.1547 0.5612 l
1.1568 0.5614 l
1.1589 0.5609 l
1.1609 0.5604 l
1.1630 0.5607 l
1.1651 0.5601 l
1.1672 0.5596 l
1.1692 0.5599 l
1.1713 0.5594 l
1.1734 0.5588 l
1.1755 0.5591 l
1.1775 0.5586 l
1.1796 0.5581 l
1.1817 0.5584 l
1.1838 0.5579 l
1.1858 0.5581 l
1.1879 0.5575 l
1.1900 0.5570 l
1.1921 0.5573 l
1.1941 0.5567 l
1.1962 0.5562 l
1.1983 0.5564 l
1.2004 0.5559 l
1.2024 0.5554 l
1.2045 0.5557 l
1.2066 0.5551 l
1.2087 0.5546 l
1.2107 0.5549 l
1.2128 0.5544 l
1.2149 0.5546 l
1.2170 0.5541 l
1.2190 0.5535 l
1.2211 0.5537 l
1.2232 0.5532 l
1.2253 0.5526 l
1.2273 0.5528 l
1.2294 0.5523 l
s
[/DeviceRGB] SCS
Color15 SC
n
0.1941 0.6487 m
0.1962 0.6011 l
0.1983 0.6421 l
0.2003 0.5941 l
0.2024 0.6357 l
0.2045 0.5873 l
0.2066 0.4117 l
0.2086 0.6539 l
0.2107 0.6709 l
0.2128 0.6481 l
0.2149 0.6652 l
0.2169 0.6423 l
0.2190 0.6115 l
0.2211 0.6367 l
0.2232 0.6056 l
0.2252 0.6311 l
0.2273 0.5999 l
0.2294 0.5480 l
0.2315 0.5942 l
0.2335 0.5414 l
0.2356 0.3381 l
0.2377 0.6149 l
0.2398 0.6329 l
0.2418 0.6097 l
0.2439 0.6278 l
0.2460 0.6044 l
0.2481 0.5718 l
0.2501 0.5992 l
0.2522 0.5663 l
0.2543 0.5941 l
0.2564 0.5608 l
0.2584 0.5021 l
0.2605 0.5553 l
0.2626 0.4956 l
0.2647 0.5499 l
0.2667 0.4885 l
0.2688 0.5980 l
0.2709 0.5736 l
0.2730 0.5931 l
0.2750 0.5685 l
0.2771 0.5883 l
0.2792 0.5635 l
0.2813 0.5278 l
0.2833 0.5585 l
0.2854 0.5221 l
0.2875 0.5533 l
0.2896 0.5164 l
0.2916 0.4428 l
0.2937 0.5105 l
0.2958 0.4341 l
0.2979 0.4267 l
0.2999 0.5378 l
0.3020 0.5589 l
0.3041 0.5324 l
0.3062 0.5540 l
0.3082 0.5271 l
0.3103 0.4865 l
0.3124 0.5219 l
0.3145 0.4799 l
0.3165 0.5163 l
0.3186 0.4730 l
0.3207 0.3578 l
0.3228 0.4667 l
0.3248 0.3433 l
0.3269 0.4595 l
0.3290 0.5456 l
0.3311 0.5237 l
0.3331 0.4939 l
0.3352 0.5186 l
0.3373 0.4878 l
0.3393 0.5134 l
0.3414 0.4819 l
0.3435 0.4279 l
0.3456 0.4752 l
0.3476 0.4193 l
0.3497 0.4689 l
0.3518 0.4087 l
0.3539 0.3188 l
0.3559 0.3989 l
0.3580 0.3380 l
0.3601 0.4853 l
0.3622 0.4480 l
0.3642 0.4789 l
0.3663 0.4410 l
0.3684 0.4727 l
0.3705 0.4331 l
0.3725 0.3438 l
0.3746 0.4251 l
0.3767 0.3247 l
0.3788 0.4167 l
0.3808 0.2932 l
0.3829 0.3816 l
0.3850 0.2317 l
0.3871 0.3862 l
0.3880 0.1499 l
s
n
0.3901 0.1499 m
0.3912 0.4644 l
0.3933 0.4309 l
0.3954 0.3721 l
0.3974 0.4219 l
0.3995 0.3565 l
0.4016 0.4139 l
0.4037 0.3410 l
0.4057 0.3236 l
0.4078 0.3157 l
0.4099 0.3369 l
0.4120 0.4040 l
0.4140 0.3473 l
0.4161 0.4077 l
0.4182 0.3555 l
0.4203 0.4101 l
0.4223 0.3549 l
0.4244 0.2451 l
0.4265 0.3391 l
0.4286 0.2797 l
0.4306 0.3120 l
0.4327 0.3034 l
0.4348 0.3808 l
0.4369 0.3229 l
0.4389 0.3854 l
0.4410 0.3355 l
0.4431 0.3888 l
0.4452 0.4178 l
0.4472 0.3907 l
0.4493 0.4191 l
0.4514 0.2812 l
0.4535 0.2733 l
0.4555 0.3126 l
0.4576 0.3680 l
0.4597 0.3258 l
0.4618 0.3759 l
0.4638 0.3362 l
0.4659 0.3807 l
0.4680 0.4053 l
0.4701 0.3836 l
0.4721 0.4076 l
0.4742 0.4230 l
0.4763 0.4085 l
0.4784 0.4238 l
0.4804 0.4111 l
0.4825 0.3383 l
0.4846 0.3777 l
0.4867 0.3976 l
0.4887 0.3798 l
0.4908 0.4012 l
0.4929 0.3849 l
0.4950 0.4021 l
0.4970 0.4161 l
0.4991 0.4050 l
0.5012 0.4164 l
0.5033 0.4066 l
0.5053 0.4188 l
0.5074 0.4261 l
0.5095 0.4190 l
0.5116 0.4282 l
0.5136 0.3998 l
0.5157 0.3896 l
0.5178 0.4037 l
0.5199 0.4132 l
0.5219 0.4039 l
0.5240 0.4149 l
0.5261 0.4074 l
0.5282 0.4149 l
0.5302 0.4226 l
0.5323 0.4171 l
0.5344 0.4238 l
0.5364 0.4313 l
0.5385 0.4327 l
0.5406 0.4333 l
0.5427 0.4313 l
0.5447 0.4324 l
0.5468 0.4325 l
0.5489 0.4330 l
0.5510 0.4316 l
0.5530 0.4321 l
0.5551 0.4332 l
0.5572 0.4323 l
0.5593 0.4316 l
0.5613 0.4326 l
0.5634 0.4328 l
0.5655 0.4326 l
0.5676 0.4317 l
0.5696 0.4318 l
0.5717 0.4342 l
0.5738 0.4319 l
0.5759 0.4314 l
0.5779 0.4329 l
0.5800 0.4328 l
0.5821 0.4326 l
0.5842 0.4319 l
0.5862 0.4319 l
0.5883 0.4333 l
0.5904 0.4331 l
0.5925 0.4314 l
0.5945 0.4320 l
0.5966 0.4335 l
0.5987 0.4326 l
0.6008 0.4323 l
0.6028 0.4319 l
0.6049 0.4321 l
0.6070 0.4338 l
0.6091 0.4327 l
0.6111 0.4311 l
0.6132 0.4324 l
0.6153 0.4335 l
0.6174 0.4327 l
0.6194 0.4320 l
0.6215 0.4322 l
0.6236 0.4324 l
0.6257 0.4331 l
0.6277 0.4336 l
0.6298 0.4316 l
0.6319 0.4310 l
0.6340 0.4338 l
0.6360 0.4339 l
0.6381 0.4319 l
0.6402 0.4319 l
0.6423 0.4325 l
0.6443 0.4328 l
0.6464 0.4333 l
0.6485 0.4331 l
0.6506 0.4318 l
0.6526 0.4315 l
0.6547 0.4334 l
0.6568 0.4342 l
0.6589 0.4323 l
0.6609 0.4311 l
0.6630 0.4326 l
0.6651 0.4334 l
0.6672 0.4330 l
0.6692 0.4332 l
0.6713 0.4325 l
0.6734 0.4315 l
0.6755 0.4323 l
0.6775 0.4341 l
0.6796 0.4342 l
0.6817 0.4334 l
0.6838 0.4335 l
0.6858 0.4335 l
0.6879 0.4335 l
0.6900 0.4335 l
0.6921 0.4335 l
0.6941 0.4335 l
0.6962 0.4335 l
0.6983 0.4335 l
0.7004 0.4335 l
0.7024 0.4335 l
0.7045 0.4335 l
0.7066 0.4335 l
0.7087 0.4335 l
0.7107 0.4336 l
0.7128 0.4336 l
0.7149 0.4336 l
0.7170 0.4336 l
0.7190 0.4336 l
0.7211 0.4336 l
0.7232 0.4336 l
0.7253 0.4336 l
0.7273 0.4336 l
0.7294 0.4336 l
0.7315 0.4336 l
0.7335 0.4336 l
0.7356 0.4337 l
0.7377 0.4337 l
0.7398 0.4337 l
0.7418 0.4337 l
0.7439 0.4337 l
0.7460 0.4318 l
0.7481 0.4318 l
0.7501 0.4318 l
0.7522 0.4318 l
0.7543 0.4318 l
0.7564 0.4319 l
0.7584 0.4319 l
0.7605 0.4319 l
0.7626 0.4319 l
0.7647 0.4319 l
0.7667 0.4319 l
0.7688 0.4319 l
0.7709 0.4319 l
0.7730 0.4319 l
0.7750 0.4319 l
0.7771 0.4319 l
0.7792 0.4320 l
0.7813 0.4320 l
0.7833 0.4320 l
0.7854 0.4320 l
0.7875 0.4320 l
0.7896 0.4320 l
0.7916 0.4320 l
0.7937 0.4320 l
0.7958 0.4320 l
0.7979 0.4320 l
0.7999 0.4321 l
0.8020 0.4321 l
0.8041 0.4321 l
0.8062 0.4321 l
0.8082 0.4321 l
0.8103 0.4321 l
0.8124 0.4321 l
0.8145 0.4321 l
0.8165 0.4322 l
0.8186 0.4322 l
0.8207 0.4322 l
0.8228 0.4322 l
0.8248 0.4322 l
0.8269 0.4322 l
0.8290 0.4322 l
0.8311 0.4322 l
0.8331 0.4322 l
0.8352 0.4323 l
0.8373 0.4323 l
0.8394 0.4323 l
0.8414 0.4323 l
0.8435 0.4323 l
0.8456 0.4323 l
0.8477 0.4323 l
0.8497 0.4323 l
0.8518 0.4324 l
0.8539 0.4324 l
0.8560 0.4324 l
0.8580 0.4324 l
0.8601 0.4324 l
0.8622 0.4324 l
0.8643 0.4324 l
0.8663 0.4324 l
0.8684 0.4325 l
0.8705 0.4325 l
0.8726 0.4325 l
0.8746 0.4325 l
0.8767 0.4325 l
0.8788 0.4325 l
0.8809 0.4325 l
0.8829 0.4326 l
0.8850 0.4326 l
0.8871 0.4326 l
0.8892 0.4326 l
0.8912 0.4326 l
0.8933 0.4326 l
0.8954 0.4326 l
0.8975 0.4327 l
0.8995 0.4327 l
0.9016 0.4327 l
0.9037 0.4327 l
0.9058 0.4327 l
0.9078 0.4327 l
0.9099 0.4328 l
0.9120 0.4328 l
0.9141 0.4328 l
0.9161 0.4328 l
0.9182 0.4328 l
0.9203 0.4328 l
0.9224 0.4328 l
0.9244 0.4329 l
0.9265 0.4329 l
0.9286 0.4329 l
0.9306 0.4329 l
0.9327 0.4329 l
0.9348 0.4329 l
0.9369 0.4330 l
0.9389 0.4330 l
0.9410 0.4330 l
0.9431 0.4330 l
0.9452 0.4330 l
0.9472 0.4330 l
0.9493 0.4331 l
0.9514 0.4331 l
0.9535 0.4331 l
0.9555 0.4331 l
0.9576 0.4331 l
0.9597 0.4331 l
0.9618 0.4332 l
0.9638 0.4332 l
0.9659 0.4332 l
0.9680 0.4332 l
0.9701 0.4333 l
0.9721 0.4333 l
0.9742 0.4333 l
0.9763 0.4333 l
0.9784 0.4333 l
0.9804 0.4333 l
0.9825 0.4334 l
0.9846 0.4334 l
0.9867 0.4334 l
0.9887 0.4334 l
0.9908 0.4334 l
0.9929 0.4335 l
0.9950 0.4335 l
0.9970 0.4335 l
0.9991 0.4335 l
1.0012 0.4336 l
1.0033 0.4336 l
1.0053 0.4336 l
1.0074 0.4336 l
1.0095 0.4336 l
1.0116 0.4336 l
1.0136 0.4337 l
1.0157 0.4337 l
1.0178 0.4337 l
1.0199 0.4337 l
1.0219 0.4338 l
1.0240 0.4338 l
1.0261 0.4338 l
1.0282 0.4338 l
1.0302 0.4339 l
1.0323 0.4339 l
1.0344 0.4339 l
1.0365 0.4339 l
1.0385 0.4339 l
1.0406 0.4340 l
1.0427 0.4340 l
1.0448 0.4340 l
1.0468 0.4340 l
1.0489 0.4341 l
1.0510 0.4341 l
1.0531 0.4341 l
1.0551 0.4341 l
1.0572 0.4342 l
1.0593 0.4342 l
1.0614 0.4322 l
1.0634 0.4322 l
1.0655 0.4322 l
1.0676 0.4322 l
1.0697 0.4323 l
1.0717 0.4323 l
1.0738 0.4323 l
1.0759 0.4323 l
1.0780 0.4324 l
1.0800 0.4324 l
1.0821 0.4324 l
1.0842 0.4325 l
1.0863 0.4325 l
1.0883 0.4325 l
1.0904 0.4326 l
1.0925 0.4326 l
1.0946 0.4326 l
1.0966 0.4326 l
1.0987 0.4327 l
1.1008 0.4327 l
1.1029 0.4327 l
1.1049 0.4327 l
1.1070 0.4328 l
1.1091 0.4328 l
1.1112 0.4328 l
1.1132 0.4329 l
1.1153 0.4325 l
1.1174 0.4306 l
1.1195 0.4305 l
1.1215 0.4309 l
1.1236 0.4313 l
1.1257 0.4314 l
1.1277 0.4314 l
1.1298 0.4315 l
1.1319 0.4318 l
1.1340 0.4324 l
1.1360 0.4330 l
1.1381 0.4331 l
1.1402 0.4326 l
1.1423 0.4315 l
1.1443 0.4304 l
1.1464 0.4298 l
1.1485 0.4303 l
1.1506 0.4317 l
1.1526 0.4333 l
1.1547 0.4342 l
1.1568 0.4341 l
1.1589 0.4330 l
1.1609 0.4317 l
1.1630 0.4307 l
1.1651 0.4307 l
1.1672 0.4313 l
1.1692 0.4322 l
1.1713 0.4329 l
1.1734 0.4331 l
1.1755 0.4329 l
1.1775 0.4328 l
1.1796 0.4330 l
1.1817 0.4332 l
1.1838 0.4330 l
1.1858 0.4324 l
1.1879 0.4316 l
1.1900 0.4312 l
1.1921 0.4315 l
1.1941 0.4327 l
1.1962 0.4341 l
1.1983 0.4349 l
1.2004 0.4346 l
1.2024 0.4334 l
1.2045 0.4319 l
1.2066 0.4310 l
1.2087 0.4313 l
1.2107 0.4326 l
1.2128 0.4339 l
1.2149 0.4345 l
1.2170 0.4344 l
1.2190 0.4313 l
1.2211 0.4308 l
1.2232 0.4308 l
1.2253 0.4307 l
1.2273 0.4307 l
1.2294 0.4305 l
s
[/DeviceRGB] SCS
Color11 SC
n
0.1941 0.5910 m
0.1962 0.5432 l
0.1983 0.5798 l
0.2003 0.5318 l
0.2024 0.5691 l
0.2045 0.5194 l
0.2066 0.3818 l
0.2086 0.5803 l
0.2107 0.5948 l
0.2128 0.5696 l
0.2149 0.5846 l
0.2169 0.5593 l
0.2190 0.5262 l
0.2211 0.5485 l
0.2232 0.5150 l
0.2252 0.5382 l
0.2273 0.5042 l
0.2294 0.4480 l
0.2315 0.4927 l
0.2335 0.4399 l
0.2356 0.2552 l
0.2377 0.5061 l
0.2398 0.5219 l
0.2418 0.4957 l
0.2439 0.5110 l
0.2460 0.4846 l
0.2481 0.4472 l
0.2501 0.4724 l
0.2522 0.4352 l
0.2543 0.4623 l
0.2564 0.4208 l
0.2584 0.3448 l
0.2605 0.4081 l
0.2626 0.3308 l
0.2647 0.3993 l
0.2667 0.2940 l
0.2688 0.4409 l
0.2709 0.4090 l
0.2730 0.4337 l
0.2750 0.4042 l
0.2771 0.4236 l
0.2792 0.3879 l
0.2813 0.3274 l
0.2833 0.3699 l
0.2854 0.3051 l
0.2875 0.3569 l
0.2896 0.2904 l
0.2916 0.2247 l
0.2937 0.2699 l
0.2958 0.2489 l
0.2979 0.3289 l
0.2999 0.2898 l
0.3020 0.3190 l
0.3041 0.1644 l
0.3062 0.2669 l
0.3082 0.1817 l
0.3103 0.2809 l
0.3123 0.1499 l
s
n
0.3125 0.1499 m
0.3145 0.2768 l
0.3165 0.2274 l
0.3186 0.2957 l
0.3207 0.3186 l
0.3228 0.2855 l
0.3248 0.3238 l
0.3269 0.3277 l
0.3290 0.2549 l
0.3311 0.2251 l
0.3331 0.2570 l
0.3352 0.2950 l
0.3373 0.3297 l
0.3393 0.2846 l
0.3414 0.2881 l
0.3435 0.3307 l
0.3456 0.3311 l
0.3476 0.3214 l
0.3497 0.3103 l
0.3518 0.3390 l
0.3539 0.3390 l
0.3559 0.3244 l
0.3580 0.3415 l
0.3601 0.3218 l
0.3622 0.3317 l
0.3642 0.3210 l
0.3663 0.3316 l
0.3684 0.3333 l
0.3705 0.3251 l
0.3725 0.3403 l
0.3746 0.3368 l
0.3767 0.3310 l
0.3788 0.3403 l
0.3808 0.3399 l
0.3829 0.3244 l
0.3850 0.3551 l
0.3871 0.3152 l
0.3891 0.3542 l
0.3912 0.3119 l
0.3933 0.3422 l
0.3954 0.3392 l
0.3974 0.3298 l
0.3995 0.3407 l
0.4016 0.3345 l
0.4037 0.3329 l
0.4057 0.3334 l
0.4078 0.3319 l
0.4099 0.3399 l
0.4120 0.3294 l
0.4140 0.3353 l
0.4161 0.3240 l
0.4182 0.3336 l
0.4203 0.3265 l
0.4223 0.3270 l
0.4244 0.3327 l
0.4265 0.3283 l
0.4286 0.3341 l
0.4306 0.3309 l
0.4327 0.3255 l
0.4348 0.3301 l
0.4369 0.3253 l
0.4389 0.3088 l
0.4410 0.3052 l
0.4431 0.2897 l
0.4452 0.3193 l
0.4472 0.3073 l
0.4493 0.3064 l
0.4514 0.3209 l
0.4535 0.2348 l
0.4555 0.3343 l
0.4576 0.2895 l
0.4597 0.3127 l
0.4618 0.3254 l
0.4638 0.3004 l
0.4659 0.3205 l
0.4680 0.3193 l
0.4701 0.2789 l
0.4721 0.3265 l
0.4742 0.3205 l
0.4763 0.2544 l
0.4784 0.3309 l
0.4804 0.2750 l
0.4825 0.2730 l
0.4846 0.3320 l
0.4867 0.2741 l
0.4887 0.3139 l
0.4908 0.3350 l
0.4929 0.3115 l
0.4950 0.3173 l
0.4970 0.3353 l
0.4991 0.3244 l
0.5012 0.3166 l
0.5033 0.3335 l
0.5053 0.3229 l
0.5074 0.3058 l
0.5095 0.3210 l
0.5116 0.3174 l
0.5136 0.3120 l
0.5157 0.3198 l
0.5178 0.3286 l
0.5199 0.3330 l
0.5219 0.3283 l
0.5240 0.3319 l
0.5261 0.3430 l
0.5282 0.3365 l
0.5302 0.3228 l
0.5323 0.3339 l
0.5344 0.3432 l
0.5364 0.3146 l
0.5385 0.3146 l
0.5406 0.3539 l
0.5427 0.3350 l
0.5447 0.2901 l
0.5468 0.3426 l
0.5489 0.3531 l
0.5510 0.3143 l
0.5530 0.3186 l
0.5551 0.3548 l
0.5572 0.3509 l
0.5593 0.3104 l
0.5613 0.3230 l
0.5634 0.3605 l
0.5655 0.3478 l
0.5676 0.2922 l
0.5696 0.3310 l
0.5717 0.3710 l
0.5738 0.3382 l
0.5759 0.2799 l
0.5779 0.3365 l
0.5800 0.3605 l
0.5821 0.3238 l
0.5842 0.2733 l
0.5862 0.3256 l
0.5883 0.3526 l
0.5904 0.3263 l
0.5925 0.2585 l
0.5945 0.3077 l
0.5966 0.3484 l
0.5987 0.3272 l
0.6008 0.2224 l
0.6028 0.2651 l
0.6049 0.3408 l
0.6070 0.3379 l
0.6091 0.2610 l
0.6111 0.2518 l
0.6132 0.3163 l
0.6153 0.3347 l
0.6174 0.3086 l
0.6194 0.2710 l
0.6215 0.2901 l
0.6236 0.3294 l
0.6257 0.3251 l
0.6277 0.2753 l
0.6298 0.2497 l
0.6319 0.2932 l
0.6340 0.3053 l
0.6360 0.3015 l
0.6381 0.2554 l
0.6402 0.2776 l
0.6423 0.3117 l
0.6443 0.3135 l
0.6464 0.3073 l
0.6485 0.3062 l
0.6506 0.3067 l
0.6526 0.3048 l
0.6547 0.3061 l
0.6568 0.7335 l
0.6589 0.7334 l
0.6609 0.7333 l
0.6630 0.7335 l
0.6651 0.7336 l
0.6672 0.7335 l
0.6692 0.7801 l
0.6713 0.7800 l
0.6734 0.7801 l
0.6755 0.7801 l
0.6775 0.7802 l
0.6796 0.7801 l
0.6817 0.8068 l
0.6838 0.8068 l
0.6858 0.8068 l
0.6879 0.8068 l
0.6900 0.8068 l
0.6921 0.8068 l
0.6941 0.8253 l
0.6962 0.8253 l
0.6983 0.8253 l
0.7004 0.8253 l
0.7024 0.8253 l
0.7045 0.8253 l
0.7066 0.8393 l
0.7087 0.8393 l
0.7107 0.8393 l
0.7128 0.8393 l
0.7149 0.8393 l
0.7170 0.8393 l
0.7190 0.8393 l
0.7211 0.8393 l
0.7232 0.8393 l
0.7253 0.8393 l
0.7273 0.8393 l
0.7294 0.8393 l
0.7315 0.8393 l
0.7335 0.8393 l
0.7356 0.8393 l
0.7377 0.8393 l
0.7398 0.8393 l
0.7418 0.8393 l
0.7439 0.8393 l
0.7460 0.8393 l
0.7481 0.8393 l
0.7501 0.8393 l
0.7522 0.8393 l
0.7543 0.8393 l
0.7564 0.8393 l
0.7584 0.8393 l
0.7605 0.8393 l
0.7626 0.8393 l
0.7647 0.8393 l
0.7667 0.8393 l
0.7688 0.8393 l
0.7709 0.8393 l
0.7730 0.8394 l
0.7750 0.8394 l
0.7771 0.8394 l
0.7792 0.8394 l
0.7813 0.8394 l
0.7833 0.8394 l
0.7854 0.8394 l
0.7875 0.8394 l
0.7896 0.8394 l
0.7916 0.8394 l
0.7937 0.8394 l
0.7958 0.8394 l
0.7979 0.8394 l
0.7999 0.8394 l
0.8020 0.8394 l
0.8041 0.8394 l
0.8062 0.8394 l
0.8082 0.8394 l
0.8103 0.8394 l
0.8124 0.8394 l
0.8145 0.8394 l
0.8165 0.8394 l
0.8186 0.8394 l
0.8207 0.8394 l
0.8228 0.8394 l
0.8248 0.8394 l
0.8269 0.8394 l
0.8290 0.8394 l
0.8311 0.8394 l
0.8331 0.8394 l
0.8352 0.8394 l
0.8373 0.8394 l
0.8394 0.8395 l
0.8414 0.8395 l
0.8435 0.8395 l
0.8456 0.8395 l
0.8477 0.8395 l
0.8497 0.8395 l
0.8518 0.8395 l
0.8539 0.8395 l
0.8560 0.8395 l
0.8580 0.8395 l
0.8601 0.8395 l
0.8622 0.8395 l
0.8643 0.8395 l
0.8663 0.8395 l
0.8684 0.8395 l
0.8705 0.8395 l
0.8726 0.8395 l
0.8746 0.8395 l
0.8767 0.8395 l
0.8788 0.8395 l
0.8809 0.8395 l
0.8829 0.8395 l
0.8850 0.8395 l
0.8871 0.8396 l
0.8892 0.8396 l
0.8912 0.8396 l
0.8933 0.8396 l
0.8954 0.8396 l
0.8975 0.8396 l
0.8995 0.8396 l
0.9016 0.8396 l
0.9037 0.8396 l
0.9058 0.8396 l
0.9078 0.8396 l
0.9099 0.8396 l
0.9120 0.8396 l
0.9141 0.8396 l
0.9161 0.8396 l
0.9182 0.8396 l
0.9203 0.8396 l
0.9224 0.8396 l
0.9244 0.8396 l
0.9265 0.8396 l
0.9286 0.8396 l
0.9306 0.8396 l
0.9327 0.8396 l
0.9348 0.8397 l
0.9369 0.8397 l
0.9389 0.8397 l
0.9410 0.8397 l
0.9431 0.8397 l
0.9452 0.8397 l
0.9472 0.8397 l
0.9493 0.8397 l
0.9514 0.8397 l
0.9535 0.8397 l
0.9555 0.8397 l
0.9576 0.8397 l
0.9597 0.8397 l
0.9618 0.8397 l
0.9638 0.8397 l
0.9659 0.8397 l
0.9680 0.8397 l
0.9701 0.8397 l
0.9721 0.8397 l
0.9742 0.8397 l
0.9763 0.8398 l
0.9784 0.8398 l
0.9804 0.8398 l
0.9825 0.8398 l
0.9846 0.8398 l
0.9867 0.8398 l
0.9887 0.8398 l
0.9908 0.8398 l
0.9929 0.8398 l
0.9950 0.8398 l
0.9970 0.8398 l
0.9991 0.8398 l
1.0012 0.8398 l
1.0033 0.8398 l
1.0053 0.8398 l
1.0074 0.8398 l
1.0095 0.8398 l
1.0116 0.8399 l
1.0136 0.8399 l
1.0157 0.8399 l
1.0178 0.8399 l
1.0199 0.8399 l
1.0219 0.8399 l
1.0240 0.8399 l
1.0261 0.8399 l
1.0282 0.8399 l
1.0302 0.8399 l
1.0323 0.8399 l
1.0344 0.8399 l
1.0365 0.8399 l
1.0385 0.8399 l
1.0406 0.8399 l
1.0427 0.8400 l
1.0448 0.8400 l
1.0468 0.8400 l
1.0489 0.8400 l
1.0510 0.8400 l
1.0531 0.8400 l
1.0551 0.8400 l
1.0572 0.8400 l
1.0593 0.8400 l
1.0614 0.8400 l
1.0634 0.8400 l
1.0655 0.8400 l
1.0676 0.8400 l
1.0697 0.8400 l
1.0717 0.8401 l
1.0738 0.8401 l
1.0759 0.8401 l
1.0780 0.8401 l
1.0800 0.8401 l
1.0821 0.8401 l
1.0842 0.8401 l
1.0863 0.8401 l
1.0883 0.8401 l
1.0904 0.8401 l
1.0925 0.8401 l
1.0946 0.8401 l
1.0966 0.8401 l
1.0987 0.8402 l
1.1008 0.8402 l
1.1029 0.8402 l
1.1049 0.8402 l
1.1070 0.8402 l
1.1091 0.8402 l
1.1112 0.8402 l
1.1132 0.8402 l
1.1153 0.8402 l
1.1174 0.8402 l
1.1195 0.8402 l
1.1215 0.8402 l
1.1236 0.8402 l
1.1257 0.8403 l
1.1277 0.8403 l
1.1298 0.8403 l
1.1319 0.8403 l
1.1340 0.8403 l
1.1360 0.8403 l
1.1381 0.8403 l
1.1402 0.8403 l
1.1423 0.8403 l
1.1443 0.8403 l
1.1464 0.8403 l
1.1485 0.8404 l
1.1506 0.8404 l
1.1526 0.8264 l
1.1547 0.8264 l
1.1568 0.8404 l
1.1589 0.8404 l
1.1609 0.8404 l
1.1630 0.8404 l
1.1651 0.8404 l
1.1672 0.8404 l
1.1692 0.8265 l
1.1713 0.8265 l
1.1734 0.8265 l
1.1755 0.8265 l
1.1775 0.8265 l
1.1796 0.8266 l
1.1817 0.8405 l
1.1838 0.8405 l
1.1858 0.8266 l
1.1879 0.8266 l
1.1900 0.8266 l
1.1921 0.8266 l
1.1941 0.8266 l
1.1962 0.8266 l
1.1983 0.8266 l
1.2004 0.8266 l
1.2024 0.8267 l
1.2045 0.8267 l
1.2066 0.8267 l
1.2087 0.8267 l
1.2107 0.8267 l
1.2128 0.8267 l
1.2149 0.8267 l
1.2170 0.8267 l
1.2190 0.8268 l
1.2211 0.8268 l
1.2232 0.8268 l
1.2253 0.8268 l
1.2273 0.8268 l
1.2294 0.8268 l
s
[/DeviceRGB] SCS
Color10 SC
n
0.1941 0.4142 m
0.1962 0.3918 l
0.1983 0.3968 l
0.2003 0.4032 l
0.2024 0.3917 l
0.2045 0.4758 l
0.2066 0.4711 l
0.2086 0.4265 l
0.2107 0.4640 l
0.2128 0.4481 l
0.2149 0.4493 l
0.2169 0.4495 l
0.2190 0.4443 l
0.2211 0.4616 l
0.2232 0.4787 l
0.2252 0.4940 l
0.2273 0.4560 l
0.2294 0.4372 l
0.2315 0.4537 l
0.2335 0.3982 l
0.2356 0.3925 l
0.2377 0.4799 l
0.2398 0.5183 l
0.2418 0.5209 l
0.2439 0.5199 l
0.2460 0.4886 l
0.2481 0.4973 l
0.2501 0.4816 l
0.2522 0.4688 l
0.2543 0.4802 l
0.2564 0.4718 l
0.2584 0.4912 l
0.2605 0.5033 l
0.2626 0.5160 l
0.2647 0.5046 l
0.2667 0.5038 l
0.2688 0.4931 l
0.2709 0.5172 l
0.2730 0.4905 l
0.2750 0.4555 l
0.2771 0.4410 l
0.2792 0.4392 l
0.2813 0.4508 l
0.2833 0.4395 l
0.2854 0.4379 l
0.2875 0.4174 l
0.2896 0.3997 l
0.2916 0.3884 l
0.2937 0.3664 l
0.2958 0.4309 l
0.2979 0.4419 l
0.2999 0.4866 l
0.3020 0.4675 l
0.3041 0.4650 l
0.3062 0.4675 l
0.3082 0.4517 l
0.3103 0.4224 l
0.3124 0.4295 l
0.3145 0.4031 l
0.3165 0.4090 l
0.3186 0.4610 l
0.3207 0.4887 l
0.3228 0.5101 l
0.3248 0.5268 l
0.3269 0.5517 l
0.3290 0.5189 l
0.3311 0.5523 l
0.3331 0.5144 l
0.3352 0.5697 l
0.3373 0.5575 l
0.3393 0.5253 l
0.3414 0.5611 l
0.3435 0.5526 l
0.3456 0.5591 l
0.3476 0.5582 l
0.3497 0.5609 l
0.3518 0.5449 l
0.3539 0.5447 l
0.3559 0.5384 l
0.3580 0.5653 l
0.3601 0.5669 l
0.3622 0.5671 l
0.3642 0.5850 l
0.3663 0.6025 l
0.3684 0.6023 l
0.3705 0.5478 l
0.3725 0.5163 l
0.3746 0.5760 l
0.3767 0.5902 l
0.3788 0.5530 l
0.3808 0.5356 l
0.3829 0.5900 l
0.3850 0.5511 l
0.3871 0.5467 l
0.3891 0.5748 l
0.3912 0.5647 l
0.3933 0.5918 l
0.3954 0.5780 l
0.3974 0.5575 l
0.3995 0.5611 l
0.4016 0.5478 l
0.4037 0.5723 l
0.4057 0.5592 l
0.4078 0.5270 l
0.4099 0.5449 l
0.4120 0.5675 l
0.4140 0.5483 l
0.4161 0.5404 l
0.4182 0.5544 l
0.4203 0.5903 l
0.4223 0.5780 l
0.4244 0.5599 l
0.4265 0.5693 l
0.4286 0.5467 l
0.4306 0.5298 l
0.4327 0.5079 l
0.4348 0.5052 l
0.4369 0.5138 l
0.4389 0.4943 l
0.4410 0.5030 l
0.4431 0.5302 l
0.4452 0.5447 l
0.4472 0.5480 l
0.4493 0.5691 l
0.4514 0.5715 l
0.4535 0.5369 l
0.4555 0.5352 l
0.4576 0.5071 l
0.4597 0.5124 l
0.4618 0.4910 l
0.4638 0.4803 l
0.4659 0.4789 l
0.4680 0.4692 l
0.4701 0.4870 l
0.4721 0.5049 l
0.4742 0.4978 l
0.4763 0.5138 l
0.4784 0.5369 l
0.4804 0.5290 l
0.4825 0.5408 l
0.4846 0.5167 l
0.4867 0.4922 l
0.4887 0.4983 l
0.4908 0.4870 l
0.4929 0.4356 l
0.4950 0.4025 l
0.4970 0.3930 l
0.4991 0.3850 l
0.5012 0.4199 l
0.5033 0.4467 l
0.5053 0.4841 l
0.5074 0.5107 l
0.5095 0.5224 l
0.5116 0.5194 l
0.5136 0.5185 l
0.5157 0.5002 l
0.5178 0.4685 l
0.5199 0.4255 l
0.5219 0.3627 l
0.5240 0.2112 l
0.5258 0.1499 l
s
n
0.5262 0.1499 m
0.5282 0.3469 l
0.5302 0.2362 l
0.5323 0.1574 l
0.5344 0.4285 l
0.5364 0.4357 l
0.5385 0.4607 l
0.5406 0.4776 l
0.5427 0.4674 l
0.5447 0.3428 l
0.5468 0.3341 l
0.5489 0.3595 l
0.5510 0.2379 l
0.5530 0.3546 l
0.5551 0.2529 l
0.5572 0.1976 l
0.5593 0.2965 l
0.5613 0.2561 l
0.5634 0.3635 l
0.5655 0.2623 l
0.5676 0.3647 l
0.5696 0.3821 l
0.5717 0.3420 l
0.5738 0.4333 l
0.5759 0.3311 l
0.5779 0.4123 l
0.5800 0.3112 l
0.5821 0.3847 l
0.5842 0.3832 l
0.5862 0.3395 l
0.5883 0.3817 l
0.5904 0.2979 l
0.5925 0.3554 l
0.5945 0.4146 l
0.5966 0.4396 l
0.5987 0.3908 l
0.6008 0.4559 l
0.6028 0.4666 l
0.6049 0.4177 l
0.6070 0.4705 l
0.6091 0.3861 l
0.6111 0.4317 l
0.6132 0.4606 l
0.6153 0.3903 l
0.6174 0.4239 l
0.6194 0.4454 l
0.6215 0.3903 l
0.6236 0.4273 l
0.6257 0.4624 l
0.6277 0.4744 l
0.6298 0.4417 l
0.6319 0.4786 l
0.6340 0.5038 l
0.6360 0.4375 l
0.6381 0.4713 l
0.6402 0.4932 l
0.6423 0.4323 l
0.6443 0.4587 l
0.6464 0.4722 l
0.6485 0.4252 l
0.6506 0.4497 l
0.6526 0.4767 l
0.6547 0.4913 l
0.6568 0.4575 l
0.6589 0.4838 l
0.6609 0.4999 l
0.6630 0.5276 l
0.6651 0.4655 l
0.6672 0.4942 l
0.6692 0.5217 l
0.6713 0.5140 l
0.6734 0.4833 l
0.6755 0.4961 l
0.6775 0.5010 l
0.6796 0.4991 l
0.6817 0.5316 l
0.6838 0.5316 l
0.6858 0.5316 l
0.6879 0.5316 l
0.6900 0.5316 l
0.6921 0.5316 l
0.6941 0.5316 l
0.6962 0.5316 l
0.6983 0.5316 l
0.7004 0.5316 l
0.7024 0.5316 l
0.7045 0.5316 l
0.7066 0.5316 l
0.7087 0.5316 l
0.7107 0.5316 l
0.7128 0.5316 l
0.7149 0.5316 l
0.7170 0.5316 l
0.7190 0.5315 l
0.7211 0.5315 l
0.7232 0.5315 l
0.7253 0.5315 l
0.7273 0.5315 l
0.7294 0.5315 l
0.7315 0.5315 l
0.7335 0.5315 l
0.7356 0.5315 l
0.7377 0.5315 l
0.7398 0.5315 l
0.7418 0.5315 l
0.7439 0.5315 l
0.7460 0.5315 l
0.7481 0.5315 l
0.7501 0.5315 l
0.7522 0.5315 l
0.7543 0.5315 l
0.7564 0.5315 l
0.7584 0.5315 l
0.7605 0.5314 l
0.7626 0.5314 l
0.7647 0.5314 l
0.7667 0.5314 l
0.7688 0.5314 l
0.7709 0.5314 l
0.7730 0.5314 l
0.7750 0.5314 l
0.7771 0.5314 l
0.7792 0.5314 l
0.7813 0.5314 l
0.7833 0.5314 l
0.7854 0.5314 l
0.7875 0.5314 l
0.7896 0.5314 l
0.7916 0.5314 l
0.7937 0.5314 l
0.7958 0.5313 l
0.7979 0.5313 l
0.7999 0.5313 l
0.8020 0.5313 l
0.8041 0.5313 l
0.8062 0.5313 l
0.8082 0.5313 l
0.8103 0.5313 l
0.8124 0.5313 l
0.8145 0.5313 l
0.8165 0.5313 l
0.8186 0.5313 l
0.8207 0.5313 l
0.8228 0.5313 l
0.8248 0.5313 l
0.8269 0.5312 l
0.8290 0.5312 l
0.8311 0.5312 l
0.8331 0.5312 l
0.8352 0.5312 l
0.8373 0.5312 l
0.8394 0.5312 l
0.8414 0.5312 l
0.8435 0.5312 l
0.8456 0.5312 l
0.8477 0.5312 l
0.8497 0.5312 l
0.8518 0.5312 l
0.8539 0.5312 l
0.8560 0.5311 l
0.8580 0.5311 l
0.8601 0.5311 l
0.8622 0.5311 l
0.8643 0.5311 l
0.8663 0.5311 l
0.8684 0.5311 l
0.8705 0.5311 l
0.8726 0.5311 l
0.8746 0.5311 l
0.8767 0.5311 l
0.8788 0.5311 l
0.8809 0.5310 l
0.8829 0.5310 l
0.8850 0.5310 l
0.8871 0.5310 l
0.8892 0.5310 l
0.8912 0.5310 l
0.8933 0.5310 l
0.8954 0.5310 l
0.8975 0.5310 l
0.8995 0.5310 l
0.9016 0.5310 l
0.9037 0.5309 l
0.9058 0.5309 l
0.9078 0.5309 l
0.9099 0.5309 l
0.9120 0.5309 l
0.9141 0.5309 l
0.9161 0.5309 l
0.9182 0.5309 l
0.9203 0.5309 l
0.9224 0.5309 l
0.9244 0.5309 l
0.9265 0.5308 l
0.9286 0.5308 l
0.9306 0.5308 l
0.9327 0.5308 l
0.9348 0.5308 l
0.9369 0.5308 l
0.9389 0.5308 l
0.9410 0.5308 l
0.9431 0.5308 l
0.9452 0.5308 l
0.9472 0.5307 l
0.9493 0.5307 l
0.9514 0.5307 l
0.9535 0.5307 l
0.9555 0.5307 l
0.9576 0.5307 l
0.9597 0.5307 l
0.9618 0.5307 l
0.9638 0.5307 l
0.9659 0.5306 l
0.9680 0.5306 l
0.9701 0.5306 l
0.9721 0.5306 l
0.9742 0.5306 l
0.9763 0.5306 l
0.9784 0.5306 l
0.9804 0.5306 l
0.9825 0.5306 l
0.9846 0.5305 l
0.9867 0.5305 l
0.9887 0.5305 l
0.9908 0.5305 l
0.9929 0.5305 l
0.9950 0.5305 l
0.9970 0.5305 l
0.9991 0.5305 l
1.0012 0.5304 l
1.0033 0.5304 l
1.0053 0.5304 l
1.0074 0.5304 l
1.0095 0.5304 l
1.0116 0.5304 l
1.0136 0.5304 l
1.0157 0.5304 l
1.0178 0.5303 l
1.0199 0.5303 l
1.0219 0.5303 l
1.0240 0.5303 l
1.0261 0.5303 l
1.0282 0.5303 l
1.0302 0.5303 l
1.0323 0.5302 l
1.0344 0.5302 l
1.0365 0.5302 l
1.0385 0.5302 l
1.0406 0.5302 l
1.0427 0.5302 l
1.0448 0.5302 l
1.0468 0.5301 l
1.0489 0.5301 l
1.0510 0.5301 l
1.0531 0.5301 l
1.0551 0.5301 l
1.0572 0.5301 l
1.0593 0.5301 l
1.0614 0.5300 l
1.0634 0.5300 l
1.0655 0.5300 l
1.0676 0.5300 l
1.0697 0.5300 l
1.0717 0.5300 l
1.0738 0.5299 l
1.0759 0.5299 l
1.0780 0.5299 l
1.0800 0.5299 l
1.0821 0.5299 l
1.0842 0.5299 l
1.0863 0.5298 l
1.0883 0.5298 l
1.0904 0.5298 l
1.0925 0.5298 l
1.0946 0.5298 l
1.0966 0.5298 l
1.0987 0.5297 l
1.1008 0.5297 l
1.1029 0.5297 l
1.1049 0.5297 l
1.1070 0.5297 l
1.1091 0.5297 l
1.1112 0.5296 l
1.1132 0.5296 l
1.1153 0.4671 l
1.1174 0.4988 l
1.1195 0.4896 l
1.1215 0.4777 l
1.1236 0.5221 l
1.1257 0.5270 l
1.1277 0.5282 l
1.1298 0.5174 l
1.1319 0.5006 l
1.1340 0.4916 l
1.1360 0.4766 l
1.1381 0.4626 l
1.1402 0.5103 l
1.1423 0.5252 l
1.1443 0.5162 l
1.1464 0.5007 l
1.1485 0.4966 l
1.1506 0.4736 l
1.1526 0.4719 l
1.1547 0.5061 l
1.1568 0.5268 l
1.1589 0.5222 l
1.1609 0.5059 l
1.1630 0.4790 l
1.1651 0.4782 l
1.1672 0.4556 l
1.1692 0.4529 l
1.1713 0.5217 l
1.1734 0.5039 l
1.1755 0.5022 l
1.1775 0.4856 l
1.1796 0.4701 l
1.1817 0.4510 l
1.1838 0.4786 l
1.1858 0.5144 l
1.1879 0.5101 l
1.1900 0.4954 l
1.1921 0.4750 l
1.1941 0.4586 l
1.1962 0.4423 l
1.1983 0.4237 l
1.2004 0.5007 l
1.2024 0.5088 l
1.2045 0.4908 l
1.2066 0.4570 l
1.2087 0.4435 l
1.2107 0.4226 l
1.2128 0.4905 l
1.2149 0.5006 l
1.2170 0.4903 l
1.2190 0.4725 l
1.2211 0.4407 l
1.2232 0.4212 l
1.2253 0.4033 l
1.2273 0.4997 l
1.2294 0.4884 l
s
[/DeviceRGB] SCS
Color1 SC
n
0.1941 0.1500 m
1.2294 0.1500 l
s
n
0.1941 0.9500 m
1.2294 0.9500 l
s
[] 0 SD
0.0023 SLW
n
0.2564 0.1500 m
0.2564 0.1700 l
s
n
0.2564 0.9500 m
0.2564 0.9300 l
s
n
0.2929 0.1500 m
0.2929 0.1700 l
s
n
0.2929 0.9500 m
0.2929 0.9300 l
s
n
0.3188 0.1500 m
0.3188 0.1700 l
s
n
0.3188 0.9500 m
0.3188 0.9300 l
s
n
0.3388 0.1500 m
0.3388 0.1700 l
s
n
0.3388 0.9500 m
0.3388 0.9300 l
s
n
0.3552 0.1500 m
0.3552 0.1700 l
s
n
0.3552 0.9500 m
0.3552 0.9300 l
s
n
0.3691 0.1500 m
0.3691 0.1700 l
s
n
0.3691 0.9500 m
0.3691 0.9300 l
s
n
0.3811 0.1500 m
0.3811 0.1700 l
s
n
0.3811 0.9500 m
0.3811 0.9300 l
s
n
0.3917 0.1500 m
0.3917 0.1700 l
s
n
0.3917 0.9500 m
0.3917 0.9300 l
s
n
0.4635 0.1500 m
0.4635 0.1700 l
s
n
0.4635 0.9500 m
0.4635 0.9300 l
s
n
0.5000 0.1500 m
0.5000 0.1700 l
s
n
0.5000 0.9500 m
0.5000 0.9300 l
s
n
0.5258 0.1500 m
0.5258 0.1700 l
s
n
0.5258 0.9500 m
0.5258 0.9300 l
s
n
0.5459 0.1500 m
0.5459 0.1700 l
s
n
0.5459 0.9500 m
0.5459 0.9300 l
s
n
0.5623 0.1500 m
0.5623 0.1700 l
s
n
0.5623 0.9500 m
0.5623 0.9300 l
s
n
0.5762 0.1500 m
0.5762 0.1700 l
s
n
0.5762 0.9500 m
0.5762 0.9300 l
s
n
0.5882 0.1500 m
0.5882 0.1700 l
s
n
0.5882 0.9500 m
0.5882 0.9300 l
s
n
0.5988 0.1500 m
0.5988 0.1700 l
s
n
0.5988 0.9500 m
0.5988 0.9300 l
s
n
0.6706 0.1500 m
0.6706 0.1700 l
s
n
0.6706 0.9500 m
0.6706 0.9300 l
s
n
0.7070 0.1500 m
0.7070 0.1700 l
s
n
0.7070 0.9500 m
0.7070 0.9300 l
s
n
0.7329 0.1500 m
0.7329 0.1700 l
s
n
0.7329 0.9500 m
0.7329 0.9300 l
s
n
0.7530 0.1500 m
0.7530 0.1700 l
s
n
0.7530 0.9500 m
0.7530 0.9300 l
s
n
0.7694 0.1500 m
0.7694 0.1700 l
s
n
0.7694 0.9500 m
0.7694 0.9300 l
s
n
0.7832 0.1500 m
0.7832 0.1700 l
s
n
0.7832 0.9500 m
0.7832 0.9300 l
s
n
0.7952 0.1500 m
0.7952 0.1700 l
s
n
0.7952 0.9500 m
0.7952 0.9300 l
s
n
0.8058 0.1500 m
0.8058 0.1700 l
s
n
0.8058 0.9500 m
0.8058 0.9300 l
s
n
0.8776 0.1500 m
0.8776 0.1700 l
s
n
0.8776 0.9500 m
0.8776 0.9300 l
s
n
0.9141 0.1500 m
0.9141 0.1700 l
s
n
0.9141 0.9500 m
0.9141 0.9300 l
s
n
0.9400 0.1500 m
0.9400 0.1700 l
s
n
0.9400 0.9500 m
0.9400 0.9300 l
s
n
0.9600 0.1500 m
0.9600 0.1700 l
s
n
0.9600 0.9500 m
0.9600 0.9300 l
s
n
0.9764 0.1500 m
0.9764 0.1700 l
s
n
0.9764 0.9500 m
0.9764 0.9300 l
s
n
0.9903 0.1500 m
0.9903 0.1700 l
s
n
0.9903 0.9500 m
0.9903 0.9300 l
s
n
1.0023 0.1500 m
1.0023 0.1700 l
s
n
1.0023 0.9500 m
1.0023 0.9300 l
s
n
1.0129 0.1500 m
1.0129 0.1700 l
s
n
1.0129 0.9500 m
1.0129 0.9300 l
s
n
1.0847 0.1500 m
1.0847 0.1700 l
s
n
1.0847 0.9500 m
1.0847 0.9300 l
s
n
1.1211 0.1500 m
1.1211 0.1700 l
s
n
1.1211 0.9500 m
1.1211 0.9300 l
s
n
1.1470 0.1500 m
1.1470 0.1700 l
s
n
1.1470 0.9500 m
1.1470 0.9300 l
s
n
1.1671 0.1500 m
1.1671 0.1700 l
s
n
1.1671 0.9500 m
1.1671 0.9300 l
s
n
1.1835 0.1500 m
1.1835 0.1700 l
s
n
1.1835 0.9500 m
1.1835 0.9300 l
s
n
1.1973 0.1500 m
1.1973 0.1700 l
s
n
1.1973 0.9500 m
1.1973 0.9300 l
s
n
1.2093 0.1500 m
1.2093 0.1700 l
s
n
1.2093 0.9500 m
1.2093 0.9300 l
s
n
1.2199 0.1500 m
1.2199 0.1700 l
s
n
1.2199 0.9500 m
1.2199 0.9300 l
s
[] 0 SD
0.0030 SLW
n
0.1941 0.1500 m
0.1941 0.1800 l
s
n
0.1941 0.9500 m
0.1941 0.9200 l
s
n
0.4012 0.1500 m
0.4012 0.1800 l
s
n
0.4012 0.9500 m
0.4012 0.9200 l
s
n
0.6082 0.1500 m
0.6082 0.1800 l
s
n
0.6082 0.9500 m
0.6082 0.9200 l
s
n
0.8153 0.1500 m
0.8153 0.1800 l
s
n
0.8153 0.9500 m
0.8153 0.9200 l
s
n
1.0224 0.1500 m
1.0224 0.1800 l
s
n
1.0224 0.9500 m
1.0224 0.9200 l
s
n
1.2294 0.1500 m
1.2294 0.1800 l
s
n
1.2294 0.9500 m
1.2294 0.9200 l
s
/Helvetica findfont
dup length dict begin
 {1 index /FID ne {def} {pop pop} ifelse} forall
 /Encoding DefEncoding def
 currentdict
end
/Font4 exch definefont pop
/Font4 FFSF
0.1673 0.0997 m
GS
[0.0364 0.0000 0.0000 0.0364 0 0] CC
(10) show
GR
/Font4 FFSF
0.2076 0.1216 m
GS
[0.0257 0.0000 0.0000 0.0257 0 0] CC
(5) show
GR
/Font4 FFSF
0.3743 0.0997 m
GS
[0.0364 0.0000 0.0000 0.0364 0 0] CC
(10) show
GR
/Font4 FFSF
0.4147 0.1216 m
GS
[0.0257 0.0000 0.0000 0.0257 0 0] CC
(6) show
GR
/Font4 FFSF
0.5814 0.0997 m
GS
[0.0364 0.0000 0.0000 0.0364 0 0] CC
(10) show
GR
/Font4 FFSF
0.6218 0.1216 m
GS
[0.0257 0.0000 0.0000 0.0257 0 0] CC
(7) show
GR
/Font4 FFSF
0.7884 0.0997 m
GS
[0.0364 0.0000 0.0000 0.0364 0 0] CC
(10) show
GR
/Font4 FFSF
0.8288 0.1216 m
GS
[0.0257 0.0000 0.0000 0.0257 0 0] CC
(8) show
GR
/Font4 FFSF
0.9957 0.0997 m
GS
[0.0364 0.0000 0.0000 0.0364 0 0] CC
(10) show
GR
/Font4 FFSF
1.0361 0.1216 m
GS
[0.0257 0.0000 0.0000 0.0257 0 0] CC
(9) show
GR
/Font4 FFSF
1.1957 0.0997 m
GS
[0.0364 0.0000 0.0000 0.0364 0 0] CC
(10) show
GR
/Font4 FFSF
1.2361 0.1216 m
GS
[0.0257 0.0000 0.0000 0.0257 0 0] CC
(10) show
GR
/Symbol findfont
/Font12 exch definefont pop
/Font12 FFSF
0.6418 0.0482 m
GS
[0.0560 0.0000 0.0000 0.0560 0 0] CC
(n) show
GR
/Font4 FFSF
0.6708 0.0482 m
GS
[0.0560 0.0000 0.0000 0.0560 0 0] CC
( [Hz]) show
GR
n
0.1941 0.1500 m
0.1941 0.9500 l
s
n
1.2294 0.1500 m
1.2294 0.9500 l
s
[] 0 SD
0.0023 SLW
n
0.1941 0.1982 m
0.2141 0.1982 l
s
n
1.2294 0.1982 m
1.2094 0.1982 l
s
n
0.1941 0.2263 m
0.2141 0.2263 l
s
n
1.2294 0.2263 m
1.2094 0.2263 l
s
n
0.1941 0.2463 m
0.2141 0.2463 l
s
n
1.2294 0.2463 m
1.2094 0.2463 l
s
n
0.1941 0.2618 m
0.2141 0.2618 l
s
n
1.2294 0.2618 m
1.2094 0.2618 l
s
n
0.1941 0.2745 m
0.2141 0.2745 l
s
n
1.2294 0.2745 m
1.2094 0.2745 l
s
n
0.1941 0.2852 m
0.2141 0.2852 l
s
n
1.2294 0.2852 m
1.2094 0.2852 l
s
n
0.1941 0.2945 m
0.2141 0.2945 l
s
n
1.2294 0.2945 m
1.2094 0.2945 l
s
n
0.1941 0.3027 m
0.2141 0.3027 l
s
n
1.2294 0.3027 m
1.2094 0.3027 l
s
n
0.1941 0.3582 m
0.2141 0.3582 l
s
n
1.2294 0.3582 m
1.2094 0.3582 l
s
n
0.1941 0.3863 m
0.2141 0.3863 l
s
n
1.2294 0.3863 m
1.2094 0.3863 l
s
n
0.1941 0.4063 m
0.2141 0.4063 l
s
n
1.2294 0.4063 m
1.2094 0.4063 l
s
n
0.1941 0.4218 m
0.2141 0.4218 l
s
n
1.2294 0.4218 m
1.2094 0.4218 l
s
n
0.1941 0.4345 m
0.2141 0.4345 l
s
n
1.2294 0.4345 m
1.2094 0.4345 l
s
n
0.1941 0.4452 m
0.2141 0.4452 l
s
n
1.2294 0.4452 m
1.2094 0.4452 l
s
n
0.1941 0.4545 m
0.2141 0.4545 l
s
n
1.2294 0.4545 m
1.2094 0.4545 l
s
n
0.1941 0.4627 m
0.2141 0.4627 l
s
n
1.2294 0.4627 m
1.2094 0.4627 l
s
n
0.1941 0.5182 m
0.2141 0.5182 l
s
n
1.2294 0.5182 m
1.2094 0.5182 l
s
n
0.1941 0.5463 m
0.2141 0.5463 l
s
n
1.2294 0.5463 m
1.2094 0.5463 l
s
n
0.1941 0.5663 m
0.2141 0.5663 l
s
n
1.2294 0.5663 m
1.2094 0.5663 l
s
n
0.1941 0.5818 m
0.2141 0.5818 l
s
n
1.2294 0.5818 m
1.2094 0.5818 l
s
n
0.1941 0.5945 m
0.2141 0.5945 l
s
n
1.2294 0.5945 m
1.2094 0.5945 l
s
n
0.1941 0.6052 m
0.2141 0.6052 l
s
n
1.2294 0.6052 m
1.2094 0.6052 l
s
n
0.1941 0.6145 m
0.2141 0.6145 l
s
n
1.2294 0.6145 m
1.2094 0.6145 l
s
n
0.1941 0.6227 m
0.2141 0.6227 l
s
n
1.2294 0.6227 m
1.2094 0.6227 l
s
n
0.1941 0.6782 m
0.2141 0.6782 l
s
n
1.2294 0.6782 m
1.2094 0.6782 l
s
n
0.1941 0.7063 m
0.2141 0.7063 l
s
n
1.2294 0.7063 m
1.2094 0.7063 l
s
n
0.1941 0.7263 m
0.2141 0.7263 l
s
n
1.2294 0.7263 m
1.2094 0.7263 l
s
n
0.1941 0.7418 m
0.2141 0.7418 l
s
n
1.2294 0.7418 m
1.2094 0.7418 l
s
n
0.1941 0.7545 m
0.2141 0.7545 l
s
n
1.2294 0.7545 m
1.2094 0.7545 l
s
n
0.1941 0.7652 m
0.2141 0.7652 l
s
n
1.2294 0.7652 m
1.2094 0.7652 l
s
n
0.1941 0.7745 m
0.2141 0.7745 l
s
n
1.2294 0.7745 m
1.2094 0.7745 l
s
n
0.1941 0.7827 m
0.2141 0.7827 l
s
n
1.2294 0.7827 m
1.2094 0.7827 l
s
n
0.1941 0.8382 m
0.2141 0.8382 l
s
n
1.2294 0.8382 m
1.2094 0.8382 l
s
n
0.1941 0.8663 m
0.2141 0.8663 l
s
n
1.2294 0.8663 m
1.2094 0.8663 l
s
n
0.1941 0.8863 m
0.2141 0.8863 l
s
n
1.2294 0.8863 m
1.2094 0.8863 l
s
n
0.1941 0.9018 m
0.2141 0.9018 l
s
n
1.2294 0.9018 m
1.2094 0.9018 l
s
n
0.1941 0.9145 m
0.2141 0.9145 l
s
n
1.2294 0.9145 m
1.2094 0.9145 l
s
n
0.1941 0.9252 m
0.2141 0.9252 l
s
n
1.2294 0.9252 m
1.2094 0.9252 l
s
n
0.1941 0.9345 m
0.2141 0.9345 l
s
n
1.2294 0.9345 m
1.2094 0.9345 l
s
n
0.1941 0.9427 m
0.2141 0.9427 l
s
n
1.2294 0.9427 m
1.2094 0.9427 l
s
[] 0 SD
0.0030 SLW
n
0.1941 0.1500 m
0.2241 0.1500 l
s
n
1.2294 0.1500 m
1.1994 0.1500 l
s
n
0.1941 0.3100 m
0.2241 0.3100 l
s
n
1.2294 0.3100 m
1.1994 0.3100 l
s
n
0.1941 0.4700 m
0.2241 0.4700 l
s
n
1.2294 0.4700 m
1.1994 0.4700 l
s
n
0.1941 0.6300 m
0.2241 0.6300 l
s
n
1.2294 0.6300 m
1.1994 0.6300 l
s
n
0.1941 0.7900 m
0.2241 0.7900 l
s
n
1.2294 0.7900 m
1.1994 0.7900 l
s
n
0.1941 0.9500 m
0.2241 0.9500 l
s
n
1.2294 0.9500 m
1.1994 0.9500 l
s
/Font4 FFSF
0.1218 0.1303 m
GS
[0.0364 0.0000 0.0000 0.0364 0 0] CC
(10) show
GR
/Font4 FFSF
0.1622 0.1521 m
GS
[0.0257 0.0000 0.0000 0.0257 0 0] CC
(-5) show
GR
/Font4 FFSF
0.1218 0.2903 m
GS
[0.0364 0.0000 0.0000 0.0364 0 0] CC
(10) show
GR
/Font4 FFSF
0.1622 0.3121 m
GS
[0.0257 0.0000 0.0000 0.0257 0 0] CC
(-4) show
GR
/Font4 FFSF
0.1222 0.4503 m
GS
[0.0364 0.0000 0.0000 0.0364 0 0] CC
(10) show
GR
/Font4 FFSF
0.1625 0.4721 m
GS
[0.0257 0.0000 0.0000 0.0257 0 0] CC
(-3) show
GR
/Font4 FFSF
0.1218 0.6103 m
GS
[0.0364 0.0000 0.0000 0.0364 0 0] CC
(10) show
GR
/Font4 FFSF
0.1622 0.6321 m
GS
[0.0257 0.0000 0.0000 0.0257 0 0] CC
(-2) show
GR
/Font4 FFSF
0.1261 0.7703 m
GS
[0.0364 0.0000 0.0000 0.0364 0 0] CC
(10) show
GR
/Font4 FFSF
0.1665 0.7921 m
GS
[0.0257 0.0000 0.0000 0.0257 0 0] CC
(-1) show
GR
/Font4 FFSF
0.1308 0.9303 m
GS
[0.0364 0.0000 0.0000 0.0364 0 0] CC
(10) show
GR
/Font4 FFSF
0.1712 0.9521 m
GS
[0.0257 0.0000 0.0000 0.0257 0 0] CC
(0) show
GR
/Font4 FFSF
0.1106 0.3792 m
GS
[0.0000 0.0560 -0.0560 0.0000 0 0] CC
(Relative Error) show
GR
[] 0 SD
0.0037 SLW
n
0.1941 0.1500 m
0.1941 0.9500 l
1.2294 0.9500 l
1.2294 0.1500 l
0.1941 0.1500 l
c
s
/Font4 FFSF
0.9865 0.8541 m
GS
[0.0364 0.0000 0.0000 0.0364 0 0] CC
(q=+8.0) show
GR
[] 0 SD
0.0030 SLW
n
0.9115 0.8631 m
0.9715 0.8631 l
s
/Font4 FFSF
0.9865 0.8104 m
GS
[0.0364 0.0000 0.0000 0.0364 0 0] CC
(q=+2.6) show
GR
[/DeviceRGB] SCS
Color2 SC
n
0.9115 0.8194 m
0.9715 0.8194 l
s
/Font4 FFSF
[/DeviceRGB] SCS
Color1 SC
0.9865 0.7667 m
GS
[0.0364 0.0000 0.0000 0.0364 0 0] CC
(q=+0.8) show
GR
[/DeviceRGB] SCS
Color4 SC
n
0.9115 0.7757 m
0.9715 0.7757 l
s
/Font4 FFSF
[/DeviceRGB] SCS
Color1 SC
0.9865 0.7229 m
GS
[0.0364 0.0000 0.0000 0.0364 0 0] CC
(q=-0.8) show
GR
[/DeviceRGB] SCS
Color15 SC
n
0.9115 0.7320 m
0.9715 0.7320 l
s
/Font4 FFSF
[/DeviceRGB] SCS
Color1 SC
0.9865 0.6792 m
GS
[0.0364 0.0000 0.0000 0.0364 0 0] CC
(q=-2.6) show
GR
[/DeviceRGB] SCS
Color11 SC
n
0.9115 0.6882 m
0.9715 0.6882 l
s
/Font4 FFSF
[/DeviceRGB] SCS
Color1 SC
0.9865 0.6355 m
GS
[0.0364 0.0000 0.0000 0.0364 0 0] CC
(q=-8.0) show
GR
[/DeviceRGB] SCS
Color10 SC
n
0.9115 0.6445 m
0.9715 0.6445 l
s
%%Trailer
%%BoundingBox: 41 21 775 595
%%DocumentNeededResources: font Helvetica
%%+ font Symbol
%%EOF
