%!PS-Adobe-3.0 EPSF-3.0
%%BoundingBox: (atend)
%%LanguageLevel: 2
%%Creator: Grace-5.1.25
%%CreationDate: Thu Aug 11 13:13:27 2016
%%DocumentData: Clean8Bit
%%Orientation: Portrait
%%Title: HARMvsSLvsRMA2.agr
%%For: jesus
%%DocumentNeededResources: (atend)
%%EndComments
%%BeginProlog
/m {moveto} def
/l {lineto} def
/s {stroke} def
/n {newpath} def
/c {closepath} def
/RL {rlineto} def
/SLW {setlinewidth} def
/GS {gsave} def
/GR {grestore} def
/SC {setcolor} def
/SGRY {setgray} def
/SRGB {setrgbcolor} def
/SD {setdash} def
/SLC {setlinecap} def
/SLJ {setlinejoin} def
/SCS {setcolorspace} def
/FFSF {findfont setfont} def
/CC {concat} def
/PXL {n m 0 0 RL s} def
/Color0 {1.0000 1.0000 1.0000} def
/Color1 {0.0000 0.0000 0.0000} def
/Color2 {1.0000 0.0000 0.0000} def
/Color3 {0.0000 1.0000 0.0000} def
/Color4 {0.0000 0.0000 1.0000} def
/Color5 {1.0000 1.0000 0.0000} def
/Color6 {0.7373 0.5608 0.5608} def
/Color7 {0.8627 0.8627 0.8627} def
/Color8 {0.5804 0.0000 0.8275} def
/Color9 {0.0000 1.0000 1.0000} def
/Color10 {1.0000 0.0000 1.0000} def
/Color11 {1.0000 0.6471 0.0000} def
/Color12 {0.4471 0.1294 0.7373} def
/Color13 {0.4039 0.0275 0.2824} def
/Color14 {0.2510 0.8784 0.8157} def
/Color15 {0.0000 0.5451 0.0000} def
/Color16 {0.7529 0.7529 0.7529} def
/Color17 {0.5059 0.5059 0.5059} def
/Color18 {0.2588 0.2588 0.2588} def
/PTRN {
 /pat_bits exch def 
 <<
  /PaintType 2
  /PatternType 1 /TilingType 1
  /BBox[0 0 16 16]
  /XStep 16 /YStep 16
  /PaintProc {
   pop
   16 16 true [-1 0 0 -1 16 16] pat_bits imagemask
  }
 >>
 [0.0016 0 0 0.0016 0 0]
 makepattern
} def
/Pattern0 {<0000000000000000000000000000000000000000000000000000000000000000> PTRN} bind def
/Pattern1 {<ffffffffffffffffffffffffffffffffffffffffffffffffffffffffffffffff> PTRN} bind def
/Pattern2 {<eeeeffffbbbbffffeeeeffffbbbbffffeeeeffffbbbbffffeeeeffffbbbbffff> PTRN} bind def
/Pattern3 {<eeeebbbbeeeebbbbeeeebbbbeeeebbbbeeeebbbbeeeebbbbeeeebbbbeeeebbbb> PTRN} bind def
/Pattern4 {<5555aaaa5555aaaa5555aaaa5555aaaa5555aaaa5555aaaa5555aaaa5555aaaa> PTRN} bind def
/Pattern5 {<1111444411114444111144441111444411114444111144441111444411114444> PTRN} bind def
/Pattern6 {<1111000044440000111100004444000011110000444400001111000044440000> PTRN} bind def
/Pattern7 {<1010000000000000010100000000000010100000000000000101000000000000> PTRN} bind def
/Pattern8 {<0000000000000000000000000000000000000000000000000000000000000000> PTRN} bind def
/Pattern9 {<1e1e0f0f8787c3c3e1e1f0f078783c3c1e1e0f0f8787c3c3e1e1f0f078783c3c> PTRN} bind def
/Pattern10 {<7878f0f0e1e1c3c387870f0f1e1e3c3c7878f0f0e1e1c3c387870f0f1e1e3c3c> PTRN} bind def
/Pattern11 {<3333333333333333333333333333333333333333333333333333333333333333> PTRN} bind def
/Pattern12 {<ffffffff00000000ffffffff00000000ffffffff00000000ffffffff00000000> PTRN} bind def
/Pattern13 {<8181424224241818181824244242818181814242242418181818242442428181> PTRN} bind def
/Pattern14 {<8080404020201010080804040202010180804040202010100808040402020101> PTRN} bind def
/Pattern15 {<0101020204040808101020204040808001010202040408081010202040408080> PTRN} bind def
/Pattern16 {<2222222222222222222222222222222222222222222222222222222222222222> PTRN} bind def
/Pattern17 {<0000ffff000000000000ffff000000000000ffff000000000000ffff00000000> PTRN} bind def
/Pattern18 {<2222ffff222222222222ffff222222222222ffff222222222222ffff22222222> PTRN} bind def
/Pattern19 {<ffffffff33333333ffffffff33333333ffffffff33333333ffffffff33333333> PTRN} bind def
/Pattern20 {<0f0f0f0f0f0f0f0ff0f0f0f0f0f0f0f00f0f0f0f0f0f0f0ff0f0f0f0f0f0f0f0> PTRN} bind def
/Pattern21 {<ff00ff00ff00ff00ff00ff00ff00ff0000ff00ff00ff00ff00ff00ff00ff00ff> PTRN} bind def
/Pattern22 {<8001800180018001800180018001ffffffff8001800180018001800180018001> PTRN} bind def
/Pattern23 {<c003c003c003c003c003c003ffffffffffffffffc003c003c003c003c003c003> PTRN} bind def
/Pattern24 {<040404040404ffff404040404040ffff040404040404ffff404040404040ffff> PTRN} bind def
/Pattern25 {<180018001800180018001800ffffffff001800180018001800180018ffffffff> PTRN} bind def
/Pattern26 {<1111b8b87c7c3a3a1111a3a3c7c78b8b1111b8b87c7c3a3a1111a3a3c7c78b8b> PTRN} bind def
/Pattern27 {<101010102828c7c70101010182827c7c101010102828c7c70101010182827c7c> PTRN} bind def
/Pattern28 {<1c1c121211112121c1c12121111112121c1c121211112121c1c1212111111212> PTRN} bind def
/Pattern29 {<3e3e414180808080e3e31414080808083e3e414180808080e3e3141408080808> PTRN} bind def
/Pattern30 {<4848888884848383848488884848383848488888848483838484888848483838> PTRN} bind def
/Pattern31 {<03030404080808080c0c12122121c0c003030404080808080c0c12122121c0c0> PTRN} bind def
/ellipsedict 8 dict def
ellipsedict /mtrx matrix put
/EARC {
 ellipsedict begin
  /endangle exch def
  /startangle exch def
  /yrad exch def
  /xrad exch def
  /y exch def
  /x exch def
  /savematrix mtrx currentmatrix def
  x y translate
  xrad yrad scale
  0 0 1 startangle endangle arc
  savematrix setmatrix
 end
} def
/TL {
  /kcomp exch def
  /linewidth exch def
  /offset exch def
  GS
  0 offset rmoveto
  linewidth SLW
  dup stringwidth exch kcomp add exch RL s
  GR
} def
/KINIT
{
 /kvector exch def
 /kid 0 def
} def
/KPROC
{
 pop pop
 kvector kid get
 0 rmoveto
 /kid 1 kid add def
} def
/DefEncoding [
 /.notdef
 /.notdef
 /.notdef
 /.notdef
 /.notdef
 /.notdef
 /.notdef
 /.notdef
 /.notdef
 /.notdef
 /.notdef
 /.notdef
 /.notdef
 /.notdef
 /.notdef
 /.notdef
 /.notdef
 /.notdef
 /.notdef
 /.notdef
 /.notdef
 /.notdef
 /.notdef
 /.notdef
 /.notdef
 /.notdef
 /.notdef
 /.notdef
 /.notdef
 /.notdef
 /.notdef
 /.notdef
 /space
 /exclam
 /quotedbl
 /numbersign
 /dollar
 /percent
 /ampersand
 /quoteright
 /parenleft
 /parenright
 /asterisk
 /plus
 /comma
 /hyphen
 /period
 /slash
 /zero
 /one
 /two
 /three
 /four
 /five
 /six
 /seven
 /eight
 /nine
 /colon
 /semicolon
 /less
 /equal
 /greater
 /question
 /at
 /A
 /B
 /C
 /D
 /E
 /F
 /G
 /H
 /I
 /J
 /K
 /L
 /M
 /N
 /O
 /P
 /Q
 /R
 /S
 /T
 /U
 /V
 /W
 /X
 /Y
 /Z
 /bracketleft
 /backslash
 /bracketright
 /asciicircum
 /underscore
 /grave
 /a
 /b
 /c
 /d
 /e
 /f
 /g
 /h
 /i
 /j
 /k
 /l
 /m
 /n
 /o
 /p
 /q
 /r
 /s
 /t
 /u
 /v
 /w
 /x
 /y
 /z
 /braceleft
 /bar
 /braceright
 /asciitilde
 /.notdef
 /.notdef
 /.notdef
 /.notdef
 /.notdef
 /.notdef
 /.notdef
 /.notdef
 /.notdef
 /.notdef
 /.notdef
 /.notdef
 /.notdef
 /.notdef
 /.notdef
 /.notdef
 /.notdef
 /.notdef
 /.notdef
 /.notdef
 /.notdef
 /.notdef
 /.notdef
 /.notdef
 /.notdef
 /.notdef
 /.notdef
 /.notdef
 /.notdef
 /.notdef
 /.notdef
 /.notdef
 /.notdef
 /space
 /exclamdown
 /cent
 /sterling
 /currency
 /yen
 /brokenbar
 /section
 /dieresis
 /copyright
 /ordfeminine
 /guillemotleft
 /logicalnot
 /hyphen
 /registered
 /macron
 /degree
 /plusminus
 /twosuperior
 /threesuperior
 /acute
 /mu
 /paragraph
 /periodcentered
 /cedilla
 /onesuperior
 /ordmasculine
 /guillemotright
 /onequarter
 /onehalf
 /threequarters
 /questiondown
 /Agrave
 /Aacute
 /Acircumflex
 /Atilde
 /Adieresis
 /Aring
 /AE
 /Ccedilla
 /Egrave
 /Eacute
 /Ecircumflex
 /Edieresis
 /Igrave
 /Iacute
 /Icircumflex
 /Idieresis
 /Eth
 /Ntilde
 /Ograve
 /Oacute
 /Ocircumflex
 /Otilde
 /Odieresis
 /multiply
 /Oslash
 /Ugrave
 /Uacute
 /Ucircumflex
 /Udieresis
 /Yacute
 /Thorn
 /germandbls
 /agrave
 /aacute
 /acircumflex
 /atilde
 /adieresis
 /aring
 /ae
 /ccedilla
 /egrave
 /eacute
 /ecircumflex
 /edieresis
 /igrave
 /iacute
 /icircumflex
 /idieresis
 /eth
 /ntilde
 /ograve
 /oacute
 /ocircumflex
 /otilde
 /odieresis
 /divide
 /oslash
 /ugrave
 /uacute
 /ucircumflex
 /udieresis
 /yacute
 /thorn
 /ydieresis
] def
%%EndProlog
%%BeginSetup
%%EndSetup
612.00 612.00 scale
[/DeviceRGB] SCS
Color8 SC
[] 0 SD
0.0030 SLW
0 SLC
0 SLJ
n
0.4857 0.1499 m
0.4857 0.5107 l
0.4867 0.6028 l
0.4877 0.6572 l
0.4887 0.6964 l
0.4897 0.7276 l
0.4906 0.7544 l
0.4916 0.7793 l
0.4926 0.8062 l
0.4936 0.8672 l
0.4946 0.8041 l
0.4956 0.7797 l
0.4965 0.7589 l
0.4975 0.7382 l
0.4985 0.7161 l
0.4995 0.6910 l
0.5005 0.6610 l
0.5015 0.6225 l
0.5024 0.5681 l
0.5034 0.4726 l
0.5034 0.1499 l
s
n
0.5199 0.1499 m
0.5202 0.1971 l
0.5211 0.3087 l
0.5221 0.3885 l
0.5231 0.4513 l
0.5241 0.5042 l
0.5251 0.5515 l
0.5261 0.5988 l
0.5270 0.6926 l
0.5280 0.6057 l
0.5290 0.5664 l
0.5300 0.5304 l
0.5310 0.4931 l
0.5320 0.4519 l
0.5329 0.4042 l
0.5339 0.3465 l
0.5349 0.2721 l
0.5359 0.1669 l
0.5360 0.1499 l
s
n
0.5423 0.1499 m
0.5428 0.1910 l
0.5438 0.2686 l
0.5448 0.3374 l
0.5457 0.4046 l
0.5467 0.5034 l
0.5477 0.4075 l
0.5487 0.3553 l
0.5497 0.3047 l
0.5507 0.2506 l
0.5516 0.1898 l
0.5522 0.1499 l
s
n
0.5590 0.1499 m
0.5595 0.1972 l
0.5605 0.3152 l
0.5615 0.2251 l
0.5625 0.1589 l
0.5626 0.1499 l
s
n
0.5713 0.1499 m
0.5713 0.1587 l
0.5714 0.1499 l
s
[/DeviceRGB] SCS
Color11 SC
n
0.4613 0.1499 m
0.4613 0.2708 l
0.4623 0.4781 l
0.4633 0.5555 l
0.4643 0.6044 l
0.4653 0.6403 l
0.4663 0.6688 l
0.4673 0.6924 l
0.4683 0.7128 l
0.4693 0.7305 l
0.4703 0.7463 l
0.4713 0.7606 l
0.4723 0.7737 l
0.4733 0.7857 l
0.4744 0.7969 l
0.4754 0.8074 l
0.4764 0.8173 l
0.4774 0.8268 l
0.4784 0.8358 l
0.4794 0.8451 l
0.4804 0.8540 l
0.4814 0.8643 l
0.4824 0.8760 l
0.4834 0.8943 l
0.4844 0.8867 l
0.4854 0.8705 l
0.4864 0.8588 l
0.4874 0.8504 l
0.4884 0.8433 l
0.4894 0.8367 l
0.4904 0.8306 l
0.4914 0.8248 l
0.4924 0.8195 l
0.4934 0.8143 l
0.4944 0.8091 l
0.4954 0.8041 l
0.4965 0.7991 l
0.4975 0.7941 l
0.4985 0.7891 l
0.4995 0.7841 l
0.5005 0.7792 l
0.5015 0.7744 l
0.5025 0.7698 l
0.5035 0.7655 l
0.5045 0.7617 l
0.5055 0.7587 l
0.5065 0.7566 l
0.5075 0.7559 l
0.5085 0.7567 l
0.5095 0.7594 l
0.5105 0.7639 l
0.5115 0.7704 l
0.5125 0.7786 l
0.5135 0.7886 l
0.5145 0.8005 l
0.5155 0.8147 l
0.5165 0.8364 l
0.5175 0.8528 l
0.5186 0.8224 l
0.5196 0.8068 l
0.5206 0.7944 l
0.5216 0.7836 l
0.5226 0.7739 l
0.5236 0.7646 l
0.5246 0.7559 l
0.5256 0.7478 l
0.5266 0.7404 l
0.5276 0.7340 l
0.5286 0.7292 l
0.5296 0.7260 l
0.5306 0.7252 l
0.5316 0.7273 l
0.5326 0.7328 l
0.5336 0.7421 l
0.5346 0.7555 l
0.5356 0.7745 l
0.5366 0.8137 l
0.5376 0.7885 l
0.5386 0.7666 l
0.5396 0.7517 l
0.5407 0.7390 l
0.5417 0.7277 l
0.5427 0.7174 l
0.5437 0.7082 l
0.5447 0.7007 l
0.5457 0.6958 l
0.5467 0.6949 l
0.5477 0.6995 l
0.5487 0.7109 l
0.5497 0.7312 l
0.5507 0.7876 l
0.5517 0.7382 l
0.5527 0.7170 l
0.5537 0.7007 l
0.5547 0.6869 l
0.5557 0.6750 l
0.5567 0.6655 l
0.5577 0.6600 l
0.5587 0.6608 l
0.5597 0.6708 l
0.5607 0.6941 l
0.5617 0.7307 l
0.5628 0.6878 l
0.5638 0.6665 l
0.5648 0.6498 l
0.5658 0.6360 l
0.5668 0.6261 l
0.5678 0.6231 l
0.5688 0.6315 l
0.5698 0.6597 l
0.5708 0.6707 l
0.5718 0.6380 l
0.5728 0.6169 l
0.5738 0.6002 l
0.5748 0.5886 l
0.5758 0.5863 l
0.5768 0.6015 l
0.5778 0.6695 l
0.5788 0.6061 l
0.5798 0.5806 l
0.5808 0.5616 l
0.5818 0.5495 l
0.5828 0.5512 l
0.5838 0.5823 l
0.5848 0.5796 l
0.5859 0.5469 l
0.5869 0.5247 l
0.5879 0.5111 l
0.5889 0.5157 l
0.5899 0.5785 l
0.5909 0.5241 l
0.5919 0.4952 l
0.5929 0.4759 l
0.5939 0.4739 l
0.5949 0.5209 l
0.5959 0.4845 l
0.5969 0.4537 l
0.5979 0.4349 l
0.5989 0.4421 l
0.5999 0.4727 l
0.6009 0.4277 l
0.6019 0.4016 l
0.6029 0.3971 l
0.6039 0.4655 l
0.6049 0.3921 l
0.6059 0.3631 l
0.6069 0.3599 l
0.6080 0.3945 l
0.6090 0.3447 l
0.6100 0.3190 l
0.6110 0.3384 l
0.6120 0.3267 l
0.6130 0.2890 l
0.6140 0.2823 l
0.6150 0.3058 l
0.6160 0.2569 l
0.6170 0.2405 l
0.6180 0.2726 l
0.6190 0.2189 l
0.6200 0.2021 l
0.6210 0.2264 l
0.6220 0.1744 l
0.6230 0.1700 l
0.6240 0.1678 l
0.6245 0.1499 l
s
n
0.6254 0.1499 m
0.6260 0.1843 l
0.6265 0.1499 l
s
[/DeviceRGB] SCS
Color15 SC
n
0.4243 0.1499 m
0.4243 0.3980 l
0.4258 0.5162 l
0.4273 0.5781 l
0.4288 0.6208 l
0.4303 0.6534 l
0.4318 0.6799 l
0.4333 0.7023 l
0.4349 0.7216 l
0.4364 0.7387 l
0.4379 0.7540 l
0.4394 0.7677 l
0.4409 0.7803 l
0.4424 0.7918 l
0.4439 0.8024 l
0.4454 0.8122 l
0.4469 0.8216 l
0.4484 0.8299 l
0.4499 0.8391 l
0.4515 0.8469 l
0.4530 0.8612 l
0.4545 0.8817 l
0.4560 0.8478 l
0.4575 0.8381 l
0.4590 0.8300 l
0.4605 0.8230 l
0.4620 0.8167 l
0.4635 0.8112 l
0.4650 0.8066 l
0.4666 0.8025 l
0.4681 0.7991 l
0.4696 0.7964 l
0.4711 0.7946 l
0.4726 0.7941 l
0.4741 0.7948 l
0.4756 0.7971 l
0.4771 0.8009 l
0.4786 0.8063 l
0.4801 0.8130 l
0.4817 0.8208 l
0.4832 0.8293 l
0.4847 0.8391 l
0.4862 0.8496 l
0.4877 0.8778 l
0.4892 0.8495 l
0.4907 0.8363 l
0.4922 0.8286 l
0.4937 0.8226 l
0.4952 0.8183 l
0.4967 0.8157 l
0.4983 0.8151 l
0.4998 0.8166 l
0.5013 0.8204 l
0.5028 0.8265 l
0.5043 0.8350 l
0.5058 0.8458 l
0.5073 0.8740 l
0.5088 0.8448 l
0.5103 0.8341 l
0.5118 0.8275 l
0.5134 0.8236 l
0.5149 0.8227 l
0.5164 0.8249 l
0.5179 0.8303 l
0.5194 0.8399 l
0.5209 0.8600 l
0.5224 0.8459 l
0.5239 0.8334 l
0.5254 0.8276 l
0.5269 0.8256 l
0.5285 0.8278 l
0.5300 0.8347 l
0.5315 0.8485 l
0.5330 0.8449 l
0.5345 0.8319 l
0.5360 0.8269 l
0.5375 0.8270 l
0.5390 0.8331 l
0.5405 0.8510 l
0.5420 0.8380 l
0.5435 0.8282 l
0.5451 0.8258 l
0.5466 0.8304 l
0.5481 0.8535 l
0.5496 0.8332 l
0.5511 0.8253 l
0.5526 0.8255 l
0.5541 0.8368 l
0.5556 0.8346 l
0.5571 0.8237 l
0.5586 0.8238 l
0.5602 0.8387 l
0.5617 0.8267 l
0.5632 0.8204 l
0.5647 0.8266 l
0.5662 0.8296 l
0.5677 0.8186 l
0.5692 0.8222 l
0.5707 0.8267 l
0.5722 0.8158 l
0.5737 0.8221 l
0.5753 0.8194 l
0.5768 0.8129 l
0.5783 0.8368 l
0.5798 0.8109 l
0.5813 0.8156 l
0.5828 0.8108 l
0.5843 0.8086 l
0.5858 0.8107 l
0.5873 0.8044 l
0.5888 0.8080 l
0.5903 0.8013 l
0.5919 0.8032 l
0.5934 0.7997 l
0.5949 0.7963 l
0.5964 0.8035 l
0.5979 0.7905 l
0.5994 0.7954 l
0.6009 0.7892 l
0.6024 0.7842 l
0.6039 0.7910 l
0.6054 0.7827 l
0.6070 0.7763 l
0.6085 0.7766 l
0.6100 0.7883 l
0.6115 0.7723 l
0.6130 0.7657 l
0.6145 0.7618 l
0.6160 0.7597 l
0.6175 0.7580 l
0.6190 0.7556 l
0.6205 0.7530 l
0.6221 0.7499 l
0.6236 0.7450 l
0.6251 0.7398 l
0.6266 0.7345 l
0.6281 0.7287 l
0.6296 0.7239 l
0.6311 0.7213 l
0.6326 0.7307 l
0.6341 0.7118 l
0.6356 0.7046 l
0.6371 0.7127 l
0.6387 0.6953 l
0.6402 0.6900 l
0.6417 0.6846 l
0.6432 0.6785 l
0.6447 0.6713 l
0.6462 0.6786 l
0.6477 0.6577 l
0.6492 0.6511 l
0.6507 0.6470 l
0.6522 0.6494 l
0.6538 0.6413 l
0.6553 0.6314 l
0.6568 0.6249 l
0.6583 0.6176 l
0.6598 0.6000 l
0.6613 0.5874 l
0.6628 0.5785 l
0.6643 0.5790 l
0.6658 0.5586 l
0.6673 0.5604 l
0.6688 0.5382 l
0.6704 0.5279 l
0.6719 0.5251 l
0.6734 0.5167 l
0.6749 0.5032 l
0.6764 0.4927 l
0.6779 0.4769 l
0.6794 0.4549 l
0.6809 0.4413 l
0.6824 0.4347 l
0.6839 0.4131 l
0.6855 0.3979 l
0.6870 0.3896 l
0.6885 0.3773 l
0.6900 0.3601 l
0.6915 0.3367 l
0.6930 0.3158 l
0.6945 0.3088 l
0.6960 0.2794 l
0.6975 0.2645 l
0.6990 0.2504 l
0.7006 0.2296 l
0.7021 0.2021 l
0.7036 0.1785 l
0.7051 0.1641 l
0.7059 0.1499 l
s
[/DeviceRGB] SCS
Color4 SC
n
0.3818 0.1499 m
0.3818 0.3308 l
0.3864 0.5628 l
0.3910 0.6452 l
0.3956 0.6972 l
0.4002 0.7351 l
0.4048 0.7645 l
0.4093 0.7886 l
0.4139 0.8237 l
0.4185 0.7784 l
0.4231 0.7621 l
0.4277 0.7517 l
0.4323 0.7499 l
0.4369 0.7604 l
0.4414 0.7806 l
0.4460 0.8088 l
0.4506 0.7900 l
0.4552 0.7772 l
0.4598 0.7811 l
0.4644 0.8009 l
0.4690 0.8012 l
0.4736 0.7898 l
0.4781 0.8027 l
0.4827 0.8054 l
0.4873 0.8000 l
0.4919 0.8319 l
0.4965 0.8049 l
0.5011 0.8180 l
0.5057 0.8124 l
0.5102 0.8131 l
0.5148 0.8267 l
0.5194 0.8248 l
0.5240 0.8223 l
0.5286 0.8234 l
0.5332 0.8271 l
0.5378 0.8396 l
0.5424 0.8286 l
0.5469 0.8294 l
0.5515 0.8318 l
0.5561 0.8422 l
0.5607 0.8351 l
0.5653 0.8413 l
0.5699 0.8365 l
0.5745 0.8373 l
0.5790 0.8375 l
0.5836 0.8384 l
0.5882 0.8403 l
0.5928 0.8397 l
0.5974 0.8401 l
0.6020 0.8451 l
0.6066 0.8420 l
0.6111 0.8440 l
0.6157 0.8437 l
0.6203 0.8392 l
0.6249 0.8386 l
0.6295 0.8373 l
0.6341 0.8395 l
0.6387 0.8344 l
0.6433 0.8358 l
0.6478 0.8320 l
0.6524 0.8307 l
0.6570 0.8266 l
0.6616 0.8240 l
0.6662 0.8187 l
0.6708 0.8154 l
0.6754 0.8100 l
0.6799 0.8039 l
0.6845 0.7978 l
0.6891 0.7905 l
0.6937 0.7826 l
0.6983 0.7737 l
0.7029 0.7638 l
0.7075 0.7528 l
0.7120 0.7405 l
0.7166 0.7270 l
0.7212 0.7120 l
0.7258 0.6954 l
0.7304 0.6771 l
0.7350 0.6569 l
0.7396 0.6347 l
0.7442 0.6104 l
0.7487 0.5825 l
0.7533 0.5527 l
0.7579 0.5197 l
0.7625 0.4834 l
0.7671 0.4434 l
0.7717 0.3993 l
0.7763 0.3508 l
0.7808 0.2973 l
0.7854 0.2386 l
0.7900 0.1739 l
0.7916 0.1499 l
s
[/DeviceRGB] SCS
Color2 SC
n
0.3537 0.1499 m
0.3538 0.5146 l
0.3601 0.6209 l
0.3664 0.6811 l
0.3727 0.7226 l
0.3790 0.7551 l
0.3853 0.7413 l
0.3916 0.7177 l
0.3979 0.7074 l
0.4042 0.7169 l
0.4105 0.7452 l
0.4168 0.7611 l
0.4231 0.7356 l
0.4294 0.7460 l
0.4357 0.7677 l
0.4420 0.7496 l
0.4483 0.7754 l
0.4546 0.7590 l
0.4609 0.7723 l
0.4672 0.7771 l
0.4735 0.7735 l
0.4798 0.7758 l
0.4861 0.7801 l
0.4924 0.7885 l
0.4987 0.7882 l
0.5050 0.7925 l
0.5113 0.7923 l
0.5176 0.7956 l
0.5239 0.8045 l
0.5302 0.8011 l
0.5365 0.8041 l
0.5428 0.8139 l
0.5491 0.8115 l
0.5554 0.8123 l
0.5617 0.8147 l
0.5680 0.8209 l
0.5743 0.8202 l
0.5806 0.8249 l
0.5869 0.8244 l
0.5931 0.8291 l
0.5994 0.8310 l
0.6057 0.8328 l
0.6120 0.8344 l
0.6183 0.8353 l
0.6246 0.8373 l
0.6309 0.8385 l
0.6372 0.8397 l
0.6435 0.8412 l
0.6498 0.8415 l
0.6561 0.8429 l
0.6624 0.8424 l
0.6687 0.8429 l
0.6750 0.8427 l
0.6813 0.8423 l
0.6876 0.8414 l
0.6939 0.8401 l
0.7002 0.8383 l
0.7065 0.8359 l
0.7128 0.8329 l
0.7191 0.8292 l
0.7254 0.8247 l
0.7317 0.8193 l
0.7380 0.8129 l
0.7443 0.8054 l
0.7506 0.7965 l
0.7569 0.7862 l
0.7632 0.7742 l
0.7695 0.7604 l
0.7758 0.7444 l
0.7821 0.7259 l
0.7884 0.7047 l
0.7947 0.6804 l
0.8010 0.6525 l
0.8073 0.6208 l
0.8136 0.5839 l
0.8199 0.5423 l
0.8262 0.4946 l
0.8325 0.4401 l
0.8388 0.3780 l
0.8451 0.3070 l
0.8514 0.2261 l
0.8566 0.1499 l
s
[0.0150 0.0090 ] 0 SD
0.0030 SLW
n
0.1940 0.6655 m
0.1968 0.6667 l
0.2005 0.6683 l
0.2041 0.6699 l
0.2077 0.6715 l
0.2113 0.6731 l
0.2150 0.6747 l
0.2186 0.6763 l
0.2222 0.6778 l
0.2258 0.6794 l
0.2294 0.6810 l
0.2331 0.6826 l
0.2367 0.6842 l
0.2403 0.6858 l
0.2439 0.6873 l
0.2476 0.6889 l
0.2512 0.6905 l
0.2548 0.6921 l
0.2584 0.6936 l
0.2621 0.6952 l
0.2657 0.6968 l
0.2693 0.6983 l
0.2729 0.6999 l
0.2765 0.7015 l
0.2802 0.7030 l
0.2838 0.7046 l
0.2874 0.7062 l
0.2910 0.7077 l
0.2947 0.7093 l
0.2983 0.7108 l
0.3019 0.7124 l
0.3055 0.7139 l
0.3092 0.7155 l
0.3128 0.7170 l
0.3164 0.7186 l
0.3200 0.7201 l
0.3236 0.7216 l
0.3273 0.7232 l
0.3309 0.7247 l
0.3345 0.7262 l
0.3381 0.7278 l
0.3418 0.7293 l
0.3454 0.7308 l
0.3490 0.7323 l
0.3526 0.7338 l
0.3562 0.7354 l
0.3599 0.7369 l
0.3635 0.7384 l
0.3671 0.7399 l
0.3707 0.7414 l
0.3744 0.7429 l
0.3780 0.7444 l
0.3816 0.7459 l
0.3852 0.7474 l
0.3889 0.7489 l
0.3925 0.7503 l
0.3961 0.7518 l
0.3997 0.7533 l
0.4033 0.7548 l
0.4070 0.7562 l
0.4106 0.7577 l
0.4142 0.7592 l
0.4178 0.7606 l
0.4215 0.7621 l
0.4251 0.7635 l
0.4287 0.7650 l
0.4323 0.7664 l
0.4360 0.7678 l
0.4396 0.7693 l
0.4432 0.7707 l
0.4468 0.7721 l
0.4504 0.7735 l
0.4541 0.7749 l
0.4577 0.7763 l
0.4613 0.7777 l
0.4649 0.7791 l
0.4686 0.7805 l
0.4722 0.7819 l
0.4758 0.7833 l
0.4794 0.7847 l
0.4831 0.7860 l
0.4867 0.7874 l
0.4903 0.7887 l
0.4939 0.7901 l
0.4975 0.7914 l
0.5012 0.7928 l
0.5048 0.7941 l
0.5084 0.7954 l
0.5120 0.7967 l
0.5157 0.7980 l
0.5193 0.7993 l
0.5229 0.8006 l
0.5265 0.8019 l
0.5302 0.8032 l
0.5338 0.8044 l
0.5374 0.8057 l
0.5410 0.8070 l
0.5446 0.8082 l
0.5483 0.8094 l
0.5519 0.8106 l
0.5555 0.8118 l
0.5591 0.8130 l
0.5628 0.8142 l
0.5664 0.8154 l
0.5700 0.8166 l
0.5736 0.8177 l
0.5772 0.8189 l
0.5809 0.8200 l
0.5845 0.8211 l
0.5881 0.8222 l
0.5917 0.8233 l
0.5954 0.8243 l
0.5990 0.8254 l
0.6026 0.8264 l
0.6062 0.8274 l
0.6099 0.8284 l
0.6135 0.8294 l
0.6171 0.8303 l
0.6207 0.8312 l
0.6243 0.8321 l
0.6280 0.8330 l
0.6316 0.8338 l
0.6352 0.8346 l
0.6388 0.8354 l
0.6425 0.8361 l
0.6461 0.8368 l
0.6497 0.8375 l
0.6533 0.8381 l
0.6570 0.8386 l
0.6606 0.8391 l
0.6642 0.8396 l
0.6678 0.8400 l
0.6714 0.8403 l
0.6751 0.8405 l
0.6787 0.8407 l
0.6823 0.8408 l
0.6859 0.8407 l
0.6896 0.8406 l
0.6932 0.8404 l
0.6968 0.8400 l
0.7004 0.8395 l
0.7041 0.8389 l
0.7077 0.8381 l
0.7113 0.8371 l
0.7149 0.8359 l
0.7185 0.8345 l
0.7222 0.8328 l
0.7258 0.8309 l
0.7294 0.8288 l
0.7330 0.8263 l
0.7367 0.8234 l
0.7403 0.8202 l
0.7439 0.8166 l
0.7475 0.8126 l
0.7512 0.8080 l
0.7548 0.8030 l
0.7584 0.7974 l
0.7620 0.7911 l
0.7656 0.7842 l
0.7693 0.7766 l
0.7729 0.7682 l
0.7765 0.7590 l
0.7801 0.7489 l
0.7838 0.7379 l
0.7874 0.7258 l
0.7910 0.7127 l
0.7946 0.6984 l
0.7982 0.6828 l
0.8019 0.6660 l
0.8055 0.6478 l
0.8091 0.6281 l
0.8127 0.6067 l
0.8164 0.5837 l
0.8200 0.5588 l
0.8236 0.5320 l
0.8272 0.5030 l
0.8309 0.4718 l
0.8345 0.4382 l
0.8381 0.4019 l
0.8417 0.3628 l
0.8453 0.3206 l
0.8490 0.2752 l
0.8526 0.2262 l
0.8562 0.1734 l
0.8577 0.1499 l
s
[0.0030 0.0090 ] 0 SD
0.0030 SLW
n
0.3575 0.1499 m
0.3575 0.7361 l
0.3603 0.7372 l
0.3630 0.7384 l
0.3657 0.7395 l
0.3684 0.7406 l
0.3712 0.7418 l
0.3739 0.7429 l
0.3766 0.7440 l
0.3794 0.7451 l
0.3821 0.7463 l
0.3848 0.7474 l
0.3875 0.7485 l
0.3903 0.7496 l
0.3930 0.7507 l
0.3957 0.7519 l
0.3984 0.7530 l
0.4012 0.7541 l
0.4039 0.7552 l
0.4066 0.7563 l
0.4094 0.7574 l
0.4121 0.7585 l
0.4148 0.7596 l
0.4175 0.7607 l
0.4203 0.7618 l
0.4230 0.7629 l
0.4257 0.7640 l
0.4284 0.7650 l
0.4312 0.7661 l
0.4339 0.7672 l
0.4366 0.7683 l
0.4393 0.7694 l
0.4421 0.7704 l
0.4448 0.7715 l
0.4475 0.7726 l
0.4503 0.7736 l
0.4530 0.7747 l
0.4557 0.7758 l
0.4584 0.7768 l
0.4612 0.7779 l
0.4639 0.7789 l
0.4666 0.7800 l
0.4693 0.7810 l
0.4721 0.7821 l
0.4748 0.7831 l
0.4775 0.7841 l
0.4802 0.7852 l
0.4830 0.7862 l
0.4857 0.7872 l
0.4884 0.7882 l
0.4912 0.7892 l
0.4939 0.7903 l
0.4966 0.7913 l
0.4993 0.7923 l
0.5021 0.7933 l
0.5048 0.7943 l
0.5075 0.7953 l
0.5102 0.7963 l
0.5130 0.7972 l
0.5157 0.7982 l
0.5184 0.7992 l
0.5212 0.8002 l
0.5239 0.8011 l
0.5266 0.8021 l
0.5293 0.8031 l
0.5321 0.8040 l
0.5348 0.8050 l
0.5375 0.8059 l
0.5402 0.8069 l
0.5430 0.8078 l
0.5457 0.8087 l
0.5484 0.8096 l
0.5511 0.8106 l
0.5539 0.8115 l
0.5566 0.8124 l
0.5593 0.8133 l
0.5621 0.8142 l
0.5648 0.8150 l
0.5675 0.8159 l
0.5702 0.8168 l
0.5730 0.8177 l
0.5757 0.8185 l
0.5784 0.8194 l
0.5811 0.8202 l
0.5839 0.8211 l
0.5866 0.8219 l
0.5893 0.8227 l
0.5921 0.8235 l
0.5948 0.8243 l
0.5975 0.8251 l
0.6002 0.8259 l
0.6030 0.8266 l
0.6057 0.8274 l
0.6084 0.8281 l
0.6111 0.8289 l
0.6139 0.8296 l
0.6166 0.8303 l
0.6193 0.8310 l
0.6220 0.8317 l
0.6248 0.8323 l
0.6275 0.8330 l
0.6302 0.8336 l
0.6330 0.8342 l
0.6357 0.8348 l
0.6384 0.8354 l
0.6411 0.8360 l
0.6439 0.8365 l
0.6466 0.8370 l
0.6493 0.8375 l
0.6520 0.8379 l
0.6548 0.8384 l
0.6575 0.8388 l
0.6602 0.8392 l
0.6629 0.8395 l
0.6657 0.8398 l
0.6684 0.8401 l
0.6711 0.8403 l
0.6739 0.8405 l
0.6766 0.8406 l
0.6793 0.8407 l
0.6820 0.8408 l
0.6848 0.8407 l
0.6875 0.8407 l
0.6902 0.8405 l
0.6929 0.8404 l
0.6957 0.8401 l
0.6984 0.8397 l
0.7011 0.8393 l
0.7039 0.8388 l
0.7066 0.8382 l
0.7093 0.8375 l
0.7120 0.8367 l
0.7148 0.8358 l
0.7175 0.8347 l
0.7202 0.8335 l
0.7229 0.8322 l
0.7257 0.8307 l
0.7284 0.8291 l
0.7311 0.8273 l
0.7338 0.8253 l
0.7366 0.8231 l
0.7393 0.8207 l
0.7420 0.8181 l
0.7448 0.8152 l
0.7475 0.8121 l
0.7502 0.8086 l
0.7529 0.8049 l
0.7557 0.8009 l
0.7584 0.7966 l
0.7611 0.7919 l
0.7638 0.7868 l
0.7666 0.7814 l
0.7693 0.7755 l
0.7720 0.7691 l
0.7747 0.7624 l
0.7775 0.7551 l
0.7802 0.7473 l
0.7829 0.7390 l
0.7857 0.7301 l
0.7884 0.7205 l
0.7911 0.7104 l
0.7938 0.6996 l
0.7966 0.6881 l
0.7993 0.6759 l
0.8020 0.6630 l
0.8047 0.6492 l
0.8075 0.6346 l
0.8102 0.6191 l
0.8129 0.6026 l
0.8157 0.5852 l
0.8184 0.5668 l
0.8211 0.5472 l
0.8238 0.5265 l
0.8266 0.5046 l
0.8293 0.4815 l
0.8320 0.4569 l
0.8347 0.4310 l
0.8375 0.4035 l
0.8402 0.3744 l
0.8429 0.3436 l
0.8456 0.3111 l
0.8484 0.2767 l
0.8511 0.2402 l
0.8538 0.2017 l
0.8566 0.1609 l
0.8572 0.1499 l
s
[/DeviceRGB] SCS
Color1 SC
[] 0 SD
0.0030 SLW
n
0.2867 0.1499 m
0.2868 0.3979 l
0.2942 0.5330 l
0.3016 0.6010 l
0.3090 0.6457 l
0.3165 0.6782 l
0.3239 0.6337 l
0.3313 0.6185 l
0.3387 0.6299 l
0.3461 0.6649 l
0.3536 0.6548 l
0.3610 0.6496 l
0.3684 0.6845 l
0.3758 0.6609 l
0.3833 0.6964 l
0.3907 0.6769 l
0.3981 0.6771 l
0.4055 0.6821 l
0.4130 0.6866 l
0.4204 0.6936 l
0.4278 0.6995 l
0.4352 0.7043 l
0.4426 0.7071 l
0.4501 0.7181 l
0.4575 0.7136 l
0.4649 0.7176 l
0.4723 0.7195 l
0.4798 0.7239 l
0.4872 0.7274 l
0.4946 0.7303 l
0.5020 0.7372 l
0.5095 0.7412 l
0.5169 0.7434 l
0.5243 0.7444 l
0.5317 0.7499 l
0.5391 0.7517 l
0.5466 0.7567 l
0.5540 0.7597 l
0.5614 0.7629 l
0.5688 0.7664 l
0.5763 0.7700 l
0.5837 0.7726 l
0.5911 0.7753 l
0.5985 0.7794 l
0.6060 0.7822 l
0.6134 0.7855 l
0.6208 0.7887 l
0.6282 0.7919 l
0.6356 0.7950 l
0.6431 0.7981 l
0.6505 0.8011 l
0.6579 0.8042 l
0.6653 0.8071 l
0.6728 0.8101 l
0.6802 0.8129 l
0.6876 0.8158 l
0.6950 0.8185 l
0.7025 0.8212 l
0.7099 0.8238 l
0.7173 0.8263 l
0.7247 0.8287 l
0.7321 0.8310 l
0.7396 0.8332 l
0.7470 0.8352 l
0.7544 0.8371 l
0.7618 0.8388 l
0.7693 0.8402 l
0.7767 0.8415 l
0.7841 0.8424 l
0.7915 0.8430 l
0.7989 0.8433 l
0.8064 0.8432 l
0.8138 0.8426 l
0.8212 0.8414 l
0.8286 0.8396 l
0.8361 0.8372 l
0.8435 0.8339 l
0.8509 0.8296 l
0.8583 0.8243 l
0.8658 0.8177 l
0.8732 0.8096 l
0.8806 0.7999 l
0.8880 0.7882 l
0.8954 0.7742 l
0.9029 0.7576 l
0.9103 0.7380 l
0.9177 0.7148 l
0.9251 0.6875 l
0.9326 0.6554 l
0.9400 0.6180 l
0.9474 0.5737 l
0.9548 0.5222 l
0.9623 0.4619 l
0.9697 0.3913 l
0.9771 0.3089 l
0.9845 0.2127 l
0.9887 0.1499 l
s
[0.0150 0.0090 ] 0 SD
0.0030 SLW
n
0.1940 0.6069 m
0.1946 0.6072 l
0.1989 0.6091 l
0.2031 0.6110 l
0.2074 0.6129 l
0.2116 0.6148 l
0.2159 0.6167 l
0.2201 0.6186 l
0.2244 0.6205 l
0.2286 0.6223 l
0.2329 0.6242 l
0.2371 0.6261 l
0.2414 0.6280 l
0.2457 0.6299 l
0.2499 0.6318 l
0.2542 0.6337 l
0.2584 0.6356 l
0.2627 0.6375 l
0.2669 0.6394 l
0.2712 0.6413 l
0.2754 0.6432 l
0.2797 0.6450 l
0.2839 0.6469 l
0.2882 0.6488 l
0.2924 0.6507 l
0.2967 0.6526 l
0.3009 0.6544 l
0.3052 0.6563 l
0.3094 0.6582 l
0.3137 0.6601 l
0.3179 0.6620 l
0.3222 0.6638 l
0.3264 0.6657 l
0.3307 0.6676 l
0.3349 0.6694 l
0.3392 0.6713 l
0.3435 0.6732 l
0.3477 0.6750 l
0.3520 0.6769 l
0.3562 0.6788 l
0.3605 0.6806 l
0.3647 0.6825 l
0.3690 0.6843 l
0.3732 0.6862 l
0.3775 0.6880 l
0.3817 0.6899 l
0.3860 0.6917 l
0.3902 0.6936 l
0.3945 0.6954 l
0.3987 0.6973 l
0.4030 0.6991 l
0.4072 0.7010 l
0.4115 0.7028 l
0.4157 0.7046 l
0.4200 0.7064 l
0.4242 0.7083 l
0.4285 0.7101 l
0.4327 0.7119 l
0.4370 0.7137 l
0.4413 0.7156 l
0.4455 0.7174 l
0.4498 0.7192 l
0.4540 0.7210 l
0.4583 0.7228 l
0.4625 0.7246 l
0.4668 0.7264 l
0.4710 0.7282 l
0.4753 0.7300 l
0.4795 0.7318 l
0.4838 0.7335 l
0.4880 0.7353 l
0.4923 0.7371 l
0.4965 0.7389 l
0.5008 0.7406 l
0.5050 0.7424 l
0.5093 0.7441 l
0.5135 0.7459 l
0.5178 0.7476 l
0.5220 0.7494 l
0.5263 0.7511 l
0.5305 0.7529 l
0.5348 0.7546 l
0.5391 0.7563 l
0.5433 0.7580 l
0.5476 0.7597 l
0.5518 0.7614 l
0.5561 0.7631 l
0.5603 0.7648 l
0.5646 0.7665 l
0.5688 0.7682 l
0.5731 0.7699 l
0.5773 0.7716 l
0.5816 0.7732 l
0.5858 0.7749 l
0.5901 0.7765 l
0.5943 0.7782 l
0.5986 0.7798 l
0.6028 0.7814 l
0.6071 0.7831 l
0.6113 0.7847 l
0.6156 0.7863 l
0.6198 0.7879 l
0.6241 0.7895 l
0.6283 0.7910 l
0.6326 0.7926 l
0.6369 0.7942 l
0.6411 0.7957 l
0.6454 0.7972 l
0.6496 0.7988 l
0.6539 0.8003 l
0.6581 0.8018 l
0.6624 0.8033 l
0.6666 0.8048 l
0.6709 0.8063 l
0.6751 0.8077 l
0.6794 0.8092 l
0.6836 0.8106 l
0.6879 0.8120 l
0.6921 0.8134 l
0.6964 0.8148 l
0.7006 0.8162 l
0.7049 0.8175 l
0.7091 0.8189 l
0.7134 0.8202 l
0.7176 0.8215 l
0.7219 0.8228 l
0.7261 0.8240 l
0.7304 0.8252 l
0.7347 0.8264 l
0.7389 0.8276 l
0.7432 0.8288 l
0.7474 0.8299 l
0.7517 0.8310 l
0.7559 0.8320 l
0.7602 0.8331 l
0.7644 0.8340 l
0.7687 0.8350 l
0.7729 0.8358 l
0.7772 0.8367 l
0.7814 0.8374 l
0.7857 0.8381 l
0.7899 0.8388 l
0.7942 0.8394 l
0.7984 0.8398 l
0.8027 0.8402 l
0.8069 0.8405 l
0.8112 0.8407 l
0.8154 0.8408 l
0.8197 0.8407 l
0.8239 0.8405 l
0.8282 0.8401 l
0.8325 0.8395 l
0.8367 0.8387 l
0.8410 0.8377 l
0.8452 0.8364 l
0.8495 0.8349 l
0.8537 0.8330 l
0.8580 0.8308 l
0.8622 0.8282 l
0.8665 0.8251 l
0.8707 0.8216 l
0.8750 0.8175 l
0.8792 0.8128 l
0.8835 0.8075 l
0.8877 0.8014 l
0.8920 0.7945 l
0.8962 0.7868 l
0.9005 0.7781 l
0.9047 0.7683 l
0.9090 0.7574 l
0.9132 0.7453 l
0.9175 0.7318 l
0.9217 0.7169 l
0.9260 0.7005 l
0.9303 0.6824 l
0.9345 0.6624 l
0.9388 0.6405 l
0.9430 0.6165 l
0.9473 0.5902 l
0.9515 0.5614 l
0.9558 0.5300 l
0.9600 0.4956 l
0.9643 0.4580 l
0.9685 0.4170 l
0.9728 0.3721 l
0.9770 0.3232 l
0.9813 0.2697 l
0.9855 0.2114 l
0.9896 0.1499 l
s
[0.0030 0.0090 ] 0 SD
0.0030 SLW
n
0.2940 0.1499 m
0.2941 0.6514 l
0.2978 0.6531 l
0.3015 0.6547 l
0.3052 0.6563 l
0.3088 0.6579 l
0.3125 0.6596 l
0.3162 0.6612 l
0.3199 0.6628 l
0.3236 0.6645 l
0.3273 0.6661 l
0.3310 0.6677 l
0.3347 0.6693 l
0.3384 0.6710 l
0.3421 0.6726 l
0.3458 0.6742 l
0.3495 0.6758 l
0.3532 0.6774 l
0.3569 0.6790 l
0.3605 0.6807 l
0.3642 0.6823 l
0.3679 0.6839 l
0.3716 0.6855 l
0.3753 0.6871 l
0.3790 0.6887 l
0.3827 0.6903 l
0.3864 0.6919 l
0.3901 0.6935 l
0.3938 0.6951 l
0.3975 0.6967 l
0.4012 0.6983 l
0.4049 0.6999 l
0.4086 0.7015 l
0.4122 0.7031 l
0.4159 0.7047 l
0.4196 0.7063 l
0.4233 0.7079 l
0.4270 0.7095 l
0.4307 0.7110 l
0.4344 0.7126 l
0.4381 0.7142 l
0.4418 0.7158 l
0.4455 0.7174 l
0.4492 0.7189 l
0.4529 0.7205 l
0.4566 0.7221 l
0.4603 0.7236 l
0.4639 0.7252 l
0.4676 0.7268 l
0.4713 0.7283 l
0.4750 0.7299 l
0.4787 0.7314 l
0.4824 0.7330 l
0.4861 0.7345 l
0.4898 0.7360 l
0.4935 0.7376 l
0.4972 0.7391 l
0.5009 0.7407 l
0.5046 0.7422 l
0.5083 0.7437 l
0.5120 0.7452 l
0.5156 0.7468 l
0.5193 0.7483 l
0.5230 0.7498 l
0.5267 0.7513 l
0.5304 0.7528 l
0.5341 0.7543 l
0.5378 0.7558 l
0.5415 0.7573 l
0.5452 0.7588 l
0.5489 0.7603 l
0.5526 0.7618 l
0.5563 0.7632 l
0.5600 0.7647 l
0.5637 0.7662 l
0.5673 0.7676 l
0.5710 0.7691 l
0.5747 0.7705 l
0.5784 0.7720 l
0.5821 0.7734 l
0.5858 0.7749 l
0.5895 0.7763 l
0.5932 0.7777 l
0.5969 0.7792 l
0.6006 0.7806 l
0.6043 0.7820 l
0.6080 0.7834 l
0.6117 0.7848 l
0.6154 0.7862 l
0.6190 0.7876 l
0.6227 0.7889 l
0.6264 0.7903 l
0.6301 0.7917 l
0.6338 0.7930 l
0.6375 0.7944 l
0.6412 0.7957 l
0.6449 0.7971 l
0.6486 0.7984 l
0.6523 0.7997 l
0.6560 0.8010 l
0.6597 0.8023 l
0.6634 0.8036 l
0.6671 0.8049 l
0.6707 0.8062 l
0.6744 0.8075 l
0.6781 0.8087 l
0.6818 0.8100 l
0.6855 0.8112 l
0.6892 0.8124 l
0.6929 0.8137 l
0.6966 0.8149 l
0.7003 0.8161 l
0.7040 0.8172 l
0.7077 0.8184 l
0.7114 0.8196 l
0.7151 0.8207 l
0.7188 0.8218 l
0.7224 0.8229 l
0.7261 0.8240 l
0.7298 0.8251 l
0.7335 0.8261 l
0.7372 0.8272 l
0.7409 0.8282 l
0.7446 0.8292 l
0.7483 0.8301 l
0.7520 0.8311 l
0.7557 0.8320 l
0.7594 0.8329 l
0.7631 0.8337 l
0.7668 0.8345 l
0.7705 0.8353 l
0.7741 0.8361 l
0.7778 0.8368 l
0.7815 0.8375 l
0.7852 0.8381 l
0.7889 0.8386 l
0.7926 0.8392 l
0.7963 0.8396 l
0.8000 0.8400 l
0.8037 0.8403 l
0.8074 0.8405 l
0.8111 0.8407 l
0.8148 0.8408 l
0.8185 0.8407 l
0.8222 0.8406 l
0.8258 0.8403 l
0.8295 0.8399 l
0.8332 0.8394 l
0.8369 0.8387 l
0.8406 0.8378 l
0.8443 0.8367 l
0.8480 0.8354 l
0.8517 0.8339 l
0.8554 0.8322 l
0.8591 0.8301 l
0.8628 0.8278 l
0.8665 0.8251 l
0.8702 0.8221 l
0.8739 0.8186 l
0.8775 0.8147 l
0.8812 0.8104 l
0.8849 0.8055 l
0.8886 0.8000 l
0.8923 0.7940 l
0.8960 0.7872 l
0.8997 0.7798 l
0.9034 0.7715 l
0.9071 0.7625 l
0.9108 0.7525 l
0.9145 0.7416 l
0.9182 0.7296 l
0.9219 0.7165 l
0.9256 0.7023 l
0.9292 0.6868 l
0.9329 0.6700 l
0.9366 0.6517 l
0.9403 0.6319 l
0.9440 0.6105 l
0.9477 0.5873 l
0.9514 0.5622 l
0.9551 0.5351 l
0.9588 0.5059 l
0.9625 0.4742 l
0.9662 0.4401 l
0.9699 0.4032 l
0.9736 0.3635 l
0.9773 0.3205 l
0.9809 0.2741 l
0.9846 0.2241 l
0.9883 0.1701 l
0.9896 0.1499 l
s
[/DeviceRGB] SCS
Color6 SC
[] 0 SD
0.0030 SLW
n
0.2453 0.1499 m
0.2453 0.4020 l
0.2542 0.5146 l
0.2630 0.5758 l
0.2719 0.6312 l
0.2808 0.5705 l
0.2896 0.5591 l
0.2985 0.5865 l
0.3073 0.6055 l
0.3162 0.5884 l
0.3250 0.6367 l
0.3339 0.6056 l
0.3427 0.6105 l
0.3516 0.6202 l
0.3604 0.6240 l
0.3693 0.6274 l
0.3781 0.6493 l
0.3870 0.6432 l
0.3959 0.6539 l
0.4047 0.6483 l
0.4136 0.6545 l
0.4224 0.6570 l
0.4313 0.6676 l
0.4401 0.6663 l
0.4490 0.6746 l
0.4578 0.6782 l
0.4667 0.6786 l
0.4755 0.6841 l
0.4844 0.6882 l
0.4933 0.6922 l
0.5021 0.6972 l
0.5110 0.7010 l
0.5198 0.7048 l
0.5287 0.7086 l
0.5375 0.7123 l
0.5464 0.7164 l
0.5552 0.7205 l
0.5641 0.7251 l
0.5729 0.7290 l
0.5818 0.7330 l
0.5906 0.7370 l
0.5995 0.7410 l
0.6084 0.7449 l
0.6172 0.7489 l
0.6261 0.7528 l
0.6349 0.7567 l
0.6438 0.7607 l
0.6526 0.7646 l
0.6615 0.7685 l
0.6703 0.7723 l
0.6792 0.7762 l
0.6880 0.7800 l
0.6969 0.7838 l
0.7058 0.7876 l
0.7146 0.7913 l
0.7235 0.7950 l
0.7323 0.7987 l
0.7412 0.8023 l
0.7500 0.8059 l
0.7589 0.8094 l
0.7677 0.8128 l
0.7766 0.8162 l
0.7854 0.8194 l
0.7943 0.8226 l
0.8032 0.8256 l
0.8120 0.8285 l
0.8209 0.8313 l
0.8297 0.8338 l
0.8386 0.8362 l
0.8474 0.8382 l
0.8563 0.8401 l
0.8651 0.8415 l
0.8740 0.8426 l
0.8828 0.8432 l
0.8917 0.8433 l
0.9005 0.8427 l
0.9094 0.8414 l
0.9183 0.8392 l
0.9271 0.8360 l
0.9360 0.8315 l
0.9448 0.8256 l
0.9537 0.8179 l
0.9625 0.8082 l
0.9714 0.7960 l
0.9802 0.7809 l
0.9891 0.7623 l
0.9979 0.7395 l
1.0068 0.7117 l
1.0157 0.6779 l
1.0245 0.6372 l
1.0334 0.5888 l
1.0422 0.5281 l
1.0511 0.4562 l
1.0599 0.3695 l
1.0688 0.2653 l
1.0769 0.1499 l
s
[0.0150 0.0090 ] 0 SD
0.0030 SLW
n
0.1940 0.5674 m
0.1985 0.5694 l
0.2033 0.5715 l
0.2080 0.5737 l
0.2128 0.5758 l
0.2175 0.5779 l
0.2223 0.5800 l
0.2270 0.5822 l
0.2317 0.5843 l
0.2365 0.5864 l
0.2412 0.5886 l
0.2460 0.5907 l
0.2507 0.5928 l
0.2554 0.5949 l
0.2602 0.5970 l
0.2649 0.5992 l
0.2697 0.6013 l
0.2744 0.6034 l
0.2792 0.6055 l
0.2839 0.6077 l
0.2886 0.6098 l
0.2934 0.6119 l
0.2981 0.6140 l
0.3029 0.6161 l
0.3076 0.6182 l
0.3123 0.6204 l
0.3171 0.6225 l
0.3218 0.6246 l
0.3266 0.6267 l
0.3313 0.6288 l
0.3361 0.6309 l
0.3408 0.6330 l
0.3455 0.6351 l
0.3503 0.6372 l
0.3550 0.6394 l
0.3598 0.6415 l
0.3645 0.6436 l
0.3692 0.6457 l
0.3740 0.6478 l
0.3787 0.6499 l
0.3835 0.6520 l
0.3882 0.6541 l
0.3930 0.6562 l
0.3977 0.6582 l
0.4024 0.6603 l
0.4072 0.6624 l
0.4119 0.6645 l
0.4167 0.6666 l
0.4214 0.6687 l
0.4261 0.6708 l
0.4309 0.6729 l
0.4356 0.6749 l
0.4404 0.6770 l
0.4451 0.6791 l
0.4499 0.6812 l
0.4546 0.6832 l
0.4593 0.6853 l
0.4641 0.6874 l
0.4688 0.6894 l
0.4736 0.6915 l
0.4783 0.6936 l
0.4830 0.6956 l
0.4878 0.6977 l
0.4925 0.6997 l
0.4973 0.7018 l
0.5020 0.7038 l
0.5067 0.7058 l
0.5115 0.7079 l
0.5162 0.7099 l
0.5210 0.7119 l
0.5257 0.7140 l
0.5305 0.7160 l
0.5352 0.7180 l
0.5399 0.7200 l
0.5447 0.7220 l
0.5494 0.7241 l
0.5542 0.7261 l
0.5589 0.7281 l
0.5636 0.7301 l
0.5684 0.7320 l
0.5731 0.7340 l
0.5779 0.7360 l
0.5826 0.7380 l
0.5874 0.7400 l
0.5921 0.7419 l
0.5968 0.7439 l
0.6016 0.7458 l
0.6063 0.7478 l
0.6111 0.7497 l
0.6158 0.7517 l
0.6205 0.7536 l
0.6253 0.7555 l
0.6300 0.7574 l
0.6348 0.7594 l
0.6395 0.7613 l
0.6443 0.7632 l
0.6490 0.7651 l
0.6537 0.7669 l
0.6585 0.7688 l
0.6632 0.7707 l
0.6680 0.7725 l
0.6727 0.7744 l
0.6774 0.7762 l
0.6822 0.7781 l
0.6869 0.7799 l
0.6917 0.7817 l
0.6964 0.7835 l
0.7012 0.7853 l
0.7059 0.7871 l
0.7106 0.7889 l
0.7154 0.7906 l
0.7201 0.7924 l
0.7249 0.7941 l
0.7296 0.7958 l
0.7343 0.7975 l
0.7391 0.7992 l
0.7438 0.8009 l
0.7486 0.8026 l
0.7533 0.8043 l
0.7581 0.8059 l
0.7628 0.8075 l
0.7675 0.8092 l
0.7723 0.8108 l
0.7770 0.8123 l
0.7818 0.8139 l
0.7865 0.8154 l
0.7912 0.8170 l
0.7960 0.8185 l
0.8007 0.8199 l
0.8055 0.8214 l
0.8102 0.8228 l
0.8150 0.8242 l
0.8197 0.8256 l
0.8244 0.8269 l
0.8292 0.8282 l
0.8339 0.8295 l
0.8387 0.8307 l
0.8434 0.8319 l
0.8481 0.8330 l
0.8529 0.8341 l
0.8576 0.8351 l
0.8624 0.8361 l
0.8671 0.8370 l
0.8719 0.8378 l
0.8766 0.8386 l
0.8813 0.8392 l
0.8861 0.8398 l
0.8908 0.8402 l
0.8956 0.8405 l
0.9003 0.8407 l
0.9050 0.8408 l
0.9098 0.8406 l
0.9145 0.8403 l
0.9193 0.8397 l
0.9240 0.8389 l
0.9288 0.8378 l
0.9335 0.8364 l
0.9382 0.8346 l
0.9430 0.8325 l
0.9477 0.8298 l
0.9525 0.8267 l
0.9572 0.8230 l
0.9619 0.8187 l
0.9667 0.8136 l
0.9714 0.8077 l
0.9762 0.8010 l
0.9809 0.7932 l
0.9857 0.7843 l
0.9904 0.7742 l
0.9951 0.7627 l
0.9999 0.7498 l
1.0046 0.7352 l
1.0094 0.7189 l
1.0141 0.7007 l
1.0188 0.6804 l
1.0236 0.6578 l
1.0283 0.6328 l
1.0331 0.6050 l
1.0378 0.5743 l
1.0426 0.5404 l
1.0473 0.5029 l
1.0520 0.4616 l
1.0568 0.4160 l
1.0615 0.3656 l
1.0663 0.3101 l
1.0710 0.2488 l
1.0757 0.1812 l
1.0777 0.1499 l
s
[0.0030 0.0090 ] 0 SD
0.0030 SLW
n
0.2470 0.1499 m
0.2471 0.5912 l
0.2515 0.5931 l
0.2558 0.5951 l
0.2602 0.5970 l
0.2645 0.5990 l
0.2689 0.6009 l
0.2732 0.6029 l
0.2776 0.6048 l
0.2819 0.6068 l
0.2863 0.6087 l
0.2906 0.6107 l
0.2950 0.6126 l
0.2993 0.6146 l
0.3037 0.6165 l
0.3080 0.6184 l
0.3124 0.6204 l
0.3167 0.6223 l
0.3211 0.6243 l
0.3254 0.6262 l
0.3298 0.6281 l
0.3341 0.6301 l
0.3385 0.6320 l
0.3428 0.6339 l
0.3472 0.6359 l
0.3515 0.6378 l
0.3559 0.6397 l
0.3602 0.6417 l
0.3646 0.6436 l
0.3689 0.6455 l
0.3733 0.6475 l
0.3776 0.6494 l
0.3820 0.6513 l
0.3863 0.6532 l
0.3907 0.6552 l
0.3950 0.6571 l
0.3994 0.6590 l
0.4037 0.6609 l
0.4081 0.6628 l
0.4124 0.6648 l
0.4168 0.6667 l
0.4211 0.6686 l
0.4255 0.6705 l
0.4298 0.6724 l
0.4342 0.6743 l
0.4385 0.6762 l
0.4429 0.6781 l
0.4472 0.6800 l
0.4516 0.6819 l
0.4559 0.6838 l
0.4603 0.6857 l
0.4646 0.6876 l
0.4690 0.6895 l
0.4733 0.6914 l
0.4777 0.6933 l
0.4820 0.6952 l
0.4864 0.6971 l
0.4908 0.6989 l
0.4951 0.7008 l
0.4995 0.7027 l
0.5038 0.7046 l
0.5082 0.7064 l
0.5125 0.7083 l
0.5169 0.7102 l
0.5212 0.7120 l
0.5256 0.7139 l
0.5299 0.7158 l
0.5343 0.7176 l
0.5386 0.7195 l
0.5430 0.7213 l
0.5473 0.7232 l
0.5517 0.7250 l
0.5560 0.7268 l
0.5604 0.7287 l
0.5647 0.7305 l
0.5691 0.7323 l
0.5734 0.7342 l
0.5778 0.7360 l
0.5821 0.7378 l
0.5865 0.7396 l
0.5908 0.7414 l
0.5952 0.7432 l
0.5995 0.7450 l
0.6039 0.7468 l
0.6082 0.7486 l
0.6126 0.7504 l
0.6169 0.7521 l
0.6213 0.7539 l
0.6256 0.7557 l
0.6300 0.7574 l
0.6343 0.7592 l
0.6387 0.7609 l
0.6430 0.7627 l
0.6474 0.7644 l
0.6517 0.7661 l
0.6561 0.7679 l
0.6604 0.7696 l
0.6648 0.7713 l
0.6691 0.7730 l
0.6735 0.7747 l
0.6778 0.7764 l
0.6822 0.7781 l
0.6865 0.7797 l
0.6909 0.7814 l
0.6952 0.7831 l
0.6996 0.7847 l
0.7039 0.7863 l
0.7083 0.7880 l
0.7126 0.7896 l
0.7170 0.7912 l
0.7213 0.7928 l
0.7257 0.7944 l
0.7300 0.7960 l
0.7344 0.7976 l
0.7387 0.7991 l
0.7431 0.8007 l
0.7474 0.8022 l
0.7518 0.8037 l
0.7561 0.8053 l
0.7605 0.8068 l
0.7648 0.8082 l
0.7692 0.8097 l
0.7735 0.8112 l
0.7779 0.8126 l
0.7822 0.8141 l
0.7866 0.8155 l
0.7909 0.8169 l
0.7953 0.8182 l
0.7996 0.8196 l
0.8040 0.8209 l
0.8084 0.8222 l
0.8127 0.8235 l
0.8171 0.8248 l
0.8214 0.8261 l
0.8258 0.8273 l
0.8301 0.8285 l
0.8345 0.8296 l
0.8388 0.8307 l
0.8432 0.8318 l
0.8475 0.8329 l
0.8519 0.8339 l
0.8562 0.8348 l
0.8606 0.8357 l
0.8649 0.8366 l
0.8693 0.8374 l
0.8736 0.8381 l
0.8780 0.8388 l
0.8823 0.8393 l
0.8867 0.8398 l
0.8910 0.8402 l
0.8954 0.8405 l
0.8997 0.8407 l
0.9041 0.8408 l
0.9084 0.8407 l
0.9128 0.8404 l
0.9171 0.8400 l
0.9215 0.8393 l
0.9258 0.8385 l
0.9302 0.8374 l
0.9345 0.8360 l
0.9389 0.8344 l
0.9432 0.8323 l
0.9476 0.8299 l
0.9519 0.8271 l
0.9563 0.8238 l
0.9606 0.8200 l
0.9650 0.8155 l
0.9693 0.8105 l
0.9737 0.8046 l
0.9780 0.7980 l
0.9824 0.7906 l
0.9867 0.7821 l
0.9911 0.7726 l
0.9954 0.7620 l
0.9998 0.7501 l
1.0041 0.7368 l
1.0085 0.7221 l
1.0128 0.7058 l
1.0172 0.6878 l
1.0215 0.6679 l
1.0259 0.6460 l
1.0302 0.6220 l
1.0346 0.5955 l
1.0389 0.5666 l
1.0433 0.5349 l
1.0476 0.5001 l
1.0520 0.4620 l
1.0563 0.4204 l
1.0607 0.3748 l
1.0650 0.3249 l
1.0694 0.2703 l
1.0737 0.2106 l
1.0778 0.1499 l
s
[/DeviceRGB] SCS
Color1 SC
[] 0 SD
0.0030 SLW
n
0.1941 0.1500 m
1.2294 0.1500 l
s
n
0.1941 0.9500 m
1.2294 0.9500 l
s
n
0.1941 0.1500 m
0.1941 0.1730 l
s
n
0.1941 0.9500 m
0.1941 0.9270 l
s
n
0.2137 0.1500 m
0.2137 0.1730 l
s
n
0.2137 0.9500 m
0.2137 0.9270 l
s
n
0.2276 0.1500 m
0.2276 0.1730 l
s
n
0.2276 0.9500 m
0.2276 0.9270 l
s
n
0.2384 0.1500 m
0.2384 0.1730 l
s
n
0.2384 0.9500 m
0.2384 0.9270 l
s
n
0.2472 0.1500 m
0.2472 0.1730 l
s
n
0.2472 0.9500 m
0.2472 0.9270 l
s
n
0.2547 0.1500 m
0.2547 0.1730 l
s
n
0.2547 0.9500 m
0.2547 0.9270 l
s
n
0.2611 0.1500 m
0.2611 0.1730 l
s
n
0.2611 0.9500 m
0.2611 0.9270 l
s
n
0.2668 0.1500 m
0.2668 0.1730 l
s
n
0.2668 0.9500 m
0.2668 0.9270 l
s
n
0.2719 0.1500 m
0.2719 0.1730 l
s
n
0.2719 0.9500 m
0.2719 0.9270 l
s
n
0.3054 0.1500 m
0.3054 0.1730 l
s
n
0.3054 0.9500 m
0.3054 0.9270 l
s
n
0.3250 0.1500 m
0.3250 0.1730 l
s
n
0.3250 0.9500 m
0.3250 0.9270 l
s
n
0.3389 0.1500 m
0.3389 0.1730 l
s
n
0.3389 0.9500 m
0.3389 0.9270 l
s
n
0.3497 0.1500 m
0.3497 0.1730 l
s
n
0.3497 0.9500 m
0.3497 0.9270 l
s
n
0.3585 0.1500 m
0.3585 0.1730 l
s
n
0.3585 0.9500 m
0.3585 0.9270 l
s
n
0.3660 0.1500 m
0.3660 0.1730 l
s
n
0.3660 0.9500 m
0.3660 0.9270 l
s
n
0.3724 0.1500 m
0.3724 0.1730 l
s
n
0.3724 0.9500 m
0.3724 0.9270 l
s
n
0.3781 0.1500 m
0.3781 0.1730 l
s
n
0.3781 0.9500 m
0.3781 0.9270 l
s
n
0.3832 0.1500 m
0.3832 0.1730 l
s
n
0.3832 0.9500 m
0.3832 0.9270 l
s
n
0.4167 0.1500 m
0.4167 0.1730 l
s
n
0.4167 0.9500 m
0.4167 0.9270 l
s
n
0.4363 0.1500 m
0.4363 0.1730 l
s
n
0.4363 0.9500 m
0.4363 0.9270 l
s
n
0.4502 0.1500 m
0.4502 0.1730 l
s
n
0.4502 0.9500 m
0.4502 0.9270 l
s
n
0.4610 0.1500 m
0.4610 0.1730 l
s
n
0.4610 0.9500 m
0.4610 0.9270 l
s
n
0.4698 0.1500 m
0.4698 0.1730 l
s
n
0.4698 0.9500 m
0.4698 0.9270 l
s
n
0.4773 0.1500 m
0.4773 0.1730 l
s
n
0.4773 0.9500 m
0.4773 0.9270 l
s
n
0.4838 0.1500 m
0.4838 0.1730 l
s
n
0.4838 0.9500 m
0.4838 0.9270 l
s
n
0.4894 0.1500 m
0.4894 0.1730 l
s
n
0.4894 0.9500 m
0.4894 0.9270 l
s
n
0.4945 0.1500 m
0.4945 0.1730 l
s
n
0.4945 0.9500 m
0.4945 0.9270 l
s
n
0.5280 0.1500 m
0.5280 0.1730 l
s
n
0.5280 0.9500 m
0.5280 0.9270 l
s
n
0.5476 0.1500 m
0.5476 0.1730 l
s
n
0.5476 0.9500 m
0.5476 0.9270 l
s
n
0.5616 0.1500 m
0.5616 0.1730 l
s
n
0.5616 0.9500 m
0.5616 0.9270 l
s
n
0.5723 0.1500 m
0.5723 0.1730 l
s
n
0.5723 0.9500 m
0.5723 0.9270 l
s
n
0.5812 0.1500 m
0.5812 0.1730 l
s
n
0.5812 0.9500 m
0.5812 0.9270 l
s
n
0.5886 0.1500 m
0.5886 0.1730 l
s
n
0.5886 0.9500 m
0.5886 0.9270 l
s
n
0.5951 0.1500 m
0.5951 0.1730 l
s
n
0.5951 0.9500 m
0.5951 0.9270 l
s
n
0.6008 0.1500 m
0.6008 0.1730 l
s
n
0.6008 0.9500 m
0.6008 0.9270 l
s
n
0.6058 0.1500 m
0.6058 0.1730 l
s
n
0.6058 0.9500 m
0.6058 0.9270 l
s
n
0.6394 0.1500 m
0.6394 0.1730 l
s
n
0.6394 0.9500 m
0.6394 0.9270 l
s
n
0.6590 0.1500 m
0.6590 0.1730 l
s
n
0.6590 0.9500 m
0.6590 0.9270 l
s
n
0.6729 0.1500 m
0.6729 0.1730 l
s
n
0.6729 0.9500 m
0.6729 0.9270 l
s
n
0.6837 0.1500 m
0.6837 0.1730 l
s
n
0.6837 0.9500 m
0.6837 0.9270 l
s
n
0.6925 0.1500 m
0.6925 0.1730 l
s
n
0.6925 0.9500 m
0.6925 0.9270 l
s
n
0.6999 0.1500 m
0.6999 0.1730 l
s
n
0.6999 0.9500 m
0.6999 0.9270 l
s
n
0.7064 0.1500 m
0.7064 0.1730 l
s
n
0.7064 0.9500 m
0.7064 0.9270 l
s
n
0.7121 0.1500 m
0.7121 0.1730 l
s
n
0.7121 0.9500 m
0.7121 0.9270 l
s
n
0.7172 0.1500 m
0.7172 0.1730 l
s
n
0.7172 0.9500 m
0.7172 0.9270 l
s
n
0.7507 0.1500 m
0.7507 0.1730 l
s
n
0.7507 0.9500 m
0.7507 0.9270 l
s
n
0.7703 0.1500 m
0.7703 0.1730 l
s
n
0.7703 0.9500 m
0.7703 0.9270 l
s
n
0.7842 0.1500 m
0.7842 0.1730 l
s
n
0.7842 0.9500 m
0.7842 0.9270 l
s
n
0.7950 0.1500 m
0.7950 0.1730 l
s
n
0.7950 0.9500 m
0.7950 0.9270 l
s
n
0.8038 0.1500 m
0.8038 0.1730 l
s
n
0.8038 0.9500 m
0.8038 0.9270 l
s
n
0.8112 0.1500 m
0.8112 0.1730 l
s
n
0.8112 0.9500 m
0.8112 0.9270 l
s
n
0.8177 0.1500 m
0.8177 0.1730 l
s
n
0.8177 0.9500 m
0.8177 0.9270 l
s
n
0.8234 0.1500 m
0.8234 0.1730 l
s
n
0.8234 0.9500 m
0.8234 0.9270 l
s
n
0.8285 0.1500 m
0.8285 0.1730 l
s
n
0.8285 0.9500 m
0.8285 0.9270 l
s
n
0.8620 0.1500 m
0.8620 0.1730 l
s
n
0.8620 0.9500 m
0.8620 0.9270 l
s
n
0.8816 0.1500 m
0.8816 0.1730 l
s
n
0.8816 0.9500 m
0.8816 0.9270 l
s
n
0.8955 0.1500 m
0.8955 0.1730 l
s
n
0.8955 0.9500 m
0.8955 0.9270 l
s
n
0.9063 0.1500 m
0.9063 0.1730 l
s
n
0.9063 0.9500 m
0.9063 0.9270 l
s
n
0.9151 0.1500 m
0.9151 0.1730 l
s
n
0.9151 0.9500 m
0.9151 0.9270 l
s
n
0.9225 0.1500 m
0.9225 0.1730 l
s
n
0.9225 0.9500 m
0.9225 0.9270 l
s
n
0.9290 0.1500 m
0.9290 0.1730 l
s
n
0.9290 0.9500 m
0.9290 0.9270 l
s
n
0.9347 0.1500 m
0.9347 0.1730 l
s
n
0.9347 0.9500 m
0.9347 0.9270 l
s
n
0.9398 0.1500 m
0.9398 0.1730 l
s
n
0.9398 0.9500 m
0.9398 0.9270 l
s
n
0.9733 0.1500 m
0.9733 0.1730 l
s
n
0.9733 0.9500 m
0.9733 0.9270 l
s
n
0.9929 0.1500 m
0.9929 0.1730 l
s
n
0.9929 0.9500 m
0.9929 0.9270 l
s
n
1.0068 0.1500 m
1.0068 0.1730 l
s
n
1.0068 0.9500 m
1.0068 0.9270 l
s
n
1.0176 0.1500 m
1.0176 0.1730 l
s
n
1.0176 0.9500 m
1.0176 0.9270 l
s
n
1.0264 0.1500 m
1.0264 0.1730 l
s
n
1.0264 0.9500 m
1.0264 0.9270 l
s
n
1.0338 0.1500 m
1.0338 0.1730 l
s
n
1.0338 0.9500 m
1.0338 0.9270 l
s
n
1.0403 0.1500 m
1.0403 0.1730 l
s
n
1.0403 0.9500 m
1.0403 0.9270 l
s
n
1.0460 0.1500 m
1.0460 0.1730 l
s
n
1.0460 0.9500 m
1.0460 0.9270 l
s
n
1.0511 0.1500 m
1.0511 0.1730 l
s
n
1.0511 0.9500 m
1.0511 0.9270 l
s
n
1.0846 0.1500 m
1.0846 0.1730 l
s
n
1.0846 0.9500 m
1.0846 0.9270 l
s
n
1.1042 0.1500 m
1.1042 0.1730 l
s
n
1.1042 0.9500 m
1.1042 0.9270 l
s
n
1.1181 0.1500 m
1.1181 0.1730 l
s
n
1.1181 0.9500 m
1.1181 0.9270 l
s
n
1.1289 0.1500 m
1.1289 0.1730 l
s
n
1.1289 0.9500 m
1.1289 0.9270 l
s
n
1.1377 0.1500 m
1.1377 0.1730 l
s
n
1.1377 0.9500 m
1.1377 0.9270 l
s
n
1.1452 0.1500 m
1.1452 0.1730 l
s
n
1.1452 0.9500 m
1.1452 0.9270 l
s
n
1.1516 0.1500 m
1.1516 0.1730 l
s
n
1.1516 0.9500 m
1.1516 0.9270 l
s
n
1.1573 0.1500 m
1.1573 0.1730 l
s
n
1.1573 0.9500 m
1.1573 0.9270 l
s
n
1.1624 0.1500 m
1.1624 0.1730 l
s
n
1.1624 0.9500 m
1.1624 0.9270 l
s
n
1.1959 0.1500 m
1.1959 0.1730 l
s
n
1.1959 0.9500 m
1.1959 0.9270 l
s
n
1.2155 0.1500 m
1.2155 0.1730 l
s
n
1.2155 0.9500 m
1.2155 0.9270 l
s
n
1.2294 0.1500 m
1.2294 0.1730 l
s
n
1.2294 0.9500 m
1.2294 0.9270 l
s
n
0.2719 0.1500 m
0.2719 0.1830 l
s
n
0.2719 0.9500 m
0.2719 0.9170 l
s
n
0.3832 0.1500 m
0.3832 0.1830 l
s
n
0.3832 0.9500 m
0.3832 0.9170 l
s
n
0.4945 0.1500 m
0.4945 0.1830 l
s
n
0.4945 0.9500 m
0.4945 0.9170 l
s
n
0.6058 0.1500 m
0.6058 0.1830 l
s
n
0.6058 0.9500 m
0.6058 0.9170 l
s
n
0.7172 0.1500 m
0.7172 0.1830 l
s
n
0.7172 0.9500 m
0.7172 0.9170 l
s
n
0.8285 0.1500 m
0.8285 0.1830 l
s
n
0.8285 0.9500 m
0.8285 0.9170 l
s
n
0.9398 0.1500 m
0.9398 0.1830 l
s
n
0.9398 0.9500 m
0.9398 0.9170 l
s
n
1.0511 0.1500 m
1.0511 0.1830 l
s
n
1.0511 0.9500 m
1.0511 0.9170 l
s
n
1.1624 0.1500 m
1.1624 0.1830 l
s
n
1.1624 0.9500 m
1.1624 0.9170 l
s
/Helvetica findfont
dup length dict begin
 {1 index /FID ne {def} {pop pop} ifelse} forall
 /Encoding DefEncoding def
 currentdict
end
/Font4 exch definefont pop
/Font4 FFSF
0.2407 0.0997 m
GS
[0.0364 0.0000 0.0000 0.0364 0 0] CC
(10) show
GR
/Font4 FFSF
0.2811 0.1216 m
GS
[0.0257 0.0000 0.0000 0.0257 0 0] CC
(-2) show
GR
/Font4 FFSF
0.3542 0.0997 m
GS
[0.0364 0.0000 0.0000 0.0364 0 0] CC
(10) show
GR
/Font4 FFSF
0.3946 0.1216 m
GS
[0.0257 0.0000 0.0000 0.0257 0 0] CC
(-1) show
GR
/Font4 FFSF
0.4679 0.0997 m
GS
[0.0364 0.0000 0.0000 0.0364 0 0] CC
(10) show
GR
/Font4 FFSF
0.5083 0.1216 m
GS
[0.0257 0.0000 0.0000 0.0257 0 0] CC
(0) show
GR
/Font4 FFSF
0.5811 0.0997 m
GS
[0.0364 0.0000 0.0000 0.0364 0 0] CC
(10) show
GR
/Font4 FFSF
0.6215 0.1216 m
GS
[0.0257 0.0000 0.0000 0.0257 0 0] CC
(1) show
GR
/Font4 FFSF
0.6903 0.0997 m
GS
[0.0364 0.0000 0.0000 0.0364 0 0] CC
(10) show
GR
/Font4 FFSF
0.7307 0.1216 m
GS
[0.0257 0.0000 0.0000 0.0257 0 0] CC
(2) show
GR
/Font4 FFSF
0.8018 0.0997 m
GS
[0.0364 0.0000 0.0000 0.0364 0 0] CC
(10) show
GR
/Font4 FFSF
0.8422 0.1216 m
GS
[0.0257 0.0000 0.0000 0.0257 0 0] CC
(3) show
GR
/Font4 FFSF
0.9129 0.0997 m
GS
[0.0364 0.0000 0.0000 0.0364 0 0] CC
(10) show
GR
/Font4 FFSF
0.9533 0.1216 m
GS
[0.0257 0.0000 0.0000 0.0257 0 0] CC
(4) show
GR
/Font4 FFSF
1.0242 0.0997 m
GS
[0.0364 0.0000 0.0000 0.0364 0 0] CC
(10) show
GR
/Font4 FFSF
1.0646 0.1216 m
GS
[0.0257 0.0000 0.0000 0.0257 0 0] CC
(5) show
GR
/Font4 FFSF
1.1355 0.0997 m
GS
[0.0364 0.0000 0.0000 0.0364 0 0] CC
(10) show
GR
/Font4 FFSF
1.1759 0.1216 m
GS
[0.0257 0.0000 0.0000 0.0257 0 0] CC
(6) show
GR
/Symbol findfont
/Font12 exch definefont pop
/Font12 FFSF
0.6990 0.0638 m
GS
[0.0490 0.0000 0.0000 0.0490 0 0] CC
(c) show
GR
n
0.1941 0.1500 m
0.1941 0.9500 l
s
n
1.2294 0.1500 m
1.2294 0.9500 l
s
n
0.1941 0.1954 m
0.2171 0.1954 l
s
n
1.2294 0.1954 m
1.2064 0.1954 l
s
n
0.1941 0.2220 m
0.2171 0.2220 l
s
n
1.2294 0.2220 m
1.2064 0.2220 l
s
n
0.1941 0.2409 m
0.2171 0.2409 l
s
n
1.2294 0.2409 m
1.2064 0.2409 l
s
n
0.1941 0.2555 m
0.2171 0.2555 l
s
n
1.2294 0.2555 m
1.2064 0.2555 l
s
n
0.1941 0.2674 m
0.2171 0.2674 l
s
n
1.2294 0.2674 m
1.2064 0.2674 l
s
n
0.1941 0.2775 m
0.2171 0.2775 l
s
n
1.2294 0.2775 m
1.2064 0.2775 l
s
n
0.1941 0.2863 m
0.2171 0.2863 l
s
n
1.2294 0.2863 m
1.2064 0.2863 l
s
n
0.1941 0.2940 m
0.2171 0.2940 l
s
n
1.2294 0.2940 m
1.2064 0.2940 l
s
n
0.1941 0.3009 m
0.2171 0.3009 l
s
n
1.2294 0.3009 m
1.2064 0.3009 l
s
n
0.1941 0.3463 m
0.2171 0.3463 l
s
n
1.2294 0.3463 m
1.2064 0.3463 l
s
n
0.1941 0.3729 m
0.2171 0.3729 l
s
n
1.2294 0.3729 m
1.2064 0.3729 l
s
n
0.1941 0.3918 m
0.2171 0.3918 l
s
n
1.2294 0.3918 m
1.2064 0.3918 l
s
n
0.1941 0.4064 m
0.2171 0.4064 l
s
n
1.2294 0.4064 m
1.2064 0.4064 l
s
n
0.1941 0.4183 m
0.2171 0.4183 l
s
n
1.2294 0.4183 m
1.2064 0.4183 l
s
n
0.1941 0.4285 m
0.2171 0.4285 l
s
n
1.2294 0.4285 m
1.2064 0.4285 l
s
n
0.1941 0.4372 m
0.2171 0.4372 l
s
n
1.2294 0.4372 m
1.2064 0.4372 l
s
n
0.1941 0.4449 m
0.2171 0.4449 l
s
n
1.2294 0.4449 m
1.2064 0.4449 l
s
n
0.1941 0.4518 m
0.2171 0.4518 l
s
n
1.2294 0.4518 m
1.2064 0.4518 l
s
n
0.1941 0.4973 m
0.2171 0.4973 l
s
n
1.2294 0.4973 m
1.2064 0.4973 l
s
n
0.1941 0.5238 m
0.2171 0.5238 l
s
n
1.2294 0.5238 m
1.2064 0.5238 l
s
n
0.1941 0.5427 m
0.2171 0.5427 l
s
n
1.2294 0.5427 m
1.2064 0.5427 l
s
n
0.1941 0.5573 m
0.2171 0.5573 l
s
n
1.2294 0.5573 m
1.2064 0.5573 l
s
n
0.1941 0.5693 m
0.2171 0.5693 l
s
n
1.2294 0.5693 m
1.2064 0.5693 l
s
n
0.1941 0.5794 m
0.2171 0.5794 l
s
n
1.2294 0.5794 m
1.2064 0.5794 l
s
n
0.1941 0.5881 m
0.2171 0.5881 l
s
n
1.2294 0.5881 m
1.2064 0.5881 l
s
n
0.1941 0.5958 m
0.2171 0.5958 l
s
n
1.2294 0.5958 m
1.2064 0.5958 l
s
n
0.1941 0.6027 m
0.2171 0.6027 l
s
n
1.2294 0.6027 m
1.2064 0.6027 l
s
n
0.1941 0.6482 m
0.2171 0.6482 l
s
n
1.2294 0.6482 m
1.2064 0.6482 l
s
n
0.1941 0.6747 m
0.2171 0.6747 l
s
n
1.2294 0.6747 m
1.2064 0.6747 l
s
n
0.1941 0.6936 m
0.2171 0.6936 l
s
n
1.2294 0.6936 m
1.2064 0.6936 l
s
n
0.1941 0.7082 m
0.2171 0.7082 l
s
n
1.2294 0.7082 m
1.2064 0.7082 l
s
n
0.1941 0.7202 m
0.2171 0.7202 l
s
n
1.2294 0.7202 m
1.2064 0.7202 l
s
n
0.1941 0.7303 m
0.2171 0.7303 l
s
n
1.2294 0.7303 m
1.2064 0.7303 l
s
n
0.1941 0.7390 m
0.2171 0.7390 l
s
n
1.2294 0.7390 m
1.2064 0.7390 l
s
n
0.1941 0.7468 m
0.2171 0.7468 l
s
n
1.2294 0.7468 m
1.2064 0.7468 l
s
n
0.1941 0.7537 m
0.2171 0.7537 l
s
n
1.2294 0.7537 m
1.2064 0.7537 l
s
n
0.1941 0.7991 m
0.2171 0.7991 l
s
n
1.2294 0.7991 m
1.2064 0.7991 l
s
n
0.1941 0.8257 m
0.2171 0.8257 l
s
n
1.2294 0.8257 m
1.2064 0.8257 l
s
n
0.1941 0.8445 m
0.2171 0.8445 l
s
n
1.2294 0.8445 m
1.2064 0.8445 l
s
n
0.1941 0.8591 m
0.2171 0.8591 l
s
n
1.2294 0.8591 m
1.2064 0.8591 l
s
n
0.1941 0.8711 m
0.2171 0.8711 l
s
n
1.2294 0.8711 m
1.2064 0.8711 l
s
n
0.1941 0.8812 m
0.2171 0.8812 l
s
n
1.2294 0.8812 m
1.2064 0.8812 l
s
n
0.1941 0.8899 m
0.2171 0.8899 l
s
n
1.2294 0.8899 m
1.2064 0.8899 l
s
n
0.1941 0.8977 m
0.2171 0.8977 l
s
n
1.2294 0.8977 m
1.2064 0.8977 l
s
n
0.1941 0.9046 m
0.2171 0.9046 l
s
n
1.2294 0.9046 m
1.2064 0.9046 l
s
n
0.1941 0.9500 m
0.2171 0.9500 l
s
n
1.2294 0.9500 m
1.2064 0.9500 l
s
n
0.1941 0.1500 m
0.2271 0.1500 l
s
n
1.2294 0.1500 m
1.1964 0.1500 l
s
n
0.1941 0.3009 m
0.2271 0.3009 l
s
n
1.2294 0.3009 m
1.1964 0.3009 l
s
n
0.1941 0.4518 m
0.2271 0.4518 l
s
n
1.2294 0.4518 m
1.1964 0.4518 l
s
n
0.1941 0.6027 m
0.2271 0.6027 l
s
n
1.2294 0.6027 m
1.1964 0.6027 l
s
n
0.1941 0.7537 m
0.2271 0.7537 l
s
n
1.2294 0.7537 m
1.1964 0.7537 l
s
n
0.1941 0.9046 m
0.2271 0.9046 l
s
n
1.2294 0.9046 m
1.1964 0.9046 l
s
/Font4 FFSF
0.1218 0.1303 m
GS
[0.0364 0.0000 0.0000 0.0364 0 0] CC
(10) show
GR
/Font4 FFSF
0.1622 0.1521 m
GS
[0.0257 0.0000 0.0000 0.0257 0 0] CC
(-5) show
GR
/Font4 FFSF
0.1218 0.2812 m
GS
[0.0364 0.0000 0.0000 0.0364 0 0] CC
(10) show
GR
/Font4 FFSF
0.1622 0.3030 m
GS
[0.0257 0.0000 0.0000 0.0257 0 0] CC
(-4) show
GR
/Font4 FFSF
0.1222 0.4321 m
GS
[0.0364 0.0000 0.0000 0.0364 0 0] CC
(10) show
GR
/Font4 FFSF
0.1625 0.4539 m
GS
[0.0257 0.0000 0.0000 0.0257 0 0] CC
(-3) show
GR
/Font4 FFSF
0.1218 0.5830 m
GS
[0.0364 0.0000 0.0000 0.0364 0 0] CC
(10) show
GR
/Font4 FFSF
0.1622 0.6048 m
GS
[0.0257 0.0000 0.0000 0.0257 0 0] CC
(-2) show
GR
/Font4 FFSF
0.1261 0.7339 m
GS
[0.0364 0.0000 0.0000 0.0364 0 0] CC
(10) show
GR
/Font4 FFSF
0.1665 0.7558 m
GS
[0.0257 0.0000 0.0000 0.0257 0 0] CC
(-1) show
GR
/Font4 FFSF
0.1308 0.8848 m
GS
[0.0364 0.0000 0.0000 0.0364 0 0] CC
(10) show
GR
/Font4 FFSF
0.1712 0.9067 m
GS
[0.0257 0.0000 0.0000 0.0257 0 0] CC
(0) show
GR
/Font4 FFSF
0.1027 0.2463 m
GS
[0.0000 0.0420 -0.0420 0.0000 0 0] CC
(Power Radiated in arbitrary units) show
GR
[] 0 SD
0.0045 SLW
n
0.1941 0.1500 m
0.1941 0.9500 l
1.2294 0.9500 l
1.2294 0.1500 l
0.1941 0.1500 l
c
s
n
1.0600 0.9400 m
1.0600 0.5216 l
1.2165 0.5216 l
1.2165 0.9400 l
c
[/DeviceRGB] SCS
Color0 SC
fill
[/DeviceRGB] SCS
Color1 SC
[] 0 SD
0.0030 SLW
n
1.0600 0.9400 m
1.0600 0.5216 l
1.2165 0.5216 l
1.2165 0.9400 l
1.0600 0.9400 l
c
s
/Font12 FFSF
1.1265 0.9116 m
GS
[0.0252 0.0000 0.0000 0.0252 0 0] CC
(b) show
GR
/Font4 FFSF
1.1402 0.9116 m
GS
[0.0252 0.0000 0.0000 0.0252 0 0] CC
( = 0.2) show
GR
[/DeviceRGB] SCS
Color8 SC
n
1.0715 0.9180 m
1.1115 0.9180 l
s
/Font12 FFSF
[/DeviceRGB] SCS
Color1 SC
1.1265 0.8776 m
GS
[0.0252 0.0000 0.0000 0.0252 0 0] CC
(b) show
GR
/Font4 FFSF
1.1402 0.8776 m
GS
[0.0252 0.0000 0.0000 0.0252 0 0] CC
( = 0.6) show
GR
[/DeviceRGB] SCS
Color11 SC
n
1.0715 0.8841 m
1.1115 0.8841 l
s
/Font12 FFSF
[/DeviceRGB] SCS
Color1 SC
1.1265 0.8437 m
GS
[0.0252 0.0000 0.0000 0.0252 0 0] CC
(b) show
GR
/Font4 FFSF
1.1402 0.8437 m
GS
[0.0252 0.0000 0.0000 0.0252 0 0] CC
( = 0.9) show
GR
[/DeviceRGB] SCS
Color15 SC
n
1.0715 0.8502 m
1.1115 0.8502 l
s
/Font12 FFSF
[/DeviceRGB] SCS
Color1 SC
1.1265 0.8106 m
GS
[0.0252 0.0000 0.0000 0.0252 0 0] CC
(g) show
GR
/Font4 FFSF
1.1367 0.8106 m
GS
[0.0252 0.0000 0.0000 0.0252 0 0] CC
( = 5) show
GR
[/DeviceRGB] SCS
Color4 SC
n
1.0715 0.8167 m
1.1115 0.8167 l
s
/Font12 FFSF
[/DeviceRGB] SCS
Color1 SC
1.1265 0.7771 m
GS
[0.0252 0.0000 0.0000 0.0252 0 0] CC
(g) show
GR
/Font4 FFSF
1.1367 0.7771 m
GS
[0.0252 0.0000 0.0000 0.0252 0 0] CC
( = 10) show
GR
[/DeviceRGB] SCS
Color2 SC
n
1.0715 0.7833 m
1.1115 0.7833 l
s
/Font4 FFSF
[/DeviceRGB] SCS
Color1 SC
1.1265 0.7427 m
GS
[0.0252 0.0000 0.0000 0.0252 0 0] CC
(SL07) show
GR
[/DeviceRGB] SCS
Color2 SC
[0.0150 0.0090 ] 0 SD
0.0030 SLW
n
1.0715 0.7520 m
1.1115 0.7520 l
s
/Font4 FFSF
[/DeviceRGB] SCS
Color1 SC
1.1265 0.7139 m
GS
[0.0252 0.0000 0.0000 0.0252 0 0] CC
(RMA) show
GR
[/DeviceRGB] SCS
Color2 SC
[0.0030 0.0090 ] 0 SD
0.0030 SLW
n
1.0715 0.7231 m
1.1115 0.7231 l
s
/Font12 FFSF
[/DeviceRGB] SCS
Color1 SC
1.1265 0.6859 m
GS
[0.0252 0.0000 0.0000 0.0252 0 0] CC
(g) show
GR
/Font4 FFSF
1.1367 0.6859 m
GS
[0.0252 0.0000 0.0000 0.0252 0 0] CC
( = 40) show
GR
[] 0 SD
0.0030 SLW
n
1.0715 0.6922 m
1.1115 0.6922 l
s
/Font4 FFSF
1.1265 0.6516 m
GS
[0.0252 0.0000 0.0000 0.0252 0 0] CC
(SL07) show
GR
[0.0150 0.0090 ] 0 SD
0.0030 SLW
n
1.0715 0.6608 m
1.1115 0.6608 l
s
/Font4 FFSF
1.1265 0.6227 m
GS
[0.0252 0.0000 0.0000 0.0252 0 0] CC
(RMA) show
GR
[0.0030 0.0090 ] 0 SD
0.0030 SLW
n
1.0715 0.6320 m
1.1115 0.6320 l
s
/Font12 FFSF
1.1265 0.5947 m
GS
[0.0252 0.0000 0.0000 0.0252 0 0] CC
(g) show
GR
/Font4 FFSF
1.1367 0.5947 m
GS
[0.0252 0.0000 0.0000 0.0252 0 0] CC
( = 100) show
GR
[/DeviceRGB] SCS
Color6 SC
[] 0 SD
0.0030 SLW
n
1.0715 0.6010 m
1.1115 0.6010 l
s
/Font4 FFSF
[/DeviceRGB] SCS
Color1 SC
1.1265 0.5604 m
GS
[0.0252 0.0000 0.0000 0.0252 0 0] CC
(SL07) show
GR
[/DeviceRGB] SCS
Color6 SC
[0.0150 0.0090 ] 0 SD
0.0030 SLW
n
1.0715 0.5696 m
1.1115 0.5696 l
s
/Font4 FFSF
[/DeviceRGB] SCS
Color1 SC
1.1265 0.5316 m
GS
[0.0252 0.0000 0.0000 0.0252 0 0] CC
(RMA) show
GR
[/DeviceRGB] SCS
Color6 SC
[0.0030 0.0090 ] 0 SD
0.0030 SLW
n
1.0715 0.5408 m
1.1115 0.5408 l
s
%%Trailer
%%BoundingBox: 43 31 755 584
%%DocumentNeededResources: font Helvetica
%%+ font Symbol
%%EOF
