%!PS-Adobe-3.0 EPSF-3.0
%%BoundingBox: (atend)
%%LanguageLevel: 2
%%Creator: Grace-5.1.25
%%CreationDate: Tue Apr 25 00:55:24 2017
%%DocumentData: Clean8Bit
%%Orientation: Portrait
%%Title: /Users/jesus/lab/LaTesis/chambaFigures/scripts/pwlemiss-wide.agr
%%For: jesus
%%DocumentNeededResources: (atend)
%%EndComments
%%BeginProlog
/m {moveto} def
/l {lineto} def
/s {stroke} def
/n {newpath} def
/c {closepath} def
/RL {rlineto} def
/SLW {setlinewidth} def
/GS {gsave} def
/GR {grestore} def
/SC {setcolor} def
/SGRY {setgray} def
/SRGB {setrgbcolor} def
/SD {setdash} def
/SLC {setlinecap} def
/SLJ {setlinejoin} def
/SCS {setcolorspace} def
/FFSF {findfont setfont} def
/CC {concat} def
/PXL {n m 0 0 RL s} def
/Color0 {1.0000 1.0000 1.0000} def
/Color1 {0.0000 0.0000 0.0000} def
/Color2 {1.0000 0.0000 0.0000} def
/Color3 {0.0000 1.0000 0.0000} def
/Color4 {0.0000 0.0000 1.0000} def
/Color5 {1.0000 1.0000 0.0000} def
/Color6 {0.7373 0.5608 0.5608} def
/Color7 {0.8627 0.8627 0.8627} def
/Color8 {0.5804 0.0000 0.8275} def
/Color9 {0.0000 1.0000 1.0000} def
/Color10 {1.0000 0.0000 1.0000} def
/Color11 {1.0000 0.6471 0.0000} def
/Color12 {0.4471 0.1294 0.7373} def
/Color13 {0.4039 0.0275 0.2824} def
/Color14 {0.2510 0.8784 0.8157} def
/Color15 {0.0000 0.5451 0.0000} def
/Color16 {0.7529 0.7529 0.7529} def
/Color17 {0.5059 0.5059 0.5059} def
/Color18 {0.2588 0.2588 0.2588} def
/PTRN {
 /pat_bits exch def 
 <<
  /PaintType 2
  /PatternType 1 /TilingType 1
  /BBox[0 0 16 16]
  /XStep 16 /YStep 16
  /PaintProc {
   pop
   16 16 true [-1 0 0 -1 16 16] pat_bits imagemask
  }
 >>
 [0.0018 0 0 0.0018 0 0]
 makepattern
} def
/Pattern0 {<0000000000000000000000000000000000000000000000000000000000000000> PTRN} bind def
/Pattern1 {<ffffffffffffffffffffffffffffffffffffffffffffffffffffffffffffffff> PTRN} bind def
/Pattern2 {<eeeeffffbbbbffffeeeeffffbbbbffffeeeeffffbbbbffffeeeeffffbbbbffff> PTRN} bind def
/Pattern3 {<eeeebbbbeeeebbbbeeeebbbbeeeebbbbeeeebbbbeeeebbbbeeeebbbbeeeebbbb> PTRN} bind def
/Pattern4 {<5555aaaa5555aaaa5555aaaa5555aaaa5555aaaa5555aaaa5555aaaa5555aaaa> PTRN} bind def
/Pattern5 {<1111444411114444111144441111444411114444111144441111444411114444> PTRN} bind def
/Pattern6 {<1111000044440000111100004444000011110000444400001111000044440000> PTRN} bind def
/Pattern7 {<1010000000000000010100000000000010100000000000000101000000000000> PTRN} bind def
/Pattern8 {<0000000000000000000000000000000000000000000000000000000000000000> PTRN} bind def
/Pattern9 {<1e1e0f0f8787c3c3e1e1f0f078783c3c1e1e0f0f8787c3c3e1e1f0f078783c3c> PTRN} bind def
/Pattern10 {<7878f0f0e1e1c3c387870f0f1e1e3c3c7878f0f0e1e1c3c387870f0f1e1e3c3c> PTRN} bind def
/Pattern11 {<3333333333333333333333333333333333333333333333333333333333333333> PTRN} bind def
/Pattern12 {<ffffffff00000000ffffffff00000000ffffffff00000000ffffffff00000000> PTRN} bind def
/Pattern13 {<8181424224241818181824244242818181814242242418181818242442428181> PTRN} bind def
/Pattern14 {<8080404020201010080804040202010180804040202010100808040402020101> PTRN} bind def
/Pattern15 {<0101020204040808101020204040808001010202040408081010202040408080> PTRN} bind def
/Pattern16 {<2222222222222222222222222222222222222222222222222222222222222222> PTRN} bind def
/Pattern17 {<0000ffff000000000000ffff000000000000ffff000000000000ffff00000000> PTRN} bind def
/Pattern18 {<2222ffff222222222222ffff222222222222ffff222222222222ffff22222222> PTRN} bind def
/Pattern19 {<ffffffff33333333ffffffff33333333ffffffff33333333ffffffff33333333> PTRN} bind def
/Pattern20 {<0f0f0f0f0f0f0f0ff0f0f0f0f0f0f0f00f0f0f0f0f0f0f0ff0f0f0f0f0f0f0f0> PTRN} bind def
/Pattern21 {<ff00ff00ff00ff00ff00ff00ff00ff0000ff00ff00ff00ff00ff00ff00ff00ff> PTRN} bind def
/Pattern22 {<8001800180018001800180018001ffffffff8001800180018001800180018001> PTRN} bind def
/Pattern23 {<c003c003c003c003c003c003ffffffffffffffffc003c003c003c003c003c003> PTRN} bind def
/Pattern24 {<040404040404ffff404040404040ffff040404040404ffff404040404040ffff> PTRN} bind def
/Pattern25 {<180018001800180018001800ffffffff001800180018001800180018ffffffff> PTRN} bind def
/Pattern26 {<1111b8b87c7c3a3a1111a3a3c7c78b8b1111b8b87c7c3a3a1111a3a3c7c78b8b> PTRN} bind def
/Pattern27 {<101010102828c7c70101010182827c7c101010102828c7c70101010182827c7c> PTRN} bind def
/Pattern28 {<1c1c121211112121c1c12121111112121c1c121211112121c1c1212111111212> PTRN} bind def
/Pattern29 {<3e3e414180808080e3e31414080808083e3e414180808080e3e3141408080808> PTRN} bind def
/Pattern30 {<4848888884848383848488884848383848488888848483838484888848483838> PTRN} bind def
/Pattern31 {<03030404080808080c0c12122121c0c003030404080808080c0c12122121c0c0> PTRN} bind def
/ellipsedict 8 dict def
ellipsedict /mtrx matrix put
/EARC {
 ellipsedict begin
  /endangle exch def
  /startangle exch def
  /yrad exch def
  /xrad exch def
  /y exch def
  /x exch def
  /savematrix mtrx currentmatrix def
  x y translate
  xrad yrad scale
  0 0 1 startangle endangle arc
  savematrix setmatrix
 end
} def
/TL {
  /kcomp exch def
  /linewidth exch def
  /offset exch def
  GS
  0 offset rmoveto
  linewidth SLW
  dup stringwidth exch kcomp add exch RL s
  GR
} def
/KINIT
{
 /kvector exch def
 /kid 0 def
} def
/KPROC
{
 pop pop
 kvector kid get
 0 rmoveto
 /kid 1 kid add def
} def
/DefEncoding [
 /.notdef
 /.notdef
 /.notdef
 /.notdef
 /.notdef
 /.notdef
 /.notdef
 /.notdef
 /.notdef
 /.notdef
 /.notdef
 /.notdef
 /.notdef
 /.notdef
 /.notdef
 /.notdef
 /.notdef
 /.notdef
 /.notdef
 /.notdef
 /.notdef
 /.notdef
 /.notdef
 /.notdef
 /.notdef
 /.notdef
 /.notdef
 /.notdef
 /.notdef
 /.notdef
 /.notdef
 /.notdef
 /space
 /exclam
 /quotedbl
 /numbersign
 /dollar
 /percent
 /ampersand
 /quoteright
 /parenleft
 /parenright
 /asterisk
 /plus
 /comma
 /hyphen
 /period
 /slash
 /zero
 /one
 /two
 /three
 /four
 /five
 /six
 /seven
 /eight
 /nine
 /colon
 /semicolon
 /less
 /equal
 /greater
 /question
 /at
 /A
 /B
 /C
 /D
 /E
 /F
 /G
 /H
 /I
 /J
 /K
 /L
 /M
 /N
 /O
 /P
 /Q
 /R
 /S
 /T
 /U
 /V
 /W
 /X
 /Y
 /Z
 /bracketleft
 /backslash
 /bracketright
 /asciicircum
 /underscore
 /grave
 /a
 /b
 /c
 /d
 /e
 /f
 /g
 /h
 /i
 /j
 /k
 /l
 /m
 /n
 /o
 /p
 /q
 /r
 /s
 /t
 /u
 /v
 /w
 /x
 /y
 /z
 /braceleft
 /bar
 /braceright
 /asciitilde
 /.notdef
 /.notdef
 /.notdef
 /.notdef
 /.notdef
 /.notdef
 /.notdef
 /.notdef
 /.notdef
 /.notdef
 /.notdef
 /.notdef
 /.notdef
 /.notdef
 /.notdef
 /.notdef
 /.notdef
 /.notdef
 /.notdef
 /.notdef
 /.notdef
 /.notdef
 /.notdef
 /.notdef
 /.notdef
 /.notdef
 /.notdef
 /.notdef
 /.notdef
 /.notdef
 /.notdef
 /.notdef
 /.notdef
 /space
 /exclamdown
 /cent
 /sterling
 /currency
 /yen
 /brokenbar
 /section
 /dieresis
 /copyright
 /ordfeminine
 /guillemotleft
 /logicalnot
 /hyphen
 /registered
 /macron
 /degree
 /plusminus
 /twosuperior
 /threesuperior
 /acute
 /mu
 /paragraph
 /periodcentered
 /cedilla
 /onesuperior
 /ordmasculine
 /guillemotright
 /onequarter
 /onehalf
 /threequarters
 /questiondown
 /Agrave
 /Aacute
 /Acircumflex
 /Atilde
 /Adieresis
 /Aring
 /AE
 /Ccedilla
 /Egrave
 /Eacute
 /Ecircumflex
 /Edieresis
 /Igrave
 /Iacute
 /Icircumflex
 /Idieresis
 /Eth
 /Ntilde
 /Ograve
 /Oacute
 /Ocircumflex
 /Otilde
 /Odieresis
 /multiply
 /Oslash
 /Ugrave
 /Uacute
 /Ucircumflex
 /Udieresis
 /Yacute
 /Thorn
 /germandbls
 /agrave
 /aacute
 /acircumflex
 /atilde
 /adieresis
 /aring
 /ae
 /ccedilla
 /egrave
 /eacute
 /ecircumflex
 /edieresis
 /igrave
 /iacute
 /icircumflex
 /idieresis
 /eth
 /ntilde
 /ograve
 /oacute
 /ocircumflex
 /otilde
 /odieresis
 /divide
 /oslash
 /ugrave
 /uacute
 /ucircumflex
 /udieresis
 /yacute
 /thorn
 /ydieresis
] def
%%EndProlog
%%BeginSetup
%%EndSetup
553.44 553.44 scale
[/DeviceRGB] SCS
Color4 SC
[] 0 SD
0.0030 SLW
0 SLC
0 SLJ
n
0.1981 0.7488 m
0.2049 0.7607 l
0.2117 0.7725 l
0.2185 0.7841 l
0.2254 0.7953 l
0.2322 0.8066 l
0.2390 0.8178 l
0.2458 0.8280 l
0.2526 0.8340 l
0.2594 0.8400 l
0.2662 0.8460 l
0.2731 0.8521 l
0.2799 0.8504 l
0.2867 0.8474 l
0.2935 0.8443 l
0.3003 0.8412 l
0.3071 0.8392 l
0.3139 0.8385 l
0.3207 0.8377 l
0.3276 0.8369 l
0.3344 0.8361 l
0.3412 0.8347 l
0.3480 0.8333 l
0.3548 0.8319 l
0.3616 0.8306 l
0.3684 0.8288 l
0.3753 0.8269 l
0.3821 0.8251 l
0.3889 0.8232 l
0.3957 0.8212 l
0.4025 0.8191 l
0.4093 0.8170 l
0.4161 0.8148 l
0.4230 0.8126 l
0.4298 0.8101 l
0.4366 0.8075 l
0.4434 0.8049 l
0.4502 0.8023 l
0.4570 0.8001 l
0.4638 0.7980 l
0.4707 0.7960 l
0.4775 0.7939 l
0.4843 0.7914 l
0.4911 0.7879 l
0.4979 0.7843 l
0.5047 0.7807 l
0.5115 0.7770 l
0.5183 0.7739 l
0.5252 0.7707 l
0.5320 0.7676 l
0.5388 0.7644 l
0.5456 0.7607 l
0.5524 0.7565 l
0.5592 0.7523 l
0.5660 0.7480 l
0.5729 0.7437 l
0.5797 0.7394 l
0.5865 0.7351 l
0.5933 0.7307 l
0.6001 0.7262 l
0.6069 0.7220 l
0.6137 0.7177 l
0.6206 0.7134 l
0.6274 0.7090 l
0.6342 0.7044 l
0.6410 0.6994 l
0.6478 0.6943 l
0.6546 0.6891 l
0.6614 0.6838 l
0.6682 0.6785 l
0.6751 0.6732 l
0.6819 0.6677 l
0.6887 0.6620 l
0.6955 0.6561 l
0.7023 0.6501 l
0.7091 0.6438 l
0.7159 0.6374 l
0.7228 0.6308 l
0.7296 0.6241 l
0.7364 0.6171 l
0.7432 0.6098 l
0.7500 0.6023 l
0.7568 0.5947 l
0.7636 0.5869 l
0.7705 0.5786 l
0.7773 0.5697 l
0.7841 0.5610 l
0.7909 0.5520 l
0.7977 0.5423 l
0.8045 0.5320 l
0.8113 0.5212 l
0.8182 0.5109 l
0.8250 0.4997 l
0.8318 0.4875 l
0.8386 0.4738 l
0.8454 0.4618 l
0.8522 0.4488 l
0.8590 0.4343 l
0.8658 0.4177 l
0.8727 0.4020 l
0.8795 0.3870 l
0.8863 0.3699 l
0.8931 0.3497 l
0.8999 0.3274 l
0.9067 0.3104 l
0.9135 0.2906 l
0.9204 0.2664 l
0.9272 0.2346 l
0.9340 0.2128 l
0.9408 0.1902 l
0.9476 0.1615 l
0.9531 0.1288 l
s
[0.0210 0.0090 ] 0 SD
0.0030 SLW
n
0.1981 0.8599 m
0.2049 0.8607 l
0.2117 0.8614 l
0.2185 0.8620 l
0.2254 0.8626 l
0.2322 0.8631 l
0.2390 0.8635 l
0.2458 0.8639 l
0.2526 0.8642 l
0.2594 0.8645 l
0.2662 0.8646 l
0.2731 0.8647 l
0.2799 0.8647 l
0.2867 0.8645 l
0.2935 0.8643 l
0.3003 0.8640 l
0.3071 0.8636 l
0.3139 0.8631 l
0.3207 0.8624 l
0.3276 0.8616 l
0.3344 0.8607 l
0.3412 0.8597 l
0.3480 0.8586 l
0.3548 0.8573 l
0.3616 0.8558 l
0.3684 0.8543 l
0.3753 0.8525 l
0.3821 0.8506 l
0.3889 0.8486 l
0.3957 0.8464 l
0.4025 0.8441 l
0.4093 0.8416 l
0.4161 0.8389 l
0.4230 0.8361 l
0.4298 0.8332 l
0.4366 0.8301 l
0.4434 0.8269 l
0.4502 0.8235 l
0.4570 0.8200 l
0.4638 0.8164 l
0.4707 0.8127 l
0.4775 0.8089 l
0.4843 0.8050 l
0.4911 0.8010 l
0.4979 0.7969 l
0.5047 0.7928 l
0.5115 0.7886 l
0.5183 0.7844 l
0.5252 0.7801 l
0.5320 0.7758 l
0.5388 0.7714 l
0.5456 0.7670 l
0.5524 0.7626 l
0.5592 0.7581 l
0.5660 0.7536 l
0.5729 0.7490 l
0.5797 0.7444 l
0.5865 0.7398 l
0.5933 0.7350 l
0.6001 0.7303 l
0.6069 0.7255 l
0.6137 0.7206 l
0.6206 0.7157 l
0.6274 0.7106 l
0.6342 0.7056 l
0.6410 0.7004 l
0.6478 0.6951 l
0.6546 0.6898 l
0.6614 0.6843 l
0.6682 0.6788 l
0.6751 0.6731 l
0.6819 0.6673 l
0.6887 0.6614 l
0.6955 0.6554 l
0.7023 0.6492 l
0.7091 0.6428 l
0.7159 0.6363 l
0.7228 0.6296 l
0.7296 0.6227 l
0.7364 0.6155 l
0.7432 0.6082 l
0.7500 0.6006 l
0.7568 0.5928 l
0.7636 0.5847 l
0.7705 0.5763 l
0.7773 0.5676 l
0.7841 0.5586 l
0.7909 0.5492 l
0.7977 0.5394 l
0.8045 0.5292 l
0.8113 0.5186 l
0.8182 0.5075 l
0.8250 0.4960 l
0.8318 0.4839 l
0.8386 0.4712 l
0.8454 0.4579 l
0.8522 0.4440 l
0.8590 0.4293 l
0.8658 0.4140 l
0.8727 0.3978 l
0.8795 0.3807 l
0.8863 0.3628 l
0.8931 0.3439 l
0.8999 0.3239 l
0.9067 0.3028 l
0.9135 0.2805 l
0.9204 0.2569 l
0.9272 0.2320 l
0.9340 0.2055 l
0.9408 0.1775 l
0.9476 0.1478 l
0.9517 0.1288 l
s
[/DeviceRGB] SCS
Color2 SC
[] 0 SD
0.0030 SLW
n
0.1981 0.7514 m
0.2049 0.7630 l
0.2117 0.7746 l
0.2185 0.7859 l
0.2254 0.7970 l
0.2322 0.8080 l
0.2390 0.8191 l
0.2458 0.8291 l
0.2526 0.8351 l
0.2594 0.8411 l
0.2662 0.8470 l
0.2731 0.8530 l
0.2799 0.8514 l
0.2867 0.8484 l
0.2935 0.8454 l
0.3003 0.8424 l
0.3071 0.8405 l
0.3139 0.8398 l
0.3207 0.8390 l
0.3276 0.8383 l
0.3344 0.8375 l
0.3412 0.8362 l
0.3480 0.8349 l
0.3548 0.8335 l
0.3616 0.8322 l
0.3684 0.8306 l
0.3753 0.8288 l
0.3821 0.8270 l
0.3889 0.8252 l
0.3957 0.8233 l
0.4025 0.8213 l
0.4093 0.8192 l
0.4161 0.8172 l
0.4230 0.8151 l
0.4298 0.8127 l
0.4366 0.8102 l
0.4434 0.8078 l
0.4502 0.8053 l
0.4570 0.8032 l
0.4638 0.8014 l
0.4707 0.7995 l
0.4775 0.7976 l
0.4843 0.7953 l
0.4911 0.7919 l
0.4979 0.7886 l
0.5047 0.7853 l
0.5115 0.7819 l
0.5183 0.7791 l
0.5252 0.7763 l
0.5320 0.7734 l
0.5388 0.7706 l
0.5456 0.7672 l
0.5524 0.7635 l
0.5592 0.7598 l
0.5660 0.7560 l
0.5729 0.7523 l
0.5797 0.7486 l
0.5865 0.7449 l
0.5933 0.7412 l
0.6001 0.7375 l
0.6069 0.7340 l
0.6137 0.7305 l
0.6206 0.7270 l
0.6274 0.7235 l
0.6342 0.7198 l
0.6410 0.7159 l
0.6478 0.7120 l
0.6546 0.7082 l
0.6614 0.7043 l
0.6682 0.7004 l
0.6751 0.6966 l
0.6819 0.6928 l
0.6887 0.6890 l
0.6955 0.6850 l
0.7023 0.6811 l
0.7091 0.6771 l
0.7159 0.6732 l
0.7228 0.6692 l
0.7296 0.6653 l
0.7364 0.6614 l
0.7432 0.6575 l
0.7500 0.6535 l
0.7568 0.6497 l
0.7636 0.6458 l
0.7705 0.6419 l
0.7773 0.6380 l
0.7841 0.6342 l
0.7909 0.6304 l
0.7977 0.6266 l
0.8045 0.6228 l
0.8113 0.6190 l
0.8182 0.6152 l
0.8250 0.6115 l
0.8318 0.6078 l
0.8386 0.6040 l
0.8454 0.6003 l
0.8522 0.5966 l
0.8590 0.5929 l
0.8658 0.5891 l
0.8727 0.5854 l
0.8795 0.5816 l
0.8863 0.5778 l
0.8931 0.5741 l
0.8999 0.5703 l
0.9067 0.5664 l
0.9135 0.5625 l
0.9204 0.5587 l
0.9272 0.5548 l
0.9340 0.5508 l
0.9408 0.5468 l
0.9476 0.5429 l
0.9544 0.5389 l
0.9612 0.5349 l
0.9681 0.5309 l
0.9749 0.5268 l
0.9817 0.5228 l
0.9885 0.5187 l
0.9953 0.5147 l
1.0021 0.5106 l
1.0089 0.5065 l
1.0158 0.5025 l
1.0226 0.4984 l
1.0294 0.4943 l
1.0362 0.4903 l
1.0430 0.4862 l
1.0498 0.4822 l
1.0566 0.4781 l
1.0634 0.4741 l
1.0703 0.4700 l
1.0771 0.4660 l
1.0839 0.4619 l
1.0907 0.4579 l
1.0975 0.4539 l
1.1043 0.4499 l
1.1111 0.4459 l
1.1180 0.4419 l
1.1248 0.4378 l
1.1316 0.4338 l
1.1384 0.4298 l
1.1452 0.4258 l
1.1520 0.4218 l
1.1588 0.4178 l
1.1657 0.4138 l
1.1725 0.4098 l
1.1793 0.4058 l
1.1861 0.4019 l
1.1929 0.3979 l
1.1997 0.3939 l
1.2065 0.3899 l
1.2134 0.3859 l
1.2202 0.3819 l
1.2270 0.3779 l
1.2338 0.3738 l
1.2406 0.3698 l
1.2474 0.3658 l
1.2542 0.3618 l
1.2610 0.3578 l
1.2679 0.3538 l
1.2747 0.3498 l
1.2815 0.3458 l
1.2883 0.3418 l
1.2951 0.3378 l
1.3019 0.3338 l
1.3087 0.3298 l
1.3156 0.3257 l
1.3224 0.3217 l
1.3292 0.3177 l
1.3360 0.3137 l
1.3428 0.3097 l
1.3496 0.3057 l
1.3564 0.3017 l
1.3633 0.2977 l
1.3701 0.2938 l
1.3769 0.2898 l
1.3837 0.2858 l
1.3905 0.2818 l
1.3973 0.2778 l
1.4041 0.2738 l
1.4109 0.2698 l
1.4178 0.2658 l
1.4246 0.2618 l
1.4314 0.2578 l
1.4382 0.2538 l
1.4450 0.2498 l
1.4518 0.2458 l
1.4586 0.2418 l
1.4655 0.2379 l
1.4723 0.2339 l
1.4791 0.2299 l
1.4859 0.2259 l
1.4927 0.2219 l
1.4995 0.2179 l
1.5063 0.2139 l
1.5132 0.2099 l
1.5200 0.2059 l
1.5268 0.2019 l
1.5336 0.1979 l
1.5404 0.1939 l
1.5472 0.1899 l
1.5540 0.1859 l
1.5564 0.1845 l
s
[0.0210 0.0090 ] 0 SD
0.0030 SLW
n
0.1981 0.8606 m
0.2049 0.8614 l
0.2117 0.8621 l
0.2185 0.8627 l
0.2254 0.8633 l
0.2322 0.8638 l
0.2390 0.8643 l
0.2458 0.8647 l
0.2526 0.8650 l
0.2594 0.8652 l
0.2662 0.8654 l
0.2731 0.8655 l
0.2799 0.8655 l
0.2867 0.8654 l
0.2935 0.8652 l
0.3003 0.8649 l
0.3071 0.8645 l
0.3139 0.8640 l
0.3207 0.8634 l
0.3276 0.8627 l
0.3344 0.8618 l
0.3412 0.8608 l
0.3480 0.8597 l
0.3548 0.8584 l
0.3616 0.8571 l
0.3684 0.8555 l
0.3753 0.8539 l
0.3821 0.8520 l
0.3889 0.8501 l
0.3957 0.8480 l
0.4025 0.8457 l
0.4093 0.8433 l
0.4161 0.8407 l
0.4230 0.8380 l
0.4298 0.8352 l
0.4366 0.8322 l
0.4434 0.8291 l
0.4502 0.8259 l
0.4570 0.8226 l
0.4638 0.8192 l
0.4707 0.8156 l
0.4775 0.8120 l
0.4843 0.8084 l
0.4911 0.8046 l
0.4979 0.8008 l
0.5047 0.7970 l
0.5115 0.7931 l
0.5183 0.7892 l
0.5252 0.7853 l
0.5320 0.7814 l
0.5388 0.7774 l
0.5456 0.7735 l
0.5524 0.7695 l
0.5592 0.7656 l
0.5660 0.7616 l
0.5729 0.7576 l
0.5797 0.7537 l
0.5865 0.7497 l
0.5933 0.7457 l
0.6001 0.7418 l
0.6069 0.7378 l
0.6137 0.7338 l
0.6206 0.7299 l
0.6274 0.7259 l
0.6342 0.7219 l
0.6410 0.7180 l
0.6478 0.7140 l
0.6546 0.7100 l
0.6614 0.7060 l
0.6682 0.7021 l
0.6751 0.6981 l
0.6819 0.6941 l
0.6887 0.6902 l
0.6955 0.6862 l
0.7023 0.6822 l
0.7091 0.6783 l
0.7159 0.6743 l
0.7228 0.6703 l
0.7296 0.6664 l
0.7364 0.6624 l
0.7432 0.6584 l
0.7500 0.6545 l
0.7568 0.6505 l
0.7636 0.6465 l
0.7705 0.6426 l
0.7773 0.6386 l
0.7841 0.6346 l
0.7909 0.6307 l
0.7977 0.6267 l
0.8045 0.6227 l
0.8113 0.6188 l
0.8182 0.6148 l
0.8250 0.6108 l
0.8318 0.6069 l
0.8386 0.6029 l
0.8454 0.5989 l
0.8522 0.5950 l
0.8590 0.5910 l
0.8658 0.5870 l
0.8727 0.5831 l
0.8795 0.5791 l
0.8863 0.5751 l
0.8931 0.5712 l
0.8999 0.5672 l
0.9067 0.5632 l
0.9135 0.5593 l
0.9204 0.5553 l
0.9272 0.5513 l
0.9340 0.5474 l
0.9408 0.5434 l
0.9476 0.5394 l
0.9544 0.5355 l
0.9612 0.5315 l
0.9681 0.5275 l
0.9749 0.5236 l
0.9817 0.5196 l
0.9885 0.5156 l
0.9953 0.5117 l
1.0021 0.5077 l
1.0089 0.5037 l
1.0158 0.4998 l
1.0226 0.4958 l
1.0294 0.4918 l
1.0362 0.4879 l
1.0430 0.4839 l
1.0498 0.4799 l
1.0566 0.4760 l
1.0634 0.4720 l
1.0703 0.4680 l
1.0771 0.4641 l
1.0839 0.4601 l
1.0907 0.4561 l
1.0975 0.4522 l
1.1043 0.4482 l
1.1111 0.4442 l
1.1180 0.4403 l
1.1248 0.4363 l
1.1316 0.4323 l
1.1384 0.4284 l
1.1452 0.4244 l
1.1520 0.4204 l
1.1588 0.4165 l
1.1657 0.4125 l
1.1725 0.4085 l
1.1793 0.4046 l
1.1861 0.4006 l
1.1929 0.3966 l
1.1997 0.3926 l
1.2065 0.3887 l
1.2134 0.3847 l
1.2202 0.3807 l
1.2270 0.3768 l
1.2338 0.3728 l
1.2406 0.3688 l
1.2474 0.3649 l
1.2542 0.3609 l
1.2610 0.3569 l
1.2679 0.3530 l
1.2747 0.3490 l
1.2815 0.3450 l
1.2883 0.3411 l
1.2951 0.3371 l
1.3019 0.3331 l
1.3087 0.3292 l
1.3156 0.3252 l
1.3224 0.3212 l
1.3292 0.3173 l
1.3360 0.3133 l
1.3428 0.3093 l
1.3496 0.3054 l
1.3564 0.3014 l
1.3633 0.2974 l
1.3701 0.2935 l
1.3769 0.2895 l
1.3837 0.2855 l
1.3905 0.2815 l
1.3973 0.2776 l
1.4041 0.2736 l
1.4109 0.2696 l
1.4178 0.2657 l
1.4246 0.2617 l
1.4314 0.2577 l
1.4382 0.2538 l
1.4450 0.2498 l
1.4518 0.2458 l
1.4586 0.2419 l
1.4655 0.2379 l
1.4723 0.2339 l
1.4791 0.2299 l
1.4859 0.2260 l
1.4927 0.2220 l
1.4995 0.2180 l
1.5063 0.2140 l
1.5132 0.2101 l
1.5200 0.2061 l
1.5268 0.2021 l
1.5336 0.1981 l
1.5404 0.1942 l
1.5472 0.1902 l
1.5540 0.1862 l
1.5564 0.1848 l
s
[/DeviceRGB] SCS
Color15 SC
n
0.1981 0.5004 m
0.2022 0.5014 l
0.2063 0.5025 l
0.2103 0.5035 l
0.2144 0.5045 l
0.2185 0.5056 l
0.2226 0.5066 l
0.2267 0.5076 l
0.2308 0.5086 l
0.2348 0.5097 l
0.2389 0.5107 l
0.2430 0.5117 l
0.2471 0.5127 l
0.2512 0.5138 l
0.2553 0.5148 l
0.2593 0.5158 l
0.2634 0.5168 l
0.2675 0.5178 l
0.2716 0.5189 l
0.2757 0.5199 l
0.2798 0.5209 l
0.2838 0.5219 l
0.2879 0.5229 l
0.2920 0.5239 l
0.2961 0.5249 l
0.3002 0.5260 l
0.3043 0.5270 l
0.3083 0.5280 l
0.3124 0.5290 l
0.3165 0.5300 l
0.3206 0.5310 l
0.3247 0.5320 l
0.3287 0.5330 l
0.3328 0.5340 l
0.3369 0.5350 l
0.3410 0.5360 l
0.3451 0.5370 l
0.3492 0.5380 l
0.3532 0.5389 l
0.3573 0.5399 l
0.3614 0.5409 l
0.3655 0.5419 l
0.3696 0.5429 l
0.3737 0.5439 l
0.3777 0.5448 l
0.3818 0.5458 l
0.3859 0.5468 l
0.3900 0.5477 l
0.3941 0.5487 l
0.3982 0.5497 l
0.4022 0.5506 l
0.4063 0.5516 l
0.4104 0.5525 l
0.4145 0.5535 l
0.4186 0.5544 l
0.4227 0.5554 l
0.4267 0.5563 l
0.4308 0.5573 l
0.4349 0.5582 l
0.4390 0.5591 l
0.4431 0.5601 l
0.4472 0.5610 l
0.4512 0.5619 l
0.4553 0.5628 l
0.4594 0.5637 l
0.4635 0.5646 l
0.4676 0.5656 l
0.4716 0.5665 l
0.4757 0.5673 l
0.4798 0.5682 l
0.4839 0.5691 l
0.4880 0.5700 l
0.4921 0.5709 l
0.4961 0.5717 l
0.5002 0.5726 l
0.5043 0.5735 l
0.5084 0.5743 l
0.5125 0.5752 l
0.5166 0.5760 l
0.5206 0.5768 l
0.5247 0.5777 l
0.5288 0.5785 l
0.5329 0.5793 l
0.5370 0.5801 l
0.5411 0.5809 l
0.5451 0.5817 l
0.5492 0.5825 l
0.5533 0.5832 l
0.5574 0.5840 l
0.5615 0.5848 l
0.5656 0.5855 l
0.5696 0.5862 l
0.5737 0.5870 l
0.5778 0.5877 l
0.5819 0.5884 l
0.5860 0.5891 l
0.5900 0.5898 l
0.5941 0.5904 l
0.5982 0.5911 l
0.6023 0.5918 l
0.6064 0.5924 l
0.6105 0.5930 l
0.6145 0.5936 l
0.6186 0.5942 l
0.6227 0.5948 l
0.6268 0.5954 l
0.6309 0.5959 l
0.6350 0.5964 l
0.6390 0.5970 l
0.6431 0.5975 l
0.6472 0.5980 l
0.6513 0.5984 l
0.6554 0.5989 l
0.6595 0.5993 l
0.6635 0.5997 l
0.6676 0.6001 l
0.6717 0.6005 l
0.6758 0.6008 l
0.6799 0.6011 l
0.6840 0.6014 l
0.6880 0.6017 l
0.6921 0.6020 l
0.6962 0.6022 l
0.7003 0.6024 l
0.7044 0.6026 l
0.7084 0.6027 l
0.7125 0.6029 l
0.7166 0.6030 l
0.7207 0.6030 l
0.7248 0.6031 l
0.7289 0.6031 l
0.7329 0.6030 l
0.7370 0.6030 l
0.7411 0.6029 l
0.7452 0.6027 l
0.7493 0.6026 l
0.7534 0.6023 l
0.7574 0.6021 l
0.7615 0.6018 l
0.7656 0.6015 l
0.7697 0.6011 l
0.7738 0.6007 l
0.7779 0.6003 l
0.7819 0.5998 l
0.7860 0.5992 l
0.7901 0.5986 l
0.7942 0.5980 l
0.7983 0.5973 l
0.8024 0.5966 l
0.8064 0.5958 l
0.8105 0.5950 l
0.8146 0.5941 l
0.8187 0.5932 l
0.8228 0.5922 l
0.8269 0.5912 l
0.8309 0.5901 l
0.8350 0.5890 l
0.8391 0.5878 l
0.8432 0.5866 l
0.8473 0.5853 l
0.8513 0.5839 l
0.8554 0.5825 l
0.8595 0.5811 l
0.8636 0.5795 l
0.8677 0.5780 l
0.8718 0.5764 l
0.8758 0.5747 l
0.8799 0.5730 l
0.8840 0.5713 l
0.8881 0.5695 l
0.8922 0.5676 l
0.8963 0.5657 l
0.9003 0.5638 l
0.9044 0.5618 l
0.9085 0.5598 l
0.9126 0.5577 l
0.9167 0.5557 l
0.9208 0.5535 l
0.9248 0.5514 l
0.9289 0.5492 l
0.9330 0.5470 l
0.9371 0.5448 l
0.9412 0.5426 l
0.9453 0.5403 l
0.9493 0.5380 l
0.9534 0.5357 l
0.9575 0.5334 l
0.9616 0.5311 l
0.9657 0.5288 l
0.9697 0.5264 l
0.9738 0.5241 l
0.9779 0.5217 l
0.9820 0.5194 l
0.9861 0.5170 l
0.9902 0.5146 l
0.9942 0.5123 l
0.9983 0.5099 l
1.0024 0.5075 l
1.0065 0.5051 l
1.0106 0.5028 l
1.0147 0.5004 l
1.0187 0.4980 l
1.0228 0.4956 l
1.0269 0.4933 l
1.0310 0.4909 l
1.0351 0.4885 l
1.0392 0.4861 l
1.0432 0.4838 l
1.0473 0.4814 l
1.0514 0.4790 l
1.0555 0.4766 l
1.0596 0.4742 l
1.0637 0.4719 l
1.0677 0.4695 l
1.0718 0.4671 l
1.0759 0.4647 l
1.0800 0.4624 l
1.0841 0.4600 l
1.0881 0.4576 l
1.0922 0.4552 l
1.0963 0.4529 l
1.1004 0.4505 l
1.1045 0.4481 l
1.1086 0.4457 l
1.1126 0.4433 l
1.1167 0.4410 l
1.1208 0.4386 l
1.1249 0.4362 l
1.1290 0.4338 l
1.1331 0.4315 l
1.1371 0.4291 l
1.1412 0.4267 l
1.1453 0.4243 l
1.1494 0.4220 l
1.1535 0.4196 l
1.1576 0.4172 l
1.1616 0.4148 l
1.1657 0.4124 l
1.1698 0.4101 l
1.1739 0.4077 l
1.1780 0.4053 l
1.1821 0.4029 l
1.1861 0.4006 l
1.1902 0.3982 l
1.1943 0.3958 l
1.1984 0.3934 l
1.2025 0.3911 l
1.2066 0.3887 l
1.2106 0.3863 l
1.2147 0.3839 l
1.2188 0.3815 l
1.2229 0.3792 l
1.2270 0.3768 l
1.2310 0.3744 l
1.2351 0.3720 l
1.2392 0.3697 l
1.2433 0.3673 l
1.2474 0.3649 l
1.2515 0.3625 l
1.2555 0.3601 l
1.2596 0.3578 l
1.2637 0.3554 l
1.2678 0.3530 l
1.2719 0.3506 l
1.2760 0.3483 l
1.2800 0.3459 l
1.2841 0.3435 l
1.2882 0.3411 l
1.2923 0.3388 l
1.2964 0.3364 l
1.3005 0.3340 l
1.3045 0.3316 l
1.3086 0.3292 l
1.3127 0.3269 l
1.3168 0.3245 l
1.3209 0.3221 l
1.3250 0.3197 l
1.3290 0.3174 l
1.3331 0.3150 l
1.3372 0.3126 l
1.3413 0.3102 l
1.3454 0.3078 l
1.3494 0.3055 l
1.3535 0.3031 l
1.3576 0.3007 l
1.3617 0.2983 l
1.3658 0.2960 l
1.3699 0.2936 l
1.3739 0.2912 l
1.3780 0.2888 l
1.3821 0.2864 l
1.3862 0.2841 l
1.3903 0.2817 l
1.3944 0.2793 l
1.3984 0.2769 l
1.4025 0.2745 l
1.4066 0.2722 l
1.4107 0.2698 l
1.4148 0.2674 l
1.4189 0.2650 l
1.4229 0.2627 l
1.4270 0.2603 l
1.4311 0.2579 l
1.4352 0.2555 l
1.4393 0.2531 l
1.4434 0.2508 l
1.4474 0.2484 l
1.4515 0.2460 l
1.4556 0.2436 l
1.4597 0.2412 l
1.4638 0.2389 l
1.4678 0.2365 l
1.4719 0.2341 l
1.4760 0.2317 l
1.4801 0.2293 l
1.4842 0.2270 l
1.4883 0.2246 l
1.4923 0.2222 l
1.4964 0.2198 l
1.5005 0.2174 l
1.5046 0.2151 l
1.5087 0.2127 l
1.5128 0.2103 l
1.5168 0.2079 l
1.5209 0.2055 l
1.5250 0.2032 l
1.5291 0.2008 l
1.5332 0.1984 l
1.5373 0.1960 l
1.5413 0.1936 l
1.5454 0.1912 l
1.5495 0.1889 l
1.5536 0.1865 l
1.5564 0.1848 l
s
[] 0 SD
0.0030 SLW
n
0.1981 0.4940 m
0.2022 0.4957 l
0.2063 0.4964 l
0.2103 0.4972 l
0.2144 0.4983 l
0.2185 0.4995 l
0.2226 0.5010 l
0.2267 0.5021 l
0.2308 0.5031 l
0.2348 0.5042 l
0.2389 0.5054 l
0.2430 0.5070 l
0.2471 0.5086 l
0.2512 0.5092 l
0.2553 0.5100 l
0.2593 0.5120 l
0.2634 0.5137 l
0.2675 0.5145 l
0.2716 0.5152 l
0.2757 0.5160 l
0.2798 0.5169 l
0.2838 0.5181 l
0.2879 0.5195 l
0.2920 0.5210 l
0.2961 0.5222 l
0.3002 0.5233 l
0.3043 0.5242 l
0.3083 0.5250 l
0.3124 0.5259 l
0.3165 0.5268 l
0.3206 0.5277 l
0.3247 0.5286 l
0.3287 0.5295 l
0.3328 0.5304 l
0.3369 0.5313 l
0.3410 0.5322 l
0.3451 0.5331 l
0.3492 0.5339 l
0.3532 0.5347 l
0.3573 0.5356 l
0.3614 0.5366 l
0.3655 0.5374 l
0.3696 0.5383 l
0.3737 0.5392 l
0.3777 0.5402 l
0.3818 0.5410 l
0.3859 0.5418 l
0.3900 0.5426 l
0.3941 0.5435 l
0.3982 0.5444 l
0.4022 0.5453 l
0.4063 0.5461 l
0.4104 0.5469 l
0.4145 0.5478 l
0.4186 0.5486 l
0.4227 0.5494 l
0.4267 0.5503 l
0.4308 0.5511 l
0.4349 0.5519 l
0.4390 0.5528 l
0.4431 0.5536 l
0.4472 0.5544 l
0.4512 0.5552 l
0.4553 0.5560 l
0.4594 0.5569 l
0.4635 0.5577 l
0.4676 0.5585 l
0.4716 0.5593 l
0.4757 0.5601 l
0.4798 0.5609 l
0.4839 0.5617 l
0.4880 0.5625 l
0.4921 0.5633 l
0.4961 0.5640 l
0.5002 0.5648 l
0.5043 0.5656 l
0.5084 0.5664 l
0.5125 0.5671 l
0.5166 0.5679 l
0.5206 0.5687 l
0.5247 0.5694 l
0.5288 0.5702 l
0.5329 0.5709 l
0.5370 0.5716 l
0.5411 0.5723 l
0.5451 0.5731 l
0.5492 0.5738 l
0.5533 0.5745 l
0.5574 0.5753 l
0.5615 0.5760 l
0.5656 0.5767 l
0.5696 0.5773 l
0.5737 0.5780 l
0.5778 0.5787 l
0.5819 0.5794 l
0.5860 0.5800 l
0.5900 0.5807 l
0.5941 0.5814 l
0.5982 0.5820 l
0.6023 0.5826 l
0.6064 0.5833 l
0.6105 0.5839 l
0.6145 0.5845 l
0.6186 0.5851 l
0.6227 0.5857 l
0.6268 0.5863 l
0.6309 0.5868 l
0.6350 0.5874 l
0.6390 0.5879 l
0.6431 0.5885 l
0.6472 0.5890 l
0.6513 0.5895 l
0.6554 0.5900 l
0.6595 0.5905 l
0.6635 0.5910 l
0.6676 0.5914 l
0.6717 0.5919 l
0.6758 0.5923 l
0.6799 0.5928 l
0.6840 0.5931 l
0.6880 0.5935 l
0.6921 0.5939 l
0.6962 0.5942 l
0.7003 0.5946 l
0.7044 0.5949 l
0.7084 0.5952 l
0.7125 0.5954 l
0.7166 0.5957 l
0.7207 0.5959 l
0.7248 0.5961 l
0.7289 0.5963 l
0.7329 0.5964 l
0.7370 0.5965 l
0.7411 0.5966 l
0.7452 0.5967 l
0.7493 0.5967 l
0.7534 0.5967 l
0.7574 0.5967 l
0.7615 0.5966 l
0.7656 0.5965 l
0.7697 0.5964 l
0.7738 0.5962 l
0.7779 0.5960 l
0.7819 0.5957 l
0.7860 0.5954 l
0.7901 0.5950 l
0.7942 0.5946 l
0.7983 0.5942 l
0.8024 0.5937 l
0.8064 0.5931 l
0.8105 0.5926 l
0.8146 0.5919 l
0.8187 0.5912 l
0.8228 0.5904 l
0.8269 0.5896 l
0.8309 0.5887 l
0.8350 0.5878 l
0.8391 0.5868 l
0.8432 0.5858 l
0.8473 0.5847 l
0.8513 0.5835 l
0.8554 0.5822 l
0.8595 0.5809 l
0.8636 0.5796 l
0.8677 0.5781 l
0.8718 0.5767 l
0.8758 0.5751 l
0.8799 0.5735 l
0.8840 0.5718 l
0.8881 0.5701 l
0.8922 0.5683 l
0.8963 0.5665 l
0.9003 0.5646 l
0.9044 0.5627 l
0.9085 0.5607 l
0.9126 0.5587 l
0.9167 0.5566 l
0.9208 0.5545 l
0.9248 0.5523 l
0.9289 0.5501 l
0.9330 0.5479 l
0.9371 0.5457 l
0.9412 0.5434 l
0.9453 0.5411 l
0.9493 0.5388 l
0.9534 0.5365 l
0.9575 0.5341 l
0.9616 0.5318 l
0.9657 0.5294 l
0.9697 0.5270 l
0.9738 0.5246 l
0.9779 0.5222 l
0.9820 0.5198 l
0.9861 0.5174 l
0.9902 0.5150 l
0.9942 0.5125 l
0.9983 0.5101 l
1.0024 0.5077 l
1.0065 0.5053 l
1.0106 0.5029 l
1.0147 0.5004 l
1.0187 0.4980 l
1.0228 0.4956 l
1.0269 0.4932 l
1.0310 0.4908 l
1.0351 0.4884 l
1.0392 0.4859 l
1.0432 0.4835 l
1.0473 0.4811 l
1.0514 0.4787 l
1.0555 0.4763 l
1.0596 0.4739 l
1.0637 0.4715 l
1.0677 0.4691 l
1.0718 0.4667 l
1.0759 0.4643 l
1.0800 0.4618 l
1.0841 0.4594 l
1.0881 0.4570 l
1.0922 0.4546 l
1.0963 0.4522 l
1.1004 0.4498 l
1.1045 0.4474 l
1.1086 0.4450 l
1.1126 0.4426 l
1.1167 0.4402 l
1.1208 0.4378 l
1.1249 0.4354 l
1.1290 0.4330 l
1.1331 0.4306 l
1.1371 0.4281 l
1.1412 0.4257 l
1.1453 0.4233 l
1.1494 0.4209 l
1.1535 0.4185 l
1.1576 0.4161 l
1.1616 0.4137 l
1.1657 0.4112 l
1.1698 0.4088 l
1.1739 0.4064 l
1.1780 0.4040 l
1.1821 0.4016 l
1.1861 0.3992 l
1.1902 0.3968 l
1.1943 0.3943 l
1.1984 0.3919 l
1.2025 0.3895 l
1.2066 0.3871 l
1.2106 0.3847 l
1.2147 0.3823 l
1.2188 0.3799 l
1.2229 0.3774 l
1.2270 0.3750 l
1.2310 0.3726 l
1.2351 0.3702 l
1.2392 0.3678 l
1.2433 0.3654 l
1.2474 0.3630 l
1.2515 0.3606 l
1.2555 0.3582 l
1.2596 0.3558 l
1.2637 0.3534 l
1.2678 0.3510 l
1.2719 0.3486 l
1.2760 0.3462 l
1.2800 0.3438 l
1.2841 0.3414 l
1.2882 0.3390 l
1.2923 0.3366 l
1.2964 0.3342 l
1.3005 0.3318 l
1.3045 0.3294 l
1.3086 0.3270 l
1.3127 0.3246 l
1.3168 0.3222 l
1.3209 0.3198 l
1.3250 0.3174 l
1.3290 0.3150 l
1.3331 0.3126 l
1.3372 0.3102 l
1.3413 0.3079 l
1.3454 0.3055 l
1.3494 0.3031 l
1.3535 0.3007 l
1.3576 0.2983 l
1.3617 0.2959 l
1.3658 0.2935 l
1.3699 0.2911 l
1.3739 0.2887 l
1.3780 0.2863 l
1.3821 0.2839 l
1.3862 0.2816 l
1.3903 0.2792 l
1.3944 0.2768 l
1.3984 0.2744 l
1.4025 0.2720 l
1.4066 0.2696 l
1.4107 0.2672 l
1.4148 0.2648 l
1.4189 0.2624 l
1.4229 0.2600 l
1.4270 0.2576 l
1.4311 0.2552 l
1.4352 0.2529 l
1.4393 0.2505 l
1.4434 0.2481 l
1.4474 0.2457 l
1.4515 0.2433 l
1.4556 0.2409 l
1.4597 0.2385 l
1.4638 0.2361 l
1.4678 0.2337 l
1.4719 0.2313 l
1.4760 0.2289 l
1.4801 0.2265 l
1.4842 0.2242 l
1.4883 0.2218 l
1.4923 0.2194 l
1.4964 0.2170 l
1.5005 0.2146 l
1.5046 0.2122 l
1.5087 0.2098 l
1.5128 0.2074 l
1.5168 0.2050 l
1.5209 0.2026 l
1.5250 0.2002 l
1.5291 0.1979 l
1.5332 0.1955 l
1.5373 0.1931 l
1.5413 0.1907 l
1.5454 0.1883 l
1.5495 0.1859 l
1.5536 0.1835 l
1.5564 0.1818 l
s
[/DeviceRGB] SCS
Color1 SC
n
0.1981 0.1289 m
1.5563 0.1289 l
s
n
0.1981 0.9905 m
1.5563 0.9905 l
s
n
0.2662 0.1289 m
0.2662 0.1519 l
s
n
0.2662 0.9905 m
0.2662 0.9675 l
s
n
0.3061 0.1289 m
0.3061 0.1519 l
s
n
0.3061 0.9905 m
0.3061 0.9675 l
s
n
0.3344 0.1289 m
0.3344 0.1519 l
s
n
0.3344 0.9905 m
0.3344 0.9675 l
s
n
0.3563 0.1289 m
0.3563 0.1519 l
s
n
0.3563 0.9905 m
0.3563 0.9675 l
s
n
0.3742 0.1289 m
0.3742 0.1519 l
s
n
0.3742 0.9905 m
0.3742 0.9675 l
s
n
0.3894 0.1289 m
0.3894 0.1519 l
s
n
0.3894 0.9905 m
0.3894 0.9675 l
s
n
0.4025 0.1289 m
0.4025 0.1519 l
s
n
0.4025 0.9905 m
0.4025 0.9675 l
s
n
0.4141 0.1289 m
0.4141 0.1519 l
s
n
0.4141 0.9905 m
0.4141 0.9675 l
s
n
0.4245 0.1289 m
0.4245 0.1519 l
s
n
0.4245 0.9905 m
0.4245 0.9675 l
s
n
0.4926 0.1289 m
0.4926 0.1519 l
s
n
0.4926 0.9905 m
0.4926 0.9675 l
s
n
0.5325 0.1289 m
0.5325 0.1519 l
s
n
0.5325 0.9905 m
0.5325 0.9675 l
s
n
0.5608 0.1289 m
0.5608 0.1519 l
s
n
0.5608 0.9905 m
0.5608 0.9675 l
s
n
0.5827 0.1289 m
0.5827 0.1519 l
s
n
0.5827 0.9905 m
0.5827 0.9675 l
s
n
0.6006 0.1289 m
0.6006 0.1519 l
s
n
0.6006 0.9905 m
0.6006 0.9675 l
s
n
0.6158 0.1289 m
0.6158 0.1519 l
s
n
0.6158 0.9905 m
0.6158 0.9675 l
s
n
0.6289 0.1289 m
0.6289 0.1519 l
s
n
0.6289 0.9905 m
0.6289 0.9675 l
s
n
0.6405 0.1289 m
0.6405 0.1519 l
s
n
0.6405 0.9905 m
0.6405 0.9675 l
s
n
0.6508 0.1289 m
0.6508 0.1519 l
s
n
0.6508 0.9905 m
0.6508 0.9675 l
s
n
0.7190 0.1289 m
0.7190 0.1519 l
s
n
0.7190 0.9905 m
0.7190 0.9675 l
s
n
0.7588 0.1289 m
0.7588 0.1519 l
s
n
0.7588 0.9905 m
0.7588 0.9675 l
s
n
0.7871 0.1289 m
0.7871 0.1519 l
s
n
0.7871 0.9905 m
0.7871 0.9675 l
s
n
0.8091 0.1289 m
0.8091 0.1519 l
s
n
0.8091 0.9905 m
0.8091 0.9675 l
s
n
0.8270 0.1289 m
0.8270 0.1519 l
s
n
0.8270 0.9905 m
0.8270 0.9675 l
s
n
0.8421 0.1289 m
0.8421 0.1519 l
s
n
0.8421 0.9905 m
0.8421 0.9675 l
s
n
0.8553 0.1289 m
0.8553 0.1519 l
s
n
0.8553 0.9905 m
0.8553 0.9675 l
s
n
0.8668 0.1289 m
0.8668 0.1519 l
s
n
0.8668 0.9905 m
0.8668 0.9675 l
s
n
0.8772 0.1289 m
0.8772 0.1519 l
s
n
0.8772 0.9905 m
0.8772 0.9675 l
s
n
0.9453 0.1289 m
0.9453 0.1519 l
s
n
0.9453 0.9905 m
0.9453 0.9675 l
s
n
0.9852 0.1289 m
0.9852 0.1519 l
s
n
0.9852 0.9905 m
0.9852 0.9675 l
s
n
1.0135 0.1289 m
1.0135 0.1519 l
s
n
1.0135 0.9905 m
1.0135 0.9675 l
s
n
1.0354 0.1289 m
1.0354 0.1519 l
s
n
1.0354 0.9905 m
1.0354 0.9675 l
s
n
1.0534 0.1289 m
1.0534 0.1519 l
s
n
1.0534 0.9905 m
1.0534 0.9675 l
s
n
1.0685 0.1289 m
1.0685 0.1519 l
s
n
1.0685 0.9905 m
1.0685 0.9675 l
s
n
1.0816 0.1289 m
1.0816 0.1519 l
s
n
1.0816 0.9905 m
1.0816 0.9675 l
s
n
1.0932 0.1289 m
1.0932 0.1519 l
s
n
1.0932 0.9905 m
1.0932 0.9675 l
s
n
1.1036 0.1289 m
1.1036 0.1519 l
s
n
1.1036 0.9905 m
1.1036 0.9675 l
s
n
1.1717 0.1289 m
1.1717 0.1519 l
s
n
1.1717 0.9905 m
1.1717 0.9675 l
s
n
1.2116 0.1289 m
1.2116 0.1519 l
s
n
1.2116 0.9905 m
1.2116 0.9675 l
s
n
1.2399 0.1289 m
1.2399 0.1519 l
s
n
1.2399 0.9905 m
1.2399 0.9675 l
s
n
1.2618 0.1289 m
1.2618 0.1519 l
s
n
1.2618 0.9905 m
1.2618 0.9675 l
s
n
1.2797 0.1289 m
1.2797 0.1519 l
s
n
1.2797 0.9905 m
1.2797 0.9675 l
s
n
1.2949 0.1289 m
1.2949 0.1519 l
s
n
1.2949 0.9905 m
1.2949 0.9675 l
s
n
1.3080 0.1289 m
1.3080 0.1519 l
s
n
1.3080 0.9905 m
1.3080 0.9675 l
s
n
1.3196 0.1289 m
1.3196 0.1519 l
s
n
1.3196 0.9905 m
1.3196 0.9675 l
s
n
1.3299 0.1289 m
1.3299 0.1519 l
s
n
1.3299 0.9905 m
1.3299 0.9675 l
s
n
1.3981 0.1289 m
1.3981 0.1519 l
s
n
1.3981 0.9905 m
1.3981 0.9675 l
s
n
1.4379 0.1289 m
1.4379 0.1519 l
s
n
1.4379 0.9905 m
1.4379 0.9675 l
s
n
1.4662 0.1289 m
1.4662 0.1519 l
s
n
1.4662 0.9905 m
1.4662 0.9675 l
s
n
1.4882 0.1289 m
1.4882 0.1519 l
s
n
1.4882 0.9905 m
1.4882 0.9675 l
s
n
1.5061 0.1289 m
1.5061 0.1519 l
s
n
1.5061 0.9905 m
1.5061 0.9675 l
s
n
1.5212 0.1289 m
1.5212 0.1519 l
s
n
1.5212 0.9905 m
1.5212 0.9675 l
s
n
1.5344 0.1289 m
1.5344 0.1519 l
s
n
1.5344 0.9905 m
1.5344 0.9675 l
s
n
1.5460 0.1289 m
1.5460 0.1519 l
s
n
1.5460 0.9905 m
1.5460 0.9675 l
s
n
1.5563 0.1289 m
1.5563 0.1519 l
s
n
1.5563 0.9905 m
1.5563 0.9675 l
s
n
0.1981 0.1289 m
0.1981 0.1619 l
s
n
0.1981 0.9905 m
0.1981 0.9575 l
s
n
0.4245 0.1289 m
0.4245 0.1619 l
s
n
0.4245 0.9905 m
0.4245 0.9575 l
s
n
0.6508 0.1289 m
0.6508 0.1619 l
s
n
0.6508 0.9905 m
0.6508 0.9575 l
s
n
0.8772 0.1289 m
0.8772 0.1619 l
s
n
0.8772 0.9905 m
0.8772 0.9575 l
s
n
1.1036 0.1289 m
1.1036 0.1619 l
s
n
1.1036 0.9905 m
1.1036 0.9575 l
s
n
1.3299 0.1289 m
1.3299 0.1619 l
s
n
1.3299 0.9905 m
1.3299 0.9575 l
s
n
1.5563 0.1289 m
1.5563 0.1619 l
s
n
1.5563 0.9905 m
1.5563 0.9575 l
s
/Helvetica findfont
dup length dict begin
 {1 index /FID ne {def} {pop pop} ifelse} forall
 /Encoding DefEncoding def
 currentdict
end
/Font4 exch definefont pop
/Font4 FFSF
0.1649 0.0695 m
GS
[0.0448 0.0000 0.0000 0.0448 0 0] CC
(10) show
GR
/Font4 FFSF
0.2148 0.0964 m
GS
[0.0317 0.0000 0.0000 0.0317 0 0] CC
(6) show
GR
/Font4 FFSF
0.3913 0.0695 m
GS
[0.0448 0.0000 0.0000 0.0448 0 0] CC
(10) show
GR
/Font4 FFSF
0.4412 0.0964 m
GS
[0.0317 0.0000 0.0000 0.0317 0 0] CC
(7) show
GR
/Font4 FFSF
0.6177 0.0695 m
GS
[0.0448 0.0000 0.0000 0.0448 0 0] CC
(10) show
GR
/Font4 FFSF
0.6675 0.0964 m
GS
[0.0317 0.0000 0.0000 0.0317 0 0] CC
(8) show
GR
/Font4 FFSF
0.8442 0.0695 m
GS
[0.0448 0.0000 0.0000 0.0448 0 0] CC
(10) show
GR
/Font4 FFSF
0.8941 0.0964 m
GS
[0.0317 0.0000 0.0000 0.0317 0 0] CC
(9) show
GR
/Font4 FFSF
1.0617 0.0695 m
GS
[0.0448 0.0000 0.0000 0.0448 0 0] CC
(10) show
GR
/Font4 FFSF
1.1116 0.0964 m
GS
[0.0317 0.0000 0.0000 0.0317 0 0] CC
(10) show
GR
/Font4 FFSF
1.2907 0.0695 m
GS
[0.0448 0.0000 0.0000 0.0448 0 0] CC
(10) show
GR
/Font4 FFSF
1.3406 0.0964 m
GS
[0.0317 0.0000 0.0000 0.0317 0 0] CC
(11) show
GR
/Font4 FFSF
1.5145 0.0695 m
GS
[0.0448 0.0000 0.0000 0.0448 0 0] CC
(10) show
GR
/Font4 FFSF
1.5643 0.0964 m
GS
[0.0317 0.0000 0.0000 0.0317 0 0] CC
(12) show
GR
/Symbol findfont
/Font12 exch definefont pop
/Font12 FFSF
0.8143 0.0213 m
GS
[0.0504 0.0000 0.0000 0.0504 0 0] CC
(n) show
GR
/Font4 FFSF
0.8408 0.0213 m
GS
[0.0504 0.0000 0.0000 0.0504 0 0] CC
( [Hz]) show
GR
n
0.1981 0.1289 m
0.1981 0.9905 l
s
n
1.5563 0.1289 m
1.5563 0.9905 l
s
n
0.1981 0.1289 m
0.2211 0.1289 l
s
n
1.5563 0.1289 m
1.5333 0.1289 l
s
n
0.1981 0.1428 m
0.2211 0.1428 l
s
n
1.5563 0.1428 m
1.5333 0.1428 l
s
n
0.1981 0.1546 m
0.2211 0.1546 l
s
n
1.5563 0.1546 m
1.5333 0.1546 l
s
n
0.1981 0.1648 m
0.2211 0.1648 l
s
n
1.5563 0.1648 m
1.5333 0.1648 l
s
n
0.1981 0.1738 m
0.2211 0.1738 l
s
n
1.5563 0.1738 m
1.5333 0.1738 l
s
n
0.1981 0.1818 m
0.2211 0.1818 l
s
n
1.5563 0.1818 m
1.5333 0.1818 l
s
n
0.1981 0.2347 m
0.2211 0.2347 l
s
n
1.5563 0.2347 m
1.5333 0.2347 l
s
n
0.1981 0.2656 m
0.2211 0.2656 l
s
n
1.5563 0.2656 m
1.5333 0.2656 l
s
n
0.1981 0.2876 m
0.2211 0.2876 l
s
n
1.5563 0.2876 m
1.5333 0.2876 l
s
n
0.1981 0.3046 m
0.2211 0.3046 l
s
n
1.5563 0.3046 m
1.5333 0.3046 l
s
n
0.1981 0.3185 m
0.2211 0.3185 l
s
n
1.5563 0.3185 m
1.5333 0.3185 l
s
n
0.1981 0.3303 m
0.2211 0.3303 l
s
n
1.5563 0.3303 m
1.5333 0.3303 l
s
n
0.1981 0.3405 m
0.2211 0.3405 l
s
n
1.5563 0.3405 m
1.5333 0.3405 l
s
n
0.1981 0.3495 m
0.2211 0.3495 l
s
n
1.5563 0.3495 m
1.5333 0.3495 l
s
n
0.1981 0.3575 m
0.2211 0.3575 l
s
n
1.5563 0.3575 m
1.5333 0.3575 l
s
n
0.1981 0.4104 m
0.2211 0.4104 l
s
n
1.5563 0.4104 m
1.5333 0.4104 l
s
n
0.1981 0.4414 m
0.2211 0.4414 l
s
n
1.5563 0.4414 m
1.5333 0.4414 l
s
n
0.1981 0.4633 m
0.2211 0.4633 l
s
n
1.5563 0.4633 m
1.5333 0.4633 l
s
n
0.1981 0.4804 m
0.2211 0.4804 l
s
n
1.5563 0.4804 m
1.5333 0.4804 l
s
n
0.1981 0.4943 m
0.2211 0.4943 l
s
n
1.5563 0.4943 m
1.5333 0.4943 l
s
n
0.1981 0.5060 m
0.2211 0.5060 l
s
n
1.5563 0.5060 m
1.5333 0.5060 l
s
n
0.1981 0.5162 m
0.2211 0.5162 l
s
n
1.5563 0.5162 m
1.5333 0.5162 l
s
n
0.1981 0.5252 m
0.2211 0.5252 l
s
n
1.5563 0.5252 m
1.5333 0.5252 l
s
n
0.1981 0.5333 m
0.2211 0.5333 l
s
n
1.5563 0.5333 m
1.5333 0.5333 l
s
n
0.1981 0.5862 m
0.2211 0.5862 l
s
n
1.5563 0.5862 m
1.5333 0.5862 l
s
n
0.1981 0.6171 m
0.2211 0.6171 l
s
n
1.5563 0.6171 m
1.5333 0.6171 l
s
n
0.1981 0.6390 m
0.2211 0.6390 l
s
n
1.5563 0.6390 m
1.5333 0.6390 l
s
n
0.1981 0.6561 m
0.2211 0.6561 l
s
n
1.5563 0.6561 m
1.5333 0.6561 l
s
n
0.1981 0.6700 m
0.2211 0.6700 l
s
n
1.5563 0.6700 m
1.5333 0.6700 l
s
n
0.1981 0.6818 m
0.2211 0.6818 l
s
n
1.5563 0.6818 m
1.5333 0.6818 l
s
n
0.1981 0.6919 m
0.2211 0.6919 l
s
n
1.5563 0.6919 m
1.5333 0.6919 l
s
n
0.1981 0.7009 m
0.2211 0.7009 l
s
n
1.5563 0.7009 m
1.5333 0.7009 l
s
n
0.1981 0.7090 m
0.2211 0.7090 l
s
n
1.5563 0.7090 m
1.5333 0.7090 l
s
n
0.1981 0.7619 m
0.2211 0.7619 l
s
n
1.5563 0.7619 m
1.5333 0.7619 l
s
n
0.1981 0.7928 m
0.2211 0.7928 l
s
n
1.5563 0.7928 m
1.5333 0.7928 l
s
n
0.1981 0.8148 m
0.2211 0.8148 l
s
n
1.5563 0.8148 m
1.5333 0.8148 l
s
n
0.1981 0.8318 m
0.2211 0.8318 l
s
n
1.5563 0.8318 m
1.5333 0.8318 l
s
n
0.1981 0.8457 m
0.2211 0.8457 l
s
n
1.5563 0.8457 m
1.5333 0.8457 l
s
n
0.1981 0.8575 m
0.2211 0.8575 l
s
n
1.5563 0.8575 m
1.5333 0.8575 l
s
n
0.1981 0.8677 m
0.2211 0.8677 l
s
n
1.5563 0.8677 m
1.5333 0.8677 l
s
n
0.1981 0.8767 m
0.2211 0.8767 l
s
n
1.5563 0.8767 m
1.5333 0.8767 l
s
n
0.1981 0.8847 m
0.2211 0.8847 l
s
n
1.5563 0.8847 m
1.5333 0.8847 l
s
n
0.1981 0.9376 m
0.2211 0.9376 l
s
n
1.5563 0.9376 m
1.5333 0.9376 l
s
n
0.1981 0.9685 m
0.2211 0.9685 l
s
n
1.5563 0.9685 m
1.5333 0.9685 l
s
n
0.1981 0.9905 m
0.2211 0.9905 l
s
n
1.5563 0.9905 m
1.5333 0.9905 l
s
n
0.1981 0.1818 m
0.2311 0.1818 l
s
n
1.5563 0.1818 m
1.5233 0.1818 l
s
n
0.1981 0.3575 m
0.2311 0.3575 l
s
n
1.5563 0.3575 m
1.5233 0.3575 l
s
n
0.1981 0.5333 m
0.2311 0.5333 l
s
n
1.5563 0.5333 m
1.5233 0.5333 l
s
n
0.1981 0.7090 m
0.2311 0.7090 l
s
n
1.5563 0.7090 m
1.5233 0.7090 l
s
n
0.1981 0.8847 m
0.2311 0.8847 l
s
n
1.5563 0.8847 m
1.5233 0.8847 l
s
/Font4 FFSF
0.0936 0.1577 m
GS
[0.0448 0.0000 0.0000 0.0448 0 0] CC
(10) show
GR
/Font4 FFSF
0.1434 0.1846 m
GS
[0.0317 0.0000 0.0000 0.0317 0 0] CC
(-27) show
GR
/Font4 FFSF
0.0936 0.3335 m
GS
[0.0448 0.0000 0.0000 0.0448 0 0] CC
(10) show
GR
/Font4 FFSF
0.1434 0.3603 m
GS
[0.0317 0.0000 0.0000 0.0317 0 0] CC
(-26) show
GR
/Font4 FFSF
0.0936 0.5092 m
GS
[0.0448 0.0000 0.0000 0.0448 0 0] CC
(10) show
GR
/Font4 FFSF
0.1434 0.5361 m
GS
[0.0317 0.0000 0.0000 0.0317 0 0] CC
(-25) show
GR
/Font4 FFSF
0.0936 0.6849 m
GS
[0.0448 0.0000 0.0000 0.0448 0 0] CC
(10) show
GR
/Font4 FFSF
0.1434 0.7118 m
GS
[0.0317 0.0000 0.0000 0.0317 0 0] CC
(-24) show
GR
/Font4 FFSF
0.0940 0.8606 m
GS
[0.0448 0.0000 0.0000 0.0448 0 0] CC
(10) show
GR
/Font4 FFSF
0.1439 0.8875 m
GS
[0.0317 0.0000 0.0000 0.0317 0 0] CC
(-23) show
GR
/Times-Italic findfont
dup length dict begin
 {1 index /FID ne {def} {pop pop} ifelse} forall
 /Encoding DefEncoding def
 currentdict
end
/Font1 exch definefont pop
/Font1 FFSF
0.0630 0.3448 m
GS
[0.0000 0.0504 -0.0504 0.0000 0 0] CC
(j) show
GR
/Font12 FFSF
0.0831 0.3591 m
GS
[0.0000 0.0356 -0.0356 0.0000 0 0] CC
(n) show
GR
/Font4 FFSF
0.0630 0.3778 m
GS
[0.0000 0.0504 -0.0504 0.0000 0 0] CC
( [erg cm) show
GR
/Font4 FFSF
0.0327 0.5599 m
GS
[0.0000 0.0356 -0.0356 0.0000 0 0] CC
(-3) show
GR
/Font4 FFSF
0.0630 0.5916 m
GS
[0.0000 0.0504 -0.0504 0.0000 0 0] CC
( s) show
GR
/Font4 FFSF
0.0327 0.6310 m
GS
[0.0000 0.0356 -0.0356 0.0000 0 0] CC
(-1) show
GR
/Font4 FFSF
0.0630 0.6627 m
GS
[0.0000 0.0504 -0.0504 0.0000 0 0] CC
( Hz) show
GR
/Font4 FFSF
0.0327 0.7386 m
GS
[0.0000 0.0356 -0.0356 0.0000 0 0] CC
(-1) show
GR
/Font4 FFSF
0.0630 0.7702 m
GS
[0.0000 0.0504 -0.0504 0.0000 0 0] CC
(]) show
GR
[] 0 SD
0.0045 SLW
n
0.1981 0.1289 m
0.1981 0.9905 l
1.5563 0.9905 l
1.5563 0.1289 l
0.1981 0.1289 l
c
s
%%Trailer
%%BoundingBox: 2 4 886 551
%%DocumentNeededResources: font Times-Italic
%%+ font Helvetica
%%+ font Symbol
%%EOF
