%!PS-Adobe-3.0 EPSF-3.0
%%BoundingBox: (atend)
%%LanguageLevel: 2
%%Creator: Grace-5.1.25
%%CreationDate: Thu Jan  7 19:17:53 2016
%%DocumentData: Clean8Bit
%%Orientation: Portrait
%%Title: Untitled
%%For: jesus
%%DocumentNeededResources: (atend)
%%EndComments
%%BeginProlog
/m {moveto} def
/l {lineto} def
/s {stroke} def
/n {newpath} def
/c {closepath} def
/RL {rlineto} def
/SLW {setlinewidth} def
/GS {gsave} def
/GR {grestore} def
/SC {setcolor} def
/SGRY {setgray} def
/SRGB {setrgbcolor} def
/SD {setdash} def
/SLC {setlinecap} def
/SLJ {setlinejoin} def
/SCS {setcolorspace} def
/FFSF {findfont setfont} def
/CC {concat} def
/PXL {n m 0 0 RL s} def
/Color0 {1.0000 1.0000 1.0000} def
/Color1 {0.0000 0.0000 0.0000} def
/Color2 {1.0000 0.0000 0.0000} def
/Color3 {0.0000 1.0000 0.0000} def
/Color4 {0.0000 0.0000 1.0000} def
/Color5 {1.0000 1.0000 0.0000} def
/Color6 {0.7373 0.5608 0.5608} def
/Color7 {0.8627 0.8627 0.8627} def
/Color8 {0.5804 0.0000 0.8275} def
/Color9 {0.0000 1.0000 1.0000} def
/Color10 {1.0000 0.0000 1.0000} def
/Color11 {1.0000 0.6471 0.0000} def
/Color12 {0.4471 0.1294 0.7373} def
/Color13 {0.4039 0.0275 0.2824} def
/Color14 {0.2510 0.8784 0.8157} def
/Color15 {0.0000 0.5451 0.0000} def
/PTRN {
 /pat_bits exch def 
 <<
  /PaintType 2
  /PatternType 1 /TilingType 1
  /BBox[0 0 16 16]
  /XStep 16 /YStep 16
  /PaintProc {
   pop
   16 16 true [-1 0 0 -1 16 16] pat_bits imagemask
  }
 >>
 [0.0016 0 0 0.0016 0 0]
 makepattern
} def
/Pattern0 {<0000000000000000000000000000000000000000000000000000000000000000> PTRN} bind def
/Pattern1 {<ffffffffffffffffffffffffffffffffffffffffffffffffffffffffffffffff> PTRN} bind def
/Pattern2 {<eeeeffffbbbbffffeeeeffffbbbbffffeeeeffffbbbbffffeeeeffffbbbbffff> PTRN} bind def
/Pattern3 {<eeeebbbbeeeebbbbeeeebbbbeeeebbbbeeeebbbbeeeebbbbeeeebbbbeeeebbbb> PTRN} bind def
/Pattern4 {<5555aaaa5555aaaa5555aaaa5555aaaa5555aaaa5555aaaa5555aaaa5555aaaa> PTRN} bind def
/Pattern5 {<1111444411114444111144441111444411114444111144441111444411114444> PTRN} bind def
/Pattern6 {<1111000044440000111100004444000011110000444400001111000044440000> PTRN} bind def
/Pattern7 {<1010000000000000010100000000000010100000000000000101000000000000> PTRN} bind def
/Pattern8 {<0000000000000000000000000000000000000000000000000000000000000000> PTRN} bind def
/Pattern9 {<1e1e0f0f8787c3c3e1e1f0f078783c3c1e1e0f0f8787c3c3e1e1f0f078783c3c> PTRN} bind def
/Pattern10 {<7878f0f0e1e1c3c387870f0f1e1e3c3c7878f0f0e1e1c3c387870f0f1e1e3c3c> PTRN} bind def
/Pattern11 {<3333333333333333333333333333333333333333333333333333333333333333> PTRN} bind def
/Pattern12 {<ffffffff00000000ffffffff00000000ffffffff00000000ffffffff00000000> PTRN} bind def
/Pattern13 {<8181424224241818181824244242818181814242242418181818242442428181> PTRN} bind def
/Pattern14 {<8080404020201010080804040202010180804040202010100808040402020101> PTRN} bind def
/Pattern15 {<0101020204040808101020204040808001010202040408081010202040408080> PTRN} bind def
/Pattern16 {<2222222222222222222222222222222222222222222222222222222222222222> PTRN} bind def
/Pattern17 {<0000ffff000000000000ffff000000000000ffff000000000000ffff00000000> PTRN} bind def
/Pattern18 {<2222ffff222222222222ffff222222222222ffff222222222222ffff22222222> PTRN} bind def
/Pattern19 {<ffffffff33333333ffffffff33333333ffffffff33333333ffffffff33333333> PTRN} bind def
/Pattern20 {<0f0f0f0f0f0f0f0ff0f0f0f0f0f0f0f00f0f0f0f0f0f0f0ff0f0f0f0f0f0f0f0> PTRN} bind def
/Pattern21 {<ff00ff00ff00ff00ff00ff00ff00ff0000ff00ff00ff00ff00ff00ff00ff00ff> PTRN} bind def
/Pattern22 {<8001800180018001800180018001ffffffff8001800180018001800180018001> PTRN} bind def
/Pattern23 {<c003c003c003c003c003c003ffffffffffffffffc003c003c003c003c003c003> PTRN} bind def
/Pattern24 {<040404040404ffff404040404040ffff040404040404ffff404040404040ffff> PTRN} bind def
/Pattern25 {<180018001800180018001800ffffffff001800180018001800180018ffffffff> PTRN} bind def
/Pattern26 {<1111b8b87c7c3a3a1111a3a3c7c78b8b1111b8b87c7c3a3a1111a3a3c7c78b8b> PTRN} bind def
/Pattern27 {<101010102828c7c70101010182827c7c101010102828c7c70101010182827c7c> PTRN} bind def
/Pattern28 {<1c1c121211112121c1c12121111112121c1c121211112121c1c1212111111212> PTRN} bind def
/Pattern29 {<3e3e414180808080e3e31414080808083e3e414180808080e3e3141408080808> PTRN} bind def
/Pattern30 {<4848888884848383848488884848383848488888848483838484888848483838> PTRN} bind def
/Pattern31 {<03030404080808080c0c12122121c0c003030404080808080c0c12122121c0c0> PTRN} bind def
/ellipsedict 8 dict def
ellipsedict /mtrx matrix put
/EARC {
 ellipsedict begin
  /endangle exch def
  /startangle exch def
  /yrad exch def
  /xrad exch def
  /y exch def
  /x exch def
  /savematrix mtrx currentmatrix def
  x y translate
  xrad yrad scale
  0 0 1 startangle endangle arc
  savematrix setmatrix
 end
} def
/TL {
  /kcomp exch def
  /linewidth exch def
  /offset exch def
  GS
  0 offset rmoveto
  linewidth SLW
  dup stringwidth exch kcomp add exch RL s
  GR
} def
/KINIT
{
 /kvector exch def
 /kid 0 def
} def
/KPROC
{
 pop pop
 kvector kid get
 0 rmoveto
 /kid 1 kid add def
} def
/DefEncoding [
 /.notdef
 /.notdef
 /.notdef
 /.notdef
 /.notdef
 /.notdef
 /.notdef
 /.notdef
 /.notdef
 /.notdef
 /.notdef
 /.notdef
 /.notdef
 /.notdef
 /.notdef
 /.notdef
 /.notdef
 /.notdef
 /.notdef
 /.notdef
 /.notdef
 /.notdef
 /.notdef
 /.notdef
 /.notdef
 /.notdef
 /.notdef
 /.notdef
 /.notdef
 /.notdef
 /.notdef
 /.notdef
 /space
 /exclam
 /quotedbl
 /numbersign
 /dollar
 /percent
 /ampersand
 /quoteright
 /parenleft
 /parenright
 /asterisk
 /plus
 /comma
 /hyphen
 /period
 /slash
 /zero
 /one
 /two
 /three
 /four
 /five
 /six
 /seven
 /eight
 /nine
 /colon
 /semicolon
 /less
 /equal
 /greater
 /question
 /at
 /A
 /B
 /C
 /D
 /E
 /F
 /G
 /H
 /I
 /J
 /K
 /L
 /M
 /N
 /O
 /P
 /Q
 /R
 /S
 /T
 /U
 /V
 /W
 /X
 /Y
 /Z
 /bracketleft
 /backslash
 /bracketright
 /asciicircum
 /underscore
 /grave
 /a
 /b
 /c
 /d
 /e
 /f
 /g
 /h
 /i
 /j
 /k
 /l
 /m
 /n
 /o
 /p
 /q
 /r
 /s
 /t
 /u
 /v
 /w
 /x
 /y
 /z
 /braceleft
 /bar
 /braceright
 /asciitilde
 /.notdef
 /.notdef
 /.notdef
 /.notdef
 /.notdef
 /.notdef
 /.notdef
 /.notdef
 /.notdef
 /.notdef
 /.notdef
 /.notdef
 /.notdef
 /.notdef
 /.notdef
 /.notdef
 /.notdef
 /.notdef
 /.notdef
 /.notdef
 /.notdef
 /.notdef
 /.notdef
 /.notdef
 /.notdef
 /.notdef
 /.notdef
 /.notdef
 /.notdef
 /.notdef
 /.notdef
 /.notdef
 /.notdef
 /space
 /exclamdown
 /cent
 /sterling
 /currency
 /yen
 /brokenbar
 /section
 /dieresis
 /copyright
 /ordfeminine
 /guillemotleft
 /logicalnot
 /hyphen
 /registered
 /macron
 /degree
 /plusminus
 /twosuperior
 /threesuperior
 /acute
 /mu
 /paragraph
 /periodcentered
 /cedilla
 /onesuperior
 /ordmasculine
 /guillemotright
 /onequarter
 /onehalf
 /threequarters
 /questiondown
 /Agrave
 /Aacute
 /Acircumflex
 /Atilde
 /Adieresis
 /Aring
 /AE
 /Ccedilla
 /Egrave
 /Eacute
 /Ecircumflex
 /Edieresis
 /Igrave
 /Iacute
 /Icircumflex
 /Idieresis
 /Eth
 /Ntilde
 /Ograve
 /Oacute
 /Ocircumflex
 /Otilde
 /Odieresis
 /multiply
 /Oslash
 /Ugrave
 /Uacute
 /Ucircumflex
 /Udieresis
 /Yacute
 /Thorn
 /germandbls
 /agrave
 /aacute
 /acircumflex
 /atilde
 /adieresis
 /aring
 /ae
 /ccedilla
 /egrave
 /eacute
 /ecircumflex
 /edieresis
 /igrave
 /iacute
 /icircumflex
 /idieresis
 /eth
 /ntilde
 /ograve
 /oacute
 /ocircumflex
 /otilde
 /odieresis
 /divide
 /oslash
 /ugrave
 /uacute
 /ucircumflex
 /udieresis
 /yacute
 /thorn
 /ydieresis
] def
%%EndProlog
%%BeginSetup
%%EndSetup
612.00 612.00 scale
[/DeviceRGB] SCS
Color4 SC
[] 0 SD
0.0030 SLW
0 SLC
0 SLJ
n
0.1941 0.8322 m
0.1976 0.8397 l
0.2010 0.8471 l
0.2045 0.8543 l
0.2080 0.8613 l
0.2114 0.8683 l
0.2149 0.8753 l
0.2184 0.8816 l
0.2218 0.8854 l
0.2253 0.8892 l
0.2287 0.8929 l
0.2322 0.8967 l
0.2357 0.8957 l
0.2391 0.8937 l
0.2426 0.8918 l
0.2461 0.8899 l
0.2495 0.8887 l
0.2530 0.8882 l
0.2564 0.8877 l
0.2599 0.8872 l
0.2634 0.8867 l
0.2668 0.8858 l
0.2703 0.8850 l
0.2738 0.8841 l
0.2772 0.8833 l
0.2807 0.8822 l
0.2841 0.8810 l
0.2876 0.8798 l
0.2911 0.8787 l
0.2945 0.8774 l
0.2980 0.8761 l
0.3015 0.8748 l
0.3049 0.8734 l
0.3084 0.8721 l
0.3118 0.8705 l
0.3153 0.8689 l
0.3188 0.8672 l
0.3222 0.8656 l
0.3257 0.8642 l
0.3292 0.8630 l
0.3326 0.8617 l
0.3361 0.8604 l
0.3395 0.8589 l
0.3430 0.8566 l
0.3465 0.8544 l
0.3499 0.8521 l
0.3534 0.8499 l
0.3569 0.8479 l
0.3603 0.8460 l
0.3638 0.8440 l
0.3672 0.8420 l
0.3707 0.8397 l
0.3742 0.8371 l
0.3776 0.8344 l
0.3811 0.8318 l
0.3846 0.8291 l
0.3880 0.8264 l
0.3915 0.8237 l
0.3949 0.8210 l
0.3984 0.8182 l
0.4019 0.8155 l
0.4053 0.8129 l
0.4088 0.8102 l
0.4123 0.8075 l
0.4157 0.8046 l
0.4192 0.8014 l
0.4226 0.7983 l
0.4261 0.7950 l
0.4296 0.7917 l
0.4330 0.7885 l
0.4365 0.7851 l
0.4400 0.7817 l
0.4434 0.7782 l
0.4469 0.7745 l
0.4503 0.7707 l
0.4538 0.7668 l
0.4573 0.7628 l
0.4607 0.7587 l
0.4642 0.7545 l
0.4677 0.7502 l
0.4711 0.7456 l
0.4746 0.7409 l
0.4780 0.7362 l
0.4815 0.7313 l
0.4850 0.7261 l
0.4884 0.7206 l
0.4919 0.7151 l
0.4954 0.7095 l
0.4988 0.7035 l
0.5023 0.6971 l
0.5057 0.6904 l
0.5092 0.6839 l
0.5127 0.6770 l
0.5161 0.6693 l
0.5196 0.6608 l
0.5231 0.6533 l
0.5265 0.6452 l
0.5300 0.6362 l
0.5334 0.6258 l
0.5369 0.6160 l
0.5404 0.6067 l
0.5438 0.5960 l
0.5473 0.5834 l
0.5508 0.5695 l
0.5542 0.5589 l
0.5577 0.5466 l
0.5611 0.5315 l
0.5646 0.5116 l
0.5681 0.4981 l
0.5715 0.4840 l
0.5750 0.4661 l
0.5785 0.4406 l
0.5819 0.4144 l
0.5854 0.3971 l
0.5888 0.3729 l
0.5923 0.3296 l
0.5923 0.1499 l
s
[0.0150 0.0090 ] 0 SD
0.0030 SLW
n
0.1941 0.9016 m
0.1976 0.9020 l
0.2010 0.9025 l
0.2045 0.9029 l
0.2080 0.9032 l
0.2114 0.9035 l
0.2149 0.9038 l
0.2184 0.9041 l
0.2218 0.9042 l
0.2253 0.9044 l
0.2287 0.9045 l
0.2322 0.9045 l
0.2357 0.9045 l
0.2391 0.9044 l
0.2426 0.9043 l
0.2461 0.9041 l
0.2495 0.9038 l
0.2530 0.9035 l
0.2564 0.9031 l
0.2599 0.9026 l
0.2634 0.9021 l
0.2668 0.9014 l
0.2703 0.9007 l
0.2738 0.8999 l
0.2772 0.8990 l
0.2807 0.8980 l
0.2841 0.8970 l
0.2876 0.8958 l
0.2911 0.8945 l
0.2945 0.8931 l
0.2980 0.8917 l
0.3015 0.8901 l
0.3049 0.8885 l
0.3084 0.8867 l
0.3118 0.8849 l
0.3153 0.8830 l
0.3188 0.8809 l
0.3222 0.8788 l
0.3257 0.8767 l
0.3292 0.8744 l
0.3326 0.8721 l
0.3361 0.8697 l
0.3395 0.8673 l
0.3430 0.8648 l
0.3465 0.8623 l
0.3499 0.8597 l
0.3534 0.8571 l
0.3569 0.8545 l
0.3603 0.8518 l
0.3638 0.8491 l
0.3672 0.8464 l
0.3707 0.8436 l
0.3742 0.8409 l
0.3776 0.8381 l
0.3811 0.8352 l
0.3846 0.8324 l
0.3880 0.8295 l
0.3915 0.8266 l
0.3949 0.8237 l
0.3984 0.8207 l
0.4019 0.8177 l
0.4053 0.8147 l
0.4088 0.8116 l
0.4123 0.8085 l
0.4157 0.8053 l
0.4192 0.8021 l
0.4226 0.7988 l
0.4261 0.7955 l
0.4296 0.7921 l
0.4330 0.7886 l
0.4365 0.7851 l
0.4400 0.7815 l
0.4434 0.7778 l
0.4469 0.7740 l
0.4503 0.7701 l
0.4538 0.7662 l
0.4573 0.7621 l
0.4607 0.7579 l
0.4642 0.7536 l
0.4677 0.7492 l
0.4711 0.7446 l
0.4746 0.7399 l
0.4780 0.7350 l
0.4815 0.7299 l
0.4850 0.7247 l
0.4884 0.7193 l
0.4919 0.7137 l
0.4954 0.7078 l
0.4988 0.7017 l
0.5023 0.6954 l
0.5057 0.6887 l
0.5092 0.6818 l
0.5127 0.6746 l
0.5161 0.6671 l
0.5196 0.6592 l
0.5231 0.6509 l
0.5265 0.6422 l
0.5300 0.6331 l
0.5334 0.6235 l
0.5369 0.6134 l
0.5404 0.6028 l
0.5438 0.5916 l
0.5473 0.5798 l
0.5508 0.5673 l
0.5542 0.5542 l
0.5577 0.5403 l
0.5611 0.5256 l
0.5646 0.5100 l
0.5681 0.4935 l
0.5715 0.4761 l
0.5750 0.4575 l
0.5785 0.4379 l
0.5819 0.4171 l
0.5854 0.3949 l
0.5888 0.3714 l
0.5923 0.3464 l
0.5958 0.3198 l
0.5992 0.2915 l
0.6027 0.2614 l
0.6062 0.2293 l
0.6096 0.1952 l
0.6131 0.1588 l
0.6139 0.1499 l
s
[/DeviceRGB] SCS
Color2 SC
[] 0 SD
0.0030 SLW
n
0.1941 0.8339 m
0.1976 0.8411 l
0.2010 0.8484 l
0.2045 0.8554 l
0.2080 0.8623 l
0.2114 0.8692 l
0.2149 0.8761 l
0.2184 0.8824 l
0.2218 0.8861 l
0.2253 0.8898 l
0.2287 0.8935 l
0.2322 0.8973 l
0.2357 0.8963 l
0.2391 0.8944 l
0.2426 0.8925 l
0.2461 0.8907 l
0.2495 0.8895 l
0.2530 0.8890 l
0.2564 0.8885 l
0.2599 0.8881 l
0.2634 0.8876 l
0.2668 0.8868 l
0.2703 0.8859 l
0.2738 0.8851 l
0.2772 0.8843 l
0.2807 0.8833 l
0.2841 0.8821 l
0.2876 0.8810 l
0.2911 0.8799 l
0.2945 0.8787 l
0.2980 0.8775 l
0.3015 0.8762 l
0.3049 0.8749 l
0.3084 0.8736 l
0.3118 0.8721 l
0.3153 0.8706 l
0.3188 0.8690 l
0.3222 0.8675 l
0.3257 0.8662 l
0.3292 0.8650 l
0.3326 0.8639 l
0.3361 0.8627 l
0.3395 0.8613 l
0.3430 0.8592 l
0.3465 0.8571 l
0.3499 0.8550 l
0.3534 0.8529 l
0.3569 0.8512 l
0.3603 0.8494 l
0.3638 0.8476 l
0.3672 0.8459 l
0.3707 0.8438 l
0.3742 0.8414 l
0.3776 0.8391 l
0.3811 0.8368 l
0.3846 0.8344 l
0.3880 0.8321 l
0.3915 0.8298 l
0.3949 0.8275 l
0.3984 0.8252 l
0.4019 0.8230 l
0.4053 0.8208 l
0.4088 0.8187 l
0.4123 0.8165 l
0.4157 0.8142 l
0.4192 0.8118 l
0.4226 0.8094 l
0.4261 0.8069 l
0.4296 0.8045 l
0.4330 0.8021 l
0.4365 0.7997 l
0.4400 0.7973 l
0.4434 0.7950 l
0.4469 0.7925 l
0.4503 0.7900 l
0.4538 0.7876 l
0.4573 0.7851 l
0.4607 0.7827 l
0.4642 0.7802 l
0.4677 0.7778 l
0.4711 0.7753 l
0.4746 0.7729 l
0.4780 0.7704 l
0.4815 0.7680 l
0.4850 0.7656 l
0.4884 0.7632 l
0.4919 0.7608 l
0.4954 0.7584 l
0.4988 0.7561 l
0.5023 0.7537 l
0.5057 0.7513 l
0.5092 0.7490 l
0.5127 0.7467 l
0.5161 0.7443 l
0.5196 0.7420 l
0.5231 0.7397 l
0.5265 0.7374 l
0.5300 0.7350 l
0.5334 0.7327 l
0.5369 0.7304 l
0.5404 0.7280 l
0.5438 0.7257 l
0.5473 0.7233 l
0.5508 0.7210 l
0.5542 0.7185 l
0.5577 0.7161 l
0.5611 0.7137 l
0.5646 0.7113 l
0.5681 0.7088 l
0.5715 0.7063 l
0.5750 0.7039 l
0.5785 0.7014 l
0.5819 0.6989 l
0.5854 0.6964 l
0.5888 0.6939 l
0.5923 0.6913 l
0.5958 0.6888 l
0.5992 0.6863 l
0.6027 0.6837 l
0.6062 0.6812 l
0.6096 0.6787 l
0.6131 0.6761 l
0.6165 0.6736 l
0.6200 0.6711 l
0.6235 0.6685 l
0.6269 0.6660 l
0.6304 0.6635 l
0.6339 0.6610 l
0.6373 0.6584 l
0.6408 0.6559 l
0.6442 0.6534 l
0.6477 0.6509 l
0.6512 0.6484 l
0.6546 0.6459 l
0.6581 0.6434 l
0.6616 0.6409 l
0.6650 0.6384 l
0.6685 0.6359 l
0.6719 0.6334 l
0.6754 0.6309 l
0.6789 0.6284 l
0.6823 0.6259 l
0.6858 0.6234 l
0.6893 0.6209 l
0.6927 0.6184 l
0.6962 0.6159 l
0.6996 0.6134 l
0.7031 0.6109 l
0.7066 0.6085 l
0.7100 0.6060 l
0.7135 0.6035 l
0.7170 0.6010 l
0.7204 0.5985 l
0.7239 0.5960 l
0.7273 0.5935 l
0.7308 0.5910 l
0.7343 0.5885 l
0.7377 0.5860 l
0.7412 0.5835 l
0.7447 0.5810 l
0.7481 0.5785 l
0.7516 0.5760 l
0.7550 0.5735 l
0.7585 0.5710 l
0.7620 0.5685 l
0.7654 0.5660 l
0.7689 0.5635 l
0.7724 0.5610 l
0.7758 0.5585 l
0.7793 0.5560 l
0.7827 0.5535 l
0.7862 0.5510 l
0.7897 0.5485 l
0.7931 0.5460 l
0.7966 0.5435 l
0.8001 0.5411 l
0.8035 0.5386 l
0.8070 0.5361 l
0.8104 0.5336 l
0.8139 0.5311 l
0.8174 0.5286 l
0.8208 0.5261 l
0.8243 0.5236 l
0.8278 0.5211 l
0.8312 0.5187 l
0.8347 0.5162 l
0.8381 0.5137 l
0.8416 0.5112 l
0.8451 0.5087 l
0.8485 0.5062 l
0.8520 0.5037 l
0.8555 0.5012 l
0.8589 0.4987 l
0.8624 0.4962 l
0.8658 0.4937 l
0.8693 0.4912 l
0.8728 0.4887 l
0.8762 0.4863 l
0.8797 0.4838 l
0.8832 0.4813 l
0.8866 0.4788 l
0.8901 0.4763 l
0.8935 0.4738 l
0.8970 0.4713 l
0.9005 0.4688 l
0.9039 0.4663 l
0.9074 0.4638 l
0.9109 0.4613 l
0.9143 0.4588 l
0.9178 0.4563 l
0.9212 0.4538 l
0.9247 0.4513 l
0.9282 0.4488 l
0.9316 0.4463 l
0.9351 0.4438 l
0.9386 0.4413 l
0.9420 0.4388 l
0.9455 0.4363 l
0.9489 0.4338 l
0.9524 0.4313 l
0.9559 0.4288 l
0.9593 0.4263 l
0.9628 0.4238 l
0.9663 0.4213 l
0.9697 0.4187 l
0.9732 0.4162 l
0.9766 0.4137 l
0.9801 0.4112 l
0.9836 0.4087 l
0.9870 0.4061 l
0.9905 0.4036 l
0.9940 0.4010 l
0.9974 0.3985 l
1.0009 0.3960 l
1.0043 0.3934 l
1.0078 0.3908 l
1.0113 0.3883 l
1.0147 0.3857 l
1.0182 0.3831 l
1.0217 0.3806 l
1.0251 0.3780 l
1.0286 0.3754 l
1.0320 0.3728 l
1.0355 0.3701 l
1.0390 0.3675 l
1.0424 0.3649 l
1.0459 0.3622 l
1.0494 0.3596 l
1.0528 0.3569 l
1.0563 0.3542 l
1.0597 0.3515 l
1.0632 0.3488 l
1.0667 0.3460 l
1.0701 0.3433 l
1.0736 0.3405 l
1.0771 0.3377 l
1.0805 0.3348 l
1.0840 0.3320 l
1.0874 0.3291 l
1.0909 0.3262 l
1.0944 0.3233 l
1.0978 0.3203 l
1.1013 0.3173 l
1.1048 0.3142 l
1.1082 0.3111 l
1.1117 0.3080 l
1.1151 0.3048 l
1.1186 0.3016 l
1.1221 0.2983 l
1.1255 0.2949 l
1.1290 0.2915 l
1.1325 0.2880 l
1.1359 0.2844 l
1.1394 0.2807 l
1.1428 0.2770 l
1.1463 0.2732 l
1.1498 0.2693 l
1.1532 0.2652 l
1.1567 0.2610 l
1.1602 0.2567 l
1.1636 0.2523 l
1.1671 0.2477 l
1.1705 0.2429 l
1.1740 0.2381 l
1.1775 0.2330 l
1.1809 0.2276 l
1.1844 0.2219 l
1.1879 0.2163 l
1.1913 0.2104 l
1.1948 0.2041 l
1.1982 0.1972 l
1.2017 0.1905 l
1.2052 0.1835 l
1.2086 0.1759 l
1.2121 0.1676 l
1.2156 0.1589 l
1.2190 0.1507 l
1.2193 0.1499 l
s
[0.0150 0.0090 ] 0 SD
0.0030 SLW
n
0.1941 0.9020 m
0.1976 0.9025 l
0.2010 0.9029 l
0.2045 0.9033 l
0.2080 0.9037 l
0.2114 0.9040 l
0.2149 0.9043 l
0.2184 0.9045 l
0.2218 0.9047 l
0.2253 0.9049 l
0.2287 0.9050 l
0.2322 0.9050 l
0.2357 0.9050 l
0.2391 0.9050 l
0.2426 0.9049 l
0.2461 0.9047 l
0.2495 0.9044 l
0.2530 0.9041 l
0.2564 0.9037 l
0.2599 0.9033 l
0.2634 0.9027 l
0.2668 0.9021 l
0.2703 0.9014 l
0.2738 0.9006 l
0.2772 0.8998 l
0.2807 0.8988 l
0.2841 0.8978 l
0.2876 0.8966 l
0.2911 0.8954 l
0.2945 0.8941 l
0.2980 0.8927 l
0.3015 0.8912 l
0.3049 0.8896 l
0.3084 0.8879 l
0.3118 0.8861 l
0.3153 0.8843 l
0.3188 0.8824 l
0.3222 0.8804 l
0.3257 0.8783 l
0.3292 0.8761 l
0.3326 0.8740 l
0.3361 0.8717 l
0.3395 0.8694 l
0.3430 0.8671 l
0.3465 0.8647 l
0.3499 0.8623 l
0.3534 0.8599 l
0.3569 0.8575 l
0.3603 0.8550 l
0.3638 0.8526 l
0.3672 0.8501 l
0.3707 0.8477 l
0.3742 0.8452 l
0.3776 0.8427 l
0.3811 0.8402 l
0.3846 0.8378 l
0.3880 0.8353 l
0.3915 0.8328 l
0.3949 0.8304 l
0.3984 0.8279 l
0.4019 0.8254 l
0.4053 0.8229 l
0.4088 0.8205 l
0.4123 0.8180 l
0.4157 0.8155 l
0.4192 0.8130 l
0.4226 0.8106 l
0.4261 0.8081 l
0.4296 0.8056 l
0.4330 0.8031 l
0.4365 0.8007 l
0.4400 0.7982 l
0.4434 0.7957 l
0.4469 0.7932 l
0.4503 0.7908 l
0.4538 0.7883 l
0.4573 0.7858 l
0.4607 0.7834 l
0.4642 0.7809 l
0.4677 0.7784 l
0.4711 0.7759 l
0.4746 0.7735 l
0.4780 0.7710 l
0.4815 0.7685 l
0.4850 0.7660 l
0.4884 0.7636 l
0.4919 0.7611 l
0.4954 0.7586 l
0.4988 0.7561 l
0.5023 0.7537 l
0.5057 0.7512 l
0.5092 0.7487 l
0.5127 0.7462 l
0.5161 0.7438 l
0.5196 0.7413 l
0.5231 0.7388 l
0.5265 0.7364 l
0.5300 0.7339 l
0.5334 0.7314 l
0.5369 0.7289 l
0.5404 0.7265 l
0.5438 0.7240 l
0.5473 0.7215 l
0.5508 0.7190 l
0.5542 0.7166 l
0.5577 0.7141 l
0.5611 0.7116 l
0.5646 0.7091 l
0.5681 0.7067 l
0.5715 0.7042 l
0.5750 0.7017 l
0.5785 0.6992 l
0.5819 0.6968 l
0.5854 0.6943 l
0.5888 0.6918 l
0.5923 0.6894 l
0.5958 0.6869 l
0.5992 0.6844 l
0.6027 0.6819 l
0.6062 0.6795 l
0.6096 0.6770 l
0.6131 0.6745 l
0.6165 0.6720 l
0.6200 0.6696 l
0.6235 0.6671 l
0.6269 0.6646 l
0.6304 0.6621 l
0.6339 0.6597 l
0.6373 0.6572 l
0.6408 0.6547 l
0.6442 0.6522 l
0.6477 0.6498 l
0.6512 0.6473 l
0.6546 0.6448 l
0.6581 0.6424 l
0.6616 0.6399 l
0.6650 0.6374 l
0.6685 0.6349 l
0.6719 0.6325 l
0.6754 0.6300 l
0.6789 0.6275 l
0.6823 0.6250 l
0.6858 0.6226 l
0.6893 0.6201 l
0.6927 0.6176 l
0.6962 0.6151 l
0.6996 0.6127 l
0.7031 0.6102 l
0.7066 0.6077 l
0.7100 0.6052 l
0.7135 0.6028 l
0.7170 0.6003 l
0.7204 0.5978 l
0.7239 0.5954 l
0.7273 0.5929 l
0.7308 0.5904 l
0.7343 0.5879 l
0.7377 0.5855 l
0.7412 0.5830 l
0.7447 0.5805 l
0.7481 0.5780 l
0.7516 0.5756 l
0.7550 0.5731 l
0.7585 0.5706 l
0.7620 0.5681 l
0.7654 0.5657 l
0.7689 0.5632 l
0.7724 0.5607 l
0.7758 0.5582 l
0.7793 0.5558 l
0.7827 0.5533 l
0.7862 0.5508 l
0.7897 0.5483 l
0.7931 0.5459 l
0.7966 0.5434 l
0.8001 0.5409 l
0.8035 0.5384 l
0.8070 0.5360 l
0.8104 0.5335 l
0.8139 0.5310 l
0.8174 0.5285 l
0.8208 0.5261 l
0.8243 0.5236 l
0.8278 0.5211 l
0.8312 0.5186 l
0.8347 0.5162 l
0.8381 0.5137 l
0.8416 0.5112 l
0.8451 0.5087 l
0.8485 0.5063 l
0.8520 0.5038 l
0.8555 0.5013 l
0.8589 0.4988 l
0.8624 0.4964 l
0.8658 0.4939 l
0.8693 0.4914 l
0.8728 0.4889 l
0.8762 0.4864 l
0.8797 0.4840 l
0.8832 0.4815 l
0.8866 0.4790 l
0.8901 0.4765 l
0.8935 0.4740 l
0.8970 0.4715 l
0.9005 0.4691 l
0.9039 0.4666 l
0.9074 0.4641 l
0.9109 0.4616 l
0.9143 0.4591 l
0.9178 0.4566 l
0.9212 0.4541 l
0.9247 0.4517 l
0.9282 0.4492 l
0.9316 0.4467 l
0.9351 0.4442 l
0.9386 0.4417 l
0.9420 0.4392 l
0.9455 0.4367 l
0.9489 0.4342 l
0.9524 0.4317 l
0.9559 0.4292 l
0.9593 0.4267 l
0.9628 0.4242 l
0.9663 0.4217 l
0.9697 0.4191 l
0.9732 0.4166 l
0.9766 0.4141 l
0.9801 0.4116 l
0.9836 0.4090 l
0.9870 0.4065 l
0.9905 0.4040 l
0.9940 0.4014 l
0.9974 0.3989 l
1.0009 0.3963 l
1.0043 0.3938 l
1.0078 0.3912 l
1.0113 0.3886 l
1.0147 0.3860 l
1.0182 0.3835 l
1.0217 0.3809 l
1.0251 0.3782 l
1.0286 0.3756 l
1.0320 0.3730 l
1.0355 0.3704 l
1.0390 0.3677 l
1.0424 0.3650 l
1.0459 0.3624 l
1.0494 0.3597 l
1.0528 0.3570 l
1.0563 0.3542 l
1.0597 0.3515 l
1.0632 0.3487 l
1.0667 0.3459 l
1.0701 0.3431 l
1.0736 0.3403 l
1.0771 0.3374 l
1.0805 0.3345 l
1.0840 0.3316 l
1.0874 0.3286 l
1.0909 0.3257 l
1.0944 0.3226 l
1.0978 0.3196 l
1.1013 0.3164 l
1.1048 0.3133 l
1.1082 0.3101 l
1.1117 0.3068 l
1.1151 0.3035 l
1.1186 0.3001 l
1.1221 0.2967 l
1.1255 0.2932 l
1.1290 0.2896 l
1.1325 0.2859 l
1.1359 0.2822 l
1.1394 0.2784 l
1.1428 0.2744 l
1.1463 0.2704 l
1.1498 0.2662 l
1.1532 0.2620 l
1.1567 0.2576 l
1.1602 0.2531 l
1.1636 0.2484 l
1.1671 0.2436 l
1.1705 0.2386 l
1.1740 0.2334 l
1.1775 0.2280 l
1.1809 0.2225 l
1.1844 0.2167 l
1.1879 0.2107 l
1.1913 0.2044 l
1.1948 0.1979 l
1.1982 0.1911 l
1.2017 0.1840 l
1.2052 0.1766 l
1.2086 0.1688 l
1.2121 0.1606 l
1.2156 0.1521 l
1.2164 0.1499 l
s
[/DeviceRGB] SCS
Color15 SC
[] 0 SD
0.0030 SLW
n
0.1941 0.7872 m
0.1962 0.7883 l
0.1983 0.7887 l
0.2003 0.7892 l
0.2024 0.7898 l
0.2045 0.7906 l
0.2066 0.7915 l
0.2086 0.7922 l
0.2107 0.7929 l
0.2128 0.7936 l
0.2149 0.7943 l
0.2169 0.7953 l
0.2190 0.7963 l
0.2211 0.7967 l
0.2232 0.7971 l
0.2252 0.7984 l
0.2273 0.7995 l
0.2294 0.7999 l
0.2315 0.8004 l
0.2335 0.8009 l
0.2356 0.8015 l
0.2377 0.8022 l
0.2398 0.8031 l
0.2418 0.8040 l
0.2439 0.8048 l
0.2460 0.8054 l
0.2481 0.8060 l
0.2501 0.8065 l
0.2522 0.8071 l
0.2543 0.8076 l
0.2564 0.8082 l
0.2584 0.8087 l
0.2605 0.8093 l
0.2626 0.8099 l
0.2647 0.8105 l
0.2667 0.8110 l
0.2688 0.8115 l
0.2709 0.8121 l
0.2730 0.8126 l
0.2750 0.8131 l
0.2771 0.8137 l
0.2792 0.8143 l
0.2813 0.8148 l
0.2833 0.8154 l
0.2854 0.8160 l
0.2875 0.8165 l
0.2896 0.8170 l
0.2916 0.8175 l
0.2937 0.8180 l
0.2958 0.8186 l
0.2979 0.8192 l
0.2999 0.8197 l
0.3020 0.8202 l
0.3041 0.8207 l
0.3062 0.8212 l
0.3082 0.8217 l
0.3103 0.8223 l
0.3124 0.8228 l
0.3145 0.8233 l
0.3165 0.8238 l
0.3186 0.8243 l
0.3207 0.8249 l
0.3228 0.8254 l
0.3248 0.8259 l
0.3269 0.8264 l
0.3290 0.8269 l
0.3311 0.8274 l
0.3331 0.8279 l
0.3352 0.8284 l
0.3373 0.8289 l
0.3393 0.8294 l
0.3414 0.8299 l
0.3435 0.8304 l
0.3456 0.8309 l
0.3476 0.8313 l
0.3497 0.8318 l
0.3518 0.8323 l
0.3539 0.8328 l
0.3559 0.8333 l
0.3580 0.8337 l
0.3601 0.8342 l
0.3622 0.8347 l
0.3642 0.8352 l
0.3663 0.8356 l
0.3684 0.8360 l
0.3705 0.8365 l
0.3725 0.8370 l
0.3746 0.8374 l
0.3767 0.8378 l
0.3788 0.8383 l
0.3808 0.8387 l
0.3829 0.8392 l
0.3850 0.8396 l
0.3871 0.8400 l
0.3891 0.8404 l
0.3912 0.8408 l
0.3933 0.8412 l
0.3954 0.8417 l
0.3974 0.8421 l
0.3995 0.8425 l
0.4016 0.8428 l
0.4037 0.8432 l
0.4057 0.8436 l
0.4078 0.8440 l
0.4099 0.8444 l
0.4120 0.8447 l
0.4140 0.8451 l
0.4161 0.8454 l
0.4182 0.8458 l
0.4203 0.8461 l
0.4223 0.8464 l
0.4244 0.8467 l
0.4265 0.8471 l
0.4286 0.8474 l
0.4306 0.8477 l
0.4327 0.8479 l
0.4348 0.8482 l
0.4369 0.8485 l
0.4389 0.8488 l
0.4410 0.8490 l
0.4431 0.8493 l
0.4452 0.8495 l
0.4472 0.8497 l
0.4493 0.8499 l
0.4514 0.8501 l
0.4535 0.8503 l
0.4555 0.8504 l
0.4576 0.8506 l
0.4597 0.8507 l
0.4618 0.8509 l
0.4638 0.8510 l
0.4659 0.8511 l
0.4680 0.8511 l
0.4701 0.8512 l
0.4721 0.8512 l
0.4742 0.8512 l
0.4763 0.8512 l
0.4784 0.8512 l
0.4804 0.8512 l
0.4825 0.8511 l
0.4846 0.8510 l
0.4867 0.8509 l
0.4887 0.8508 l
0.4908 0.8506 l
0.4929 0.8504 l
0.4950 0.8502 l
0.4970 0.8499 l
0.4991 0.8497 l
0.5012 0.8494 l
0.5033 0.8490 l
0.5053 0.8486 l
0.5074 0.8482 l
0.5095 0.8478 l
0.5116 0.8473 l
0.5136 0.8468 l
0.5157 0.8463 l
0.5178 0.8457 l
0.5199 0.8451 l
0.5219 0.8444 l
0.5240 0.8437 l
0.5261 0.8430 l
0.5282 0.8422 l
0.5302 0.8414 l
0.5323 0.8406 l
0.5344 0.8397 l
0.5364 0.8387 l
0.5385 0.8378 l
0.5406 0.8368 l
0.5427 0.8357 l
0.5447 0.8347 l
0.5468 0.8335 l
0.5489 0.8324 l
0.5510 0.8312 l
0.5530 0.8300 l
0.5551 0.8288 l
0.5572 0.8275 l
0.5593 0.8262 l
0.5613 0.8249 l
0.5634 0.8236 l
0.5655 0.8222 l
0.5676 0.8208 l
0.5696 0.8194 l
0.5717 0.8180 l
0.5738 0.8166 l
0.5759 0.8151 l
0.5779 0.8137 l
0.5800 0.8122 l
0.5821 0.8107 l
0.5842 0.8092 l
0.5862 0.8078 l
0.5883 0.8063 l
0.5904 0.8048 l
0.5925 0.8033 l
0.5945 0.8018 l
0.5966 0.8003 l
0.5987 0.7988 l
0.6008 0.7972 l
0.6028 0.7957 l
0.6049 0.7942 l
0.6070 0.7927 l
0.6091 0.7912 l
0.6111 0.7897 l
0.6132 0.7882 l
0.6153 0.7867 l
0.6174 0.7852 l
0.6194 0.7837 l
0.6215 0.7822 l
0.6236 0.7807 l
0.6257 0.7792 l
0.6277 0.7777 l
0.6298 0.7761 l
0.6319 0.7746 l
0.6340 0.7731 l
0.6360 0.7716 l
0.6381 0.7701 l
0.6402 0.7686 l
0.6423 0.7671 l
0.6443 0.7656 l
0.6464 0.7641 l
0.6485 0.7626 l
0.6506 0.7611 l
0.6526 0.7596 l
0.6547 0.7581 l
0.6568 0.7566 l
0.6589 0.7551 l
0.6609 0.7536 l
0.6630 0.7521 l
0.6651 0.7506 l
0.6672 0.7491 l
0.6692 0.7476 l
0.6713 0.7461 l
0.6734 0.7446 l
0.6755 0.7431 l
0.6775 0.7416 l
0.6796 0.7401 l
0.6817 0.7386 l
0.6838 0.7371 l
0.6858 0.7356 l
0.6879 0.7341 l
0.6900 0.7326 l
0.6921 0.7311 l
0.6941 0.7296 l
0.6962 0.7281 l
0.6983 0.7265 l
0.7004 0.7250 l
0.7024 0.7235 l
0.7045 0.7220 l
0.7066 0.7205 l
0.7087 0.7190 l
0.7107 0.7175 l
0.7128 0.7160 l
0.7149 0.7145 l
0.7170 0.7130 l
0.7190 0.7115 l
0.7211 0.7100 l
0.7232 0.7085 l
0.7253 0.7070 l
0.7273 0.7055 l
0.7294 0.7040 l
0.7315 0.7025 l
0.7335 0.7010 l
0.7356 0.6995 l
0.7377 0.6980 l
0.7398 0.6965 l
0.7418 0.6950 l
0.7439 0.6935 l
0.7460 0.6920 l
0.7481 0.6905 l
0.7501 0.6890 l
0.7522 0.6875 l
0.7543 0.6860 l
0.7564 0.6845 l
0.7584 0.6830 l
0.7605 0.6816 l
0.7626 0.6801 l
0.7647 0.6786 l
0.7667 0.6771 l
0.7688 0.6756 l
0.7709 0.6741 l
0.7730 0.6726 l
0.7750 0.6711 l
0.7771 0.6696 l
0.7792 0.6681 l
0.7813 0.6666 l
0.7833 0.6652 l
0.7854 0.6637 l
0.7875 0.6622 l
0.7896 0.6607 l
0.7916 0.6592 l
0.7937 0.6577 l
0.7958 0.6562 l
0.7979 0.6547 l
0.7999 0.6532 l
0.8020 0.6517 l
0.8041 0.6502 l
0.8062 0.6488 l
0.8082 0.6473 l
0.8103 0.6458 l
0.8124 0.6443 l
0.8145 0.6428 l
0.8165 0.6413 l
0.8186 0.6398 l
0.8207 0.6383 l
0.8228 0.6368 l
0.8248 0.6353 l
0.8269 0.6338 l
0.8290 0.6323 l
0.8311 0.6309 l
0.8331 0.6294 l
0.8352 0.6279 l
0.8373 0.6264 l
0.8394 0.6249 l
0.8414 0.6234 l
0.8435 0.6219 l
0.8456 0.6204 l
0.8477 0.6189 l
0.8497 0.6174 l
0.8518 0.6159 l
0.8539 0.6145 l
0.8560 0.6130 l
0.8580 0.6115 l
0.8601 0.6100 l
0.8622 0.6085 l
0.8643 0.6070 l
0.8663 0.6055 l
0.8684 0.6040 l
0.8705 0.6025 l
0.8726 0.6010 l
0.8746 0.5995 l
0.8767 0.5980 l
0.8788 0.5966 l
0.8809 0.5951 l
0.8829 0.5936 l
0.8850 0.5921 l
0.8871 0.5906 l
0.8892 0.5891 l
0.8912 0.5876 l
0.8933 0.5861 l
0.8954 0.5846 l
0.8975 0.5831 l
0.8995 0.5816 l
0.9016 0.5801 l
0.9037 0.5786 l
0.9058 0.5772 l
0.9078 0.5757 l
0.9099 0.5742 l
0.9120 0.5727 l
0.9141 0.5712 l
0.9161 0.5697 l
0.9182 0.5682 l
0.9203 0.5667 l
0.9224 0.5652 l
0.9244 0.5637 l
0.9265 0.5622 l
0.9286 0.5607 l
0.9306 0.5592 l
0.9327 0.5577 l
0.9348 0.5562 l
0.9369 0.5547 l
0.9389 0.5532 l
0.9410 0.5517 l
0.9431 0.5502 l
0.9452 0.5487 l
0.9472 0.5472 l
0.9493 0.5457 l
0.9514 0.5442 l
0.9535 0.5427 l
0.9555 0.5412 l
0.9576 0.5397 l
0.9597 0.5382 l
0.9618 0.5367 l
0.9638 0.5352 l
0.9659 0.5337 l
0.9680 0.5322 l
0.9701 0.5307 l
0.9721 0.5292 l
0.9742 0.5277 l
0.9763 0.5261 l
0.9784 0.5246 l
0.9804 0.5231 l
0.9825 0.5216 l
0.9846 0.5201 l
0.9867 0.5186 l
0.9887 0.5170 l
0.9908 0.5155 l
0.9929 0.5140 l
0.9950 0.5125 l
0.9970 0.5110 l
0.9991 0.5094 l
1.0012 0.5079 l
1.0033 0.5064 l
1.0053 0.5049 l
1.0074 0.5033 l
1.0095 0.5018 l
1.0116 0.5002 l
1.0136 0.4987 l
1.0157 0.4972 l
1.0178 0.4956 l
1.0199 0.4941 l
1.0219 0.4925 l
1.0240 0.4910 l
1.0261 0.4894 l
1.0282 0.4879 l
1.0302 0.4863 l
1.0323 0.4847 l
1.0344 0.4832 l
1.0365 0.4816 l
1.0385 0.4800 l
1.0406 0.4784 l
1.0427 0.4769 l
1.0448 0.4753 l
1.0468 0.4737 l
1.0489 0.4721 l
1.0510 0.4705 l
1.0531 0.4689 l
1.0551 0.4673 l
1.0572 0.4657 l
1.0593 0.4640 l
1.0614 0.4624 l
1.0634 0.4608 l
1.0655 0.4591 l
1.0676 0.4575 l
1.0697 0.4558 l
1.0717 0.4542 l
1.0738 0.4525 l
1.0759 0.4508 l
1.0780 0.4492 l
1.0800 0.4475 l
1.0821 0.4458 l
1.0842 0.4440 l
1.0863 0.4423 l
1.0883 0.4406 l
1.0904 0.4389 l
1.0925 0.4371 l
1.0946 0.4353 l
1.0966 0.4336 l
1.0987 0.4318 l
1.1008 0.4300 l
1.1029 0.4282 l
1.1049 0.4263 l
1.1070 0.4245 l
1.1091 0.4226 l
1.1112 0.4207 l
1.1132 0.4188 l
1.1153 0.4169 l
1.1174 0.4150 l
1.1195 0.4130 l
1.1215 0.4111 l
1.1236 0.4091 l
1.1257 0.4071 l
1.1277 0.4050 l
1.1298 0.4030 l
1.1319 0.4009 l
1.1340 0.3988 l
1.1360 0.3966 l
1.1381 0.3944 l
1.1402 0.3922 l
1.1423 0.3900 l
1.1443 0.3877 l
1.1464 0.3854 l
1.1485 0.3831 l
1.1506 0.3807 l
1.1526 0.3783 l
1.1547 0.3758 l
1.1568 0.3733 l
1.1589 0.3708 l
1.1609 0.3682 l
1.1630 0.3655 l
1.1651 0.3628 l
1.1672 0.3600 l
1.1692 0.3572 l
1.1713 0.3543 l
1.1734 0.3514 l
1.1755 0.3484 l
1.1775 0.3453 l
1.1796 0.3422 l
1.1817 0.3389 l
1.1838 0.3356 l
1.1858 0.3322 l
1.1879 0.3288 l
1.1900 0.3252 l
1.1921 0.3215 l
1.1941 0.3178 l
1.1962 0.3139 l
1.1983 0.3100 l
1.2004 0.3059 l
1.2024 0.3017 l
1.2045 0.2974 l
1.2066 0.2929 l
1.2087 0.2884 l
1.2107 0.2836 l
1.2128 0.2788 l
1.2149 0.2738 l
1.2170 0.2687 l
1.2190 0.2633 l
1.2211 0.2579 l
1.2232 0.2522 l
1.2253 0.2464 l
1.2273 0.2404 l
1.2294 0.2341 l
s
[0.0150 0.0090 ] 0 SD
0.0030 SLW
n
0.1941 0.6774 m
0.1962 0.6780 l
0.1983 0.6787 l
0.2003 0.6793 l
0.2024 0.6800 l
0.2045 0.6806 l
0.2066 0.6812 l
0.2086 0.6819 l
0.2107 0.6825 l
0.2128 0.6832 l
0.2149 0.6838 l
0.2169 0.6844 l
0.2190 0.6851 l
0.2211 0.6857 l
0.2232 0.6864 l
0.2252 0.6870 l
0.2273 0.6876 l
0.2294 0.6883 l
0.2315 0.6889 l
0.2335 0.6895 l
0.2356 0.6902 l
0.2377 0.6908 l
0.2398 0.6914 l
0.2418 0.6921 l
0.2439 0.6927 l
0.2460 0.6933 l
0.2481 0.6939 l
0.2501 0.6946 l
0.2522 0.6952 l
0.2543 0.6958 l
0.2564 0.6965 l
0.2584 0.6971 l
0.2605 0.6977 l
0.2626 0.6983 l
0.2647 0.6989 l
0.2667 0.6996 l
0.2688 0.7002 l
0.2709 0.7008 l
0.2730 0.7014 l
0.2750 0.7020 l
0.2771 0.7026 l
0.2792 0.7033 l
0.2813 0.7039 l
0.2833 0.7045 l
0.2854 0.7051 l
0.2875 0.7057 l
0.2896 0.7063 l
0.2916 0.7069 l
0.2937 0.7075 l
0.2958 0.7081 l
0.2979 0.7087 l
0.2999 0.7093 l
0.3020 0.7099 l
0.3041 0.7105 l
0.3062 0.7111 l
0.3082 0.7117 l
0.3103 0.7123 l
0.3124 0.7128 l
0.3145 0.7134 l
0.3165 0.7140 l
0.3186 0.7146 l
0.3207 0.7152 l
0.3228 0.7157 l
0.3248 0.7163 l
0.3269 0.7169 l
0.3290 0.7174 l
0.3311 0.7180 l
0.3331 0.7186 l
0.3352 0.7191 l
0.3373 0.7197 l
0.3393 0.7202 l
0.3414 0.7208 l
0.3435 0.7213 l
0.3456 0.7219 l
0.3476 0.7224 l
0.3497 0.7229 l
0.3518 0.7235 l
0.3539 0.7240 l
0.3559 0.7245 l
0.3580 0.7250 l
0.3601 0.7256 l
0.3622 0.7261 l
0.3642 0.7266 l
0.3663 0.7271 l
0.3684 0.7276 l
0.3705 0.7281 l
0.3725 0.7286 l
0.3746 0.7290 l
0.3767 0.7295 l
0.3788 0.7300 l
0.3808 0.7304 l
0.3829 0.7309 l
0.3850 0.7314 l
0.3871 0.7318 l
0.3891 0.7322 l
0.3912 0.7327 l
0.3933 0.7331 l
0.3954 0.7335 l
0.3974 0.7339 l
0.3995 0.7343 l
0.4016 0.7347 l
0.4037 0.7351 l
0.4057 0.7355 l
0.4078 0.7359 l
0.4099 0.7362 l
0.4120 0.7366 l
0.4140 0.7369 l
0.4161 0.7373 l
0.4182 0.7376 l
0.4203 0.7379 l
0.4223 0.7382 l
0.4244 0.7385 l
0.4265 0.7388 l
0.4286 0.7391 l
0.4306 0.7393 l
0.4327 0.7396 l
0.4348 0.7398 l
0.4369 0.7400 l
0.4389 0.7402 l
0.4410 0.7404 l
0.4431 0.7406 l
0.4452 0.7407 l
0.4472 0.7409 l
0.4493 0.7410 l
0.4514 0.7411 l
0.4535 0.7412 l
0.4555 0.7413 l
0.4576 0.7413 l
0.4597 0.7414 l
0.4618 0.7414 l
0.4638 0.7414 l
0.4659 0.7414 l
0.4680 0.7413 l
0.4701 0.7413 l
0.4721 0.7412 l
0.4742 0.7411 l
0.4763 0.7409 l
0.4784 0.7408 l
0.4804 0.7406 l
0.4825 0.7404 l
0.4846 0.7402 l
0.4867 0.7399 l
0.4887 0.7397 l
0.4908 0.7393 l
0.4929 0.7390 l
0.4950 0.7386 l
0.4970 0.7382 l
0.4991 0.7378 l
0.5012 0.7374 l
0.5033 0.7369 l
0.5053 0.7364 l
0.5074 0.7358 l
0.5095 0.7353 l
0.5116 0.7346 l
0.5136 0.7340 l
0.5157 0.7333 l
0.5178 0.7326 l
0.5199 0.7319 l
0.5219 0.7311 l
0.5240 0.7303 l
0.5261 0.7295 l
0.5282 0.7286 l
0.5302 0.7277 l
0.5323 0.7267 l
0.5344 0.7258 l
0.5364 0.7248 l
0.5385 0.7237 l
0.5406 0.7227 l
0.5427 0.7216 l
0.5447 0.7204 l
0.5468 0.7193 l
0.5489 0.7181 l
0.5510 0.7169 l
0.5530 0.7157 l
0.5551 0.7144 l
0.5572 0.7131 l
0.5593 0.7118 l
0.5613 0.7105 l
0.5634 0.7092 l
0.5655 0.7078 l
0.5676 0.7065 l
0.5696 0.7051 l
0.5717 0.7037 l
0.5738 0.7023 l
0.5759 0.7008 l
0.5779 0.6994 l
0.5800 0.6980 l
0.5821 0.6965 l
0.5842 0.6951 l
0.5862 0.6936 l
0.5883 0.6921 l
0.5904 0.6907 l
0.5925 0.6892 l
0.5945 0.6877 l
0.5966 0.6863 l
0.5987 0.6848 l
0.6008 0.6833 l
0.6028 0.6818 l
0.6049 0.6803 l
0.6070 0.6789 l
0.6091 0.6774 l
0.6111 0.6759 l
0.6132 0.6744 l
0.6153 0.6729 l
0.6174 0.6715 l
0.6194 0.6700 l
0.6215 0.6685 l
0.6236 0.6670 l
0.6257 0.6655 l
0.6277 0.6640 l
0.6298 0.6626 l
0.6319 0.6611 l
0.6340 0.6596 l
0.6360 0.6581 l
0.6381 0.6566 l
0.6402 0.6551 l
0.6423 0.6537 l
0.6443 0.6522 l
0.6464 0.6507 l
0.6485 0.6492 l
0.6506 0.6477 l
0.6526 0.6463 l
0.6547 0.6448 l
0.6568 0.6433 l
0.6589 0.6418 l
0.6609 0.6403 l
0.6630 0.6388 l
0.6651 0.6374 l
0.6672 0.6359 l
0.6692 0.6344 l
0.6713 0.6329 l
0.6734 0.6314 l
0.6755 0.6300 l
0.6775 0.6285 l
0.6796 0.6270 l
0.6817 0.6255 l
0.6838 0.6240 l
0.6858 0.6225 l
0.6879 0.6211 l
0.6900 0.6196 l
0.6921 0.6181 l
0.6941 0.6166 l
0.6962 0.6151 l
0.6983 0.6136 l
0.7004 0.6122 l
0.7024 0.6107 l
0.7045 0.6092 l
0.7066 0.6077 l
0.7087 0.6062 l
0.7107 0.6048 l
0.7128 0.6033 l
0.7149 0.6018 l
0.7170 0.6003 l
0.7190 0.5988 l
0.7211 0.5973 l
0.7232 0.5959 l
0.7253 0.5944 l
0.7273 0.5929 l
0.7294 0.5914 l
0.7315 0.5899 l
0.7335 0.5884 l
0.7356 0.5870 l
0.7377 0.5855 l
0.7398 0.5840 l
0.7418 0.5825 l
0.7439 0.5810 l
0.7460 0.5796 l
0.7481 0.5781 l
0.7501 0.5766 l
0.7522 0.5751 l
0.7543 0.5736 l
0.7564 0.5721 l
0.7584 0.5707 l
0.7605 0.5692 l
0.7626 0.5677 l
0.7647 0.5662 l
0.7667 0.5647 l
0.7688 0.5632 l
0.7709 0.5618 l
0.7730 0.5603 l
0.7750 0.5588 l
0.7771 0.5573 l
0.7792 0.5558 l
0.7813 0.5543 l
0.7833 0.5529 l
0.7854 0.5514 l
0.7875 0.5499 l
0.7896 0.5484 l
0.7916 0.5469 l
0.7937 0.5455 l
0.7958 0.5440 l
0.7979 0.5425 l
0.7999 0.5410 l
0.8020 0.5395 l
0.8041 0.5380 l
0.8062 0.5366 l
0.8082 0.5351 l
0.8103 0.5336 l
0.8124 0.5321 l
0.8145 0.5306 l
0.8165 0.5291 l
0.8186 0.5277 l
0.8207 0.5262 l
0.8228 0.5247 l
0.8248 0.5232 l
0.8269 0.5217 l
0.8290 0.5202 l
0.8311 0.5188 l
0.8331 0.5173 l
0.8352 0.5158 l
0.8373 0.5143 l
0.8394 0.5128 l
0.8414 0.5113 l
0.8435 0.5099 l
0.8456 0.5084 l
0.8477 0.5069 l
0.8497 0.5054 l
0.8518 0.5039 l
0.8539 0.5024 l
0.8560 0.5009 l
0.8580 0.4995 l
0.8601 0.4980 l
0.8622 0.4965 l
0.8643 0.4950 l
0.8663 0.4935 l
0.8684 0.4920 l
0.8705 0.4906 l
0.8726 0.4891 l
0.8746 0.4876 l
0.8767 0.4861 l
0.8788 0.4846 l
0.8809 0.4831 l
0.8829 0.4816 l
0.8850 0.4802 l
0.8871 0.4787 l
0.8892 0.4772 l
0.8912 0.4757 l
0.8933 0.4742 l
0.8954 0.4727 l
0.8975 0.4712 l
0.8995 0.4697 l
0.9016 0.4683 l
0.9037 0.4668 l
0.9058 0.4653 l
0.9078 0.4638 l
0.9099 0.4623 l
0.9120 0.4608 l
0.9141 0.4593 l
0.9161 0.4578 l
0.9182 0.4563 l
0.9203 0.4548 l
0.9224 0.4534 l
0.9244 0.4519 l
0.9265 0.4504 l
0.9286 0.4489 l
0.9306 0.4474 l
0.9327 0.4459 l
0.9348 0.4444 l
0.9369 0.4429 l
0.9389 0.4414 l
0.9410 0.4399 l
0.9431 0.4384 l
0.9452 0.4369 l
0.9472 0.4354 l
0.9493 0.4339 l
0.9514 0.4324 l
0.9535 0.4309 l
0.9555 0.4294 l
0.9576 0.4279 l
0.9597 0.4264 l
0.9618 0.4249 l
0.9638 0.4234 l
0.9659 0.4219 l
0.9680 0.4204 l
0.9701 0.4189 l
0.9721 0.4174 l
0.9742 0.4159 l
0.9763 0.4144 l
0.9784 0.4128 l
0.9804 0.4113 l
0.9825 0.4098 l
0.9846 0.4083 l
0.9867 0.4068 l
0.9887 0.4053 l
0.9908 0.4037 l
0.9929 0.4022 l
0.9950 0.4007 l
0.9970 0.3992 l
0.9991 0.3976 l
1.0012 0.3961 l
1.0033 0.3946 l
1.0053 0.3930 l
1.0074 0.3915 l
1.0095 0.3899 l
1.0116 0.3884 l
1.0136 0.3869 l
1.0157 0.3853 l
1.0178 0.3838 l
1.0199 0.3822 l
1.0219 0.3806 l
1.0240 0.3791 l
1.0261 0.3775 l
1.0282 0.3759 l
1.0302 0.3744 l
1.0323 0.3728 l
1.0344 0.3712 l
1.0365 0.3696 l
1.0385 0.3680 l
1.0406 0.3664 l
1.0427 0.3649 l
1.0448 0.3632 l
1.0468 0.3616 l
1.0489 0.3600 l
1.0510 0.3584 l
1.0531 0.3568 l
1.0551 0.3551 l
1.0572 0.3535 l
1.0593 0.3519 l
1.0614 0.3502 l
1.0634 0.3485 l
1.0655 0.3469 l
1.0676 0.3452 l
1.0697 0.3435 l
1.0717 0.3418 l
1.0738 0.3401 l
1.0759 0.3384 l
1.0780 0.3367 l
1.0800 0.3349 l
1.0821 0.3332 l
1.0842 0.3314 l
1.0863 0.3297 l
1.0883 0.3279 l
1.0904 0.3261 l
1.0925 0.3243 l
1.0946 0.3225 l
1.0966 0.3206 l
1.0987 0.3188 l
1.1008 0.3169 l
1.1029 0.3150 l
1.1049 0.3131 l
1.1070 0.3112 l
1.1091 0.3093 l
1.1112 0.3073 l
1.1132 0.3054 l
1.1153 0.3034 l
1.1174 0.3013 l
1.1195 0.2993 l
1.1215 0.2972 l
1.1236 0.2952 l
1.1257 0.2930 l
1.1277 0.2909 l
1.1298 0.2887 l
1.1319 0.2865 l
1.1340 0.2843 l
1.1360 0.2821 l
1.1381 0.2798 l
1.1402 0.2775 l
1.1423 0.2751 l
1.1443 0.2727 l
1.1464 0.2703 l
1.1485 0.2678 l
1.1506 0.2653 l
1.1526 0.2627 l
1.1547 0.2601 l
1.1568 0.2575 l
1.1589 0.2548 l
1.1609 0.2520 l
1.1630 0.2492 l
1.1651 0.2464 l
1.1672 0.2434 l
1.1692 0.2405 l
1.1713 0.2374 l
1.1734 0.2343 l
1.1755 0.2312 l
1.1775 0.2279 l
1.1796 0.2246 l
1.1817 0.2212 l
1.1838 0.2178 l
1.1858 0.2142 l
1.1879 0.2106 l
1.1900 0.2069 l
1.1921 0.2031 l
1.1941 0.1991 l
1.1962 0.1951 l
1.1983 0.1910 l
1.2004 0.1868 l
1.2024 0.1825 l
1.2045 0.1780 l
1.2066 0.1734 l
1.2087 0.1687 l
1.2107 0.1639 l
1.2128 0.1589 l
1.2149 0.1538 l
1.2164 0.1499 l
s
[/DeviceRGB] SCS
Color1 SC
[] 0 SD
0.0030 SLW
n
0.1941 0.1500 m
1.2294 0.1500 l
s
n
0.1941 0.9500 m
1.2294 0.9500 l
s
n
0.2287 0.1500 m
0.2287 0.1730 l
s
n
0.2287 0.9500 m
0.2287 0.9270 l
s
n
0.2490 0.1500 m
0.2490 0.1730 l
s
n
0.2490 0.9500 m
0.2490 0.9270 l
s
n
0.2634 0.1500 m
0.2634 0.1730 l
s
n
0.2634 0.9500 m
0.2634 0.9270 l
s
n
0.2745 0.1500 m
0.2745 0.1730 l
s
n
0.2745 0.9500 m
0.2745 0.9270 l
s
n
0.2836 0.1500 m
0.2836 0.1730 l
s
n
0.2836 0.9500 m
0.2836 0.9270 l
s
n
0.2913 0.1500 m
0.2913 0.1730 l
s
n
0.2913 0.9500 m
0.2913 0.9270 l
s
n
0.2980 0.1500 m
0.2980 0.1730 l
s
n
0.2980 0.9500 m
0.2980 0.9270 l
s
n
0.3039 0.1500 m
0.3039 0.1730 l
s
n
0.3039 0.9500 m
0.3039 0.9270 l
s
n
0.3092 0.1500 m
0.3092 0.1730 l
s
n
0.3092 0.9500 m
0.3092 0.9270 l
s
n
0.3438 0.1500 m
0.3438 0.1730 l
s
n
0.3438 0.9500 m
0.3438 0.9270 l
s
n
0.3640 0.1500 m
0.3640 0.1730 l
s
n
0.3640 0.9500 m
0.3640 0.9270 l
s
n
0.3784 0.1500 m
0.3784 0.1730 l
s
n
0.3784 0.9500 m
0.3784 0.9270 l
s
n
0.3896 0.1500 m
0.3896 0.1730 l
s
n
0.3896 0.9500 m
0.3896 0.9270 l
s
n
0.3987 0.1500 m
0.3987 0.1730 l
s
n
0.3987 0.9500 m
0.3987 0.9270 l
s
n
0.4064 0.1500 m
0.4064 0.1730 l
s
n
0.4064 0.9500 m
0.4064 0.9270 l
s
n
0.4130 0.1500 m
0.4130 0.1730 l
s
n
0.4130 0.9500 m
0.4130 0.9270 l
s
n
0.4189 0.1500 m
0.4189 0.1730 l
s
n
0.4189 0.9500 m
0.4189 0.9270 l
s
n
0.4242 0.1500 m
0.4242 0.1730 l
s
n
0.4242 0.9500 m
0.4242 0.9270 l
s
n
0.4588 0.1500 m
0.4588 0.1730 l
s
n
0.4588 0.9500 m
0.4588 0.9270 l
s
n
0.4791 0.1500 m
0.4791 0.1730 l
s
n
0.4791 0.9500 m
0.4791 0.9270 l
s
n
0.4934 0.1500 m
0.4934 0.1730 l
s
n
0.4934 0.9500 m
0.4934 0.9270 l
s
n
0.5046 0.1500 m
0.5046 0.1730 l
s
n
0.5046 0.9500 m
0.5046 0.9270 l
s
n
0.5137 0.1500 m
0.5137 0.1730 l
s
n
0.5137 0.9500 m
0.5137 0.9270 l
s
n
0.5214 0.1500 m
0.5214 0.1730 l
s
n
0.5214 0.9500 m
0.5214 0.9270 l
s
n
0.5281 0.1500 m
0.5281 0.1730 l
s
n
0.5281 0.9500 m
0.5281 0.9270 l
s
n
0.5340 0.1500 m
0.5340 0.1730 l
s
n
0.5340 0.9500 m
0.5340 0.9270 l
s
n
0.5392 0.1500 m
0.5392 0.1730 l
s
n
0.5392 0.9500 m
0.5392 0.9270 l
s
n
0.5738 0.1500 m
0.5738 0.1730 l
s
n
0.5738 0.9500 m
0.5738 0.9270 l
s
n
0.5941 0.1500 m
0.5941 0.1730 l
s
n
0.5941 0.9500 m
0.5941 0.9270 l
s
n
0.6085 0.1500 m
0.6085 0.1730 l
s
n
0.6085 0.9500 m
0.6085 0.9270 l
s
n
0.6196 0.1500 m
0.6196 0.1730 l
s
n
0.6196 0.9500 m
0.6196 0.9270 l
s
n
0.6287 0.1500 m
0.6287 0.1730 l
s
n
0.6287 0.9500 m
0.6287 0.9270 l
s
n
0.6364 0.1500 m
0.6364 0.1730 l
s
n
0.6364 0.9500 m
0.6364 0.9270 l
s
n
0.6431 0.1500 m
0.6431 0.1730 l
s
n
0.6431 0.9500 m
0.6431 0.9270 l
s
n
0.6490 0.1500 m
0.6490 0.1730 l
s
n
0.6490 0.9500 m
0.6490 0.9270 l
s
n
0.6542 0.1500 m
0.6542 0.1730 l
s
n
0.6542 0.9500 m
0.6542 0.9270 l
s
n
0.6889 0.1500 m
0.6889 0.1730 l
s
n
0.6889 0.9500 m
0.6889 0.9270 l
s
n
0.7091 0.1500 m
0.7091 0.1730 l
s
n
0.7091 0.9500 m
0.7091 0.9270 l
s
n
0.7235 0.1500 m
0.7235 0.1730 l
s
n
0.7235 0.9500 m
0.7235 0.9270 l
s
n
0.7347 0.1500 m
0.7347 0.1730 l
s
n
0.7347 0.9500 m
0.7347 0.9270 l
s
n
0.7438 0.1500 m
0.7438 0.1730 l
s
n
0.7438 0.9500 m
0.7438 0.9270 l
s
n
0.7515 0.1500 m
0.7515 0.1730 l
s
n
0.7515 0.9500 m
0.7515 0.9270 l
s
n
0.7581 0.1500 m
0.7581 0.1730 l
s
n
0.7581 0.9500 m
0.7581 0.9270 l
s
n
0.7640 0.1500 m
0.7640 0.1730 l
s
n
0.7640 0.9500 m
0.7640 0.9270 l
s
n
0.7693 0.1500 m
0.7693 0.1730 l
s
n
0.7693 0.9500 m
0.7693 0.9270 l
s
n
0.8039 0.1500 m
0.8039 0.1730 l
s
n
0.8039 0.9500 m
0.8039 0.9270 l
s
n
0.8242 0.1500 m
0.8242 0.1730 l
s
n
0.8242 0.9500 m
0.8242 0.9270 l
s
n
0.8385 0.1500 m
0.8385 0.1730 l
s
n
0.8385 0.9500 m
0.8385 0.9270 l
s
n
0.8497 0.1500 m
0.8497 0.1730 l
s
n
0.8497 0.9500 m
0.8497 0.9270 l
s
n
0.8588 0.1500 m
0.8588 0.1730 l
s
n
0.8588 0.9500 m
0.8588 0.9270 l
s
n
0.8665 0.1500 m
0.8665 0.1730 l
s
n
0.8665 0.9500 m
0.8665 0.9270 l
s
n
0.8732 0.1500 m
0.8732 0.1730 l
s
n
0.8732 0.9500 m
0.8732 0.9270 l
s
n
0.8791 0.1500 m
0.8791 0.1730 l
s
n
0.8791 0.9500 m
0.8791 0.9270 l
s
n
0.8843 0.1500 m
0.8843 0.1730 l
s
n
0.8843 0.9500 m
0.8843 0.9270 l
s
n
0.9189 0.1500 m
0.9189 0.1730 l
s
n
0.9189 0.9500 m
0.9189 0.9270 l
s
n
0.9392 0.1500 m
0.9392 0.1730 l
s
n
0.9392 0.9500 m
0.9392 0.9270 l
s
n
0.9536 0.1500 m
0.9536 0.1730 l
s
n
0.9536 0.9500 m
0.9536 0.9270 l
s
n
0.9647 0.1500 m
0.9647 0.1730 l
s
n
0.9647 0.9500 m
0.9647 0.9270 l
s
n
0.9738 0.1500 m
0.9738 0.1730 l
s
n
0.9738 0.9500 m
0.9738 0.9270 l
s
n
0.9815 0.1500 m
0.9815 0.1730 l
s
n
0.9815 0.9500 m
0.9815 0.9270 l
s
n
0.9882 0.1500 m
0.9882 0.1730 l
s
n
0.9882 0.9500 m
0.9882 0.9270 l
s
n
0.9941 0.1500 m
0.9941 0.1730 l
s
n
0.9941 0.9500 m
0.9941 0.9270 l
s
n
0.9993 0.1500 m
0.9993 0.1730 l
s
n
0.9993 0.9500 m
0.9993 0.9270 l
s
n
1.0340 0.1500 m
1.0340 0.1730 l
s
n
1.0340 0.9500 m
1.0340 0.9270 l
s
n
1.0542 0.1500 m
1.0542 0.1730 l
s
n
1.0542 0.9500 m
1.0542 0.9270 l
s
n
1.0686 0.1500 m
1.0686 0.1730 l
s
n
1.0686 0.9500 m
1.0686 0.9270 l
s
n
1.0798 0.1500 m
1.0798 0.1730 l
s
n
1.0798 0.9500 m
1.0798 0.9270 l
s
n
1.0889 0.1500 m
1.0889 0.1730 l
s
n
1.0889 0.9500 m
1.0889 0.9270 l
s
n
1.0966 0.1500 m
1.0966 0.1730 l
s
n
1.0966 0.9500 m
1.0966 0.9270 l
s
n
1.1032 0.1500 m
1.1032 0.1730 l
s
n
1.1032 0.9500 m
1.1032 0.9270 l
s
n
1.1091 0.1500 m
1.1091 0.1730 l
s
n
1.1091 0.9500 m
1.1091 0.9270 l
s
n
1.1144 0.1500 m
1.1144 0.1730 l
s
n
1.1144 0.9500 m
1.1144 0.9270 l
s
n
1.1490 0.1500 m
1.1490 0.1730 l
s
n
1.1490 0.9500 m
1.1490 0.9270 l
s
n
1.1693 0.1500 m
1.1693 0.1730 l
s
n
1.1693 0.9500 m
1.1693 0.9270 l
s
n
1.1836 0.1500 m
1.1836 0.1730 l
s
n
1.1836 0.9500 m
1.1836 0.9270 l
s
n
1.1948 0.1500 m
1.1948 0.1730 l
s
n
1.1948 0.9500 m
1.1948 0.9270 l
s
n
1.2039 0.1500 m
1.2039 0.1730 l
s
n
1.2039 0.9500 m
1.2039 0.9270 l
s
n
1.2116 0.1500 m
1.2116 0.1730 l
s
n
1.2116 0.9500 m
1.2116 0.9270 l
s
n
1.2183 0.1500 m
1.2183 0.1730 l
s
n
1.2183 0.9500 m
1.2183 0.9270 l
s
n
1.2241 0.1500 m
1.2241 0.1730 l
s
n
1.2241 0.9500 m
1.2241 0.9270 l
s
n
1.2294 0.1500 m
1.2294 0.1730 l
s
n
1.2294 0.9500 m
1.2294 0.9270 l
s
n
0.1941 0.1500 m
0.1941 0.1830 l
s
n
0.1941 0.9500 m
0.1941 0.9170 l
s
n
0.3092 0.1500 m
0.3092 0.1830 l
s
n
0.3092 0.9500 m
0.3092 0.9170 l
s
n
0.4242 0.1500 m
0.4242 0.1830 l
s
n
0.4242 0.9500 m
0.4242 0.9170 l
s
n
0.5392 0.1500 m
0.5392 0.1830 l
s
n
0.5392 0.9500 m
0.5392 0.9170 l
s
n
0.6542 0.1500 m
0.6542 0.1830 l
s
n
0.6542 0.9500 m
0.6542 0.9170 l
s
n
0.7693 0.1500 m
0.7693 0.1830 l
s
n
0.7693 0.9500 m
0.7693 0.9170 l
s
n
0.8843 0.1500 m
0.8843 0.1830 l
s
n
0.8843 0.9500 m
0.8843 0.9170 l
s
n
0.9993 0.1500 m
0.9993 0.1830 l
s
n
0.9993 0.9500 m
0.9993 0.9170 l
s
n
1.1144 0.1500 m
1.1144 0.1830 l
s
n
1.1144 0.9500 m
1.1144 0.9170 l
s
n
1.2294 0.1500 m
1.2294 0.1830 l
s
n
1.2294 0.9500 m
1.2294 0.9170 l
s
/Helvetica findfont
dup length dict begin
 {1 index /FID ne {def} {pop pop} ifelse} forall
 /Encoding DefEncoding def
 currentdict
end
/Font4 exch definefont pop
/Font4 FFSF
0.1673 0.0997 m
GS
[0.0364 0.0000 0.0000 0.0364 0 0] CC
(10) show
GR
/Font4 FFSF
0.2076 0.1216 m
GS
[0.0257 0.0000 0.0000 0.0257 0 0] CC
(6) show
GR
/Font4 FFSF
0.2823 0.0997 m
GS
[0.0364 0.0000 0.0000 0.0364 0 0] CC
(10) show
GR
/Font4 FFSF
0.3227 0.1216 m
GS
[0.0257 0.0000 0.0000 0.0257 0 0] CC
(7) show
GR
/Font4 FFSF
0.3973 0.0997 m
GS
[0.0364 0.0000 0.0000 0.0364 0 0] CC
(10) show
GR
/Font4 FFSF
0.4377 0.1216 m
GS
[0.0257 0.0000 0.0000 0.0257 0 0] CC
(8) show
GR
/Font4 FFSF
0.5125 0.0997 m
GS
[0.0364 0.0000 0.0000 0.0364 0 0] CC
(10) show
GR
/Font4 FFSF
0.5529 0.1216 m
GS
[0.0257 0.0000 0.0000 0.0257 0 0] CC
(9) show
GR
/Font4 FFSF
0.6205 0.0997 m
GS
[0.0364 0.0000 0.0000 0.0364 0 0] CC
(10) show
GR
/Font4 FFSF
0.6609 0.1216 m
GS
[0.0257 0.0000 0.0000 0.0257 0 0] CC
(10) show
GR
/Font4 FFSF
0.7375 0.0997 m
GS
[0.0364 0.0000 0.0000 0.0364 0 0] CC
(10) show
GR
/Font4 FFSF
0.7779 0.1216 m
GS
[0.0257 0.0000 0.0000 0.0257 0 0] CC
(11) show
GR
/Font4 FFSF
0.8504 0.0997 m
GS
[0.0364 0.0000 0.0000 0.0364 0 0] CC
(10) show
GR
/Font4 FFSF
0.8908 0.1216 m
GS
[0.0257 0.0000 0.0000 0.0257 0 0] CC
(12) show
GR
/Font4 FFSF
0.9656 0.0997 m
GS
[0.0364 0.0000 0.0000 0.0364 0 0] CC
(10) show
GR
/Font4 FFSF
1.0060 0.1216 m
GS
[0.0257 0.0000 0.0000 0.0257 0 0] CC
(13) show
GR
/Font4 FFSF
1.0805 0.0997 m
GS
[0.0364 0.0000 0.0000 0.0364 0 0] CC
(10) show
GR
/Font4 FFSF
1.1208 0.1216 m
GS
[0.0257 0.0000 0.0000 0.0257 0 0] CC
(14) show
GR
/Font4 FFSF
1.1955 0.0997 m
GS
[0.0364 0.0000 0.0000 0.0364 0 0] CC
(10) show
GR
/Font4 FFSF
1.2359 0.1216 m
GS
[0.0257 0.0000 0.0000 0.0257 0 0] CC
(15) show
GR
/Symbol findfont
/Font12 exch definefont pop
/Font12 FFSF
0.6506 0.0533 m
GS
[0.0490 0.0000 0.0000 0.0490 0 0] CC
(n) show
GR
/Font4 FFSF
0.6761 0.0533 m
GS
[0.0490 0.0000 0.0000 0.0490 0 0] CC
( [Hz]) show
GR
n
0.1941 0.1500 m
0.1941 0.9500 l
s
n
1.2294 0.1500 m
1.2294 0.9500 l
s
n
0.1941 0.1830 m
0.2171 0.1830 l
s
n
1.2294 0.1830 m
1.2064 0.1830 l
s
n
0.1941 0.2023 m
0.2171 0.2023 l
s
n
1.2294 0.2023 m
1.2064 0.2023 l
s
n
0.1941 0.2160 m
0.2171 0.2160 l
s
n
1.2294 0.2160 m
1.2064 0.2160 l
s
n
0.1941 0.2266 m
0.2171 0.2266 l
s
n
1.2294 0.2266 m
1.2064 0.2266 l
s
n
0.1941 0.2353 m
0.2171 0.2353 l
s
n
1.2294 0.2353 m
1.2064 0.2353 l
s
n
0.1941 0.2426 m
0.2171 0.2426 l
s
n
1.2294 0.2426 m
1.2064 0.2426 l
s
n
0.1941 0.2490 m
0.2171 0.2490 l
s
n
1.2294 0.2490 m
1.2064 0.2490 l
s
n
0.1941 0.2546 m
0.2171 0.2546 l
s
n
1.2294 0.2546 m
1.2064 0.2546 l
s
n
0.1941 0.2596 m
0.2171 0.2596 l
s
n
1.2294 0.2596 m
1.2064 0.2596 l
s
n
0.1941 0.2926 m
0.2171 0.2926 l
s
n
1.2294 0.2926 m
1.2064 0.2926 l
s
n
0.1941 0.3119 m
0.2171 0.3119 l
s
n
1.2294 0.3119 m
1.2064 0.3119 l
s
n
0.1941 0.3255 m
0.2171 0.3255 l
s
n
1.2294 0.3255 m
1.2064 0.3255 l
s
n
0.1941 0.3362 m
0.2171 0.3362 l
s
n
1.2294 0.3362 m
1.2064 0.3362 l
s
n
0.1941 0.3448 m
0.2171 0.3448 l
s
n
1.2294 0.3448 m
1.2064 0.3448 l
s
n
0.1941 0.3522 m
0.2171 0.3522 l
s
n
1.2294 0.3522 m
1.2064 0.3522 l
s
n
0.1941 0.3585 m
0.2171 0.3585 l
s
n
1.2294 0.3585 m
1.2064 0.3585 l
s
n
0.1941 0.3641 m
0.2171 0.3641 l
s
n
1.2294 0.3641 m
1.2064 0.3641 l
s
n
0.1941 0.3691 m
0.2171 0.3691 l
s
n
1.2294 0.3691 m
1.2064 0.3691 l
s
n
0.1941 0.4021 m
0.2171 0.4021 l
s
n
1.2294 0.4021 m
1.2064 0.4021 l
s
n
0.1941 0.4214 m
0.2171 0.4214 l
s
n
1.2294 0.4214 m
1.2064 0.4214 l
s
n
0.1941 0.4351 m
0.2171 0.4351 l
s
n
1.2294 0.4351 m
1.2064 0.4351 l
s
n
0.1941 0.4457 m
0.2171 0.4457 l
s
n
1.2294 0.4457 m
1.2064 0.4457 l
s
n
0.1941 0.4544 m
0.2171 0.4544 l
s
n
1.2294 0.4544 m
1.2064 0.4544 l
s
n
0.1941 0.4617 m
0.2171 0.4617 l
s
n
1.2294 0.4617 m
1.2064 0.4617 l
s
n
0.1941 0.4681 m
0.2171 0.4681 l
s
n
1.2294 0.4681 m
1.2064 0.4681 l
s
n
0.1941 0.4737 m
0.2171 0.4737 l
s
n
1.2294 0.4737 m
1.2064 0.4737 l
s
n
0.1941 0.4787 m
0.2171 0.4787 l
s
n
1.2294 0.4787 m
1.2064 0.4787 l
s
n
0.1941 0.5117 m
0.2171 0.5117 l
s
n
1.2294 0.5117 m
1.2064 0.5117 l
s
n
0.1941 0.5310 m
0.2171 0.5310 l
s
n
1.2294 0.5310 m
1.2064 0.5310 l
s
n
0.1941 0.5447 m
0.2171 0.5447 l
s
n
1.2294 0.5447 m
1.2064 0.5447 l
s
n
0.1941 0.5553 m
0.2171 0.5553 l
s
n
1.2294 0.5553 m
1.2064 0.5553 l
s
n
0.1941 0.5640 m
0.2171 0.5640 l
s
n
1.2294 0.5640 m
1.2064 0.5640 l
s
n
0.1941 0.5713 m
0.2171 0.5713 l
s
n
1.2294 0.5713 m
1.2064 0.5713 l
s
n
0.1941 0.5777 m
0.2171 0.5777 l
s
n
1.2294 0.5777 m
1.2064 0.5777 l
s
n
0.1941 0.5833 m
0.2171 0.5833 l
s
n
1.2294 0.5833 m
1.2064 0.5833 l
s
n
0.1941 0.5883 m
0.2171 0.5883 l
s
n
1.2294 0.5883 m
1.2064 0.5883 l
s
n
0.1941 0.6213 m
0.2171 0.6213 l
s
n
1.2294 0.6213 m
1.2064 0.6213 l
s
n
0.1941 0.6406 m
0.2171 0.6406 l
s
n
1.2294 0.6406 m
1.2064 0.6406 l
s
n
0.1941 0.6543 m
0.2171 0.6543 l
s
n
1.2294 0.6543 m
1.2064 0.6543 l
s
n
0.1941 0.6649 m
0.2171 0.6649 l
s
n
1.2294 0.6649 m
1.2064 0.6649 l
s
n
0.1941 0.6736 m
0.2171 0.6736 l
s
n
1.2294 0.6736 m
1.2064 0.6736 l
s
n
0.1941 0.6809 m
0.2171 0.6809 l
s
n
1.2294 0.6809 m
1.2064 0.6809 l
s
n
0.1941 0.6872 m
0.2171 0.6872 l
s
n
1.2294 0.6872 m
1.2064 0.6872 l
s
n
0.1941 0.6929 m
0.2171 0.6929 l
s
n
1.2294 0.6929 m
1.2064 0.6929 l
s
n
0.1941 0.6979 m
0.2171 0.6979 l
s
n
1.2294 0.6979 m
1.2064 0.6979 l
s
n
0.1941 0.7309 m
0.2171 0.7309 l
s
n
1.2294 0.7309 m
1.2064 0.7309 l
s
n
0.1941 0.7501 m
0.2171 0.7501 l
s
n
1.2294 0.7501 m
1.2064 0.7501 l
s
n
0.1941 0.7638 m
0.2171 0.7638 l
s
n
1.2294 0.7638 m
1.2064 0.7638 l
s
n
0.1941 0.7745 m
0.2171 0.7745 l
s
n
1.2294 0.7745 m
1.2064 0.7745 l
s
n
0.1941 0.7831 m
0.2171 0.7831 l
s
n
1.2294 0.7831 m
1.2064 0.7831 l
s
n
0.1941 0.7905 m
0.2171 0.7905 l
s
n
1.2294 0.7905 m
1.2064 0.7905 l
s
n
0.1941 0.7968 m
0.2171 0.7968 l
s
n
1.2294 0.7968 m
1.2064 0.7968 l
s
n
0.1941 0.8024 m
0.2171 0.8024 l
s
n
1.2294 0.8024 m
1.2064 0.8024 l
s
n
0.1941 0.8074 m
0.2171 0.8074 l
s
n
1.2294 0.8074 m
1.2064 0.8074 l
s
n
0.1941 0.8404 m
0.2171 0.8404 l
s
n
1.2294 0.8404 m
1.2064 0.8404 l
s
n
0.1941 0.8597 m
0.2171 0.8597 l
s
n
1.2294 0.8597 m
1.2064 0.8597 l
s
n
0.1941 0.8734 m
0.2171 0.8734 l
s
n
1.2294 0.8734 m
1.2064 0.8734 l
s
n
0.1941 0.8840 m
0.2171 0.8840 l
s
n
1.2294 0.8840 m
1.2064 0.8840 l
s
n
0.1941 0.8927 m
0.2171 0.8927 l
s
n
1.2294 0.8927 m
1.2064 0.8927 l
s
n
0.1941 0.9000 m
0.2171 0.9000 l
s
n
1.2294 0.9000 m
1.2064 0.9000 l
s
n
0.1941 0.9064 m
0.2171 0.9064 l
s
n
1.2294 0.9064 m
1.2064 0.9064 l
s
n
0.1941 0.9120 m
0.2171 0.9120 l
s
n
1.2294 0.9120 m
1.2064 0.9120 l
s
n
0.1941 0.9170 m
0.2171 0.9170 l
s
n
1.2294 0.9170 m
1.2064 0.9170 l
s
n
0.1941 0.9500 m
0.2171 0.9500 l
s
n
1.2294 0.9500 m
1.2064 0.9500 l
s
n
0.1941 0.1500 m
0.2271 0.1500 l
s
n
1.2294 0.1500 m
1.1964 0.1500 l
s
n
0.1941 0.2596 m
0.2271 0.2596 l
s
n
1.2294 0.2596 m
1.1964 0.2596 l
s
n
0.1941 0.3691 m
0.2271 0.3691 l
s
n
1.2294 0.3691 m
1.1964 0.3691 l
s
n
0.1941 0.4787 m
0.2271 0.4787 l
s
n
1.2294 0.4787 m
1.1964 0.4787 l
s
n
0.1941 0.5883 m
0.2271 0.5883 l
s
n
1.2294 0.5883 m
1.1964 0.5883 l
s
n
0.1941 0.6979 m
0.2271 0.6979 l
s
n
1.2294 0.6979 m
1.1964 0.6979 l
s
n
0.1941 0.8074 m
0.2271 0.8074 l
s
n
1.2294 0.8074 m
1.1964 0.8074 l
s
n
0.1941 0.9170 m
0.2271 0.9170 l
s
n
1.2294 0.9170 m
1.1964 0.9170 l
s
/Font4 FFSF
0.1080 0.1303 m
GS
[0.0364 0.0000 0.0000 0.0364 0 0] CC
(10) show
GR
/Font4 FFSF
0.1484 0.1521 m
GS
[0.0257 0.0000 0.0000 0.0257 0 0] CC
(-30) show
GR
/Font4 FFSF
0.1080 0.2398 m
GS
[0.0364 0.0000 0.0000 0.0364 0 0] CC
(10) show
GR
/Font4 FFSF
0.1484 0.2617 m
GS
[0.0257 0.0000 0.0000 0.0257 0 0] CC
(-29) show
GR
/Font4 FFSF
0.1076 0.3494 m
GS
[0.0364 0.0000 0.0000 0.0364 0 0] CC
(10) show
GR
/Font4 FFSF
0.1480 0.3712 m
GS
[0.0257 0.0000 0.0000 0.0257 0 0] CC
(-28) show
GR
/Font4 FFSF
0.1076 0.4590 m
GS
[0.0364 0.0000 0.0000 0.0364 0 0] CC
(10) show
GR
/Font4 FFSF
0.1480 0.4808 m
GS
[0.0257 0.0000 0.0000 0.0257 0 0] CC
(-27) show
GR
/Font4 FFSF
0.1076 0.5686 m
GS
[0.0364 0.0000 0.0000 0.0364 0 0] CC
(10) show
GR
/Font4 FFSF
0.1480 0.5904 m
GS
[0.0257 0.0000 0.0000 0.0257 0 0] CC
(-26) show
GR
/Font4 FFSF
0.1076 0.6781 m
GS
[0.0364 0.0000 0.0000 0.0364 0 0] CC
(10) show
GR
/Font4 FFSF
0.1480 0.7000 m
GS
[0.0257 0.0000 0.0000 0.0257 0 0] CC
(-25) show
GR
/Font4 FFSF
0.1076 0.7877 m
GS
[0.0364 0.0000 0.0000 0.0364 0 0] CC
(10) show
GR
/Font4 FFSF
0.1480 0.8095 m
GS
[0.0257 0.0000 0.0000 0.0257 0 0] CC
(-24) show
GR
/Font4 FFSF
0.1080 0.8973 m
GS
[0.0364 0.0000 0.0000 0.0364 0 0] CC
(10) show
GR
/Font4 FFSF
0.1484 0.9191 m
GS
[0.0257 0.0000 0.0000 0.0257 0 0] CC
(-23) show
GR
/Font4 FFSF
0.0777 0.3402 m
GS
[0.0000 0.0490 -0.0490 0.0000 0 0] CC
(j) show
GR
/Font12 FFSF
0.0973 0.3512 m
GS
[0.0000 0.0346 -0.0346 0.0000 0 0] CC
(n) show
GR
/Font4 FFSF
0.0777 0.3692 m
GS
[0.0000 0.0490 -0.0490 0.0000 0 0] CC
( [erg cm) show
GR
/Font4 FFSF
0.0483 0.5461 m
GS
[0.0000 0.0346 -0.0346 0.0000 0 0] CC
(-3) show
GR
/Font4 FFSF
0.0777 0.5771 m
GS
[0.0000 0.0490 -0.0490 0.0000 0 0] CC
( s) show
GR
/Font4 FFSF
0.0483 0.6151 m
GS
[0.0000 0.0346 -0.0346 0.0000 0 0] CC
(-1) show
GR
/Font4 FFSF
0.0777 0.6461 m
GS
[0.0000 0.0490 -0.0490 0.0000 0 0] CC
( Hz) show
GR
/Font4 FFSF
0.0483 0.7194 m
GS
[0.0000 0.0346 -0.0346 0.0000 0 0] CC
(-1) show
GR
/Font4 FFSF
0.0777 0.7504 m
GS
[0.0000 0.0490 -0.0490 0.0000 0 0] CC
(]) show
GR
[] 0 SD
0.0045 SLW
n
0.1941 0.1500 m
0.1941 0.9500 l
1.2294 0.9500 l
1.2294 0.1500 l
0.1941 0.1500 l
c
s
%%Trailer
%%BoundingBox: 13 25 775 584
%%DocumentNeededResources: font Helvetica
%%+ font Symbol
%%EOF
