%!PS-Adobe-3.0 EPSF-3.0
%%BoundingBox: (atend)
%%LanguageLevel: 2
%%Creator: Grace-5.1.23
%%CreationDate: Thu Mar  5 15:15:23 2015
%%DocumentData: Clean8Bit
%%Orientation: Portrait
%%Title: Untitled
%%For: jesus
%%DocumentNeededResources: (atend)
%%EndComments
%%BeginProlog
/m {moveto} def
/l {lineto} def
/s {stroke} def
/n {newpath} def
/c {closepath} def
/RL {rlineto} def
/SLW {setlinewidth} def
/GS {gsave} def
/GR {grestore} def
/SC {setcolor} def
/SGRY {setgray} def
/SRGB {setrgbcolor} def
/SD {setdash} def
/SLC {setlinecap} def
/SLJ {setlinejoin} def
/SCS {setcolorspace} def
/FFSF {findfont setfont} def
/CC {concat} def
/PXL {n m 0 0 RL s} def
/Color0 {1.0000 1.0000 1.0000} def
/Color1 {0.0000 0.0000 0.0000} def
/Color2 {1.0000 0.0000 0.0000} def
/Color3 {0.0000 1.0000 0.0000} def
/Color4 {0.0000 0.0000 1.0000} def
/Color5 {1.0000 1.0000 0.0000} def
/Color6 {0.7373 0.5608 0.5608} def
/Color7 {0.8627 0.8627 0.8627} def
/Color8 {0.5804 0.0000 0.8275} def
/Color9 {0.0000 1.0000 1.0000} def
/Color10 {1.0000 0.0000 1.0000} def
/Color11 {1.0000 0.6471 0.0000} def
/Color12 {0.4471 0.1294 0.7373} def
/Color13 {0.4039 0.0275 0.2824} def
/Color14 {0.2510 0.8784 0.8157} def
/Color15 {0.0000 0.5451 0.0000} def
/PTRN {
 /pat_bits exch def 
 <<
  /PaintType 2
  /PatternType 1 /TilingType 1
  /BBox[0 0 16 16]
  /XStep 16 /YStep 16
  /PaintProc {
   pop
   16 16 true [-1 0 0 -1 16 16] pat_bits imagemask
  }
 >>
 [0.0016 0 0 0.0016 0 0]
 makepattern
} def
/Pattern0 {<0000000000000000000000000000000000000000000000000000000000000000> PTRN} bind def
/Pattern1 {<ffffffffffffffffffffffffffffffffffffffffffffffffffffffffffffffff> PTRN} bind def
/Pattern2 {<eeeeffffbbbbffffeeeeffffbbbbffffeeeeffffbbbbffffeeeeffffbbbbffff> PTRN} bind def
/Pattern3 {<eeeebbbbeeeebbbbeeeebbbbeeeebbbbeeeebbbbeeeebbbbeeeebbbbeeeebbbb> PTRN} bind def
/Pattern4 {<5555aaaa5555aaaa5555aaaa5555aaaa5555aaaa5555aaaa5555aaaa5555aaaa> PTRN} bind def
/Pattern5 {<1111444411114444111144441111444411114444111144441111444411114444> PTRN} bind def
/Pattern6 {<1111000044440000111100004444000011110000444400001111000044440000> PTRN} bind def
/Pattern7 {<1010000000000000010100000000000010100000000000000101000000000000> PTRN} bind def
/Pattern8 {<0000000000000000000000000000000000000000000000000000000000000000> PTRN} bind def
/Pattern9 {<1e1e0f0f8787c3c3e1e1f0f078783c3c1e1e0f0f8787c3c3e1e1f0f078783c3c> PTRN} bind def
/Pattern10 {<7878f0f0e1e1c3c387870f0f1e1e3c3c7878f0f0e1e1c3c387870f0f1e1e3c3c> PTRN} bind def
/Pattern11 {<3333333333333333333333333333333333333333333333333333333333333333> PTRN} bind def
/Pattern12 {<ffffffff00000000ffffffff00000000ffffffff00000000ffffffff00000000> PTRN} bind def
/Pattern13 {<8181424224241818181824244242818181814242242418181818242442428181> PTRN} bind def
/Pattern14 {<8080404020201010080804040202010180804040202010100808040402020101> PTRN} bind def
/Pattern15 {<0101020204040808101020204040808001010202040408081010202040408080> PTRN} bind def
/Pattern16 {<2222222222222222222222222222222222222222222222222222222222222222> PTRN} bind def
/Pattern17 {<0000ffff000000000000ffff000000000000ffff000000000000ffff00000000> PTRN} bind def
/Pattern18 {<2222ffff222222222222ffff222222222222ffff222222222222ffff22222222> PTRN} bind def
/Pattern19 {<ffffffff33333333ffffffff33333333ffffffff33333333ffffffff33333333> PTRN} bind def
/Pattern20 {<0f0f0f0f0f0f0f0ff0f0f0f0f0f0f0f00f0f0f0f0f0f0f0ff0f0f0f0f0f0f0f0> PTRN} bind def
/Pattern21 {<ff00ff00ff00ff00ff00ff00ff00ff0000ff00ff00ff00ff00ff00ff00ff00ff> PTRN} bind def
/Pattern22 {<8001800180018001800180018001ffffffff8001800180018001800180018001> PTRN} bind def
/Pattern23 {<c003c003c003c003c003c003ffffffffffffffffc003c003c003c003c003c003> PTRN} bind def
/Pattern24 {<040404040404ffff404040404040ffff040404040404ffff404040404040ffff> PTRN} bind def
/Pattern25 {<180018001800180018001800ffffffff001800180018001800180018ffffffff> PTRN} bind def
/Pattern26 {<1111b8b87c7c3a3a1111a3a3c7c78b8b1111b8b87c7c3a3a1111a3a3c7c78b8b> PTRN} bind def
/Pattern27 {<101010102828c7c70101010182827c7c101010102828c7c70101010182827c7c> PTRN} bind def
/Pattern28 {<1c1c121211112121c1c12121111112121c1c121211112121c1c1212111111212> PTRN} bind def
/Pattern29 {<3e3e414180808080e3e31414080808083e3e414180808080e3e3141408080808> PTRN} bind def
/Pattern30 {<4848888884848383848488884848383848488888848483838484888848483838> PTRN} bind def
/Pattern31 {<03030404080808080c0c12122121c0c003030404080808080c0c12122121c0c0> PTRN} bind def
/ellipsedict 8 dict def
ellipsedict /mtrx matrix put
/EARC {
 ellipsedict begin
  /endangle exch def
  /startangle exch def
  /yrad exch def
  /xrad exch def
  /y exch def
  /x exch def
  /savematrix mtrx currentmatrix def
  x y translate
  xrad yrad scale
  0 0 1 startangle endangle arc
  savematrix setmatrix
 end
} def
/TL {
  /kcomp exch def
  /linewidth exch def
  /offset exch def
  GS
  0 offset rmoveto
  linewidth SLW
  dup stringwidth exch kcomp add exch RL s
  GR
} def
/KINIT
{
 /kvector exch def
 /kid 0 def
} def
/KPROC
{
 pop pop
 kvector kid get
 0 rmoveto
 /kid 1 kid add def
} def
/DefEncoding [
 /.notdef
 /.notdef
 /.notdef
 /.notdef
 /.notdef
 /.notdef
 /.notdef
 /.notdef
 /.notdef
 /.notdef
 /.notdef
 /.notdef
 /.notdef
 /.notdef
 /.notdef
 /.notdef
 /.notdef
 /.notdef
 /.notdef
 /.notdef
 /.notdef
 /.notdef
 /.notdef
 /.notdef
 /.notdef
 /.notdef
 /.notdef
 /.notdef
 /.notdef
 /.notdef
 /.notdef
 /.notdef
 /space
 /exclam
 /quotedbl
 /numbersign
 /dollar
 /percent
 /ampersand
 /quoteright
 /parenleft
 /parenright
 /asterisk
 /plus
 /comma
 /hyphen
 /period
 /slash
 /zero
 /one
 /two
 /three
 /four
 /five
 /six
 /seven
 /eight
 /nine
 /colon
 /semicolon
 /less
 /equal
 /greater
 /question
 /at
 /A
 /B
 /C
 /D
 /E
 /F
 /G
 /H
 /I
 /J
 /K
 /L
 /M
 /N
 /O
 /P
 /Q
 /R
 /S
 /T
 /U
 /V
 /W
 /X
 /Y
 /Z
 /bracketleft
 /backslash
 /bracketright
 /asciicircum
 /underscore
 /grave
 /a
 /b
 /c
 /d
 /e
 /f
 /g
 /h
 /i
 /j
 /k
 /l
 /m
 /n
 /o
 /p
 /q
 /r
 /s
 /t
 /u
 /v
 /w
 /x
 /y
 /z
 /braceleft
 /bar
 /braceright
 /asciitilde
 /.notdef
 /.notdef
 /.notdef
 /.notdef
 /.notdef
 /.notdef
 /.notdef
 /.notdef
 /.notdef
 /.notdef
 /.notdef
 /.notdef
 /.notdef
 /.notdef
 /.notdef
 /.notdef
 /.notdef
 /.notdef
 /.notdef
 /.notdef
 /.notdef
 /.notdef
 /.notdef
 /.notdef
 /.notdef
 /.notdef
 /.notdef
 /.notdef
 /.notdef
 /.notdef
 /.notdef
 /.notdef
 /.notdef
 /space
 /exclamdown
 /cent
 /sterling
 /currency
 /yen
 /brokenbar
 /section
 /dieresis
 /copyright
 /ordfeminine
 /guillemotleft
 /logicalnot
 /hyphen
 /registered
 /macron
 /degree
 /plusminus
 /twosuperior
 /threesuperior
 /acute
 /mu
 /paragraph
 /periodcentered
 /cedilla
 /onesuperior
 /ordmasculine
 /guillemotright
 /onequarter
 /onehalf
 /threequarters
 /questiondown
 /Agrave
 /Aacute
 /Acircumflex
 /Atilde
 /Adieresis
 /Aring
 /AE
 /Ccedilla
 /Egrave
 /Eacute
 /Ecircumflex
 /Edieresis
 /Igrave
 /Iacute
 /Icircumflex
 /Idieresis
 /Eth
 /Ntilde
 /Ograve
 /Oacute
 /Ocircumflex
 /Otilde
 /Odieresis
 /multiply
 /Oslash
 /Ugrave
 /Uacute
 /Ucircumflex
 /Udieresis
 /Yacute
 /Thorn
 /germandbls
 /agrave
 /aacute
 /acircumflex
 /atilde
 /adieresis
 /aring
 /ae
 /ccedilla
 /egrave
 /eacute
 /ecircumflex
 /edieresis
 /igrave
 /iacute
 /icircumflex
 /idieresis
 /eth
 /ntilde
 /ograve
 /oacute
 /ocircumflex
 /otilde
 /odieresis
 /divide
 /oslash
 /ugrave
 /uacute
 /ucircumflex
 /udieresis
 /yacute
 /thorn
 /ydieresis
] def
%%EndProlog
%%BeginSetup
%%EndSetup
612.00 612.00 scale
[/DeviceRGB] SCS
Color1 SC
[] 0 SD
0.0030 SLW
0 SLC
0 SLJ
n
0.5351 0.1499 m
0.5358 0.3861 l
0.5378 0.8166 l
0.5399 0.8784 l
0.5420 0.5560 l
0.5431 0.1499 l
s
n
0.6397 0.1499 m
0.6414 0.5351 l
0.6434 0.6619 l
0.6455 0.4071 l
0.6463 0.1499 l
s
n
0.7013 0.1499 m
0.7014 0.1818 l
0.7035 0.4386 l
0.7056 0.3193 l
0.7062 0.1499 l
s
n
0.7461 0.1499 m
0.7470 0.2265 l
0.7478 0.1499 l
s
n
0.5392 0.8701 m
0.5302 0.8545 l
0.5482 0.8545 l
c
[/DeviceRGB] SCS
Color4 SC
fill
n
0.6431 0.6633 m
0.6341 0.6477 l
0.6521 0.6477 l
c
fill
n
0.7039 0.4539 m
0.6949 0.4383 l
0.7129 0.4383 l
c
fill
n
0.7470 0.2435 m
0.7380 0.2280 l
0.7560 0.2280 l
c
fill
[/DeviceRGB] SCS
Color1 SC
n
0.1941 0.1500 m
1.2294 0.1500 l
s
n
0.1941 0.9500 m
1.2294 0.9500 l
s
n
0.2980 0.1500 m
0.2980 0.1730 l
s
n
0.2980 0.9500 m
0.2980 0.9270 l
s
n
0.3588 0.1500 m
0.3588 0.1730 l
s
n
0.3588 0.9500 m
0.3588 0.9270 l
s
n
0.4019 0.1500 m
0.4019 0.1730 l
s
n
0.4019 0.9500 m
0.4019 0.9270 l
s
n
0.4353 0.1500 m
0.4353 0.1730 l
s
n
0.4353 0.9500 m
0.4353 0.9270 l
s
n
0.4627 0.1500 m
0.4627 0.1730 l
s
n
0.4627 0.9500 m
0.4627 0.9270 l
s
n
0.4858 0.1500 m
0.4858 0.1730 l
s
n
0.4858 0.9500 m
0.4858 0.9270 l
s
n
0.5058 0.1500 m
0.5058 0.1730 l
s
n
0.5058 0.9500 m
0.5058 0.9270 l
s
n
0.5234 0.1500 m
0.5234 0.1730 l
s
n
0.5234 0.9500 m
0.5234 0.9270 l
s
n
0.5392 0.1500 m
0.5392 0.1730 l
s
n
0.5392 0.9500 m
0.5392 0.9270 l
s
n
0.6431 0.1500 m
0.6431 0.1730 l
s
n
0.6431 0.9500 m
0.6431 0.9270 l
s
n
0.7039 0.1500 m
0.7039 0.1730 l
s
n
0.7039 0.9500 m
0.7039 0.9270 l
s
n
0.7470 0.1500 m
0.7470 0.1730 l
s
n
0.7470 0.9500 m
0.7470 0.9270 l
s
n
0.7804 0.1500 m
0.7804 0.1730 l
s
n
0.7804 0.9500 m
0.7804 0.9270 l
s
n
0.8078 0.1500 m
0.8078 0.1730 l
s
n
0.8078 0.9500 m
0.8078 0.9270 l
s
n
0.8309 0.1500 m
0.8309 0.1730 l
s
n
0.8309 0.9500 m
0.8309 0.9270 l
s
n
0.8509 0.1500 m
0.8509 0.1730 l
s
n
0.8509 0.9500 m
0.8509 0.9270 l
s
n
0.8685 0.1500 m
0.8685 0.1730 l
s
n
0.8685 0.9500 m
0.8685 0.9270 l
s
n
0.8843 0.1500 m
0.8843 0.1730 l
s
n
0.8843 0.9500 m
0.8843 0.9270 l
s
n
0.9882 0.1500 m
0.9882 0.1730 l
s
n
0.9882 0.9500 m
0.9882 0.9270 l
s
n
1.0490 0.1500 m
1.0490 0.1730 l
s
n
1.0490 0.9500 m
1.0490 0.9270 l
s
n
1.0921 0.1500 m
1.0921 0.1730 l
s
n
1.0921 0.9500 m
1.0921 0.9270 l
s
n
1.1255 0.1500 m
1.1255 0.1730 l
s
n
1.1255 0.9500 m
1.1255 0.9270 l
s
n
1.1529 0.1500 m
1.1529 0.1730 l
s
n
1.1529 0.9500 m
1.1529 0.9270 l
s
n
1.1760 0.1500 m
1.1760 0.1730 l
s
n
1.1760 0.9500 m
1.1760 0.9270 l
s
n
1.1960 0.1500 m
1.1960 0.1730 l
s
n
1.1960 0.9500 m
1.1960 0.9270 l
s
n
1.2136 0.1500 m
1.2136 0.1730 l
s
n
1.2136 0.9500 m
1.2136 0.9270 l
s
n
1.2294 0.1500 m
1.2294 0.1730 l
s
n
1.2294 0.9500 m
1.2294 0.9270 l
s
n
0.1941 0.1500 m
0.1941 0.1830 l
s
n
0.1941 0.9500 m
0.1941 0.9170 l
s
n
0.5392 0.1500 m
0.5392 0.1830 l
s
n
0.5392 0.9500 m
0.5392 0.9170 l
s
n
0.8843 0.1500 m
0.8843 0.1830 l
s
n
0.8843 0.9500 m
0.8843 0.9170 l
s
n
1.2294 0.1500 m
1.2294 0.1830 l
s
n
1.2294 0.9500 m
1.2294 0.9170 l
s
/Helvetica findfont
dup length dict begin
 {1 index /FID ne {def} {pop pop} ifelse} forall
 /Encoding DefEncoding def
 currentdict
end
/Font4 exch definefont pop
/Font4 FFSF
0.1651 0.0997 m
GS
[0.0364 0.0000 0.0000 0.0364 0 0] CC
(10) show
GR
/Font4 FFSF
0.2055 0.1216 m
GS
[0.0257 0.0000 0.0000 0.0257 0 0] CC
(-1) show
GR
/Font4 FFSF
0.5125 0.0997 m
GS
[0.0364 0.0000 0.0000 0.0364 0 0] CC
(10) show
GR
/Font4 FFSF
0.5529 0.1216 m
GS
[0.0257 0.0000 0.0000 0.0257 0 0] CC
(0) show
GR
/Font4 FFSF
0.8596 0.0997 m
GS
[0.0364 0.0000 0.0000 0.0364 0 0] CC
(10) show
GR
/Font4 FFSF
0.9000 0.1216 m
GS
[0.0257 0.0000 0.0000 0.0257 0 0] CC
(1) show
GR
/Font4 FFSF
1.2025 0.0997 m
GS
[0.0364 0.0000 0.0000 0.0364 0 0] CC
(10) show
GR
/Font4 FFSF
1.2429 0.1216 m
GS
[0.0257 0.0000 0.0000 0.0257 0 0] CC
(2) show
GR
/Symbol findfont
/Font12 exch definefont pop
/Font12 FFSF
0.6990 0.0638 m
GS
[0.0490 0.0000 0.0000 0.0490 0 0] CC
(c) show
GR
n
0.1941 0.1500 m
0.1941 0.9500 l
s
n
1.2294 0.1500 m
1.2294 0.9500 l
s
n
0.1941 0.1672 m
0.2171 0.1672 l
s
n
1.2294 0.1672 m
1.2064 0.1672 l
s
n
0.1941 0.1773 m
0.2171 0.1773 l
s
n
1.2294 0.1773 m
1.2064 0.1773 l
s
n
0.1941 0.1844 m
0.2171 0.1844 l
s
n
1.2294 0.1844 m
1.2064 0.1844 l
s
n
0.1941 0.1899 m
0.2171 0.1899 l
s
n
1.2294 0.1899 m
1.2064 0.1899 l
s
n
0.1941 0.1945 m
0.2171 0.1945 l
s
n
1.2294 0.1945 m
1.2064 0.1945 l
s
n
0.1941 0.1983 m
0.2171 0.1983 l
s
n
1.2294 0.1983 m
1.2064 0.1983 l
s
n
0.1941 0.2016 m
0.2171 0.2016 l
s
n
1.2294 0.2016 m
1.2064 0.2016 l
s
n
0.1941 0.2045 m
0.2171 0.2045 l
s
n
1.2294 0.2045 m
1.2064 0.2045 l
s
n
0.1941 0.2071 m
0.2171 0.2071 l
s
n
1.2294 0.2071 m
1.2064 0.2071 l
s
n
0.1941 0.2815 m
0.2171 0.2815 l
s
n
1.2294 0.2815 m
1.2064 0.2815 l
s
n
0.1941 0.2915 m
0.2171 0.2915 l
s
n
1.2294 0.2915 m
1.2064 0.2915 l
s
n
0.1941 0.2987 m
0.2171 0.2987 l
s
n
1.2294 0.2987 m
1.2064 0.2987 l
s
n
0.1941 0.3042 m
0.2171 0.3042 l
s
n
1.2294 0.3042 m
1.2064 0.3042 l
s
n
0.1941 0.3088 m
0.2171 0.3088 l
s
n
1.2294 0.3088 m
1.2064 0.3088 l
s
n
0.1941 0.3126 m
0.2171 0.3126 l
s
n
1.2294 0.3126 m
1.2064 0.3126 l
s
n
0.1941 0.3159 m
0.2171 0.3159 l
s
n
1.2294 0.3159 m
1.2064 0.3159 l
s
n
0.1941 0.3188 m
0.2171 0.3188 l
s
n
1.2294 0.3188 m
1.2064 0.3188 l
s
n
0.1941 0.3214 m
0.2171 0.3214 l
s
n
1.2294 0.3214 m
1.2064 0.3214 l
s
n
0.1941 0.3958 m
0.2171 0.3958 l
s
n
1.2294 0.3958 m
1.2064 0.3958 l
s
n
0.1941 0.4058 m
0.2171 0.4058 l
s
n
1.2294 0.4058 m
1.2064 0.4058 l
s
n
0.1941 0.4130 m
0.2171 0.4130 l
s
n
1.2294 0.4130 m
1.2064 0.4130 l
s
n
0.1941 0.4185 m
0.2171 0.4185 l
s
n
1.2294 0.4185 m
1.2064 0.4185 l
s
n
0.1941 0.4230 m
0.2171 0.4230 l
s
n
1.2294 0.4230 m
1.2064 0.4230 l
s
n
0.1941 0.4269 m
0.2171 0.4269 l
s
n
1.2294 0.4269 m
1.2064 0.4269 l
s
n
0.1941 0.4302 m
0.2171 0.4302 l
s
n
1.2294 0.4302 m
1.2064 0.4302 l
s
n
0.1941 0.4331 m
0.2171 0.4331 l
s
n
1.2294 0.4331 m
1.2064 0.4331 l
s
n
0.1941 0.4357 m
0.2171 0.4357 l
s
n
1.2294 0.4357 m
1.2064 0.4357 l
s
n
0.1941 0.5101 m
0.2171 0.5101 l
s
n
1.2294 0.5101 m
1.2064 0.5101 l
s
n
0.1941 0.5201 m
0.2171 0.5201 l
s
n
1.2294 0.5201 m
1.2064 0.5201 l
s
n
0.1941 0.5273 m
0.2171 0.5273 l
s
n
1.2294 0.5273 m
1.2064 0.5273 l
s
n
0.1941 0.5328 m
0.2171 0.5328 l
s
n
1.2294 0.5328 m
1.2064 0.5328 l
s
n
0.1941 0.5373 m
0.2171 0.5373 l
s
n
1.2294 0.5373 m
1.2064 0.5373 l
s
n
0.1941 0.5411 m
0.2171 0.5411 l
s
n
1.2294 0.5411 m
1.2064 0.5411 l
s
n
0.1941 0.5445 m
0.2171 0.5445 l
s
n
1.2294 0.5445 m
1.2064 0.5445 l
s
n
0.1941 0.5474 m
0.2171 0.5474 l
s
n
1.2294 0.5474 m
1.2064 0.5474 l
s
n
0.1941 0.5500 m
0.2171 0.5500 l
s
n
1.2294 0.5500 m
1.2064 0.5500 l
s
n
0.1941 0.6243 m
0.2171 0.6243 l
s
n
1.2294 0.6243 m
1.2064 0.6243 l
s
n
0.1941 0.6344 m
0.2171 0.6344 l
s
n
1.2294 0.6344 m
1.2064 0.6344 l
s
n
0.1941 0.6415 m
0.2171 0.6415 l
s
n
1.2294 0.6415 m
1.2064 0.6415 l
s
n
0.1941 0.6471 m
0.2171 0.6471 l
s
n
1.2294 0.6471 m
1.2064 0.6471 l
s
n
0.1941 0.6516 m
0.2171 0.6516 l
s
n
1.2294 0.6516 m
1.2064 0.6516 l
s
n
0.1941 0.6554 m
0.2171 0.6554 l
s
n
1.2294 0.6554 m
1.2064 0.6554 l
s
n
0.1941 0.6587 m
0.2171 0.6587 l
s
n
1.2294 0.6587 m
1.2064 0.6587 l
s
n
0.1941 0.6617 m
0.2171 0.6617 l
s
n
1.2294 0.6617 m
1.2064 0.6617 l
s
n
0.1941 0.6643 m
0.2171 0.6643 l
s
n
1.2294 0.6643 m
1.2064 0.6643 l
s
n
0.1941 0.7386 m
0.2171 0.7386 l
s
n
1.2294 0.7386 m
1.2064 0.7386 l
s
n
0.1941 0.7487 m
0.2171 0.7487 l
s
n
1.2294 0.7487 m
1.2064 0.7487 l
s
n
0.1941 0.7558 m
0.2171 0.7558 l
s
n
1.2294 0.7558 m
1.2064 0.7558 l
s
n
0.1941 0.7614 m
0.2171 0.7614 l
s
n
1.2294 0.7614 m
1.2064 0.7614 l
s
n
0.1941 0.7659 m
0.2171 0.7659 l
s
n
1.2294 0.7659 m
1.2064 0.7659 l
s
n
0.1941 0.7697 m
0.2171 0.7697 l
s
n
1.2294 0.7697 m
1.2064 0.7697 l
s
n
0.1941 0.7730 m
0.2171 0.7730 l
s
n
1.2294 0.7730 m
1.2064 0.7730 l
s
n
0.1941 0.7760 m
0.2171 0.7760 l
s
n
1.2294 0.7760 m
1.2064 0.7760 l
s
n
0.1941 0.7786 m
0.2171 0.7786 l
s
n
1.2294 0.7786 m
1.2064 0.7786 l
s
n
0.1941 0.8529 m
0.2171 0.8529 l
s
n
1.2294 0.8529 m
1.2064 0.8529 l
s
n
0.1941 0.8630 m
0.2171 0.8630 l
s
n
1.2294 0.8630 m
1.2064 0.8630 l
s
n
0.1941 0.8701 m
0.2171 0.8701 l
s
n
1.2294 0.8701 m
1.2064 0.8701 l
s
n
0.1941 0.8757 m
0.2171 0.8757 l
s
n
1.2294 0.8757 m
1.2064 0.8757 l
s
n
0.1941 0.8802 m
0.2171 0.8802 l
s
n
1.2294 0.8802 m
1.2064 0.8802 l
s
n
0.1941 0.8840 m
0.2171 0.8840 l
s
n
1.2294 0.8840 m
1.2064 0.8840 l
s
n
0.1941 0.8873 m
0.2171 0.8873 l
s
n
1.2294 0.8873 m
1.2064 0.8873 l
s
n
0.1941 0.8902 m
0.2171 0.8902 l
s
n
1.2294 0.8902 m
1.2064 0.8902 l
s
n
0.1941 0.8929 m
0.2171 0.8929 l
s
n
1.2294 0.8929 m
1.2064 0.8929 l
s
n
0.1941 0.1500 m
0.2271 0.1500 l
s
n
1.2294 0.1500 m
1.1964 0.1500 l
s
n
0.1941 0.2643 m
0.2271 0.2643 l
s
n
1.2294 0.2643 m
1.1964 0.2643 l
s
n
0.1941 0.3786 m
0.2271 0.3786 l
s
n
1.2294 0.3786 m
1.1964 0.3786 l
s
n
0.1941 0.4929 m
0.2271 0.4929 l
s
n
1.2294 0.4929 m
1.1964 0.4929 l
s
n
0.1941 0.6071 m
0.2271 0.6071 l
s
n
1.2294 0.6071 m
1.1964 0.6071 l
s
n
0.1941 0.7214 m
0.2271 0.7214 l
s
n
1.2294 0.7214 m
1.1964 0.7214 l
s
n
0.1941 0.8357 m
0.2271 0.8357 l
s
n
1.2294 0.8357 m
1.1964 0.8357 l
s
n
0.1941 0.9500 m
0.2271 0.9500 l
s
n
1.2294 0.9500 m
1.1964 0.9500 l
s
/Font4 FFSF
0.1076 0.1303 m
GS
[0.0364 0.0000 0.0000 0.0364 0 0] CC
(10) show
GR
/Font4 FFSF
0.1480 0.1521 m
GS
[0.0257 0.0000 0.0000 0.0257 0 0] CC
(-15) show
GR
/Font4 FFSF
0.1080 0.2445 m
GS
[0.0364 0.0000 0.0000 0.0364 0 0] CC
(10) show
GR
/Font4 FFSF
0.1484 0.2664 m
GS
[0.0257 0.0000 0.0000 0.0257 0 0] CC
(-13) show
GR
/Font4 FFSF
0.1120 0.3588 m
GS
[0.0364 0.0000 0.0000 0.0364 0 0] CC
(10) show
GR
/Font4 FFSF
0.1524 0.3807 m
GS
[0.0257 0.0000 0.0000 0.0257 0 0] CC
(-11) show
GR
/Font4 FFSF
0.1222 0.4731 m
GS
[0.0364 0.0000 0.0000 0.0364 0 0] CC
(10) show
GR
/Font4 FFSF
0.1625 0.4950 m
GS
[0.0257 0.0000 0.0000 0.0257 0 0] CC
(-9) show
GR
/Font4 FFSF
0.1218 0.5874 m
GS
[0.0364 0.0000 0.0000 0.0364 0 0] CC
(10) show
GR
/Font4 FFSF
0.1622 0.6092 m
GS
[0.0257 0.0000 0.0000 0.0257 0 0] CC
(-7) show
GR
/Font4 FFSF
0.1218 0.7017 m
GS
[0.0364 0.0000 0.0000 0.0364 0 0] CC
(10) show
GR
/Font4 FFSF
0.1622 0.7235 m
GS
[0.0257 0.0000 0.0000 0.0257 0 0] CC
(-5) show
GR
/Font4 FFSF
0.1222 0.8160 m
GS
[0.0364 0.0000 0.0000 0.0364 0 0] CC
(10) show
GR
/Font4 FFSF
0.1625 0.8378 m
GS
[0.0257 0.0000 0.0000 0.0257 0 0] CC
(-3) show
GR
/Font4 FFSF
0.1261 0.9303 m
GS
[0.0364 0.0000 0.0000 0.0364 0 0] CC
(10) show
GR
/Font4 FFSF
0.1665 0.9521 m
GS
[0.0257 0.0000 0.0000 0.0257 0 0] CC
(-1) show
GR
/Font4 FFSF
0.0710 0.4563 m
GS
[0.0000 0.0490 -0.0490 0.0000 0 0] CC
(j) show
GR
/Font12 FFSF
0.0906 0.4673 m
GS
[0.0000 0.0346 -0.0346 0.0000 0 0] CC
(c) show
GR
/Font4 FFSF
0.0710 0.4865 m
GS
[0.0000 0.0490 -0.0490 0.0000 0 0] CC
(\(c/e) show
GR
/Font4 FFSF
0.0416 0.5680 m
GS
[0.0000 0.0346 -0.0346 0.0000 0 0] CC
(2) show
GR
/Font12 FFSF
0.0710 0.5873 m
GS
[0.0000 0.0490 -0.0490 0.0000 0 0] CC
(n) show
GR
/Font4 FFSF
0.0906 0.6127 m
GS
[0.0000 0.0346 -0.0346 0.0000 0 0] CC
(b) show
GR
/Font4 FFSF
0.0710 0.6320 m
GS
[0.0000 0.0490 -0.0490 0.0000 0 0] CC
(\)) show
GR
n
0.1941 0.1500 m
0.1941 0.9500 l
1.2294 0.9500 l
1.2294 0.1500 l
0.1941 0.1500 l
c
s
n
0.8000 0.8500 m
0.8000 0.7212 l
1.0983 0.7212 l
1.0983 0.8500 l
c
[/DeviceRGB] SCS
Color0 SC
fill
[/DeviceRGB] SCS
Color1 SC
n
0.8000 0.8500 m
0.8000 0.7212 l
1.0983 0.7212 l
1.0983 0.8500 l
0.8000 0.8500 l
c
s
/Font4 FFSF
0.8605 0.8133 m
GS
[0.0364 0.0000 0.0000 0.0364 0 0] CC
(Numeric) show
GR
n
0.8115 0.8263 m
0.8415 0.8263 l
s
/Font4 FFSF
0.8605 0.7755 m
GS
[0.0364 0.0000 0.0000 0.0364 0 0] CC
(Cyclotron limit) show
GR
/Font4 FFSF
0.8605 0.7391 m
GS
[0.0364 0.0000 0.0000 0.0364 0 0] CC
(\(harmonics\)) show
GR
n
0.8265 0.7773 m
0.8175 0.7617 l
0.8355 0.7617 l
c
[/DeviceRGB] SCS
Color4 SC
fill
%%Trailer
%%BoundingBox: 9 31 770 595
%%DocumentNeededResources: font Helvetica
%%+ font Symbol
%%EOF
