%!PS-Adobe-3.0 EPSF-3.0
%%BoundingBox: (atend)
%%LanguageLevel: 2
%%Creator: Grace-5.1.23
%%CreationDate: Thu Mar  5 15:07:57 2015
%%DocumentData: Clean8Bit
%%Orientation: Portrait
%%Title: Untitled
%%For: jesus
%%DocumentNeededResources: (atend)
%%EndComments
%%BeginProlog
/m {moveto} def
/l {lineto} def
/s {stroke} def
/n {newpath} def
/c {closepath} def
/RL {rlineto} def
/SLW {setlinewidth} def
/GS {gsave} def
/GR {grestore} def
/SC {setcolor} def
/SGRY {setgray} def
/SRGB {setrgbcolor} def
/SD {setdash} def
/SLC {setlinecap} def
/SLJ {setlinejoin} def
/SCS {setcolorspace} def
/FFSF {findfont setfont} def
/CC {concat} def
/PXL {n m 0 0 RL s} def
/Color0 {1.0000 1.0000 1.0000} def
/Color1 {0.0000 0.0000 0.0000} def
/Color2 {1.0000 0.0000 0.0000} def
/Color3 {0.0000 1.0000 0.0000} def
/Color4 {0.0000 0.0000 1.0000} def
/Color5 {1.0000 1.0000 0.0000} def
/Color6 {0.7373 0.5608 0.5608} def
/Color7 {0.8627 0.8627 0.8627} def
/Color8 {0.5804 0.0000 0.8275} def
/Color9 {0.0000 1.0000 1.0000} def
/Color10 {1.0000 0.0000 1.0000} def
/Color11 {1.0000 0.6471 0.0000} def
/Color12 {0.4471 0.1294 0.7373} def
/Color13 {0.4039 0.0275 0.2824} def
/Color14 {0.2510 0.8784 0.8157} def
/Color15 {0.0000 0.5451 0.0000} def
/PTRN {
 /pat_bits exch def 
 <<
  /PaintType 2
  /PatternType 1 /TilingType 1
  /BBox[0 0 16 16]
  /XStep 16 /YStep 16
  /PaintProc {
   pop
   16 16 true [-1 0 0 -1 16 16] pat_bits imagemask
  }
 >>
 [0.0016 0 0 0.0016 0 0]
 makepattern
} def
/Pattern0 {<0000000000000000000000000000000000000000000000000000000000000000> PTRN} bind def
/Pattern1 {<ffffffffffffffffffffffffffffffffffffffffffffffffffffffffffffffff> PTRN} bind def
/Pattern2 {<eeeeffffbbbbffffeeeeffffbbbbffffeeeeffffbbbbffffeeeeffffbbbbffff> PTRN} bind def
/Pattern3 {<eeeebbbbeeeebbbbeeeebbbbeeeebbbbeeeebbbbeeeebbbbeeeebbbbeeeebbbb> PTRN} bind def
/Pattern4 {<5555aaaa5555aaaa5555aaaa5555aaaa5555aaaa5555aaaa5555aaaa5555aaaa> PTRN} bind def
/Pattern5 {<1111444411114444111144441111444411114444111144441111444411114444> PTRN} bind def
/Pattern6 {<1111000044440000111100004444000011110000444400001111000044440000> PTRN} bind def
/Pattern7 {<1010000000000000010100000000000010100000000000000101000000000000> PTRN} bind def
/Pattern8 {<0000000000000000000000000000000000000000000000000000000000000000> PTRN} bind def
/Pattern9 {<1e1e0f0f8787c3c3e1e1f0f078783c3c1e1e0f0f8787c3c3e1e1f0f078783c3c> PTRN} bind def
/Pattern10 {<7878f0f0e1e1c3c387870f0f1e1e3c3c7878f0f0e1e1c3c387870f0f1e1e3c3c> PTRN} bind def
/Pattern11 {<3333333333333333333333333333333333333333333333333333333333333333> PTRN} bind def
/Pattern12 {<ffffffff00000000ffffffff00000000ffffffff00000000ffffffff00000000> PTRN} bind def
/Pattern13 {<8181424224241818181824244242818181814242242418181818242442428181> PTRN} bind def
/Pattern14 {<8080404020201010080804040202010180804040202010100808040402020101> PTRN} bind def
/Pattern15 {<0101020204040808101020204040808001010202040408081010202040408080> PTRN} bind def
/Pattern16 {<2222222222222222222222222222222222222222222222222222222222222222> PTRN} bind def
/Pattern17 {<0000ffff000000000000ffff000000000000ffff000000000000ffff00000000> PTRN} bind def
/Pattern18 {<2222ffff222222222222ffff222222222222ffff222222222222ffff22222222> PTRN} bind def
/Pattern19 {<ffffffff33333333ffffffff33333333ffffffff33333333ffffffff33333333> PTRN} bind def
/Pattern20 {<0f0f0f0f0f0f0f0ff0f0f0f0f0f0f0f00f0f0f0f0f0f0f0ff0f0f0f0f0f0f0f0> PTRN} bind def
/Pattern21 {<ff00ff00ff00ff00ff00ff00ff00ff0000ff00ff00ff00ff00ff00ff00ff00ff> PTRN} bind def
/Pattern22 {<8001800180018001800180018001ffffffff8001800180018001800180018001> PTRN} bind def
/Pattern23 {<c003c003c003c003c003c003ffffffffffffffffc003c003c003c003c003c003> PTRN} bind def
/Pattern24 {<040404040404ffff404040404040ffff040404040404ffff404040404040ffff> PTRN} bind def
/Pattern25 {<180018001800180018001800ffffffff001800180018001800180018ffffffff> PTRN} bind def
/Pattern26 {<1111b8b87c7c3a3a1111a3a3c7c78b8b1111b8b87c7c3a3a1111a3a3c7c78b8b> PTRN} bind def
/Pattern27 {<101010102828c7c70101010182827c7c101010102828c7c70101010182827c7c> PTRN} bind def
/Pattern28 {<1c1c121211112121c1c12121111112121c1c121211112121c1c1212111111212> PTRN} bind def
/Pattern29 {<3e3e414180808080e3e31414080808083e3e414180808080e3e3141408080808> PTRN} bind def
/Pattern30 {<4848888884848383848488884848383848488888848483838484888848483838> PTRN} bind def
/Pattern31 {<03030404080808080c0c12122121c0c003030404080808080c0c12122121c0c0> PTRN} bind def
/ellipsedict 8 dict def
ellipsedict /mtrx matrix put
/EARC {
 ellipsedict begin
  /endangle exch def
  /startangle exch def
  /yrad exch def
  /xrad exch def
  /y exch def
  /x exch def
  /savematrix mtrx currentmatrix def
  x y translate
  xrad yrad scale
  0 0 1 startangle endangle arc
  savematrix setmatrix
 end
} def
/TL {
  /kcomp exch def
  /linewidth exch def
  /offset exch def
  GS
  0 offset rmoveto
  linewidth SLW
  dup stringwidth exch kcomp add exch RL s
  GR
} def
/KINIT
{
 /kvector exch def
 /kid 0 def
} def
/KPROC
{
 pop pop
 kvector kid get
 0 rmoveto
 /kid 1 kid add def
} def
/DefEncoding [
 /.notdef
 /.notdef
 /.notdef
 /.notdef
 /.notdef
 /.notdef
 /.notdef
 /.notdef
 /.notdef
 /.notdef
 /.notdef
 /.notdef
 /.notdef
 /.notdef
 /.notdef
 /.notdef
 /.notdef
 /.notdef
 /.notdef
 /.notdef
 /.notdef
 /.notdef
 /.notdef
 /.notdef
 /.notdef
 /.notdef
 /.notdef
 /.notdef
 /.notdef
 /.notdef
 /.notdef
 /.notdef
 /space
 /exclam
 /quotedbl
 /numbersign
 /dollar
 /percent
 /ampersand
 /quoteright
 /parenleft
 /parenright
 /asterisk
 /plus
 /comma
 /hyphen
 /period
 /slash
 /zero
 /one
 /two
 /three
 /four
 /five
 /six
 /seven
 /eight
 /nine
 /colon
 /semicolon
 /less
 /equal
 /greater
 /question
 /at
 /A
 /B
 /C
 /D
 /E
 /F
 /G
 /H
 /I
 /J
 /K
 /L
 /M
 /N
 /O
 /P
 /Q
 /R
 /S
 /T
 /U
 /V
 /W
 /X
 /Y
 /Z
 /bracketleft
 /backslash
 /bracketright
 /asciicircum
 /underscore
 /grave
 /a
 /b
 /c
 /d
 /e
 /f
 /g
 /h
 /i
 /j
 /k
 /l
 /m
 /n
 /o
 /p
 /q
 /r
 /s
 /t
 /u
 /v
 /w
 /x
 /y
 /z
 /braceleft
 /bar
 /braceright
 /asciitilde
 /.notdef
 /.notdef
 /.notdef
 /.notdef
 /.notdef
 /.notdef
 /.notdef
 /.notdef
 /.notdef
 /.notdef
 /.notdef
 /.notdef
 /.notdef
 /.notdef
 /.notdef
 /.notdef
 /.notdef
 /.notdef
 /.notdef
 /.notdef
 /.notdef
 /.notdef
 /.notdef
 /.notdef
 /.notdef
 /.notdef
 /.notdef
 /.notdef
 /.notdef
 /.notdef
 /.notdef
 /.notdef
 /.notdef
 /space
 /exclamdown
 /cent
 /sterling
 /currency
 /yen
 /brokenbar
 /section
 /dieresis
 /copyright
 /ordfeminine
 /guillemotleft
 /logicalnot
 /hyphen
 /registered
 /macron
 /degree
 /plusminus
 /twosuperior
 /threesuperior
 /acute
 /mu
 /paragraph
 /periodcentered
 /cedilla
 /onesuperior
 /ordmasculine
 /guillemotright
 /onequarter
 /onehalf
 /threequarters
 /questiondown
 /Agrave
 /Aacute
 /Acircumflex
 /Atilde
 /Adieresis
 /Aring
 /AE
 /Ccedilla
 /Egrave
 /Eacute
 /Ecircumflex
 /Edieresis
 /Igrave
 /Iacute
 /Icircumflex
 /Idieresis
 /Eth
 /Ntilde
 /Ograve
 /Oacute
 /Ocircumflex
 /Otilde
 /Odieresis
 /multiply
 /Oslash
 /Ugrave
 /Uacute
 /Ucircumflex
 /Udieresis
 /Yacute
 /Thorn
 /germandbls
 /agrave
 /aacute
 /acircumflex
 /atilde
 /adieresis
 /aring
 /ae
 /ccedilla
 /egrave
 /eacute
 /ecircumflex
 /edieresis
 /igrave
 /iacute
 /icircumflex
 /idieresis
 /eth
 /ntilde
 /ograve
 /oacute
 /ocircumflex
 /otilde
 /odieresis
 /divide
 /oslash
 /ugrave
 /uacute
 /ucircumflex
 /udieresis
 /yacute
 /thorn
 /ydieresis
] def
%%EndProlog
%%BeginSetup
%%EndSetup
612.00 612.00 scale
[/DeviceRGB] SCS
Color1 SC
[] 0 SD
0.0030 SLW
0 SLC
0 SLJ
n
0.1941 0.9170 m
0.1964 0.9171 l
0.1988 0.9172 l
0.2011 0.9172 l
0.2034 0.9174 l
0.2058 0.9176 l
0.2081 0.9175 l
0.2104 0.9179 l
0.2127 0.9181 l
0.2151 0.9181 l
0.2174 0.9184 l
0.2197 0.9187 l
0.2221 0.9190 l
0.2244 0.9192 l
0.2267 0.9196 l
0.2291 0.9199 l
0.2314 0.9203 l
0.2337 0.9208 l
0.2360 0.9213 l
0.2384 0.9217 l
0.2407 0.9221 l
0.2430 0.9226 l
0.2454 0.9233 l
0.2477 0.9240 l
0.2500 0.9246 l
0.2523 0.9252 l
0.2547 0.9261 l
0.2570 0.9271 l
0.2593 0.9281 l
0.2617 0.9295 l
0.2640 0.9311 l
0.2663 0.9302 l
0.2686 0.9307 l
0.2710 0.9299 l
0.2733 0.9281 l
0.2756 0.9268 l
0.2780 0.9257 l
0.2803 0.9248 l
0.2826 0.9240 l
0.2849 0.9234 l
0.2873 0.9228 l
0.2896 0.9223 l
0.2919 0.9219 l
0.2943 0.9214 l
0.2966 0.9209 l
0.2989 0.9203 l
0.3012 0.9199 l
0.3036 0.9195 l
0.3059 0.9192 l
0.3082 0.9188 l
0.3106 0.9183 l
0.3129 0.9179 l
0.3152 0.9175 l
0.3176 0.9171 l
0.3199 0.9168 l
0.3222 0.9165 l
0.3245 0.9165 l
0.3269 0.9163 l
0.3292 0.9162 l
0.3315 0.9160 l
0.3339 0.9159 l
0.3362 0.9159 l
0.3385 0.9157 l
0.3408 0.9158 l
0.3432 0.9161 l
0.3455 0.9163 l
0.3478 0.9166 l
0.3502 0.9169 l
0.3525 0.9172 l
0.3548 0.9176 l
0.3571 0.9182 l
0.3595 0.9191 l
0.3618 0.9200 l
0.3641 0.9215 l
0.3665 0.9232 l
0.3688 0.9237 l
0.3711 0.9236 l
0.3734 0.9218 l
0.3758 0.9198 l
0.3781 0.9181 l
0.3804 0.9169 l
0.3828 0.9160 l
0.3851 0.9147 l
0.3874 0.9135 l
0.3897 0.9129 l
0.3921 0.9121 l
0.3944 0.9111 l
0.3967 0.9103 l
0.3991 0.9093 l
0.4014 0.9088 l
0.4037 0.9080 l
0.4060 0.9073 l
0.4084 0.9065 l
0.4107 0.9059 l
0.4130 0.9054 l
0.4154 0.9048 l
0.4177 0.9043 l
0.4200 0.9040 l
0.4224 0.9037 l
0.4247 0.9035 l
0.4270 0.9035 l
0.4293 0.9036 l
0.4317 0.9039 l
0.4340 0.9046 l
0.4363 0.9059 l
0.4387 0.9083 l
0.4410 0.9109 l
0.4433 0.9108 l
0.4456 0.9083 l
0.4480 0.9056 l
0.4503 0.9037 l
0.4526 0.9022 l
0.4550 0.9008 l
0.4573 0.8996 l
0.4596 0.8985 l
0.4619 0.8976 l
0.4643 0.8967 l
0.4666 0.8961 l
0.4689 0.8954 l
0.4713 0.8949 l
0.4736 0.8945 l
0.4759 0.8941 l
0.4782 0.8940 l
0.4806 0.8939 l
0.4829 0.8941 l
0.4852 0.8946 l
0.4876 0.8953 l
0.4899 0.8964 l
0.4922 0.8979 l
0.4945 0.9001 l
0.4969 0.9034 l
0.4992 0.9041 l
0.5015 0.9015 l
0.5039 0.8985 l
0.5062 0.8964 l
0.5085 0.8946 l
0.5109 0.8931 l
0.5132 0.8918 l
0.5155 0.8907 l
0.5178 0.8896 l
0.5202 0.8887 l
0.5225 0.8880 l
0.5248 0.8874 l
0.5272 0.8872 l
0.5295 0.8870 l
0.5318 0.8872 l
0.5341 0.8874 l
0.5365 0.8884 l
0.5388 0.8900 l
0.5411 0.8925 l
0.5435 0.8960 l
0.5458 0.8961 l
0.5481 0.8925 l
0.5504 0.8895 l
0.5528 0.8873 l
0.5551 0.8855 l
0.5574 0.8839 l
0.5598 0.8826 l
0.5621 0.8815 l
0.5644 0.8805 l
0.5667 0.8799 l
0.5691 0.8794 l
0.5714 0.8792 l
0.5737 0.8796 l
0.5761 0.8805 l
0.5784 0.8820 l
0.5807 0.8850 l
0.5830 0.8885 l
0.5854 0.8872 l
0.5877 0.8832 l
0.5900 0.8804 l
0.5924 0.8782 l
0.5947 0.8764 l
0.5970 0.8749 l
0.5994 0.8737 l
0.6017 0.8727 l
0.6040 0.8722 l
0.6063 0.8720 l
0.6087 0.8722 l
0.6110 0.8732 l
0.6133 0.8753 l
0.6157 0.8793 l
0.6180 0.8812 l
0.6203 0.8773 l
0.6226 0.8737 l
0.6250 0.8712 l
0.6273 0.8692 l
0.6296 0.8676 l
0.6320 0.8663 l
0.6343 0.8654 l
0.6366 0.8649 l
0.6389 0.8649 l
0.6413 0.8659 l
0.6436 0.8682 l
0.6459 0.8726 l
0.6483 0.8731 l
0.6506 0.8687 l
0.6529 0.8653 l
0.6552 0.8628 l
0.6576 0.8608 l
0.6599 0.8593 l
0.6622 0.8582 l
0.6646 0.8577 l
0.6669 0.8579 l
0.6692 0.8594 l
0.6715 0.8629 l
0.6739 0.8665 l
0.6762 0.8630 l
0.6785 0.8588 l
0.6809 0.8559 l
0.6832 0.8537 l
0.6855 0.8521 l
0.6878 0.8510 l
0.6902 0.8506 l
0.6925 0.8513 l
0.6948 0.8538 l
0.6972 0.8585 l
0.6995 0.8573 l
0.7018 0.8524 l
0.7042 0.8491 l
0.7065 0.8467 l
0.7088 0.8449 l
0.7111 0.8438 l
0.7135 0.8436 l
0.7158 0.8449 l
0.7181 0.8489 l
0.7205 0.8517 l
0.7228 0.8469 l
0.7251 0.8429 l
0.7274 0.8400 l
0.7298 0.8380 l
0.7321 0.8368 l
0.7344 0.8366 l
0.7368 0.8384 l
0.7391 0.8432 l
0.7414 0.8433 l
0.7437 0.8380 l
0.7461 0.8344 l
0.7484 0.8318 l
0.7507 0.8301 l
0.7531 0.8296 l
0.7554 0.8309 l
0.7577 0.8357 l
0.7600 0.8363 l
0.7624 0.8308 l
0.7647 0.8270 l
0.7670 0.8244 l
0.7694 0.8229 l
0.7717 0.8228 l
0.7740 0.8256 l
0.7763 0.8303 l
0.7787 0.8260 l
0.7810 0.8212 l
0.7833 0.8181 l
0.7857 0.8161 l
0.7880 0.8157 l
0.7903 0.8183 l
0.7927 0.8231 l
0.7950 0.8187 l
0.7973 0.8138 l
0.7996 0.8106 l
0.8020 0.8089 l
0.8043 0.8091 l
0.8066 0.8134 l
0.8090 0.8151 l
0.8113 0.8090 l
0.8136 0.8049 l
0.8159 0.8024 l
0.8183 0.8018 l
0.8206 0.8049 l
0.8229 0.8086 l
0.8253 0.8028 l
0.8276 0.7982 l
0.8299 0.7956 l
0.8322 0.7949 l
0.8346 0.7985 l
0.8369 0.8011 l
0.8392 0.7948 l
0.8416 0.7905 l
0.8439 0.7882 l
0.8462 0.7886 l
0.8485 0.7939 l
0.8509 0.7913 l
0.8532 0.7854 l
0.8555 0.7820 l
0.8579 0.7811 l
0.8602 0.7850 l
0.8625 0.7861 l
0.8648 0.7796 l
0.8672 0.7755 l
0.8695 0.7741 l
0.8718 0.7776 l
0.8742 0.7793 l
0.8765 0.7726 l
0.8788 0.7685 l
0.8811 0.7673 l
0.8835 0.7716 l
0.8858 0.7711 l
0.8881 0.7644 l
0.8905 0.7609 l
0.8928 0.7611 l
0.8951 0.7661 l
0.8975 0.7611 l
0.8998 0.7555 l
0.9021 0.7534 l
0.9044 0.7570 l
0.9068 0.7572 l
0.9091 0.7503 l
0.9114 0.7468 l
0.9138 0.7484 l
0.9161 0.7516 l
0.9184 0.7446 l
0.9207 0.7403 l
0.9231 0.7408 l
0.9254 0.7449 l
0.9277 0.7381 l
0.9301 0.7334 l
0.9324 0.7340 l
0.9347 0.7377 l
0.9370 0.7306 l
0.9394 0.7262 l
0.9417 0.7281 l
0.9440 0.7297 l
0.9464 0.7223 l
0.9487 0.7190 l
0.9510 0.7229 l
0.9533 0.7202 l
0.9557 0.7136 l
0.9580 0.7128 l
0.9603 0.7167 l
0.9627 0.7096 l
0.9650 0.7054 l
0.9673 0.7088 l
0.9696 0.7061 l
0.9720 0.6995 l
0.9743 0.6998 l
0.9766 0.7018 l
0.9790 0.6940 l
0.9813 0.6919 l
0.9836 0.6957 l
0.9860 0.6885 l
0.9883 0.6847 l
0.9906 0.6887 l
0.9929 0.6826 l
0.9953 0.6779 l
0.9976 0.6816 l
0.9999 0.6760 l
1.0023 0.6711 l
1.0046 0.6747 l
1.0069 0.6687 l
1.0092 0.6642 l
1.0116 0.6677 l
1.0139 0.6608 l
1.0162 0.6576 l
1.0186 0.6604 l
1.0209 0.6525 l
1.0232 0.6516 l
1.0255 0.6518 l
1.0279 0.6443 l
1.0302 0.6463 l
1.0325 0.6419 l
1.0349 0.6369 l
1.0372 0.6396 l
1.0395 0.6318 l
1.0418 0.6316 l
1.0442 0.6295 l
1.0465 0.6232 l
1.0488 0.6258 l
1.0512 0.6181 l
1.0535 0.6180 l
1.0558 0.6149 l
1.0581 0.6096 l
1.0605 0.6112 l
1.0628 0.6032 l
1.0651 0.6049 l
1.0675 0.5983 l
1.0698 0.5971 l
1.0721 0.5940 l
1.0745 0.5892 l
1.0768 0.5892 l
1.0791 0.5822 l
1.0814 0.5836 l
1.0838 0.5758 l
1.0861 0.5771 l
1.0884 0.5696 l
1.0908 0.5702 l
1.0931 0.5633 l
1.0954 0.5632 l
1.0977 0.5569 l
1.1001 0.5562 l
1.1024 0.5502 l
1.1047 0.5493 l
1.1071 0.5432 l
1.1094 0.5424 l
1.1117 0.5359 l
1.1140 0.5355 l
1.1164 0.5285 l
1.1187 0.5285 l
1.1210 0.5210 l
1.1234 0.5209 l
1.1257 0.5139 l
1.1280 0.5127 l
1.1303 0.5073 l
1.1327 0.5037 l
1.1350 0.5009 l
1.1373 0.4948 l
1.1397 0.4938 l
1.1420 0.4866 l
1.1443 0.4850 l
1.1466 0.4800 l
1.1490 0.4751 l
1.1513 0.4731 l
1.1536 0.4662 l
1.1560 0.4640 l
1.1583 0.4595 l
1.1606 0.4536 l
1.1629 0.4517 l
1.1636 0.4499 l
s
[/DeviceRGB] SCS
Color2 SC
n
0.1941 0.9413 m
0.1964 0.9406 l
0.1988 0.9399 l
0.2011 0.9392 l
0.2034 0.9386 l
0.2058 0.9380 l
0.2081 0.9373 l
0.2104 0.9367 l
0.2127 0.9362 l
0.2151 0.9356 l
0.2174 0.9350 l
0.2197 0.9345 l
0.2221 0.9340 l
0.2244 0.9335 l
0.2267 0.9330 l
0.2291 0.9325 l
0.2314 0.9320 l
0.2337 0.9315 l
0.2360 0.9310 l
0.2384 0.9306 l
0.2407 0.9301 l
0.2430 0.9297 l
0.2454 0.9292 l
0.2477 0.9288 l
0.2500 0.9284 l
0.2523 0.9280 l
0.2547 0.9276 l
0.2570 0.9272 l
0.2593 0.9268 l
0.2617 0.9264 l
0.2640 0.9260 l
0.2663 0.9256 l
0.2686 0.9253 l
0.2710 0.9249 l
0.2733 0.9245 l
0.2756 0.9242 l
0.2780 0.9238 l
0.2803 0.9234 l
0.2826 0.9231 l
0.2849 0.9227 l
0.2873 0.9224 l
0.2896 0.9221 l
0.2919 0.9217 l
0.2943 0.9214 l
0.2966 0.9211 l
0.2989 0.9207 l
0.3012 0.9204 l
0.3036 0.9201 l
0.3059 0.9198 l
0.3082 0.9194 l
0.3106 0.9191 l
0.3129 0.9188 l
0.3152 0.9185 l
0.3176 0.9182 l
0.3199 0.9179 l
0.3222 0.9175 l
0.3245 0.9172 l
0.3269 0.9169 l
0.3292 0.9166 l
0.3315 0.9163 l
0.3339 0.9160 l
0.3362 0.9157 l
0.3385 0.9154 l
0.3408 0.9151 l
0.3432 0.9148 l
0.3455 0.9145 l
0.3478 0.9142 l
0.3502 0.9139 l
0.3525 0.9136 l
0.3548 0.9133 l
0.3571 0.9130 l
0.3595 0.9127 l
0.3618 0.9124 l
0.3641 0.9121 l
0.3665 0.9118 l
0.3688 0.9115 l
0.3711 0.9112 l
0.3734 0.9109 l
0.3758 0.9106 l
0.3781 0.9104 l
0.3804 0.9101 l
0.3828 0.9098 l
0.3851 0.9095 l
0.3874 0.9092 l
0.3897 0.9089 l
0.3921 0.9086 l
0.3944 0.9083 l
0.3967 0.9080 l
0.3991 0.9077 l
0.4014 0.9074 l
0.4037 0.9071 l
0.4060 0.9068 l
0.4084 0.9065 l
0.4107 0.9062 l
0.4130 0.9059 l
0.4154 0.9056 l
0.4177 0.9052 l
0.4200 0.9049 l
0.4224 0.9046 l
0.4247 0.9043 l
0.4270 0.9040 l
0.4293 0.9037 l
0.4317 0.9034 l
0.4340 0.9031 l
0.4363 0.9028 l
0.4387 0.9024 l
0.4410 0.9021 l
0.4433 0.9018 l
0.4456 0.9015 l
0.4480 0.9012 l
0.4503 0.9008 l
0.4526 0.9005 l
0.4550 0.9002 l
0.4573 0.8999 l
0.4596 0.8995 l
0.4619 0.8992 l
0.4643 0.8989 l
0.4666 0.8985 l
0.4689 0.8982 l
0.4713 0.8979 l
0.4736 0.8975 l
0.4759 0.8972 l
0.4782 0.8968 l
0.4806 0.8965 l
0.4829 0.8962 l
0.4852 0.8958 l
0.4876 0.8955 l
0.4899 0.8951 l
0.4922 0.8947 l
0.4945 0.8944 l
0.4969 0.8940 l
0.4992 0.8937 l
0.5015 0.8933 l
0.5039 0.8929 l
0.5062 0.8926 l
0.5085 0.8922 l
0.5109 0.8918 l
0.5132 0.8914 l
0.5155 0.8911 l
0.5178 0.8907 l
0.5202 0.8903 l
0.5225 0.8899 l
0.5248 0.8895 l
0.5272 0.8891 l
0.5295 0.8887 l
0.5318 0.8883 l
0.5341 0.8879 l
0.5365 0.8875 l
0.5388 0.8871 l
0.5411 0.8867 l
0.5435 0.8863 l
0.5458 0.8859 l
0.5481 0.8855 l
0.5504 0.8850 l
0.5528 0.8846 l
0.5551 0.8842 l
0.5574 0.8837 l
0.5598 0.8833 l
0.5621 0.8829 l
0.5644 0.8824 l
0.5667 0.8820 l
0.5691 0.8815 l
0.5714 0.8811 l
0.5737 0.8806 l
0.5761 0.8802 l
0.5784 0.8797 l
0.5807 0.8792 l
0.5830 0.8788 l
0.5854 0.8783 l
0.5877 0.8778 l
0.5900 0.8773 l
0.5924 0.8769 l
0.5947 0.8764 l
0.5970 0.8759 l
0.5994 0.8754 l
0.6017 0.8749 l
0.6040 0.8744 l
0.6063 0.8739 l
0.6087 0.8734 l
0.6110 0.8728 l
0.6133 0.8723 l
0.6157 0.8718 l
0.6180 0.8713 l
0.6203 0.8707 l
0.6226 0.8702 l
0.6250 0.8696 l
0.6273 0.8691 l
0.6296 0.8685 l
0.6320 0.8680 l
0.6343 0.8674 l
0.6366 0.8669 l
0.6389 0.8663 l
0.6413 0.8657 l
0.6436 0.8651 l
0.6459 0.8645 l
0.6483 0.8639 l
0.6506 0.8634 l
0.6529 0.8628 l
0.6552 0.8621 l
0.6576 0.8615 l
0.6599 0.8609 l
0.6622 0.8603 l
0.6646 0.8597 l
0.6669 0.8590 l
0.6692 0.8584 l
0.6715 0.8578 l
0.6739 0.8571 l
0.6762 0.8564 l
0.6785 0.8558 l
0.6809 0.8551 l
0.6832 0.8544 l
0.6855 0.8538 l
0.6878 0.8531 l
0.6902 0.8524 l
0.6925 0.8517 l
0.6948 0.8510 l
0.6972 0.8503 l
0.6995 0.8496 l
0.7018 0.8489 l
0.7042 0.8481 l
0.7065 0.8474 l
0.7088 0.8466 l
0.7111 0.8459 l
0.7135 0.8451 l
0.7158 0.8444 l
0.7181 0.8436 l
0.7205 0.8428 l
0.7228 0.8421 l
0.7251 0.8413 l
0.7274 0.8405 l
0.7298 0.8397 l
0.7321 0.8389 l
0.7344 0.8381 l
0.7368 0.8372 l
0.7391 0.8364 l
0.7414 0.8356 l
0.7437 0.8347 l
0.7461 0.8339 l
0.7484 0.8330 l
0.7507 0.8321 l
0.7531 0.8313 l
0.7554 0.8304 l
0.7577 0.8295 l
0.7600 0.8286 l
0.7624 0.8277 l
0.7647 0.8268 l
0.7670 0.8258 l
0.7694 0.8249 l
0.7717 0.8240 l
0.7740 0.8230 l
0.7763 0.8221 l
0.7787 0.8211 l
0.7810 0.8201 l
0.7833 0.8191 l
0.7857 0.8181 l
0.7880 0.8171 l
0.7903 0.8161 l
0.7927 0.8151 l
0.7950 0.8141 l
0.7973 0.8130 l
0.7996 0.8120 l
0.8020 0.8109 l
0.8043 0.8099 l
0.8066 0.8088 l
0.8090 0.8077 l
0.8113 0.8066 l
0.8136 0.8055 l
0.8159 0.8044 l
0.8183 0.8033 l
0.8206 0.8021 l
0.8229 0.8010 l
0.8253 0.7998 l
0.8276 0.7986 l
0.8299 0.7975 l
0.8322 0.7963 l
0.8346 0.7951 l
0.8369 0.7939 l
0.8392 0.7926 l
0.8416 0.7914 l
0.8439 0.7902 l
0.8462 0.7889 l
0.8485 0.7876 l
0.8509 0.7863 l
0.8532 0.7851 l
0.8555 0.7838 l
0.8579 0.7824 l
0.8602 0.7811 l
0.8625 0.7798 l
0.8648 0.7784 l
0.8672 0.7771 l
0.8695 0.7757 l
0.8718 0.7743 l
0.8742 0.7729 l
0.8765 0.7715 l
0.8788 0.7700 l
0.8811 0.7686 l
0.8835 0.7672 l
0.8858 0.7657 l
0.8881 0.7642 l
0.8905 0.7627 l
0.8928 0.7612 l
0.8951 0.7597 l
0.8975 0.7581 l
0.8998 0.7566 l
0.9021 0.7550 l
0.9044 0.7534 l
0.9068 0.7519 l
0.9091 0.7502 l
0.9114 0.7486 l
0.9138 0.7470 l
0.9161 0.7453 l
0.9184 0.7437 l
0.9207 0.7420 l
0.9231 0.7403 l
0.9254 0.7386 l
0.9277 0.7368 l
0.9301 0.7351 l
0.9324 0.7333 l
0.9347 0.7316 l
0.9370 0.7298 l
0.9394 0.7280 l
0.9417 0.7261 l
0.9440 0.7243 l
0.9464 0.7224 l
0.9487 0.7205 l
0.9510 0.7186 l
0.9533 0.7167 l
0.9557 0.7148 l
0.9580 0.7129 l
0.9603 0.7109 l
0.9627 0.7089 l
0.9650 0.7069 l
0.9673 0.7049 l
0.9696 0.7028 l
0.9720 0.7008 l
0.9743 0.6987 l
0.9766 0.6966 l
0.9790 0.6945 l
0.9813 0.6924 l
0.9836 0.6902 l
0.9860 0.6880 l
0.9883 0.6858 l
0.9906 0.6836 l
0.9929 0.6814 l
0.9953 0.6791 l
0.9976 0.6768 l
0.9999 0.6745 l
1.0023 0.6722 l
1.0046 0.6699 l
1.0069 0.6675 l
1.0092 0.6651 l
1.0116 0.6627 l
1.0139 0.6603 l
1.0162 0.6579 l
1.0186 0.6554 l
1.0209 0.6529 l
1.0232 0.6504 l
1.0255 0.6478 l
1.0279 0.6453 l
1.0302 0.6427 l
1.0325 0.6401 l
1.0349 0.6374 l
1.0372 0.6348 l
1.0395 0.6321 l
1.0418 0.6294 l
1.0442 0.6266 l
1.0465 0.6239 l
1.0488 0.6211 l
1.0512 0.6183 l
1.0535 0.6154 l
1.0558 0.6126 l
1.0581 0.6097 l
1.0605 0.6067 l
1.0628 0.6038 l
1.0651 0.6008 l
1.0675 0.5978 l
1.0698 0.5948 l
1.0721 0.5917 l
1.0745 0.5887 l
1.0768 0.5855 l
1.0791 0.5824 l
1.0814 0.5792 l
1.0838 0.5760 l
1.0861 0.5728 l
1.0884 0.5695 l
1.0908 0.5663 l
1.0931 0.5629 l
1.0954 0.5596 l
1.0977 0.5562 l
1.1001 0.5528 l
1.1024 0.5494 l
1.1047 0.5459 l
1.1071 0.5424 l
1.1094 0.5388 l
1.1117 0.5353 l
1.1140 0.5317 l
1.1164 0.5280 l
1.1187 0.5243 l
1.1210 0.5206 l
1.1234 0.5169 l
1.1257 0.5131 l
1.1280 0.5093 l
1.1303 0.5055 l
1.1327 0.5016 l
1.1350 0.4977 l
1.1373 0.4937 l
1.1397 0.4897 l
1.1420 0.4857 l
1.1443 0.4816 l
1.1466 0.4775 l
1.1490 0.4734 l
1.1513 0.4692 l
1.1536 0.4650 l
1.1560 0.4607 l
1.1583 0.4564 l
1.1606 0.4521 l
1.1618 0.4499 l
s
[/DeviceRGB] SCS
Color1 SC
n
0.1941 0.4500 m
1.2294 0.4500 l
s
n
0.1941 0.9500 m
1.2294 0.9500 l
s
n
0.3694 0.4500 m
0.3694 0.4730 l
s
n
0.3694 0.9500 m
0.3694 0.9270 l
s
n
0.4719 0.4500 m
0.4719 0.4730 l
s
n
0.4719 0.9500 m
0.4719 0.9270 l
s
n
0.5447 0.4500 m
0.5447 0.4730 l
s
n
0.5447 0.9500 m
0.5447 0.9270 l
s
n
0.6011 0.4500 m
0.6011 0.4730 l
s
n
0.6011 0.9500 m
0.6011 0.9270 l
s
n
0.6472 0.4500 m
0.6472 0.4730 l
s
n
0.6472 0.9500 m
0.6472 0.9270 l
s
n
0.6862 0.4500 m
0.6862 0.4730 l
s
n
0.6862 0.9500 m
0.6862 0.9270 l
s
n
0.7199 0.4500 m
0.7199 0.4730 l
s
n
0.7199 0.9500 m
0.7199 0.9270 l
s
n
0.7497 0.4500 m
0.7497 0.4730 l
s
n
0.7497 0.9500 m
0.7497 0.9270 l
s
n
0.7763 0.4500 m
0.7763 0.4730 l
s
n
0.7763 0.9500 m
0.7763 0.9270 l
s
n
0.9516 0.4500 m
0.9516 0.4730 l
s
n
0.9516 0.9500 m
0.9516 0.9270 l
s
n
1.0541 0.4500 m
1.0541 0.4730 l
s
n
1.0541 0.9500 m
1.0541 0.9270 l
s
n
1.1269 0.4500 m
1.1269 0.4730 l
s
n
1.1269 0.9500 m
1.1269 0.9270 l
s
n
1.1833 0.4500 m
1.1833 0.4730 l
s
n
1.1833 0.9500 m
1.1833 0.9270 l
s
n
1.2294 0.4500 m
1.2294 0.4730 l
s
n
1.2294 0.9500 m
1.2294 0.9270 l
s
n
0.1941 0.4500 m
0.1941 0.4830 l
s
n
0.1941 0.9500 m
0.1941 0.9170 l
s
n
0.7763 0.4500 m
0.7763 0.4830 l
s
n
0.7763 0.9500 m
0.7763 0.9170 l
s
n
0.1941 0.4500 m
0.1941 0.9500 l
s
n
1.2294 0.4500 m
1.2294 0.9500 l
s
n
0.1941 0.4500 m
0.2171 0.4500 l
s
n
1.2294 0.4500 m
1.2064 0.4500 l
s
n
0.1941 0.4601 m
0.2171 0.4601 l
s
n
1.2294 0.4601 m
1.2064 0.4601 l
s
n
0.1941 0.4673 m
0.2171 0.4673 l
s
n
1.2294 0.4673 m
1.2064 0.4673 l
s
n
0.1941 0.4729 m
0.2171 0.4729 l
s
n
1.2294 0.4729 m
1.2064 0.4729 l
s
n
0.1941 0.4774 m
0.2171 0.4774 l
s
n
1.2294 0.4774 m
1.2064 0.4774 l
s
n
0.1941 0.4813 m
0.2171 0.4813 l
s
n
1.2294 0.4813 m
1.2064 0.4813 l
s
n
0.1941 0.4846 m
0.2171 0.4846 l
s
n
1.2294 0.4846 m
1.2064 0.4846 l
s
n
0.1941 0.4875 m
0.2171 0.4875 l
s
n
1.2294 0.4875 m
1.2064 0.4875 l
s
n
0.1941 0.4902 m
0.2171 0.4902 l
s
n
1.2294 0.4902 m
1.2064 0.4902 l
s
n
0.1941 0.5075 m
0.2171 0.5075 l
s
n
1.2294 0.5075 m
1.2064 0.5075 l
s
n
0.1941 0.5176 m
0.2171 0.5176 l
s
n
1.2294 0.5176 m
1.2064 0.5176 l
s
n
0.1941 0.5248 m
0.2171 0.5248 l
s
n
1.2294 0.5248 m
1.2064 0.5248 l
s
n
0.1941 0.5304 m
0.2171 0.5304 l
s
n
1.2294 0.5304 m
1.2064 0.5304 l
s
n
0.1941 0.5349 m
0.2171 0.5349 l
s
n
1.2294 0.5349 m
1.2064 0.5349 l
s
n
0.1941 0.5388 m
0.2171 0.5388 l
s
n
1.2294 0.5388 m
1.2064 0.5388 l
s
n
0.1941 0.5421 m
0.2171 0.5421 l
s
n
1.2294 0.5421 m
1.2064 0.5421 l
s
n
0.1941 0.5450 m
0.2171 0.5450 l
s
n
1.2294 0.5450 m
1.2064 0.5450 l
s
n
0.1941 0.5477 m
0.2171 0.5477 l
s
n
1.2294 0.5477 m
1.2064 0.5477 l
s
n
0.1941 0.5650 m
0.2171 0.5650 l
s
n
1.2294 0.5650 m
1.2064 0.5650 l
s
n
0.1941 0.5751 m
0.2171 0.5751 l
s
n
1.2294 0.5751 m
1.2064 0.5751 l
s
n
0.1941 0.5823 m
0.2171 0.5823 l
s
n
1.2294 0.5823 m
1.2064 0.5823 l
s
n
0.1941 0.5878 m
0.2171 0.5878 l
s
n
1.2294 0.5878 m
1.2064 0.5878 l
s
n
0.1941 0.5924 m
0.2171 0.5924 l
s
n
1.2294 0.5924 m
1.2064 0.5924 l
s
n
0.1941 0.5962 m
0.2171 0.5962 l
s
n
1.2294 0.5962 m
1.2064 0.5962 l
s
n
0.1941 0.5996 m
0.2171 0.5996 l
s
n
1.2294 0.5996 m
1.2064 0.5996 l
s
n
0.1941 0.6025 m
0.2171 0.6025 l
s
n
1.2294 0.6025 m
1.2064 0.6025 l
s
n
0.1941 0.6051 m
0.2171 0.6051 l
s
n
1.2294 0.6051 m
1.2064 0.6051 l
s
n
0.1941 0.6224 m
0.2171 0.6224 l
s
n
1.2294 0.6224 m
1.2064 0.6224 l
s
n
0.1941 0.6326 m
0.2171 0.6326 l
s
n
1.2294 0.6326 m
1.2064 0.6326 l
s
n
0.1941 0.6397 m
0.2171 0.6397 l
s
n
1.2294 0.6397 m
1.2064 0.6397 l
s
n
0.1941 0.6453 m
0.2171 0.6453 l
s
n
1.2294 0.6453 m
1.2064 0.6453 l
s
n
0.1941 0.6499 m
0.2171 0.6499 l
s
n
1.2294 0.6499 m
1.2064 0.6499 l
s
n
0.1941 0.6537 m
0.2171 0.6537 l
s
n
1.2294 0.6537 m
1.2064 0.6537 l
s
n
0.1941 0.6570 m
0.2171 0.6570 l
s
n
1.2294 0.6570 m
1.2064 0.6570 l
s
n
0.1941 0.6600 m
0.2171 0.6600 l
s
n
1.2294 0.6600 m
1.2064 0.6600 l
s
n
0.1941 0.6626 m
0.2171 0.6626 l
s
n
1.2294 0.6626 m
1.2064 0.6626 l
s
n
0.1941 0.6799 m
0.2171 0.6799 l
s
n
1.2294 0.6799 m
1.2064 0.6799 l
s
n
0.1941 0.6900 m
0.2171 0.6900 l
s
n
1.2294 0.6900 m
1.2064 0.6900 l
s
n
0.1941 0.6972 m
0.2171 0.6972 l
s
n
1.2294 0.6972 m
1.2064 0.6972 l
s
n
0.1941 0.7028 m
0.2171 0.7028 l
s
n
1.2294 0.7028 m
1.2064 0.7028 l
s
n
0.1941 0.7073 m
0.2171 0.7073 l
s
n
1.2294 0.7073 m
1.2064 0.7073 l
s
n
0.1941 0.7112 m
0.2171 0.7112 l
s
n
1.2294 0.7112 m
1.2064 0.7112 l
s
n
0.1941 0.7145 m
0.2171 0.7145 l
s
n
1.2294 0.7145 m
1.2064 0.7145 l
s
n
0.1941 0.7175 m
0.2171 0.7175 l
s
n
1.2294 0.7175 m
1.2064 0.7175 l
s
n
0.1941 0.7201 m
0.2171 0.7201 l
s
n
1.2294 0.7201 m
1.2064 0.7201 l
s
n
0.1941 0.7374 m
0.2171 0.7374 l
s
n
1.2294 0.7374 m
1.2064 0.7374 l
s
n
0.1941 0.7475 m
0.2171 0.7475 l
s
n
1.2294 0.7475 m
1.2064 0.7475 l
s
n
0.1941 0.7547 m
0.2171 0.7547 l
s
n
1.2294 0.7547 m
1.2064 0.7547 l
s
n
0.1941 0.7603 m
0.2171 0.7603 l
s
n
1.2294 0.7603 m
1.2064 0.7603 l
s
n
0.1941 0.7648 m
0.2171 0.7648 l
s
n
1.2294 0.7648 m
1.2064 0.7648 l
s
n
0.1941 0.7687 m
0.2171 0.7687 l
s
n
1.2294 0.7687 m
1.2064 0.7687 l
s
n
0.1941 0.7720 m
0.2171 0.7720 l
s
n
1.2294 0.7720 m
1.2064 0.7720 l
s
n
0.1941 0.7749 m
0.2171 0.7749 l
s
n
1.2294 0.7749 m
1.2064 0.7749 l
s
n
0.1941 0.7776 m
0.2171 0.7776 l
s
n
1.2294 0.7776 m
1.2064 0.7776 l
s
n
0.1941 0.7949 m
0.2171 0.7949 l
s
n
1.2294 0.7949 m
1.2064 0.7949 l
s
n
0.1941 0.8050 m
0.2171 0.8050 l
s
n
1.2294 0.8050 m
1.2064 0.8050 l
s
n
0.1941 0.8122 m
0.2171 0.8122 l
s
n
1.2294 0.8122 m
1.2064 0.8122 l
s
n
0.1941 0.8177 m
0.2171 0.8177 l
s
n
1.2294 0.8177 m
1.2064 0.8177 l
s
n
0.1941 0.8223 m
0.2171 0.8223 l
s
n
1.2294 0.8223 m
1.2064 0.8223 l
s
n
0.1941 0.8261 m
0.2171 0.8261 l
s
n
1.2294 0.8261 m
1.2064 0.8261 l
s
n
0.1941 0.8295 m
0.2171 0.8295 l
s
n
1.2294 0.8295 m
1.2064 0.8295 l
s
n
0.1941 0.8324 m
0.2171 0.8324 l
s
n
1.2294 0.8324 m
1.2064 0.8324 l
s
n
0.1941 0.8350 m
0.2171 0.8350 l
s
n
1.2294 0.8350 m
1.2064 0.8350 l
s
n
0.1941 0.8523 m
0.2171 0.8523 l
s
n
1.2294 0.8523 m
1.2064 0.8523 l
s
n
0.1941 0.8625 m
0.2171 0.8625 l
s
n
1.2294 0.8625 m
1.2064 0.8625 l
s
n
0.1941 0.8696 m
0.2171 0.8696 l
s
n
1.2294 0.8696 m
1.2064 0.8696 l
s
n
0.1941 0.8752 m
0.2171 0.8752 l
s
n
1.2294 0.8752 m
1.2064 0.8752 l
s
n
0.1941 0.8798 m
0.2171 0.8798 l
s
n
1.2294 0.8798 m
1.2064 0.8798 l
s
n
0.1941 0.8836 m
0.2171 0.8836 l
s
n
1.2294 0.8836 m
1.2064 0.8836 l
s
n
0.1941 0.8870 m
0.2171 0.8870 l
s
n
1.2294 0.8870 m
1.2064 0.8870 l
s
n
0.1941 0.8899 m
0.2171 0.8899 l
s
n
1.2294 0.8899 m
1.2064 0.8899 l
s
n
0.1941 0.8925 m
0.2171 0.8925 l
s
n
1.2294 0.8925 m
1.2064 0.8925 l
s
n
0.1941 0.9098 m
0.2171 0.9098 l
s
n
1.2294 0.9098 m
1.2064 0.9098 l
s
n
0.1941 0.9199 m
0.2171 0.9199 l
s
n
1.2294 0.9199 m
1.2064 0.9199 l
s
n
0.1941 0.9271 m
0.2171 0.9271 l
s
n
1.2294 0.9271 m
1.2064 0.9271 l
s
n
0.1941 0.9327 m
0.2171 0.9327 l
s
n
1.2294 0.9327 m
1.2064 0.9327 l
s
n
0.1941 0.9372 m
0.2171 0.9372 l
s
n
1.2294 0.9372 m
1.2064 0.9372 l
s
n
0.1941 0.9411 m
0.2171 0.9411 l
s
n
1.2294 0.9411 m
1.2064 0.9411 l
s
n
0.1941 0.9444 m
0.2171 0.9444 l
s
n
1.2294 0.9444 m
1.2064 0.9444 l
s
n
0.1941 0.9474 m
0.2171 0.9474 l
s
n
1.2294 0.9474 m
1.2064 0.9474 l
s
n
0.1941 0.9500 m
0.2171 0.9500 l
s
n
1.2294 0.9500 m
1.2064 0.9500 l
s
n
0.1941 0.4902 m
0.2271 0.4902 l
s
n
1.2294 0.4902 m
1.1964 0.4902 l
s
n
0.1941 0.5477 m
0.2271 0.5477 l
s
n
1.2294 0.5477 m
1.1964 0.5477 l
s
n
0.1941 0.6051 m
0.2271 0.6051 l
s
n
1.2294 0.6051 m
1.1964 0.6051 l
s
n
0.1941 0.6626 m
0.2271 0.6626 l
s
n
1.2294 0.6626 m
1.1964 0.6626 l
s
n
0.1941 0.7201 m
0.2271 0.7201 l
s
n
1.2294 0.7201 m
1.1964 0.7201 l
s
n
0.1941 0.7776 m
0.2271 0.7776 l
s
n
1.2294 0.7776 m
1.1964 0.7776 l
s
n
0.1941 0.8350 m
0.2271 0.8350 l
s
n
1.2294 0.8350 m
1.1964 0.8350 l
s
n
0.1941 0.8925 m
0.2271 0.8925 l
s
n
1.2294 0.8925 m
1.1964 0.8925 l
s
n
0.1941 0.9500 m
0.2271 0.9500 l
s
n
1.2294 0.9500 m
1.1964 0.9500 l
s
/Helvetica findfont
dup length dict begin
 {1 index /FID ne {def} {pop pop} ifelse} forall
 /Encoding DefEncoding def
 currentdict
end
/Font4 exch definefont pop
/Font4 FFSF
0.1218 0.4704 m
GS
[0.0364 0.0000 0.0000 0.0364 0 0] CC
(10) show
GR
/Font4 FFSF
0.1622 0.4923 m
GS
[0.0257 0.0000 0.0000 0.0257 0 0] CC
(-8) show
GR
/Font4 FFSF
0.1218 0.5279 m
GS
[0.0364 0.0000 0.0000 0.0364 0 0] CC
(10) show
GR
/Font4 FFSF
0.1622 0.5497 m
GS
[0.0257 0.0000 0.0000 0.0257 0 0] CC
(-7) show
GR
/Font4 FFSF
0.1218 0.5854 m
GS
[0.0364 0.0000 0.0000 0.0364 0 0] CC
(10) show
GR
/Font4 FFSF
0.1622 0.6072 m
GS
[0.0257 0.0000 0.0000 0.0257 0 0] CC
(-6) show
GR
/Font4 FFSF
0.1218 0.6429 m
GS
[0.0364 0.0000 0.0000 0.0364 0 0] CC
(10) show
GR
/Font4 FFSF
0.1622 0.6647 m
GS
[0.0257 0.0000 0.0000 0.0257 0 0] CC
(-5) show
GR
/Font4 FFSF
0.1218 0.7003 m
GS
[0.0364 0.0000 0.0000 0.0364 0 0] CC
(10) show
GR
/Font4 FFSF
0.1622 0.7222 m
GS
[0.0257 0.0000 0.0000 0.0257 0 0] CC
(-4) show
GR
/Font4 FFSF
0.1222 0.7578 m
GS
[0.0364 0.0000 0.0000 0.0364 0 0] CC
(10) show
GR
/Font4 FFSF
0.1625 0.7797 m
GS
[0.0257 0.0000 0.0000 0.0257 0 0] CC
(-3) show
GR
/Font4 FFSF
0.1218 0.8153 m
GS
[0.0364 0.0000 0.0000 0.0364 0 0] CC
(10) show
GR
/Font4 FFSF
0.1622 0.8371 m
GS
[0.0257 0.0000 0.0000 0.0257 0 0] CC
(-2) show
GR
/Font4 FFSF
0.1261 0.8728 m
GS
[0.0364 0.0000 0.0000 0.0364 0 0] CC
(10) show
GR
/Font4 FFSF
0.1665 0.8946 m
GS
[0.0257 0.0000 0.0000 0.0257 0 0] CC
(-1) show
GR
/Font4 FFSF
0.1308 0.9303 m
GS
[0.0364 0.0000 0.0000 0.0364 0 0] CC
(10) show
GR
/Font4 FFSF
0.1712 0.9521 m
GS
[0.0257 0.0000 0.0000 0.0257 0 0] CC
(0) show
GR
/Font4 FFSF
0.0851 0.6063 m
GS
[0.0000 0.0490 -0.0490 0.0000 0 0] CC
(j) show
GR
/Symbol findfont
/Font12 exch definefont pop
/Font12 FFSF
0.1047 0.6173 m
GS
[0.0000 0.0346 -0.0346 0.0000 0 0] CC
(c) show
GR
/Font4 FFSF
0.0851 0.6365 m
GS
[0.0000 0.0490 -0.0490 0.0000 0 0] CC
(\(c/e) show
GR
/Font4 FFSF
0.0557 0.7180 m
GS
[0.0000 0.0346 -0.0346 0.0000 0 0] CC
(2) show
GR
/Font12 FFSF
0.0851 0.7373 m
GS
[0.0000 0.0490 -0.0490 0.0000 0 0] CC
(n) show
GR
/Font4 FFSF
0.1047 0.7627 m
GS
[0.0000 0.0346 -0.0346 0.0000 0 0] CC
(b) show
GR
/Font4 FFSF
0.0851 0.7820 m
GS
[0.0000 0.0490 -0.0490 0.0000 0 0] CC
(\)) show
GR
n
0.1941 0.4500 m
0.1941 0.9500 l
1.2294 0.9500 l
1.2294 0.4500 l
0.1941 0.4500 l
c
s
n
0.3000 0.6000 m
0.3000 0.5080 l
0.6328 0.5080 l
0.6328 0.6000 l
c
[/DeviceRGB] SCS
Color0 SC
fill
[/DeviceRGB] SCS
Color1 SC
n
0.3000 0.6000 m
0.3000 0.5080 l
0.6328 0.5080 l
0.6328 0.6000 l
0.3000 0.6000 l
c
s
/Font4 FFSF
0.3565 0.5633 m
GS
[0.0364 0.0000 0.0000 0.0364 0 0] CC
(Numeric) show
GR
n
0.3115 0.5763 m
0.3415 0.5763 l
s
/Font4 FFSF
0.3565 0.5259 m
GS
[0.0364 0.0000 0.0000 0.0364 0 0] CC
(Petrosian \(1981\)) show
GR
[/DeviceRGB] SCS
Color2 SC
n
0.3115 0.5353 m
0.3415 0.5353 l
s
[/DeviceRGB] SCS
Color1 SC
n
0.1941 0.3797 m
0.1964 0.3792 l
0.1988 0.3787 l
0.2011 0.3782 l
0.2034 0.3775 l
0.2058 0.3769 l
0.2081 0.3764 l
0.2104 0.3756 l
0.2127 0.3748 l
0.2151 0.3742 l
0.2174 0.3732 l
0.2197 0.3723 l
0.2221 0.3713 l
0.2244 0.3703 l
0.2267 0.3690 l
0.2291 0.3677 l
0.2314 0.3664 l
0.2337 0.3645 l
0.2360 0.3625 l
0.2384 0.3605 l
0.2407 0.3583 l
0.2430 0.3553 l
0.2454 0.3514 l
0.2477 0.3467 l
0.2500 0.3409 l
0.2523 0.3328 l
0.2547 0.3167 l
0.2570 0.2510 l
0.2593 0.3161 l
0.2617 0.3386 l
0.2640 0.3532 l
0.2663 0.3498 l
0.2686 0.3552 l
0.2710 0.3527 l
0.2733 0.3429 l
0.2756 0.3342 l
0.2780 0.3260 l
0.2803 0.3158 l
0.2826 0.3059 l
0.2849 0.2974 l
0.2873 0.2836 l
0.2896 0.2695 l
0.2919 0.2639 l
0.2943 0.2201 l
0.2966 0.2647 l
0.2989 0.2818 l
0.3012 0.2880 l
0.3036 0.2918 l
0.3059 0.2916 l
0.3082 0.2951 l
0.3106 0.3002 l
0.3129 0.3036 l
0.3152 0.3059 l
0.3176 0.3095 l
0.3199 0.3094 l
0.3222 0.3071 l
0.3245 0.3006 l
0.3269 0.2950 l
0.3292 0.2875 l
0.3315 0.2761 l
0.3339 0.2488 l
0.3362 0.2598 l
0.3385 0.2775 l
0.3408 0.2997 l
0.3432 0.3142 l
0.3455 0.3246 l
0.3478 0.3322 l
0.3502 0.3381 l
0.3525 0.3432 l
0.3548 0.3479 l
0.3571 0.3536 l
0.3595 0.3596 l
0.3618 0.3650 l
0.3641 0.3714 l
0.3665 0.3778 l
0.3688 0.3800 l
0.3711 0.3805 l
0.3734 0.3762 l
0.3758 0.3709 l
0.3781 0.3656 l
0.3804 0.3619 l
0.3828 0.3591 l
0.3851 0.3540 l
0.3874 0.3485 l
0.3897 0.3461 l
0.3921 0.3426 l
0.3944 0.3361 l
0.3967 0.3311 l
0.3991 0.3208 l
0.4014 0.3183 l
0.4037 0.3057 l
0.4060 0.2919 l
0.4084 0.2396 l
0.4107 0.2745 l
0.4130 0.2841 l
0.4154 0.3002 l
0.4177 0.3048 l
0.4200 0.3068 l
0.4224 0.3064 l
0.4247 0.3018 l
0.4270 0.2914 l
0.4293 0.2574 l
0.4317 0.2876 l
0.4340 0.3188 l
0.4363 0.3393 l
0.4387 0.3573 l
0.4410 0.3694 l
0.4433 0.3702 l
0.4456 0.3616 l
0.4480 0.3490 l
0.4503 0.3370 l
0.4526 0.3213 l
0.4550 0.2945 l
0.4573 0.2696 l
0.4596 0.3082 l
0.4619 0.3190 l
0.4643 0.3264 l
0.4666 0.3295 l
0.4689 0.3329 l
0.4713 0.3348 l
0.4736 0.3351 l
0.4759 0.3355 l
0.4782 0.3340 l
0.4806 0.3312 l
0.4829 0.3255 l
0.4852 0.3118 l
0.4876 0.2556 l
0.4899 0.3152 l
0.4922 0.3398 l
0.4945 0.3567 l
0.4969 0.3714 l
0.4992 0.3749 l
0.5015 0.3674 l
0.5039 0.3557 l
0.5062 0.3449 l
0.5085 0.3325 l
0.5109 0.3148 l
0.5132 0.2804 l
0.5155 0.2808 l
0.5178 0.3090 l
0.5202 0.3190 l
0.5225 0.3232 l
0.5248 0.3256 l
0.5272 0.3238 l
0.5295 0.3216 l
0.5318 0.3106 l
0.5341 0.2898 l
0.5365 0.3061 l
0.5388 0.3366 l
0.5411 0.3569 l
0.5435 0.3725 l
0.5458 0.3742 l
0.5481 0.3626 l
0.5504 0.3493 l
0.5528 0.3356 l
0.5551 0.3153 l
0.5574 0.2621 l
0.5598 0.2970 l
0.5621 0.3155 l
0.5644 0.3243 l
0.5667 0.3261 l
0.5691 0.3264 l
0.5714 0.3227 l
0.5737 0.3079 l
0.5761 0.2748 l
0.5784 0.3306 l
0.5807 0.3566 l
0.5830 0.3728 l
0.5854 0.3700 l
0.5877 0.3548 l
0.5900 0.3386 l
0.5924 0.3170 l
0.5947 0.2411 l
0.5970 0.3064 l
0.5994 0.3202 l
0.6017 0.3265 l
0.6040 0.3273 l
0.6063 0.3235 l
0.6087 0.3099 l
0.6110 0.2833 l
0.6133 0.3382 l
0.6157 0.3647 l
0.6180 0.3733 l
0.6203 0.3606 l
0.6226 0.3429 l
0.6250 0.3205 l
0.6273 0.2486 l
0.6296 0.3056 l
0.6320 0.3205 l
0.6343 0.3253 l
0.6366 0.3247 l
0.6389 0.3145 l
0.6413 0.2651 l
0.6436 0.3392 l
0.6459 0.3667 l
0.6483 0.3709 l
0.6506 0.3544 l
0.6529 0.3330 l
0.6552 0.2957 l
0.6576 0.2996 l
0.6599 0.3196 l
0.6622 0.3256 l
0.6646 0.3242 l
0.6669 0.3097 l
0.6692 0.3073 l
0.6715 0.3534 l
0.6739 0.3716 l
0.6762 0.3607 l
0.6785 0.3385 l
0.6809 0.3017 l
0.6832 0.2987 l
0.6855 0.3201 l
0.6878 0.3257 l
0.6902 0.3223 l
0.6925 0.2846 l
0.6948 0.3362 l
0.6972 0.3674 l
0.6995 0.3657 l
0.7018 0.3428 l
0.7042 0.3082 l
0.7065 0.2977 l
0.7088 0.3208 l
0.7111 0.3255 l
0.7135 0.3177 l
0.7158 0.2899 l
0.7181 0.3543 l
0.7205 0.3699 l
0.7228 0.3518 l
0.7251 0.3208 l
0.7274 0.2865 l
0.7298 0.3200 l
0.7321 0.3255 l
0.7344 0.3160 l
0.7368 0.3123 l
0.7391 0.3618 l
0.7414 0.3657 l
0.7437 0.3402 l
0.7461 0.2888 l
0.7484 0.3123 l
0.7507 0.3251 l
0.7531 0.3199 l
0.7554 0.2926 l
0.7577 0.3588 l
0.7600 0.3655 l
0.7624 0.3388 l
0.7647 0.2657 l
0.7670 0.3163 l
0.7694 0.3254 l
0.7717 0.3108 l
0.7740 0.3340 l
0.7763 0.3673 l
0.7787 0.3521 l
0.7810 0.3094 l
0.7833 0.3091 l
0.7857 0.3250 l
0.7880 0.3156 l
0.7903 0.3289 l
0.7927 0.3664 l
0.7950 0.3506 l
0.7973 0.3000 l
0.7996 0.3150 l
0.8020 0.3251 l
0.8043 0.2990 l
0.8066 0.3502 l
0.8090 0.3641 l
0.8113 0.3321 l
0.8136 0.2931 l
0.8159 0.3240 l
0.8183 0.3161 l
0.8206 0.3364 l
0.8229 0.3653 l
0.8253 0.3384 l
0.8276 0.2829 l
0.8299 0.3234 l
0.8322 0.3147 l
0.8346 0.3418 l
0.8369 0.3636 l
0.8392 0.3294 l
0.8416 0.3042 l
0.8439 0.3246 l
0.8462 0.2709 l
0.8485 0.3591 l
0.8509 0.3522 l
0.8532 0.2774 l
0.8555 0.3216 l
0.8579 0.3147 l
0.8602 0.3456 l
0.8625 0.3597 l
0.8648 0.3121 l
0.8672 0.3178 l
0.8695 0.3183 l
0.8718 0.3407 l
0.8742 0.3600 l
0.8765 0.3114 l
0.8788 0.3187 l
0.8811 0.3146 l
0.8835 0.3492 l
0.8858 0.3547 l
0.8881 0.2703 l
0.8905 0.3227 l
0.8928 0.2560 l
0.8951 0.3599 l
0.8975 0.3376 l
0.8998 0.3085 l
0.9021 0.3191 l
0.9044 0.3432 l
0.9068 0.3547 l
0.9091 0.2211 l
0.9114 0.3224 l
0.9138 0.3168 l
0.9161 0.3593 l
0.9184 0.3069 l
0.9207 0.3211 l
0.9231 0.2906 l
0.9254 0.3593 l
0.9277 0.3146 l
0.9301 0.3201 l
0.9324 0.2988 l
0.9347 0.3585 l
0.9370 0.3035 l
0.9394 0.3209 l
0.9417 0.3259 l
0.9440 0.3551 l
0.9464 0.2529 l
0.9487 0.3175 l
0.9510 0.3483 l
0.9533 0.3420 l
0.9557 0.3116 l
0.9580 0.2333 l
0.9603 0.3570 l
0.9627 0.2981 l
0.9650 0.3178 l
0.9673 0.3459 l
0.9696 0.3405 l
0.9720 0.3138 l
0.9743 0.3114 l
0.9766 0.3535 l
0.9790 0.2865 l
0.9813 0.2883 l
0.9836 0.3554 l
0.9860 0.2893 l
0.9883 0.3092 l
0.9906 0.3532 l
0.9929 0.3132 l
0.9953 0.3122 l
0.9976 0.3513 l
0.9999 0.3183 l
1.0023 0.3108 l
1.0046 0.3514 l
1.0069 0.3132 l
1.0092 0.3054 l
1.0116 0.3527 l
1.0139 0.2913 l
1.0162 0.2739 l
1.0186 0.3527 l
1.0209 0.2810 l
1.0232 0.3146 l
1.0255 0.3461 l
1.0279 0.3071 l
1.0302 0.3434 l
1.0325 0.3244 l
1.0349 0.2917 l
1.0372 0.3517 l
1.0395 0.2746 l
1.0418 0.3297 l
1.0442 0.3367 l
1.0465 0.2971 l
1.0488 0.3508 l
1.0512 0.2582 l
1.0535 0.3336 l
1.0558 0.3309 l
1.0581 0.2500 l
1.0605 0.3490 l
1.0628 0.2928 l
1.0651 0.3471 l
1.0675 0.2903 l
1.0698 0.3310 l
1.0721 0.3298 l
1.0745 0.2914 l
1.0768 0.3440 l
1.0791 0.2686 l
1.0814 0.3486 l
1.0838 0.2744 l
1.0861 0.3482 l
1.0884 0.1644 l
1.0908 0.3459 l
1.0931 0.2814 l
1.0954 0.3433 l
1.0977 0.2976 l
1.1001 0.3418 l
1.1024 0.3032 l
1.1047 0.3418 l
1.1071 0.3024 l
1.1094 0.3433 l
1.1117 0.2963 l
1.1140 0.3453 l
1.1164 0.2861 l
1.1187 0.3470 l
1.1210 0.2842 l
1.1234 0.3463 l
1.1257 0.3009 l
1.1280 0.3414 l
1.1303 0.3239 l
1.1327 0.3290 l
1.1350 0.3400 l
1.1373 0.3096 l
1.1397 0.3465 l
1.1420 0.3068 l
1.1443 0.3414 l
1.1466 0.3325 l
1.1490 0.3223 l
1.1513 0.3457 l
1.1536 0.3131 l
1.1560 0.3404 l
1.1583 0.3382 l
1.1606 0.3186 l
1.1629 0.3459 l
1.1653 0.3300 l
1.1676 0.3280 l
1.1699 0.3463 l
1.1723 0.3271 l
1.1746 0.3321 l
1.1769 0.3463 l
1.1793 0.3296 l
1.1816 0.3319 l
1.1839 0.3465 l
1.1862 0.3357 l
1.1886 0.3290 l
1.1909 0.3450 l
1.1932 0.3431 l
1.1956 0.3298 l
1.1979 0.3382 l
1.2002 0.3470 l
1.2025 0.3404 l
1.2049 0.3320 l
1.2072 0.3408 l
1.2095 0.3473 l
1.2119 0.3427 l
1.2142 0.3349 l
1.2165 0.3388 l
1.2188 0.3463 l
1.2212 0.3469 l
1.2235 0.3417 l
1.2258 0.3370 l
1.2282 0.3398 l
1.2295 0.3430 l
s
n
0.1941 0.1500 m
1.2294 0.1500 l
s
n
0.1941 0.4500 m
1.2294 0.4500 l
s
n
0.3694 0.1500 m
0.3694 0.1730 l
s
n
0.3694 0.4500 m
0.3694 0.4270 l
s
n
0.4719 0.1500 m
0.4719 0.1730 l
s
n
0.4719 0.4500 m
0.4719 0.4270 l
s
n
0.5447 0.1500 m
0.5447 0.1730 l
s
n
0.5447 0.4500 m
0.5447 0.4270 l
s
n
0.6011 0.1500 m
0.6011 0.1730 l
s
n
0.6011 0.4500 m
0.6011 0.4270 l
s
n
0.6472 0.1500 m
0.6472 0.1730 l
s
n
0.6472 0.4500 m
0.6472 0.4270 l
s
n
0.6862 0.1500 m
0.6862 0.1730 l
s
n
0.6862 0.4500 m
0.6862 0.4270 l
s
n
0.7199 0.1500 m
0.7199 0.1730 l
s
n
0.7199 0.4500 m
0.7199 0.4270 l
s
n
0.7497 0.1500 m
0.7497 0.1730 l
s
n
0.7497 0.4500 m
0.7497 0.4270 l
s
n
0.7763 0.1500 m
0.7763 0.1730 l
s
n
0.7763 0.4500 m
0.7763 0.4270 l
s
n
0.9516 0.1500 m
0.9516 0.1730 l
s
n
0.9516 0.4500 m
0.9516 0.4270 l
s
n
1.0541 0.1500 m
1.0541 0.1730 l
s
n
1.0541 0.4500 m
1.0541 0.4270 l
s
n
1.1269 0.1500 m
1.1269 0.1730 l
s
n
1.1269 0.4500 m
1.1269 0.4270 l
s
n
1.1833 0.1500 m
1.1833 0.1730 l
s
n
1.1833 0.4500 m
1.1833 0.4270 l
s
n
1.2294 0.1500 m
1.2294 0.1730 l
s
n
1.2294 0.4500 m
1.2294 0.4270 l
s
n
0.1941 0.1500 m
0.1941 0.1830 l
s
n
0.1941 0.4500 m
0.1941 0.4170 l
s
n
0.7763 0.1500 m
0.7763 0.1830 l
s
n
0.7763 0.4500 m
0.7763 0.4170 l
s
/Font4 FFSF
0.1675 0.0997 m
GS
[0.0364 0.0000 0.0000 0.0364 0 0] CC
(10) show
GR
/Font4 FFSF
0.2078 0.1216 m
GS
[0.0257 0.0000 0.0000 0.0257 0 0] CC
(0) show
GR
/Font4 FFSF
0.7516 0.0997 m
GS
[0.0364 0.0000 0.0000 0.0364 0 0] CC
(10) show
GR
/Font4 FFSF
0.7920 0.1216 m
GS
[0.0257 0.0000 0.0000 0.0257 0 0] CC
(1) show
GR
/Font12 FFSF
0.6990 0.0638 m
GS
[0.0490 0.0000 0.0000 0.0490 0 0] CC
(c) show
GR
n
0.1941 0.1500 m
0.1941 0.4500 l
s
n
1.2294 0.1500 m
1.2294 0.4500 l
s
n
0.1941 0.1682 m
0.2171 0.1682 l
s
n
1.2294 0.1682 m
1.2064 0.1682 l
s
n
0.1941 0.1789 m
0.2171 0.1789 l
s
n
1.2294 0.1789 m
1.2064 0.1789 l
s
n
0.1941 0.1865 m
0.2171 0.1865 l
s
n
1.2294 0.1865 m
1.2064 0.1865 l
s
n
0.1941 0.1923 m
0.2171 0.1923 l
s
n
1.2294 0.1923 m
1.2064 0.1923 l
s
n
0.1941 0.1971 m
0.2171 0.1971 l
s
n
1.2294 0.1971 m
1.2064 0.1971 l
s
n
0.1941 0.2012 m
0.2171 0.2012 l
s
n
1.2294 0.2012 m
1.2064 0.2012 l
s
n
0.1941 0.2047 m
0.2171 0.2047 l
s
n
1.2294 0.2047 m
1.2064 0.2047 l
s
n
0.1941 0.2078 m
0.2171 0.2078 l
s
n
1.2294 0.2078 m
1.2064 0.2078 l
s
n
0.1941 0.2106 m
0.2171 0.2106 l
s
n
1.2294 0.2106 m
1.2064 0.2106 l
s
n
0.1941 0.2288 m
0.2171 0.2288 l
s
n
1.2294 0.2288 m
1.2064 0.2288 l
s
n
0.1941 0.2394 m
0.2171 0.2394 l
s
n
1.2294 0.2394 m
1.2064 0.2394 l
s
n
0.1941 0.2470 m
0.2171 0.2470 l
s
n
1.2294 0.2470 m
1.2064 0.2470 l
s
n
0.1941 0.2529 m
0.2171 0.2529 l
s
n
1.2294 0.2529 m
1.2064 0.2529 l
s
n
0.1941 0.2577 m
0.2171 0.2577 l
s
n
1.2294 0.2577 m
1.2064 0.2577 l
s
n
0.1941 0.2617 m
0.2171 0.2617 l
s
n
1.2294 0.2617 m
1.2064 0.2617 l
s
n
0.1941 0.2652 m
0.2171 0.2652 l
s
n
1.2294 0.2652 m
1.2064 0.2652 l
s
n
0.1941 0.2683 m
0.2171 0.2683 l
s
n
1.2294 0.2683 m
1.2064 0.2683 l
s
n
0.1941 0.2711 m
0.2171 0.2711 l
s
n
1.2294 0.2711 m
1.2064 0.2711 l
s
n
0.1941 0.2893 m
0.2171 0.2893 l
s
n
1.2294 0.2893 m
1.2064 0.2893 l
s
n
0.1941 0.3000 m
0.2171 0.3000 l
s
n
1.2294 0.3000 m
1.2064 0.3000 l
s
n
0.1941 0.3076 m
0.2171 0.3076 l
s
n
1.2294 0.3076 m
1.2064 0.3076 l
s
n
0.1941 0.3134 m
0.2171 0.3134 l
s
n
1.2294 0.3134 m
1.2064 0.3134 l
s
n
0.1941 0.3182 m
0.2171 0.3182 l
s
n
1.2294 0.3182 m
1.2064 0.3182 l
s
n
0.1941 0.3223 m
0.2171 0.3223 l
s
n
1.2294 0.3223 m
1.2064 0.3223 l
s
n
0.1941 0.3258 m
0.2171 0.3258 l
s
n
1.2294 0.3258 m
1.2064 0.3258 l
s
n
0.1941 0.3289 m
0.2171 0.3289 l
s
n
1.2294 0.3289 m
1.2064 0.3289 l
s
n
0.1941 0.3317 m
0.2171 0.3317 l
s
n
1.2294 0.3317 m
1.2064 0.3317 l
s
n
0.1941 0.3499 m
0.2171 0.3499 l
s
n
1.2294 0.3499 m
1.2064 0.3499 l
s
n
0.1941 0.3606 m
0.2171 0.3606 l
s
n
1.2294 0.3606 m
1.2064 0.3606 l
s
n
0.1941 0.3681 m
0.2171 0.3681 l
s
n
1.2294 0.3681 m
1.2064 0.3681 l
s
n
0.1941 0.3740 m
0.2171 0.3740 l
s
n
1.2294 0.3740 m
1.2064 0.3740 l
s
n
0.1941 0.3788 m
0.2171 0.3788 l
s
n
1.2294 0.3788 m
1.2064 0.3788 l
s
n
0.1941 0.3828 m
0.2171 0.3828 l
s
n
1.2294 0.3828 m
1.2064 0.3828 l
s
n
0.1941 0.3863 m
0.2171 0.3863 l
s
n
1.2294 0.3863 m
1.2064 0.3863 l
s
n
0.1941 0.3894 m
0.2171 0.3894 l
s
n
1.2294 0.3894 m
1.2064 0.3894 l
s
n
0.1941 0.3922 m
0.2171 0.3922 l
s
n
1.2294 0.3922 m
1.2064 0.3922 l
s
n
0.1941 0.4104 m
0.2171 0.4104 l
s
n
1.2294 0.4104 m
1.2064 0.4104 l
s
n
0.1941 0.4211 m
0.2171 0.4211 l
s
n
1.2294 0.4211 m
1.2064 0.4211 l
s
n
0.1941 0.4287 m
0.2171 0.4287 l
s
n
1.2294 0.4287 m
1.2064 0.4287 l
s
n
0.1941 0.4345 m
0.2171 0.4345 l
s
n
1.2294 0.4345 m
1.2064 0.4345 l
s
n
0.1941 0.4393 m
0.2171 0.4393 l
s
n
1.2294 0.4393 m
1.2064 0.4393 l
s
n
0.1941 0.4434 m
0.2171 0.4434 l
s
n
1.2294 0.4434 m
1.2064 0.4434 l
s
n
0.1941 0.4469 m
0.2171 0.4469 l
s
n
1.2294 0.4469 m
1.2064 0.4469 l
s
n
0.1941 0.4500 m
0.2171 0.4500 l
s
n
1.2294 0.4500 m
1.2064 0.4500 l
s
n
0.1941 0.1500 m
0.2271 0.1500 l
s
n
1.2294 0.1500 m
1.1964 0.1500 l
s
n
0.1941 0.2106 m
0.2271 0.2106 l
s
n
1.2294 0.2106 m
1.1964 0.2106 l
s
n
0.1941 0.2711 m
0.2271 0.2711 l
s
n
1.2294 0.2711 m
1.1964 0.2711 l
s
n
0.1941 0.3317 m
0.2271 0.3317 l
s
n
1.2294 0.3317 m
1.1964 0.3317 l
s
n
0.1941 0.3922 m
0.2271 0.3922 l
s
n
1.2294 0.3922 m
1.1964 0.3922 l
s
/Font4 FFSF
0.1218 0.1303 m
GS
[0.0364 0.0000 0.0000 0.0364 0 0] CC
(10) show
GR
/Font4 FFSF
0.1622 0.1521 m
GS
[0.0257 0.0000 0.0000 0.0257 0 0] CC
(-4) show
GR
/Font4 FFSF
0.1222 0.1908 m
GS
[0.0364 0.0000 0.0000 0.0364 0 0] CC
(10) show
GR
/Font4 FFSF
0.1625 0.2127 m
GS
[0.0257 0.0000 0.0000 0.0257 0 0] CC
(-3) show
GR
/Font4 FFSF
0.1218 0.2514 m
GS
[0.0364 0.0000 0.0000 0.0364 0 0] CC
(10) show
GR
/Font4 FFSF
0.1622 0.2732 m
GS
[0.0257 0.0000 0.0000 0.0257 0 0] CC
(-2) show
GR
/Font4 FFSF
0.1261 0.3119 m
GS
[0.0364 0.0000 0.0000 0.0364 0 0] CC
(10) show
GR
/Font4 FFSF
0.1665 0.3338 m
GS
[0.0257 0.0000 0.0000 0.0257 0 0] CC
(-1) show
GR
/Font4 FFSF
0.1308 0.3725 m
GS
[0.0364 0.0000 0.0000 0.0364 0 0] CC
(10) show
GR
/Font4 FFSF
0.1712 0.3943 m
GS
[0.0257 0.0000 0.0000 0.0257 0 0] CC
(0) show
GR
/Font4 FFSF
0.1106 0.1533 m
GS
[0.0000 0.0490 -0.0490 0.0000 0 0] CC
(Relative error) show
GR
n
0.1941 0.1500 m
0.1941 0.4500 l
1.2294 0.4500 l
1.2294 0.1500 l
0.1941 0.1500 l
c
s
%%Trailer
%%BoundingBox: 17 31 755 595
%%DocumentNeededResources: font Helvetica
%%+ font Symbol
%%EOF
