%!PS-Adobe-3.0 EPSF-3.0
%%BoundingBox: (atend)
%%LanguageLevel: 2
%%Creator: Grace-5.1.23
%%CreationDate: Thu Mar  5 15:10:01 2015
%%DocumentData: Clean8Bit
%%Orientation: Portrait
%%Title: Untitled
%%For: jesus
%%DocumentNeededResources: (atend)
%%EndComments
%%BeginProlog
/m {moveto} def
/l {lineto} def
/s {stroke} def
/n {newpath} def
/c {closepath} def
/RL {rlineto} def
/SLW {setlinewidth} def
/GS {gsave} def
/GR {grestore} def
/SC {setcolor} def
/SGRY {setgray} def
/SRGB {setrgbcolor} def
/SD {setdash} def
/SLC {setlinecap} def
/SLJ {setlinejoin} def
/SCS {setcolorspace} def
/FFSF {findfont setfont} def
/CC {concat} def
/PXL {n m 0 0 RL s} def
/Color0 {1.0000 1.0000 1.0000} def
/Color1 {0.0000 0.0000 0.0000} def
/Color2 {1.0000 0.0000 0.0000} def
/Color3 {0.0000 1.0000 0.0000} def
/Color4 {0.0000 0.0000 1.0000} def
/Color5 {1.0000 1.0000 0.0000} def
/Color6 {0.7373 0.5608 0.5608} def
/Color7 {0.8627 0.8627 0.8627} def
/Color8 {0.5804 0.0000 0.8275} def
/Color9 {0.0000 1.0000 1.0000} def
/Color10 {1.0000 0.0000 1.0000} def
/Color11 {1.0000 0.6471 0.0000} def
/Color12 {0.4471 0.1294 0.7373} def
/Color13 {0.4039 0.0275 0.2824} def
/Color14 {0.2510 0.8784 0.8157} def
/Color15 {0.0000 0.5451 0.0000} def
/PTRN {
 /pat_bits exch def 
 <<
  /PaintType 2
  /PatternType 1 /TilingType 1
  /BBox[0 0 16 16]
  /XStep 16 /YStep 16
  /PaintProc {
   pop
   16 16 true [-1 0 0 -1 16 16] pat_bits imagemask
  }
 >>
 [0.0016 0 0 0.0016 0 0]
 makepattern
} def
/Pattern0 {<0000000000000000000000000000000000000000000000000000000000000000> PTRN} bind def
/Pattern1 {<ffffffffffffffffffffffffffffffffffffffffffffffffffffffffffffffff> PTRN} bind def
/Pattern2 {<eeeeffffbbbbffffeeeeffffbbbbffffeeeeffffbbbbffffeeeeffffbbbbffff> PTRN} bind def
/Pattern3 {<eeeebbbbeeeebbbbeeeebbbbeeeebbbbeeeebbbbeeeebbbbeeeebbbbeeeebbbb> PTRN} bind def
/Pattern4 {<5555aaaa5555aaaa5555aaaa5555aaaa5555aaaa5555aaaa5555aaaa5555aaaa> PTRN} bind def
/Pattern5 {<1111444411114444111144441111444411114444111144441111444411114444> PTRN} bind def
/Pattern6 {<1111000044440000111100004444000011110000444400001111000044440000> PTRN} bind def
/Pattern7 {<1010000000000000010100000000000010100000000000000101000000000000> PTRN} bind def
/Pattern8 {<0000000000000000000000000000000000000000000000000000000000000000> PTRN} bind def
/Pattern9 {<1e1e0f0f8787c3c3e1e1f0f078783c3c1e1e0f0f8787c3c3e1e1f0f078783c3c> PTRN} bind def
/Pattern10 {<7878f0f0e1e1c3c387870f0f1e1e3c3c7878f0f0e1e1c3c387870f0f1e1e3c3c> PTRN} bind def
/Pattern11 {<3333333333333333333333333333333333333333333333333333333333333333> PTRN} bind def
/Pattern12 {<ffffffff00000000ffffffff00000000ffffffff00000000ffffffff00000000> PTRN} bind def
/Pattern13 {<8181424224241818181824244242818181814242242418181818242442428181> PTRN} bind def
/Pattern14 {<8080404020201010080804040202010180804040202010100808040402020101> PTRN} bind def
/Pattern15 {<0101020204040808101020204040808001010202040408081010202040408080> PTRN} bind def
/Pattern16 {<2222222222222222222222222222222222222222222222222222222222222222> PTRN} bind def
/Pattern17 {<0000ffff000000000000ffff000000000000ffff000000000000ffff00000000> PTRN} bind def
/Pattern18 {<2222ffff222222222222ffff222222222222ffff222222222222ffff22222222> PTRN} bind def
/Pattern19 {<ffffffff33333333ffffffff33333333ffffffff33333333ffffffff33333333> PTRN} bind def
/Pattern20 {<0f0f0f0f0f0f0f0ff0f0f0f0f0f0f0f00f0f0f0f0f0f0f0ff0f0f0f0f0f0f0f0> PTRN} bind def
/Pattern21 {<ff00ff00ff00ff00ff00ff00ff00ff0000ff00ff00ff00ff00ff00ff00ff00ff> PTRN} bind def
/Pattern22 {<8001800180018001800180018001ffffffff8001800180018001800180018001> PTRN} bind def
/Pattern23 {<c003c003c003c003c003c003ffffffffffffffffc003c003c003c003c003c003> PTRN} bind def
/Pattern24 {<040404040404ffff404040404040ffff040404040404ffff404040404040ffff> PTRN} bind def
/Pattern25 {<180018001800180018001800ffffffff001800180018001800180018ffffffff> PTRN} bind def
/Pattern26 {<1111b8b87c7c3a3a1111a3a3c7c78b8b1111b8b87c7c3a3a1111a3a3c7c78b8b> PTRN} bind def
/Pattern27 {<101010102828c7c70101010182827c7c101010102828c7c70101010182827c7c> PTRN} bind def
/Pattern28 {<1c1c121211112121c1c12121111112121c1c121211112121c1c1212111111212> PTRN} bind def
/Pattern29 {<3e3e414180808080e3e31414080808083e3e414180808080e3e3141408080808> PTRN} bind def
/Pattern30 {<4848888884848383848488884848383848488888848483838484888848483838> PTRN} bind def
/Pattern31 {<03030404080808080c0c12122121c0c003030404080808080c0c12122121c0c0> PTRN} bind def
/ellipsedict 8 dict def
ellipsedict /mtrx matrix put
/EARC {
 ellipsedict begin
  /endangle exch def
  /startangle exch def
  /yrad exch def
  /xrad exch def
  /y exch def
  /x exch def
  /savematrix mtrx currentmatrix def
  x y translate
  xrad yrad scale
  0 0 1 startangle endangle arc
  savematrix setmatrix
 end
} def
/TL {
  /kcomp exch def
  /linewidth exch def
  /offset exch def
  GS
  0 offset rmoveto
  linewidth SLW
  dup stringwidth exch kcomp add exch RL s
  GR
} def
/KINIT
{
 /kvector exch def
 /kid 0 def
} def
/KPROC
{
 pop pop
 kvector kid get
 0 rmoveto
 /kid 1 kid add def
} def
/DefEncoding [
 /.notdef
 /.notdef
 /.notdef
 /.notdef
 /.notdef
 /.notdef
 /.notdef
 /.notdef
 /.notdef
 /.notdef
 /.notdef
 /.notdef
 /.notdef
 /.notdef
 /.notdef
 /.notdef
 /.notdef
 /.notdef
 /.notdef
 /.notdef
 /.notdef
 /.notdef
 /.notdef
 /.notdef
 /.notdef
 /.notdef
 /.notdef
 /.notdef
 /.notdef
 /.notdef
 /.notdef
 /.notdef
 /space
 /exclam
 /quotedbl
 /numbersign
 /dollar
 /percent
 /ampersand
 /quoteright
 /parenleft
 /parenright
 /asterisk
 /plus
 /comma
 /hyphen
 /period
 /slash
 /zero
 /one
 /two
 /three
 /four
 /five
 /six
 /seven
 /eight
 /nine
 /colon
 /semicolon
 /less
 /equal
 /greater
 /question
 /at
 /A
 /B
 /C
 /D
 /E
 /F
 /G
 /H
 /I
 /J
 /K
 /L
 /M
 /N
 /O
 /P
 /Q
 /R
 /S
 /T
 /U
 /V
 /W
 /X
 /Y
 /Z
 /bracketleft
 /backslash
 /bracketright
 /asciicircum
 /underscore
 /grave
 /a
 /b
 /c
 /d
 /e
 /f
 /g
 /h
 /i
 /j
 /k
 /l
 /m
 /n
 /o
 /p
 /q
 /r
 /s
 /t
 /u
 /v
 /w
 /x
 /y
 /z
 /braceleft
 /bar
 /braceright
 /asciitilde
 /.notdef
 /.notdef
 /.notdef
 /.notdef
 /.notdef
 /.notdef
 /.notdef
 /.notdef
 /.notdef
 /.notdef
 /.notdef
 /.notdef
 /.notdef
 /.notdef
 /.notdef
 /.notdef
 /.notdef
 /.notdef
 /.notdef
 /.notdef
 /.notdef
 /.notdef
 /.notdef
 /.notdef
 /.notdef
 /.notdef
 /.notdef
 /.notdef
 /.notdef
 /.notdef
 /.notdef
 /.notdef
 /.notdef
 /space
 /exclamdown
 /cent
 /sterling
 /currency
 /yen
 /brokenbar
 /section
 /dieresis
 /copyright
 /ordfeminine
 /guillemotleft
 /logicalnot
 /hyphen
 /registered
 /macron
 /degree
 /plusminus
 /twosuperior
 /threesuperior
 /acute
 /mu
 /paragraph
 /periodcentered
 /cedilla
 /onesuperior
 /ordmasculine
 /guillemotright
 /onequarter
 /onehalf
 /threequarters
 /questiondown
 /Agrave
 /Aacute
 /Acircumflex
 /Atilde
 /Adieresis
 /Aring
 /AE
 /Ccedilla
 /Egrave
 /Eacute
 /Ecircumflex
 /Edieresis
 /Igrave
 /Iacute
 /Icircumflex
 /Idieresis
 /Eth
 /Ntilde
 /Ograve
 /Oacute
 /Ocircumflex
 /Otilde
 /Odieresis
 /multiply
 /Oslash
 /Ugrave
 /Uacute
 /Ucircumflex
 /Udieresis
 /Yacute
 /Thorn
 /germandbls
 /agrave
 /aacute
 /acircumflex
 /atilde
 /adieresis
 /aring
 /ae
 /ccedilla
 /egrave
 /eacute
 /ecircumflex
 /edieresis
 /igrave
 /iacute
 /icircumflex
 /idieresis
 /eth
 /ntilde
 /ograve
 /oacute
 /ocircumflex
 /otilde
 /odieresis
 /divide
 /oslash
 /ugrave
 /uacute
 /ucircumflex
 /udieresis
 /yacute
 /thorn
 /ydieresis
] def
%%EndProlog
%%BeginSetup
%%EndSetup
612.00 612.00 scale
[/DeviceRGB] SCS
Color1 SC
[] 0 SD
0.0030 SLW
0 SLC
0 SLJ
n
0.1941 0.8868 m
0.1962 0.8854 l
0.1982 0.8846 l
0.2002 0.8835 l
0.2023 0.8823 l
0.2043 0.8814 l
0.2063 0.8806 l
0.2084 0.8800 l
0.2104 0.8796 l
0.2124 0.8793 l
0.2145 0.8792 l
0.2165 0.8795 l
0.2185 0.8797 l
0.2206 0.8795 l
0.2226 0.8787 l
0.2246 0.8786 l
0.2267 0.8799 l
0.2287 0.8804 l
0.2307 0.8797 l
0.2328 0.8811 l
0.2348 0.8820 l
0.2368 0.8812 l
0.2389 0.8835 l
0.2409 0.8833 l
0.2429 0.8851 l
0.2450 0.8855 l
0.2470 0.8870 l
0.2490 0.8875 l
0.2511 0.8895 l
0.2531 0.8895 l
0.2551 0.8921 l
0.2572 0.8922 l
0.2592 0.8944 l
0.2612 0.8924 l
0.2633 0.8921 l
0.2653 0.8912 l
0.2673 0.8905 l
0.2694 0.8887 l
0.2714 0.8883 l
0.2734 0.8890 l
0.2755 0.8890 l
0.2775 0.8871 l
0.2795 0.8878 l
0.2816 0.8885 l
0.2836 0.8902 l
0.2856 0.8900 l
0.2877 0.8895 l
0.2897 0.8904 l
0.2917 0.8904 l
0.2938 0.8926 l
0.2958 0.8941 l
0.2979 0.8951 l
0.2999 0.8978 l
0.3019 0.8971 l
0.3040 0.8961 l
0.3060 0.8946 l
0.3080 0.8943 l
0.3101 0.8944 l
0.3121 0.8938 l
0.3141 0.8936 l
0.3162 0.8937 l
0.3182 0.8945 l
0.3202 0.8950 l
0.3223 0.8959 l
0.3243 0.8964 l
0.3263 0.8971 l
0.3284 0.8983 l
0.3304 0.8967 l
0.3324 0.8962 l
0.3345 0.8951 l
0.3365 0.8962 l
0.3385 0.8963 l
0.3406 0.8961 l
0.3426 0.8953 l
0.3446 0.8948 l
0.3467 0.8969 l
0.3487 0.8990 l
0.3507 0.9012 l
0.3528 0.9002 l
0.3548 0.8990 l
0.3568 0.8970 l
0.3589 0.8993 l
0.3609 0.8974 l
0.3629 0.8968 l
0.3650 0.8969 l
0.3670 0.9009 l
0.3690 0.9013 l
0.3711 0.9006 l
0.3731 0.9000 l
0.3751 0.8998 l
0.3772 0.8974 l
0.3792 0.8998 l
0.3812 0.9013 l
0.3833 0.9007 l
0.3853 0.8999 l
0.3873 0.9031 l
0.3894 0.9012 l
0.3914 0.8989 l
0.3934 0.9004 l
0.3955 0.9022 l
0.3975 0.9027 l
0.3995 0.9033 l
0.4016 0.9029 l
0.4036 0.9052 l
0.4057 0.9016 l
0.4077 0.9008 l
0.4097 0.9045 l
0.4118 0.9034 l
0.4138 0.9053 l
0.4158 0.9027 l
0.4179 0.9033 l
0.4199 0.9038 l
0.4219 0.9052 l
0.4240 0.9042 l
0.4260 0.9045 l
0.4280 0.9034 l
0.4301 0.9020 l
0.4321 0.9055 l
0.4341 0.9030 l
0.4362 0.9071 l
0.4382 0.9038 l
0.4402 0.9064 l
0.4423 0.9047 l
0.4443 0.9056 l
0.4463 0.9060 l
0.4484 0.9073 l
0.4504 0.9064 l
0.4524 0.9057 l
0.4545 0.9075 l
0.4565 0.9077 l
0.4585 0.9061 l
0.4606 0.9061 l
0.4626 0.9076 l
0.4646 0.9057 l
0.4667 0.9084 l
0.4687 0.9053 l
0.4707 0.9104 l
0.4728 0.9075 l
0.4748 0.9102 l
0.4768 0.9092 l
0.4789 0.9094 l
0.4809 0.9087 l
0.4829 0.9096 l
0.4850 0.9083 l
0.4870 0.9089 l
0.4890 0.9090 l
0.4911 0.9091 l
0.4931 0.9066 l
0.4951 0.9097 l
0.4972 0.9113 l
0.4992 0.9105 l
0.5012 0.9120 l
0.5033 0.9079 l
0.5053 0.9110 l
0.5073 0.9094 l
0.5094 0.9105 l
0.5114 0.9122 l
0.5135 0.9097 l
0.5155 0.9110 l
0.5175 0.9116 l
0.5196 0.9095 l
0.5216 0.9117 l
0.5236 0.9138 l
0.5257 0.9110 l
0.5277 0.9109 l
0.5297 0.9129 l
0.5318 0.9130 l
0.5338 0.9102 l
0.5358 0.9155 l
0.5379 0.9138 l
0.5399 0.9130 l
0.5419 0.9137 l
0.5440 0.9133 l
0.5460 0.9136 l
0.5480 0.9148 l
0.5501 0.9139 l
0.5521 0.9138 l
0.5541 0.9147 l
0.5562 0.9156 l
0.5582 0.9132 l
0.5602 0.9124 l
0.5623 0.9143 l
0.5643 0.9135 l
0.5663 0.9140 l
0.5684 0.9163 l
0.5704 0.9149 l
0.5724 0.9144 l
0.5745 0.9159 l
0.5765 0.9160 l
0.5785 0.9142 l
0.5806 0.9153 l
0.5826 0.9156 l
0.5846 0.9155 l
0.5867 0.9155 l
0.5887 0.9151 l
0.5907 0.9163 l
0.5928 0.9166 l
0.5948 0.9166 l
0.5968 0.9167 l
0.5989 0.9153 l
0.6009 0.9175 l
0.6029 0.9166 l
0.6050 0.9166 l
0.6070 0.9172 l
0.6090 0.9181 l
0.6111 0.9165 l
0.6131 0.9173 l
0.6151 0.9168 l
0.6172 0.9178 l
0.6192 0.9175 l
0.6213 0.9181 l
0.6233 0.9161 l
0.6253 0.9184 l
0.6274 0.9183 l
0.6294 0.9178 l
0.6314 0.9216 l
0.6335 0.9180 l
0.6355 0.9178 l
0.6375 0.9195 l
0.6396 0.9186 l
0.6416 0.9184 l
0.6436 0.9187 l
0.6457 0.9193 l
0.6477 0.9194 l
0.6497 0.9188 l
0.6518 0.9195 l
0.6538 0.9197 l
0.6558 0.9209 l
0.6579 0.9198 l
0.6599 0.9207 l
0.6619 0.9194 l
0.6640 0.9199 l
0.6660 0.9202 l
0.6680 0.9203 l
0.6701 0.9204 l
0.6721 0.9222 l
0.6741 0.9196 l
0.6762 0.9196 l
0.6782 0.9220 l
0.6802 0.9198 l
0.6823 0.9213 l
0.6843 0.9207 l
0.6863 0.9217 l
0.6884 0.9210 l
0.6904 0.9216 l
0.6924 0.9206 l
0.6945 0.9216 l
0.6965 0.9216 l
0.6985 0.9203 l
0.7006 0.9227 l
0.7026 0.9207 l
0.7046 0.9218 l
0.7067 0.9214 l
0.7087 0.9214 l
0.7107 0.9211 l
0.7128 0.9218 l
0.7148 0.9212 l
0.7168 0.9211 l
0.7189 0.9217 l
0.7209 0.9216 l
0.7229 0.9213 l
0.7250 0.9221 l
0.7270 0.9224 l
0.7291 0.9216 l
0.7311 0.9217 l
0.7331 0.9219 l
0.7352 0.9216 l
0.7372 0.9217 l
0.7392 0.9207 l
0.7413 0.9229 l
0.7433 0.9212 l
0.7453 0.9211 l
0.7474 0.9222 l
0.7494 0.9218 l
0.7514 0.9217 l
0.7535 0.9218 l
0.7555 0.9214 l
0.7575 0.9214 l
0.7596 0.9216 l
0.7616 0.9219 l
0.7636 0.9214 l
0.7657 0.9219 l
0.7677 0.9206 l
0.7697 0.9211 l
0.7718 0.9208 l
0.7738 0.9211 l
0.7758 0.9203 l
0.7779 0.9206 l
0.7799 0.9203 l
0.7819 0.9210 l
0.7840 0.9210 l
0.7860 0.9209 l
0.7880 0.9209 l
0.7901 0.9202 l
0.7921 0.9197 l
0.7941 0.9202 l
0.7962 0.9203 l
0.7982 0.9197 l
0.8002 0.9196 l
0.8023 0.9201 l
0.8043 0.9197 l
0.8063 0.9191 l
0.8084 0.9192 l
0.8104 0.9192 l
0.8124 0.9187 l
0.8145 0.9192 l
0.8165 0.9189 l
0.8185 0.9185 l
0.8206 0.9188 l
0.8226 0.9180 l
0.8246 0.9182 l
0.8267 0.9178 l
0.8287 0.9176 l
0.8307 0.9174 l
0.8328 0.9168 l
0.8348 0.9169 l
0.8369 0.9165 l
0.8389 0.9166 l
0.8409 0.9160 l
0.8430 0.9158 l
0.8450 0.9154 l
0.8470 0.9154 l
0.8491 0.9152 l
0.8511 0.9147 l
0.8531 0.9145 l
0.8552 0.9142 l
0.8572 0.9142 l
0.8592 0.9136 l
0.8613 0.9136 l
0.8633 0.9130 l
0.8653 0.9127 l
0.8674 0.9124 l
0.8694 0.9120 l
0.8714 0.9116 l
0.8735 0.9113 l
0.8755 0.9108 l
0.8775 0.9104 l
0.8796 0.9103 l
0.8816 0.9097 l
0.8836 0.9093 l
0.8857 0.9088 l
0.8877 0.9084 l
0.8897 0.9079 l
0.8918 0.9075 l
0.8938 0.9072 l
0.8958 0.9067 l
0.8979 0.9063 l
0.8999 0.9059 l
0.9019 0.9055 l
0.9040 0.9049 l
0.9060 0.9044 l
0.9080 0.9038 l
0.9101 0.9030 l
0.9121 0.9026 l
0.9141 0.9020 l
0.9162 0.9013 l
0.9182 0.9008 l
0.9202 0.9004 l
0.9223 0.8997 l
0.9243 0.8992 l
0.9263 0.8987 l
0.9284 0.8981 l
0.9304 0.8975 l
0.9324 0.8969 l
0.9345 0.8962 l
0.9365 0.8954 l
0.9386 0.8945 l
0.9406 0.8937 l
0.9426 0.8931 l
0.9447 0.8924 l
0.9467 0.8916 l
0.9487 0.8908 l
0.9508 0.8901 l
0.9528 0.8895 l
0.9548 0.8885 l
0.9569 0.8879 l
0.9589 0.8871 l
0.9609 0.8862 l
0.9630 0.8852 l
0.9650 0.8844 l
0.9670 0.8833 l
0.9691 0.8823 l
0.9711 0.8812 l
0.9731 0.8806 l
0.9752 0.8796 l
0.9772 0.8786 l
0.9792 0.8778 l
0.9813 0.8769 l
0.9833 0.8760 l
0.9853 0.8747 l
0.9874 0.8733 l
0.9894 0.8722 l
0.9914 0.8711 l
0.9935 0.8698 l
0.9955 0.8685 l
0.9975 0.8677 l
0.9996 0.8663 l
1.0016 0.8655 l
1.0036 0.8645 l
1.0057 0.8631 l
1.0077 0.8613 l
1.0097 0.8597 l
1.0118 0.8582 l
1.0138 0.8568 l
1.0158 0.8556 l
1.0179 0.8543 l
1.0199 0.8529 l
1.0219 0.8517 l
1.0240 0.8497 l
1.0260 0.8482 l
1.0280 0.8463 l
1.0301 0.8443 l
1.0321 0.8426 l
1.0341 0.8408 l
1.0362 0.8394 l
1.0382 0.8377 l
1.0402 0.8362 l
1.0423 0.8334 l
1.0443 0.8319 l
1.0464 0.8293 l
1.0484 0.8276 l
1.0504 0.8255 l
1.0525 0.8231 l
1.0545 0.8212 l
1.0565 0.8200 l
1.0586 0.8165 l
1.0606 0.8138 l
1.0626 0.8115 l
1.0647 0.8085 l
1.0667 0.8067 l
1.0687 0.8040 l
1.0708 0.8016 l
1.0728 0.7989 l
1.0748 0.7953 l
1.0769 0.7927 l
1.0789 0.7891 l
1.0809 0.7869 l
1.0830 0.7845 l
1.0850 0.7809 l
1.0870 0.7770 l
1.0891 0.7743 l
1.0911 0.7707 l
1.0931 0.7672 l
1.0952 0.7633 l
1.0972 0.7605 l
1.0992 0.7578 l
1.1013 0.7528 l
1.1033 0.7487 l
1.1053 0.7457 l
1.1074 0.7413 l
1.1094 0.7358 l
1.1114 0.7334 l
1.1135 0.7302 l
1.1155 0.7240 l
1.1175 0.7200 l
1.1196 0.7165 l
1.1216 0.7109 l
1.1236 0.7074 l
1.1257 0.7021 l
1.1277 0.6980 l
1.1297 0.6925 l
1.1318 0.6879 l
1.1338 0.6829 l
1.1358 0.6780 l
1.1379 0.6740 l
1.1399 0.6675 l
1.1419 0.6644 l
1.1440 0.6565 l
1.1460 0.6518 l
1.1480 0.6461 l
1.1501 0.6419 l
1.1521 0.6344 l
1.1542 0.6291 l
1.1562 0.6229 l
1.1582 0.6159 l
1.1603 0.6102 l
1.1623 0.6035 l
1.1643 0.6004 l
1.1664 0.5914 l
1.1684 0.5857 l
1.1704 0.5803 l
1.1725 0.5730 l
1.1745 0.5678 l
1.1765 0.5561 l
1.1786 0.5498 l
1.1806 0.5477 l
1.1826 0.5427 l
1.1847 0.5204 l
1.1867 0.5185 l
1.1887 0.5167 l
1.1908 0.5132 l
1.1928 0.5025 l
1.1948 0.4840 l
1.1969 0.4813 l
1.1989 0.4760 l
1.2009 0.4706 l
1.2030 0.4569 l
1.2041 0.4499 l
s
[/DeviceRGB] SCS
Color2 SC
n
0.1941 0.8746 m
0.1962 0.8748 l
0.1982 0.8749 l
0.2002 0.8751 l
0.2023 0.8753 l
0.2043 0.8754 l
0.2063 0.8756 l
0.2084 0.8758 l
0.2104 0.8759 l
0.2124 0.8761 l
0.2145 0.8763 l
0.2165 0.8764 l
0.2185 0.8766 l
0.2206 0.8768 l
0.2226 0.8769 l
0.2246 0.8771 l
0.2267 0.8773 l
0.2287 0.8774 l
0.2307 0.8776 l
0.2328 0.8778 l
0.2348 0.8779 l
0.2368 0.8781 l
0.2389 0.8783 l
0.2409 0.8785 l
0.2429 0.8786 l
0.2450 0.8788 l
0.2470 0.8790 l
0.2490 0.8791 l
0.2511 0.8793 l
0.2531 0.8795 l
0.2551 0.8796 l
0.2572 0.8798 l
0.2592 0.8800 l
0.2612 0.8801 l
0.2633 0.8803 l
0.2653 0.8805 l
0.2673 0.8806 l
0.2694 0.8808 l
0.2714 0.8810 l
0.2734 0.8811 l
0.2755 0.8813 l
0.2775 0.8815 l
0.2795 0.8816 l
0.2816 0.8818 l
0.2836 0.8820 l
0.2856 0.8821 l
0.2877 0.8823 l
0.2897 0.8825 l
0.2917 0.8826 l
0.2938 0.8828 l
0.2958 0.8830 l
0.2979 0.8831 l
0.2999 0.8833 l
0.3019 0.8835 l
0.3040 0.8836 l
0.3060 0.8838 l
0.3080 0.8840 l
0.3101 0.8841 l
0.3121 0.8843 l
0.3141 0.8845 l
0.3162 0.8846 l
0.3182 0.8848 l
0.3202 0.8850 l
0.3223 0.8851 l
0.3243 0.8853 l
0.3263 0.8855 l
0.3284 0.8856 l
0.3304 0.8858 l
0.3324 0.8860 l
0.3345 0.8861 l
0.3365 0.8863 l
0.3385 0.8865 l
0.3406 0.8866 l
0.3426 0.8868 l
0.3446 0.8870 l
0.3467 0.8871 l
0.3487 0.8873 l
0.3507 0.8875 l
0.3528 0.8876 l
0.3548 0.8878 l
0.3568 0.8880 l
0.3589 0.8881 l
0.3609 0.8883 l
0.3629 0.8885 l
0.3650 0.8886 l
0.3670 0.8888 l
0.3690 0.8890 l
0.3711 0.8891 l
0.3731 0.8893 l
0.3751 0.8895 l
0.3772 0.8896 l
0.3792 0.8898 l
0.3812 0.8900 l
0.3833 0.8901 l
0.3853 0.8903 l
0.3873 0.8905 l
0.3894 0.8906 l
0.3914 0.8908 l
0.3934 0.8910 l
0.3955 0.8911 l
0.3975 0.8913 l
0.3995 0.8915 l
0.4016 0.8916 l
0.4036 0.8918 l
0.4057 0.8919 l
0.4077 0.8921 l
0.4097 0.8923 l
0.4118 0.8924 l
0.4138 0.8926 l
0.4158 0.8928 l
0.4179 0.8929 l
0.4199 0.8931 l
0.4219 0.8933 l
0.4240 0.8934 l
0.4260 0.8936 l
0.4280 0.8938 l
0.4301 0.8939 l
0.4321 0.8941 l
0.4341 0.8942 l
0.4362 0.8944 l
0.4382 0.8946 l
0.4402 0.8947 l
0.4423 0.8949 l
0.4443 0.8951 l
0.4463 0.8952 l
0.4484 0.8954 l
0.4504 0.8955 l
0.4524 0.8957 l
0.4545 0.8959 l
0.4565 0.8960 l
0.4585 0.8962 l
0.4606 0.8964 l
0.4626 0.8965 l
0.4646 0.8967 l
0.4667 0.8968 l
0.4687 0.8970 l
0.4707 0.8972 l
0.4728 0.8973 l
0.4748 0.8975 l
0.4768 0.8976 l
0.4789 0.8978 l
0.4809 0.8980 l
0.4829 0.8981 l
0.4850 0.8983 l
0.4870 0.8984 l
0.4890 0.8986 l
0.4911 0.8988 l
0.4931 0.8989 l
0.4951 0.8991 l
0.4972 0.8992 l
0.4992 0.8994 l
0.5012 0.8996 l
0.5033 0.8997 l
0.5053 0.8999 l
0.5073 0.9000 l
0.5094 0.9002 l
0.5114 0.9003 l
0.5135 0.9005 l
0.5155 0.9007 l
0.5175 0.9008 l
0.5196 0.9010 l
0.5216 0.9011 l
0.5236 0.9013 l
0.5257 0.9014 l
0.5277 0.9016 l
0.5297 0.9018 l
0.5318 0.9019 l
0.5338 0.9021 l
0.5358 0.9022 l
0.5379 0.9024 l
0.5399 0.9025 l
0.5419 0.9027 l
0.5440 0.9028 l
0.5460 0.9030 l
0.5480 0.9031 l
0.5501 0.9033 l
0.5521 0.9034 l
0.5541 0.9036 l
0.5562 0.9037 l
0.5582 0.9039 l
0.5602 0.9040 l
0.5623 0.9042 l
0.5643 0.9043 l
0.5663 0.9045 l
0.5684 0.9046 l
0.5704 0.9048 l
0.5724 0.9049 l
0.5745 0.9051 l
0.5765 0.9052 l
0.5785 0.9054 l
0.5806 0.9055 l
0.5826 0.9057 l
0.5846 0.9058 l
0.5867 0.9060 l
0.5887 0.9061 l
0.5907 0.9063 l
0.5928 0.9064 l
0.5948 0.9065 l
0.5968 0.9067 l
0.5989 0.9068 l
0.6009 0.9070 l
0.6029 0.9071 l
0.6050 0.9072 l
0.6070 0.9074 l
0.6090 0.9075 l
0.6111 0.9077 l
0.6131 0.9078 l
0.6151 0.9079 l
0.6172 0.9081 l
0.6192 0.9082 l
0.6213 0.9083 l
0.6233 0.9085 l
0.6253 0.9086 l
0.6274 0.9087 l
0.6294 0.9089 l
0.6314 0.9090 l
0.6335 0.9091 l
0.6355 0.9093 l
0.6375 0.9094 l
0.6396 0.9095 l
0.6416 0.9097 l
0.6436 0.9098 l
0.6457 0.9099 l
0.6477 0.9100 l
0.6497 0.9102 l
0.6518 0.9103 l
0.6538 0.9104 l
0.6558 0.9105 l
0.6579 0.9107 l
0.6599 0.9108 l
0.6619 0.9109 l
0.6640 0.9110 l
0.6660 0.9111 l
0.6680 0.9112 l
0.6701 0.9114 l
0.6721 0.9115 l
0.6741 0.9116 l
0.6762 0.9117 l
0.6782 0.9118 l
0.6802 0.9119 l
0.6823 0.9120 l
0.6843 0.9121 l
0.6863 0.9122 l
0.6884 0.9123 l
0.6904 0.9124 l
0.6924 0.9125 l
0.6945 0.9126 l
0.6965 0.9127 l
0.6985 0.9128 l
0.7006 0.9129 l
0.7026 0.9130 l
0.7046 0.9131 l
0.7067 0.9132 l
0.7087 0.9133 l
0.7107 0.9134 l
0.7128 0.9135 l
0.7148 0.9136 l
0.7168 0.9136 l
0.7189 0.9137 l
0.7209 0.9138 l
0.7229 0.9139 l
0.7250 0.9139 l
0.7270 0.9140 l
0.7291 0.9141 l
0.7311 0.9142 l
0.7331 0.9142 l
0.7352 0.9143 l
0.7372 0.9144 l
0.7392 0.9144 l
0.7413 0.9145 l
0.7433 0.9145 l
0.7453 0.9146 l
0.7474 0.9146 l
0.7494 0.9147 l
0.7514 0.9147 l
0.7535 0.9148 l
0.7555 0.9148 l
0.7575 0.9149 l
0.7596 0.9149 l
0.7616 0.9149 l
0.7636 0.9150 l
0.7657 0.9150 l
0.7677 0.9150 l
0.7697 0.9150 l
0.7718 0.9151 l
0.7738 0.9151 l
0.7758 0.9151 l
0.7779 0.9151 l
0.7799 0.9151 l
0.7819 0.9151 l
0.7840 0.9151 l
0.7860 0.9151 l
0.7880 0.9151 l
0.7901 0.9151 l
0.7921 0.9151 l
0.7941 0.9151 l
0.7962 0.9151 l
0.7982 0.9150 l
0.8002 0.9150 l
0.8023 0.9150 l
0.8043 0.9149 l
0.8063 0.9149 l
0.8084 0.9148 l
0.8104 0.9148 l
0.8124 0.9147 l
0.8145 0.9147 l
0.8165 0.9146 l
0.8185 0.9145 l
0.8206 0.9145 l
0.8226 0.9144 l
0.8246 0.9143 l
0.8267 0.9142 l
0.8287 0.9141 l
0.8307 0.9140 l
0.8328 0.9139 l
0.8348 0.9138 l
0.8369 0.9137 l
0.8389 0.9136 l
0.8409 0.9135 l
0.8430 0.9133 l
0.8450 0.9132 l
0.8470 0.9130 l
0.8491 0.9129 l
0.8511 0.9127 l
0.8531 0.9126 l
0.8552 0.9124 l
0.8572 0.9122 l
0.8592 0.9120 l
0.8613 0.9118 l
0.8633 0.9116 l
0.8653 0.9114 l
0.8674 0.9112 l
0.8694 0.9110 l
0.8714 0.9107 l
0.8735 0.9105 l
0.8755 0.9103 l
0.8775 0.9100 l
0.8796 0.9097 l
0.8816 0.9095 l
0.8836 0.9092 l
0.8857 0.9089 l
0.8877 0.9086 l
0.8897 0.9083 l
0.8918 0.9079 l
0.8938 0.9076 l
0.8958 0.9073 l
0.8979 0.9069 l
0.8999 0.9066 l
0.9019 0.9062 l
0.9040 0.9058 l
0.9060 0.9054 l
0.9080 0.9050 l
0.9101 0.9046 l
0.9121 0.9041 l
0.9141 0.9037 l
0.9162 0.9032 l
0.9182 0.9028 l
0.9202 0.9023 l
0.9223 0.9018 l
0.9243 0.9013 l
0.9263 0.9008 l
0.9284 0.9002 l
0.9304 0.8997 l
0.9324 0.8991 l
0.9345 0.8985 l
0.9365 0.8979 l
0.9386 0.8973 l
0.9406 0.8967 l
0.9426 0.8960 l
0.9447 0.8954 l
0.9467 0.8947 l
0.9487 0.8940 l
0.9508 0.8933 l
0.9528 0.8925 l
0.9548 0.8918 l
0.9569 0.8910 l
0.9589 0.8902 l
0.9609 0.8894 l
0.9630 0.8886 l
0.9650 0.8878 l
0.9670 0.8869 l
0.9691 0.8860 l
0.9711 0.8851 l
0.9731 0.8841 l
0.9752 0.8832 l
0.9772 0.8822 l
0.9792 0.8812 l
0.9813 0.8802 l
0.9833 0.8791 l
0.9853 0.8781 l
0.9874 0.8769 l
0.9894 0.8758 l
0.9914 0.8747 l
0.9935 0.8735 l
0.9955 0.8723 l
0.9975 0.8710 l
0.9996 0.8698 l
1.0016 0.8685 l
1.0036 0.8671 l
1.0057 0.8658 l
1.0077 0.8644 l
1.0097 0.8630 l
1.0118 0.8615 l
1.0138 0.8600 l
1.0158 0.8585 l
1.0179 0.8570 l
1.0199 0.8554 l
1.0219 0.8538 l
1.0240 0.8521 l
1.0260 0.8504 l
1.0280 0.8487 l
1.0301 0.8469 l
1.0321 0.8451 l
1.0341 0.8432 l
1.0362 0.8413 l
1.0382 0.8394 l
1.0402 0.8374 l
1.0423 0.8354 l
1.0443 0.8333 l
1.0464 0.8312 l
1.0484 0.8290 l
1.0504 0.8268 l
1.0525 0.8245 l
1.0545 0.8222 l
1.0565 0.8199 l
1.0586 0.8175 l
1.0606 0.8150 l
1.0626 0.8125 l
1.0647 0.8099 l
1.0667 0.8073 l
1.0687 0.8046 l
1.0708 0.8018 l
1.0728 0.7990 l
1.0748 0.7961 l
1.0769 0.7932 l
1.0789 0.7902 l
1.0809 0.7872 l
1.0830 0.7840 l
1.0850 0.7809 l
1.0870 0.7776 l
1.0891 0.7743 l
1.0911 0.7709 l
1.0931 0.7674 l
1.0952 0.7638 l
1.0972 0.7602 l
1.0992 0.7565 l
1.1013 0.7527 l
1.1033 0.7489 l
1.1053 0.7449 l
1.1074 0.7409 l
1.1094 0.7368 l
1.1114 0.7326 l
1.1135 0.7283 l
1.1155 0.7239 l
1.1175 0.7194 l
1.1196 0.7148 l
1.1216 0.7102 l
1.1236 0.7054 l
1.1257 0.7005 l
1.1277 0.6956 l
1.1297 0.6905 l
1.1318 0.6853 l
1.1338 0.6800 l
1.1358 0.6746 l
1.1379 0.6691 l
1.1399 0.6634 l
1.1419 0.6577 l
1.1440 0.6518 l
1.1460 0.6458 l
1.1480 0.6397 l
1.1501 0.6334 l
1.1521 0.6270 l
1.1542 0.6205 l
1.1562 0.6139 l
1.1582 0.6071 l
1.1603 0.6001 l
1.1623 0.5930 l
1.1643 0.5858 l
1.1664 0.5784 l
1.1684 0.5709 l
1.1704 0.5632 l
1.1725 0.5553 l
1.1745 0.5473 l
1.1765 0.5391 l
1.1786 0.5308 l
1.1806 0.5222 l
1.1826 0.5135 l
1.1847 0.5046 l
1.1867 0.4955 l
1.1887 0.4863 l
1.1908 0.4768 l
1.1928 0.4671 l
1.1948 0.4573 l
1.1963 0.4499 l
s
[/DeviceRGB] SCS
Color1 SC
n
0.1941 0.4500 m
1.2294 0.4500 l
s
n
0.1941 0.9500 m
1.2294 0.9500 l
s
n
0.2637 0.4500 m
0.2637 0.4730 l
s
n
0.2637 0.9500 m
0.2637 0.9270 l
s
n
0.3044 0.4500 m
0.3044 0.4730 l
s
n
0.3044 0.9500 m
0.3044 0.9270 l
s
n
0.3333 0.4500 m
0.3333 0.4730 l
s
n
0.3333 0.9500 m
0.3333 0.9270 l
s
n
0.3557 0.4500 m
0.3557 0.4730 l
s
n
0.3557 0.9500 m
0.3557 0.9270 l
s
n
0.3741 0.4500 m
0.3741 0.4730 l
s
n
0.3741 0.9500 m
0.3741 0.9270 l
s
n
0.3895 0.4500 m
0.3895 0.4730 l
s
n
0.3895 0.9500 m
0.3895 0.9270 l
s
n
0.4029 0.4500 m
0.4029 0.4730 l
s
n
0.4029 0.9500 m
0.4029 0.9270 l
s
n
0.4148 0.4500 m
0.4148 0.4730 l
s
n
0.4148 0.9500 m
0.4148 0.9270 l
s
n
0.4254 0.4500 m
0.4254 0.4730 l
s
n
0.4254 0.9500 m
0.4254 0.9270 l
s
n
0.4950 0.4500 m
0.4950 0.4730 l
s
n
0.4950 0.9500 m
0.4950 0.9270 l
s
n
0.5357 0.4500 m
0.5357 0.4730 l
s
n
0.5357 0.9500 m
0.5357 0.9270 l
s
n
0.5646 0.4500 m
0.5646 0.4730 l
s
n
0.5646 0.9500 m
0.5646 0.9270 l
s
n
0.5870 0.4500 m
0.5870 0.4730 l
s
n
0.5870 0.9500 m
0.5870 0.9270 l
s
n
0.6053 0.4500 m
0.6053 0.4730 l
s
n
0.6053 0.9500 m
0.6053 0.9270 l
s
n
0.6208 0.4500 m
0.6208 0.4730 l
s
n
0.6208 0.9500 m
0.6208 0.9270 l
s
n
0.6342 0.4500 m
0.6342 0.4730 l
s
n
0.6342 0.9500 m
0.6342 0.9270 l
s
n
0.6460 0.4500 m
0.6460 0.4730 l
s
n
0.6460 0.9500 m
0.6460 0.9270 l
s
n
0.6566 0.4500 m
0.6566 0.4730 l
s
n
0.6566 0.9500 m
0.6566 0.9270 l
s
n
0.7262 0.4500 m
0.7262 0.4730 l
s
n
0.7262 0.9500 m
0.7262 0.9270 l
s
n
0.7669 0.4500 m
0.7669 0.4730 l
s
n
0.7669 0.9500 m
0.7669 0.9270 l
s
n
0.7958 0.4500 m
0.7958 0.4730 l
s
n
0.7958 0.9500 m
0.7958 0.9270 l
s
n
0.8182 0.4500 m
0.8182 0.4730 l
s
n
0.8182 0.9500 m
0.8182 0.9270 l
s
n
0.8365 0.4500 m
0.8365 0.4730 l
s
n
0.8365 0.9500 m
0.8365 0.9270 l
s
n
0.8520 0.4500 m
0.8520 0.4730 l
s
n
0.8520 0.9500 m
0.8520 0.9270 l
s
n
0.8654 0.4500 m
0.8654 0.4730 l
s
n
0.8654 0.9500 m
0.8654 0.9270 l
s
n
0.8773 0.4500 m
0.8773 0.4730 l
s
n
0.8773 0.9500 m
0.8773 0.9270 l
s
n
0.8878 0.4500 m
0.8878 0.4730 l
s
n
0.8878 0.9500 m
0.8878 0.9270 l
s
n
0.9575 0.4500 m
0.9575 0.4730 l
s
n
0.9575 0.9500 m
0.9575 0.9270 l
s
n
0.9982 0.4500 m
0.9982 0.4730 l
s
n
0.9982 0.9500 m
0.9982 0.9270 l
s
n
1.0271 0.4500 m
1.0271 0.4730 l
s
n
1.0271 0.9500 m
1.0271 0.9270 l
s
n
1.0495 0.4500 m
1.0495 0.4730 l
s
n
1.0495 0.9500 m
1.0495 0.9270 l
s
n
1.0678 0.4500 m
1.0678 0.4730 l
s
n
1.0678 0.9500 m
1.0678 0.9270 l
s
n
1.0833 0.4500 m
1.0833 0.4730 l
s
n
1.0833 0.9500 m
1.0833 0.9270 l
s
n
1.0967 0.4500 m
1.0967 0.4730 l
s
n
1.0967 0.9500 m
1.0967 0.9270 l
s
n
1.1085 0.4500 m
1.1085 0.4730 l
s
n
1.1085 0.9500 m
1.1085 0.9270 l
s
n
1.1191 0.4500 m
1.1191 0.4730 l
s
n
1.1191 0.9500 m
1.1191 0.9270 l
s
n
1.1887 0.4500 m
1.1887 0.4730 l
s
n
1.1887 0.9500 m
1.1887 0.9270 l
s
n
1.2294 0.4500 m
1.2294 0.4730 l
s
n
1.2294 0.9500 m
1.2294 0.9270 l
s
n
0.1941 0.4500 m
0.1941 0.4830 l
s
n
0.1941 0.9500 m
0.1941 0.9170 l
s
n
0.4254 0.4500 m
0.4254 0.4830 l
s
n
0.4254 0.9500 m
0.4254 0.9170 l
s
n
0.6566 0.4500 m
0.6566 0.4830 l
s
n
0.6566 0.9500 m
0.6566 0.9170 l
s
n
0.8878 0.4500 m
0.8878 0.4830 l
s
n
0.8878 0.9500 m
0.8878 0.9170 l
s
n
1.1191 0.4500 m
1.1191 0.4830 l
s
n
1.1191 0.9500 m
1.1191 0.9170 l
s
n
0.1941 0.4500 m
0.1941 0.9500 l
s
n
1.2294 0.4500 m
1.2294 0.9500 l
s
n
0.1941 0.4500 m
0.2171 0.4500 l
s
n
1.2294 0.4500 m
1.2064 0.4500 l
s
n
0.1941 0.4601 m
0.2171 0.4601 l
s
n
1.2294 0.4601 m
1.2064 0.4601 l
s
n
0.1941 0.4673 m
0.2171 0.4673 l
s
n
1.2294 0.4673 m
1.2064 0.4673 l
s
n
0.1941 0.4729 m
0.2171 0.4729 l
s
n
1.2294 0.4729 m
1.2064 0.4729 l
s
n
0.1941 0.4774 m
0.2171 0.4774 l
s
n
1.2294 0.4774 m
1.2064 0.4774 l
s
n
0.1941 0.4813 m
0.2171 0.4813 l
s
n
1.2294 0.4813 m
1.2064 0.4813 l
s
n
0.1941 0.4846 m
0.2171 0.4846 l
s
n
1.2294 0.4846 m
1.2064 0.4846 l
s
n
0.1941 0.4875 m
0.2171 0.4875 l
s
n
1.2294 0.4875 m
1.2064 0.4875 l
s
n
0.1941 0.4902 m
0.2171 0.4902 l
s
n
1.2294 0.4902 m
1.2064 0.4902 l
s
n
0.1941 0.5075 m
0.2171 0.5075 l
s
n
1.2294 0.5075 m
1.2064 0.5075 l
s
n
0.1941 0.5176 m
0.2171 0.5176 l
s
n
1.2294 0.5176 m
1.2064 0.5176 l
s
n
0.1941 0.5248 m
0.2171 0.5248 l
s
n
1.2294 0.5248 m
1.2064 0.5248 l
s
n
0.1941 0.5304 m
0.2171 0.5304 l
s
n
1.2294 0.5304 m
1.2064 0.5304 l
s
n
0.1941 0.5349 m
0.2171 0.5349 l
s
n
1.2294 0.5349 m
1.2064 0.5349 l
s
n
0.1941 0.5388 m
0.2171 0.5388 l
s
n
1.2294 0.5388 m
1.2064 0.5388 l
s
n
0.1941 0.5421 m
0.2171 0.5421 l
s
n
1.2294 0.5421 m
1.2064 0.5421 l
s
n
0.1941 0.5450 m
0.2171 0.5450 l
s
n
1.2294 0.5450 m
1.2064 0.5450 l
s
n
0.1941 0.5477 m
0.2171 0.5477 l
s
n
1.2294 0.5477 m
1.2064 0.5477 l
s
n
0.1941 0.5650 m
0.2171 0.5650 l
s
n
1.2294 0.5650 m
1.2064 0.5650 l
s
n
0.1941 0.5751 m
0.2171 0.5751 l
s
n
1.2294 0.5751 m
1.2064 0.5751 l
s
n
0.1941 0.5823 m
0.2171 0.5823 l
s
n
1.2294 0.5823 m
1.2064 0.5823 l
s
n
0.1941 0.5878 m
0.2171 0.5878 l
s
n
1.2294 0.5878 m
1.2064 0.5878 l
s
n
0.1941 0.5924 m
0.2171 0.5924 l
s
n
1.2294 0.5924 m
1.2064 0.5924 l
s
n
0.1941 0.5962 m
0.2171 0.5962 l
s
n
1.2294 0.5962 m
1.2064 0.5962 l
s
n
0.1941 0.5996 m
0.2171 0.5996 l
s
n
1.2294 0.5996 m
1.2064 0.5996 l
s
n
0.1941 0.6025 m
0.2171 0.6025 l
s
n
1.2294 0.6025 m
1.2064 0.6025 l
s
n
0.1941 0.6051 m
0.2171 0.6051 l
s
n
1.2294 0.6051 m
1.2064 0.6051 l
s
n
0.1941 0.6224 m
0.2171 0.6224 l
s
n
1.2294 0.6224 m
1.2064 0.6224 l
s
n
0.1941 0.6326 m
0.2171 0.6326 l
s
n
1.2294 0.6326 m
1.2064 0.6326 l
s
n
0.1941 0.6397 m
0.2171 0.6397 l
s
n
1.2294 0.6397 m
1.2064 0.6397 l
s
n
0.1941 0.6453 m
0.2171 0.6453 l
s
n
1.2294 0.6453 m
1.2064 0.6453 l
s
n
0.1941 0.6499 m
0.2171 0.6499 l
s
n
1.2294 0.6499 m
1.2064 0.6499 l
s
n
0.1941 0.6537 m
0.2171 0.6537 l
s
n
1.2294 0.6537 m
1.2064 0.6537 l
s
n
0.1941 0.6570 m
0.2171 0.6570 l
s
n
1.2294 0.6570 m
1.2064 0.6570 l
s
n
0.1941 0.6600 m
0.2171 0.6600 l
s
n
1.2294 0.6600 m
1.2064 0.6600 l
s
n
0.1941 0.6626 m
0.2171 0.6626 l
s
n
1.2294 0.6626 m
1.2064 0.6626 l
s
n
0.1941 0.6799 m
0.2171 0.6799 l
s
n
1.2294 0.6799 m
1.2064 0.6799 l
s
n
0.1941 0.6900 m
0.2171 0.6900 l
s
n
1.2294 0.6900 m
1.2064 0.6900 l
s
n
0.1941 0.6972 m
0.2171 0.6972 l
s
n
1.2294 0.6972 m
1.2064 0.6972 l
s
n
0.1941 0.7028 m
0.2171 0.7028 l
s
n
1.2294 0.7028 m
1.2064 0.7028 l
s
n
0.1941 0.7073 m
0.2171 0.7073 l
s
n
1.2294 0.7073 m
1.2064 0.7073 l
s
n
0.1941 0.7112 m
0.2171 0.7112 l
s
n
1.2294 0.7112 m
1.2064 0.7112 l
s
n
0.1941 0.7145 m
0.2171 0.7145 l
s
n
1.2294 0.7145 m
1.2064 0.7145 l
s
n
0.1941 0.7175 m
0.2171 0.7175 l
s
n
1.2294 0.7175 m
1.2064 0.7175 l
s
n
0.1941 0.7201 m
0.2171 0.7201 l
s
n
1.2294 0.7201 m
1.2064 0.7201 l
s
n
0.1941 0.7374 m
0.2171 0.7374 l
s
n
1.2294 0.7374 m
1.2064 0.7374 l
s
n
0.1941 0.7475 m
0.2171 0.7475 l
s
n
1.2294 0.7475 m
1.2064 0.7475 l
s
n
0.1941 0.7547 m
0.2171 0.7547 l
s
n
1.2294 0.7547 m
1.2064 0.7547 l
s
n
0.1941 0.7603 m
0.2171 0.7603 l
s
n
1.2294 0.7603 m
1.2064 0.7603 l
s
n
0.1941 0.7648 m
0.2171 0.7648 l
s
n
1.2294 0.7648 m
1.2064 0.7648 l
s
n
0.1941 0.7687 m
0.2171 0.7687 l
s
n
1.2294 0.7687 m
1.2064 0.7687 l
s
n
0.1941 0.7720 m
0.2171 0.7720 l
s
n
1.2294 0.7720 m
1.2064 0.7720 l
s
n
0.1941 0.7749 m
0.2171 0.7749 l
s
n
1.2294 0.7749 m
1.2064 0.7749 l
s
n
0.1941 0.7776 m
0.2171 0.7776 l
s
n
1.2294 0.7776 m
1.2064 0.7776 l
s
n
0.1941 0.7949 m
0.2171 0.7949 l
s
n
1.2294 0.7949 m
1.2064 0.7949 l
s
n
0.1941 0.8050 m
0.2171 0.8050 l
s
n
1.2294 0.8050 m
1.2064 0.8050 l
s
n
0.1941 0.8122 m
0.2171 0.8122 l
s
n
1.2294 0.8122 m
1.2064 0.8122 l
s
n
0.1941 0.8177 m
0.2171 0.8177 l
s
n
1.2294 0.8177 m
1.2064 0.8177 l
s
n
0.1941 0.8223 m
0.2171 0.8223 l
s
n
1.2294 0.8223 m
1.2064 0.8223 l
s
n
0.1941 0.8261 m
0.2171 0.8261 l
s
n
1.2294 0.8261 m
1.2064 0.8261 l
s
n
0.1941 0.8295 m
0.2171 0.8295 l
s
n
1.2294 0.8295 m
1.2064 0.8295 l
s
n
0.1941 0.8324 m
0.2171 0.8324 l
s
n
1.2294 0.8324 m
1.2064 0.8324 l
s
n
0.1941 0.8350 m
0.2171 0.8350 l
s
n
1.2294 0.8350 m
1.2064 0.8350 l
s
n
0.1941 0.8523 m
0.2171 0.8523 l
s
n
1.2294 0.8523 m
1.2064 0.8523 l
s
n
0.1941 0.8625 m
0.2171 0.8625 l
s
n
1.2294 0.8625 m
1.2064 0.8625 l
s
n
0.1941 0.8696 m
0.2171 0.8696 l
s
n
1.2294 0.8696 m
1.2064 0.8696 l
s
n
0.1941 0.8752 m
0.2171 0.8752 l
s
n
1.2294 0.8752 m
1.2064 0.8752 l
s
n
0.1941 0.8798 m
0.2171 0.8798 l
s
n
1.2294 0.8798 m
1.2064 0.8798 l
s
n
0.1941 0.8836 m
0.2171 0.8836 l
s
n
1.2294 0.8836 m
1.2064 0.8836 l
s
n
0.1941 0.8870 m
0.2171 0.8870 l
s
n
1.2294 0.8870 m
1.2064 0.8870 l
s
n
0.1941 0.8899 m
0.2171 0.8899 l
s
n
1.2294 0.8899 m
1.2064 0.8899 l
s
n
0.1941 0.8925 m
0.2171 0.8925 l
s
n
1.2294 0.8925 m
1.2064 0.8925 l
s
n
0.1941 0.9098 m
0.2171 0.9098 l
s
n
1.2294 0.9098 m
1.2064 0.9098 l
s
n
0.1941 0.9199 m
0.2171 0.9199 l
s
n
1.2294 0.9199 m
1.2064 0.9199 l
s
n
0.1941 0.9271 m
0.2171 0.9271 l
s
n
1.2294 0.9271 m
1.2064 0.9271 l
s
n
0.1941 0.9327 m
0.2171 0.9327 l
s
n
1.2294 0.9327 m
1.2064 0.9327 l
s
n
0.1941 0.9372 m
0.2171 0.9372 l
s
n
1.2294 0.9372 m
1.2064 0.9372 l
s
n
0.1941 0.9411 m
0.2171 0.9411 l
s
n
1.2294 0.9411 m
1.2064 0.9411 l
s
n
0.1941 0.9444 m
0.2171 0.9444 l
s
n
1.2294 0.9444 m
1.2064 0.9444 l
s
n
0.1941 0.9474 m
0.2171 0.9474 l
s
n
1.2294 0.9474 m
1.2064 0.9474 l
s
n
0.1941 0.9500 m
0.2171 0.9500 l
s
n
1.2294 0.9500 m
1.2064 0.9500 l
s
n
0.1941 0.4902 m
0.2271 0.4902 l
s
n
1.2294 0.4902 m
1.1964 0.4902 l
s
n
0.1941 0.5477 m
0.2271 0.5477 l
s
n
1.2294 0.5477 m
1.1964 0.5477 l
s
n
0.1941 0.6051 m
0.2271 0.6051 l
s
n
1.2294 0.6051 m
1.1964 0.6051 l
s
n
0.1941 0.6626 m
0.2271 0.6626 l
s
n
1.2294 0.6626 m
1.1964 0.6626 l
s
n
0.1941 0.7201 m
0.2271 0.7201 l
s
n
1.2294 0.7201 m
1.1964 0.7201 l
s
n
0.1941 0.7776 m
0.2271 0.7776 l
s
n
1.2294 0.7776 m
1.1964 0.7776 l
s
n
0.1941 0.8350 m
0.2271 0.8350 l
s
n
1.2294 0.8350 m
1.1964 0.8350 l
s
n
0.1941 0.8925 m
0.2271 0.8925 l
s
n
1.2294 0.8925 m
1.1964 0.8925 l
s
n
0.1941 0.9500 m
0.2271 0.9500 l
s
n
1.2294 0.9500 m
1.1964 0.9500 l
s
/Helvetica findfont
dup length dict begin
 {1 index /FID ne {def} {pop pop} ifelse} forall
 /Encoding DefEncoding def
 currentdict
end
/Font4 exch definefont pop
/Font4 FFSF
0.1218 0.4704 m
GS
[0.0364 0.0000 0.0000 0.0364 0 0] CC
(10) show
GR
/Font4 FFSF
0.1622 0.4923 m
GS
[0.0257 0.0000 0.0000 0.0257 0 0] CC
(-8) show
GR
/Font4 FFSF
0.1218 0.5279 m
GS
[0.0364 0.0000 0.0000 0.0364 0 0] CC
(10) show
GR
/Font4 FFSF
0.1622 0.5497 m
GS
[0.0257 0.0000 0.0000 0.0257 0 0] CC
(-7) show
GR
/Font4 FFSF
0.1218 0.5854 m
GS
[0.0364 0.0000 0.0000 0.0364 0 0] CC
(10) show
GR
/Font4 FFSF
0.1622 0.6072 m
GS
[0.0257 0.0000 0.0000 0.0257 0 0] CC
(-6) show
GR
/Font4 FFSF
0.1218 0.6429 m
GS
[0.0364 0.0000 0.0000 0.0364 0 0] CC
(10) show
GR
/Font4 FFSF
0.1622 0.6647 m
GS
[0.0257 0.0000 0.0000 0.0257 0 0] CC
(-5) show
GR
/Font4 FFSF
0.1218 0.7003 m
GS
[0.0364 0.0000 0.0000 0.0364 0 0] CC
(10) show
GR
/Font4 FFSF
0.1622 0.7222 m
GS
[0.0257 0.0000 0.0000 0.0257 0 0] CC
(-4) show
GR
/Font4 FFSF
0.1222 0.7578 m
GS
[0.0364 0.0000 0.0000 0.0364 0 0] CC
(10) show
GR
/Font4 FFSF
0.1625 0.7797 m
GS
[0.0257 0.0000 0.0000 0.0257 0 0] CC
(-3) show
GR
/Font4 FFSF
0.1218 0.8153 m
GS
[0.0364 0.0000 0.0000 0.0364 0 0] CC
(10) show
GR
/Font4 FFSF
0.1622 0.8371 m
GS
[0.0257 0.0000 0.0000 0.0257 0 0] CC
(-2) show
GR
/Font4 FFSF
0.1261 0.8728 m
GS
[0.0364 0.0000 0.0000 0.0364 0 0] CC
(10) show
GR
/Font4 FFSF
0.1665 0.8946 m
GS
[0.0257 0.0000 0.0000 0.0257 0 0] CC
(-1) show
GR
/Font4 FFSF
0.1308 0.9303 m
GS
[0.0364 0.0000 0.0000 0.0364 0 0] CC
(10) show
GR
/Font4 FFSF
0.1712 0.9521 m
GS
[0.0257 0.0000 0.0000 0.0257 0 0] CC
(0) show
GR
/Font4 FFSF
0.0851 0.6063 m
GS
[0.0000 0.0490 -0.0490 0.0000 0 0] CC
(j) show
GR
/Symbol findfont
/Font12 exch definefont pop
/Font12 FFSF
0.1047 0.6173 m
GS
[0.0000 0.0346 -0.0346 0.0000 0 0] CC
(c) show
GR
/Font4 FFSF
0.0851 0.6365 m
GS
[0.0000 0.0490 -0.0490 0.0000 0 0] CC
(\(c/e) show
GR
/Font4 FFSF
0.0557 0.7180 m
GS
[0.0000 0.0346 -0.0346 0.0000 0 0] CC
(2) show
GR
/Font12 FFSF
0.0851 0.7373 m
GS
[0.0000 0.0490 -0.0490 0.0000 0 0] CC
(n) show
GR
/Font4 FFSF
0.1047 0.7627 m
GS
[0.0000 0.0346 -0.0346 0.0000 0 0] CC
(b) show
GR
/Font4 FFSF
0.0851 0.7820 m
GS
[0.0000 0.0490 -0.0490 0.0000 0 0] CC
(\)) show
GR
n
0.1941 0.4500 m
0.1941 0.9500 l
1.2294 0.9500 l
1.2294 0.4500 l
0.1941 0.4500 l
c
s
n
0.3000 0.6500 m
0.3000 0.5291 l
0.6198 0.5291 l
0.6198 0.6500 l
c
[/DeviceRGB] SCS
Color0 SC
fill
[/DeviceRGB] SCS
Color1 SC
n
0.3000 0.6500 m
0.3000 0.5291 l
0.6198 0.5291 l
0.6198 0.6500 l
0.3000 0.6500 l
c
s
/Font4 FFSF
0.3565 0.6157 m
GS
[0.0336 0.0000 0.0000 0.0336 0 0] CC
(Numeric) show
GR
n
0.3115 0.6275 m
0.3415 0.6275 l
s
/Font4 FFSF
0.3565 0.5802 m
GS
[0.0336 0.0000 0.0000 0.0336 0 0] CC
(Sync. asymptotic) show
GR
/Font4 FFSF
0.3565 0.5466 m
GS
[0.0336 0.0000 0.0000 0.0336 0 0] CC
(approximation ) show
GR
[/DeviceRGB] SCS
Color2 SC
n
0.3115 0.5720 m
0.3415 0.5720 l
s
[/DeviceRGB] SCS
Color1 SC
n
0.1941 0.3625 m
0.1962 0.3569 l
0.1982 0.3529 l
0.2002 0.3476 l
0.2023 0.3409 l
0.2043 0.3343 l
0.2063 0.3280 l
0.2084 0.3222 l
0.2104 0.3170 l
0.2124 0.3122 l
0.2145 0.3093 l
0.2165 0.3108 l
0.2185 0.3106 l
0.2206 0.3060 l
0.2226 0.2922 l
0.2246 0.2850 l
0.2267 0.3051 l
0.2287 0.3093 l
0.2307 0.2979 l
0.2328 0.3128 l
0.2348 0.3202 l
0.2368 0.3106 l
0.2389 0.3296 l
0.2409 0.3271 l
0.2429 0.3375 l
0.2450 0.3388 l
0.2470 0.3459 l
0.2490 0.3474 l
0.2511 0.3553 l
0.2531 0.3546 l
0.2551 0.3634 l
0.2572 0.3630 l
0.2592 0.3694 l
0.2612 0.3626 l
0.2633 0.3610 l
0.2653 0.3573 l
0.2673 0.3537 l
0.2694 0.3451 l
0.2714 0.3421 l
0.2734 0.3450 l
0.2755 0.3439 l
0.2775 0.3323 l
0.2795 0.3354 l
0.2816 0.3387 l
0.2836 0.3466 l
0.2856 0.3448 l
0.2877 0.3415 l
0.2897 0.3452 l
0.2917 0.3442 l
0.2938 0.3535 l
0.2958 0.3585 l
0.2979 0.3617 l
0.2999 0.3698 l
0.3019 0.3672 l
0.3040 0.3633 l
0.3060 0.3573 l
0.3080 0.3555 l
0.3101 0.3555 l
0.3121 0.3524 l
0.3141 0.3506 l
0.3162 0.3501 l
0.3182 0.3532 l
0.3202 0.3545 l
0.3223 0.3571 l
0.3243 0.3586 l
0.3263 0.3604 l
0.3284 0.3639 l
0.3304 0.3577 l
0.3324 0.3553 l
0.3345 0.3501 l
0.3365 0.3539 l
0.3385 0.3536 l
0.3406 0.3521 l
0.3426 0.3477 l
0.3446 0.3446 l
0.3467 0.3531 l
0.3487 0.3607 l
0.3507 0.3674 l
0.3528 0.3636 l
0.3548 0.3589 l
0.3568 0.3502 l
0.3589 0.3586 l
0.3609 0.3504 l
0.3629 0.3471 l
0.3650 0.3468 l
0.3670 0.3620 l
0.3690 0.3627 l
0.3711 0.3599 l
0.3731 0.3572 l
0.3751 0.3557 l
0.3772 0.3443 l
0.3792 0.3542 l
0.3812 0.3595 l
0.3833 0.3566 l
0.3853 0.3528 l
0.3873 0.3638 l
0.3894 0.3566 l
0.3914 0.3459 l
0.3934 0.3519 l
0.3955 0.3583 l
0.3975 0.3596 l
0.3995 0.3611 l
0.4016 0.3591 l
0.4036 0.3664 l
0.4057 0.3531 l
0.4077 0.3487 l
0.4097 0.3625 l
0.4118 0.3581 l
0.4138 0.3639 l
0.4158 0.3539 l
0.4179 0.3556 l
0.4199 0.3569 l
0.4219 0.3615 l
0.4240 0.3572 l
0.4260 0.3578 l
0.4280 0.3527 l
0.4301 0.3459 l
0.4321 0.3598 l
0.4341 0.3489 l
0.4362 0.3642 l
0.4382 0.3512 l
0.4402 0.3607 l
0.4423 0.3535 l
0.4443 0.3565 l
0.4463 0.3574 l
0.4484 0.3616 l
0.4504 0.3576 l
0.4524 0.3542 l
0.4545 0.3603 l
0.4565 0.3606 l
0.4585 0.3538 l
0.4606 0.3531 l
0.4626 0.3584 l
0.4646 0.3503 l
0.4667 0.3603 l
0.4687 0.3468 l
0.4707 0.3659 l
0.4728 0.3549 l
0.4748 0.3642 l
0.4768 0.3603 l
0.4789 0.3601 l
0.4809 0.3572 l
0.4829 0.3598 l
0.4850 0.3545 l
0.4870 0.3562 l
0.4890 0.3558 l
0.4911 0.3557 l
0.4931 0.3440 l
0.4951 0.3567 l
0.4972 0.3619 l
0.4992 0.3586 l
0.5012 0.3634 l
0.5033 0.3465 l
0.5053 0.3585 l
0.5073 0.3516 l
0.5094 0.3556 l
0.5114 0.3612 l
0.5135 0.3508 l
0.5155 0.3556 l
0.5175 0.3574 l
0.5196 0.3481 l
0.5216 0.3564 l
0.5236 0.3634 l
0.5257 0.3525 l
0.5277 0.3515 l
0.5297 0.3585 l
0.5318 0.3584 l
0.5338 0.3460 l
0.5358 0.3660 l
0.5379 0.3597 l
0.5399 0.3561 l
0.5419 0.3581 l
0.5440 0.3560 l
0.5460 0.3566 l
0.5480 0.3605 l
0.5501 0.3568 l
0.5521 0.3558 l
0.5541 0.3585 l
0.5562 0.3613 l
0.5582 0.3512 l
0.5602 0.3473 l
0.5623 0.3548 l
0.5643 0.3509 l
0.5663 0.3522 l
0.5684 0.3605 l
0.5704 0.3546 l
0.5724 0.3519 l
0.5745 0.3575 l
0.5765 0.3573 l
0.5785 0.3491 l
0.5806 0.3534 l
0.5826 0.3541 l
0.5846 0.3529 l
0.5867 0.3526 l
0.5887 0.3499 l
0.5907 0.3544 l
0.5928 0.3550 l
0.5948 0.3547 l
0.5968 0.3543 l
0.5989 0.3476 l
0.6009 0.3562 l
0.6029 0.3520 l
0.6050 0.3515 l
0.6070 0.3536 l
0.6090 0.3564 l
0.6111 0.3495 l
0.6131 0.3522 l
0.6151 0.3496 l
0.6172 0.3530 l
0.6192 0.3515 l
0.6213 0.3531 l
0.6233 0.3437 l
0.6253 0.3535 l
0.6274 0.3523 l
0.6294 0.3498 l
0.6314 0.3636 l
0.6335 0.3494 l
0.6355 0.3479 l
0.6375 0.3548 l
0.6396 0.3505 l
0.6416 0.3489 l
0.6436 0.3497 l
0.6457 0.3516 l
0.6477 0.3516 l
0.6497 0.3486 l
0.6518 0.3510 l
0.6538 0.3515 l
0.6558 0.3557 l
0.6579 0.3508 l
0.6599 0.3540 l
0.6619 0.3478 l
0.6640 0.3495 l
0.6660 0.3503 l
0.6680 0.3504 l
0.6701 0.3502 l
0.6721 0.3571 l
0.6741 0.3458 l
0.6762 0.3450 l
0.6782 0.3552 l
0.6802 0.3451 l
0.6823 0.3512 l
0.6843 0.3481 l
0.6863 0.3523 l
0.6884 0.3487 l
0.6904 0.3507 l
0.6924 0.3458 l
0.6945 0.3499 l
0.6965 0.3496 l
0.6985 0.3430 l
0.7006 0.3535 l
0.7026 0.3439 l
0.7046 0.3488 l
0.7067 0.3464 l
0.7087 0.3458 l
0.7107 0.3442 l
0.7128 0.3470 l
0.7148 0.3439 l
0.7168 0.3429 l
0.7189 0.3455 l
0.7209 0.3448 l
0.7229 0.3426 l
0.7250 0.3461 l
0.7270 0.3472 l
0.7291 0.3432 l
0.7311 0.3430 l
0.7331 0.3441 l
0.7352 0.3421 l
0.7372 0.3424 l
0.7392 0.3365 l
0.7413 0.3475 l
0.7433 0.3384 l
0.7453 0.3378 l
0.7474 0.3432 l
0.7494 0.3412 l
0.7514 0.3403 l
0.7535 0.3405 l
0.7555 0.3379 l
0.7575 0.3381 l
0.7596 0.3386 l
0.7616 0.3402 l
0.7636 0.3375 l
0.7657 0.3397 l
0.7677 0.3320 l
0.7697 0.3349 l
0.7718 0.3331 l
0.7738 0.3345 l
0.7758 0.3291 l
0.7779 0.3317 l
0.7799 0.3296 l
0.7819 0.3340 l
0.7840 0.3338 l
0.7860 0.3335 l
0.7880 0.3333 l
0.7901 0.3289 l
0.7921 0.3248 l
0.7941 0.3288 l
0.7962 0.3296 l
0.7982 0.3253 l
0.8002 0.3248 l
0.8023 0.3290 l
0.8043 0.3265 l
0.8063 0.3220 l
0.8084 0.3231 l
0.8104 0.3231 l
0.8124 0.3195 l
0.8145 0.3240 l
0.8165 0.3224 l
0.8185 0.3193 l
0.8206 0.3225 l
0.8226 0.3167 l
0.8246 0.3193 l
0.8267 0.3155 l
0.8287 0.3147 l
0.8307 0.3140 l
0.8328 0.3088 l
0.8348 0.3106 l
0.8369 0.3071 l
0.8389 0.3101 l
0.8409 0.3036 l
0.8430 0.3037 l
0.8450 0.2998 l
0.8470 0.3010 l
0.8491 0.3004 l
0.8511 0.2954 l
0.8531 0.2945 l
0.8552 0.2929 l
0.8572 0.2953 l
0.8592 0.2885 l
0.8613 0.2917 l
0.8633 0.2830 l
0.8653 0.2807 l
0.8674 0.2776 l
0.8694 0.2719 l
0.8714 0.2679 l
0.8735 0.2660 l
0.8755 0.2546 l
0.8775 0.2453 l
0.8796 0.2501 l
0.8816 0.2182 l
0.8836 0.1872 l
0.8857 0.1916 l
0.8877 0.2133 l
0.8897 0.2386 l
0.8918 0.2453 l
0.8938 0.2441 l
0.8958 0.2526 l
0.8979 0.2543 l
0.8999 0.2583 l
0.9019 0.2597 l
0.9040 0.2683 l
0.9060 0.2717 l
0.9080 0.2764 l
0.9101 0.2858 l
0.9121 0.2841 l
0.9141 0.2883 l
0.9162 0.2916 l
0.9182 0.2921 l
0.9202 0.2920 l
0.9223 0.2939 l
0.9243 0.2947 l
0.9263 0.2938 l
0.9284 0.2956 l
0.9304 0.2949 l
0.9324 0.2955 l
0.9345 0.2983 l
0.9365 0.2999 l
0.9386 0.3036 l
0.9406 0.3052 l
0.9426 0.3056 l
0.9447 0.3059 l
0.9467 0.3066 l
0.9487 0.3080 l
0.9508 0.3075 l
0.9528 0.3068 l
0.9548 0.3083 l
0.9569 0.3072 l
0.9589 0.3075 l
0.9609 0.3080 l
0.9630 0.3099 l
0.9650 0.3096 l
0.9670 0.3116 l
0.9691 0.3125 l
0.9711 0.3134 l
0.9731 0.3112 l
0.9752 0.3115 l
0.9772 0.3113 l
0.9792 0.3101 l
0.9813 0.3089 l
0.9833 0.3073 l
0.9853 0.3094 l
0.9874 0.3122 l
0.9894 0.3112 l
0.9914 0.3116 l
0.9935 0.3125 l
0.9955 0.3125 l
0.9975 0.3093 l
0.9996 0.3099 l
1.0016 0.3053 l
1.0036 0.3023 l
1.0057 0.3023 l
1.0077 0.3066 l
1.0097 0.3084 l
1.0118 0.3092 l
1.0138 0.3078 l
1.0158 0.3055 l
1.0179 0.3026 l
1.0199 0.2995 l
1.0219 0.2938 l
1.0240 0.2984 l
1.0260 0.2964 l
1.0280 0.2983 l
1.0301 0.3015 l
1.0321 0.2993 l
1.0341 0.2990 l
1.0362 0.2918 l
1.0382 0.2873 l
1.0402 0.2776 l
1.0423 0.2920 l
1.0443 0.2813 l
1.0464 0.2909 l
1.0484 0.2818 l
1.0504 0.2796 l
1.0525 0.2829 l
1.0545 0.2708 l
1.0565 0.2063 l
1.0586 0.2702 l
1.0606 0.2752 l
1.0626 0.2687 l
1.0647 0.2823 l
1.0667 0.2531 l
1.0687 0.2552 l
1.0708 0.2251 l
1.0728 0.1942 l
1.0748 0.2652 l
1.0769 0.2466 l
1.0789 0.2739 l
1.0809 0.2240 l
1.0830 0.2492 l
1.0850 0.1845 l
1.0870 0.2514 l
1.0891 0.1793 l
1.0911 0.2147 l
1.0931 0.2171 l
1.0952 0.2509 l
1.0972 0.2255 l
1.0992 0.2818 l
1.1013 0.1779 l
1.1033 0.2197 l
1.1053 0.2634 l
1.1074 0.2460 l
1.1094 0.2684 l
1.1114 0.2674 l
1.1135 0.2941 l
1.1155 0.2103 l
1.1175 0.2549 l
1.1196 0.2885 l
1.1216 0.2632 l
1.1236 0.2960 l
1.1257 0.2882 l
1.1277 0.3021 l
1.1297 0.2963 l
1.1318 0.3049 l
1.1338 0.3086 l
1.1358 0.3137 l
1.1379 0.3271 l
1.1399 0.3207 l
1.1419 0.3386 l
1.1440 0.3255 l
1.1460 0.3349 l
1.1480 0.3373 l
1.1501 0.3478 l
1.1521 0.3422 l
1.1542 0.3481 l
1.1562 0.3502 l
1.1582 0.3491 l
1.1603 0.3546 l
1.1623 0.3559 l
1.1643 0.3699 l
1.1664 0.3650 l
1.1684 0.3707 l
1.1704 0.3771 l
1.1725 0.3785 l
1.1745 0.3856 l
1.1765 0.3767 l
1.1786 0.3819 l
1.1806 0.3964 l
1.1826 0.4039 l
1.1847 0.3734 l
1.1867 0.3912 l
1.1887 0.4062 l
1.1908 0.4170 l
1.1928 0.4151 l
1.1948 0.3991 l
1.1969 0.4129 l
1.1989 0.4214 l
1.2009 0.4298 l
1.2030 0.4249 l
1.2050 0.4215 l
1.2070 0.4281 l
1.2091 0.4356 l
s
n
0.1941 0.1500 m
1.2294 0.1500 l
s
n
0.1941 0.4500 m
1.2294 0.4500 l
s
n
0.2637 0.1500 m
0.2637 0.1730 l
s
n
0.2637 0.4500 m
0.2637 0.4270 l
s
n
0.3044 0.1500 m
0.3044 0.1730 l
s
n
0.3044 0.4500 m
0.3044 0.4270 l
s
n
0.3333 0.1500 m
0.3333 0.1730 l
s
n
0.3333 0.4500 m
0.3333 0.4270 l
s
n
0.3557 0.1500 m
0.3557 0.1730 l
s
n
0.3557 0.4500 m
0.3557 0.4270 l
s
n
0.3741 0.1500 m
0.3741 0.1730 l
s
n
0.3741 0.4500 m
0.3741 0.4270 l
s
n
0.3895 0.1500 m
0.3895 0.1730 l
s
n
0.3895 0.4500 m
0.3895 0.4270 l
s
n
0.4029 0.1500 m
0.4029 0.1730 l
s
n
0.4029 0.4500 m
0.4029 0.4270 l
s
n
0.4148 0.1500 m
0.4148 0.1730 l
s
n
0.4148 0.4500 m
0.4148 0.4270 l
s
n
0.4254 0.1500 m
0.4254 0.1730 l
s
n
0.4254 0.4500 m
0.4254 0.4270 l
s
n
0.4950 0.1500 m
0.4950 0.1730 l
s
n
0.4950 0.4500 m
0.4950 0.4270 l
s
n
0.5357 0.1500 m
0.5357 0.1730 l
s
n
0.5357 0.4500 m
0.5357 0.4270 l
s
n
0.5646 0.1500 m
0.5646 0.1730 l
s
n
0.5646 0.4500 m
0.5646 0.4270 l
s
n
0.5870 0.1500 m
0.5870 0.1730 l
s
n
0.5870 0.4500 m
0.5870 0.4270 l
s
n
0.6053 0.1500 m
0.6053 0.1730 l
s
n
0.6053 0.4500 m
0.6053 0.4270 l
s
n
0.6208 0.1500 m
0.6208 0.1730 l
s
n
0.6208 0.4500 m
0.6208 0.4270 l
s
n
0.6342 0.1500 m
0.6342 0.1730 l
s
n
0.6342 0.4500 m
0.6342 0.4270 l
s
n
0.6460 0.1500 m
0.6460 0.1730 l
s
n
0.6460 0.4500 m
0.6460 0.4270 l
s
n
0.6566 0.1500 m
0.6566 0.1730 l
s
n
0.6566 0.4500 m
0.6566 0.4270 l
s
n
0.7262 0.1500 m
0.7262 0.1730 l
s
n
0.7262 0.4500 m
0.7262 0.4270 l
s
n
0.7669 0.1500 m
0.7669 0.1730 l
s
n
0.7669 0.4500 m
0.7669 0.4270 l
s
n
0.7958 0.1500 m
0.7958 0.1730 l
s
n
0.7958 0.4500 m
0.7958 0.4270 l
s
n
0.8182 0.1500 m
0.8182 0.1730 l
s
n
0.8182 0.4500 m
0.8182 0.4270 l
s
n
0.8365 0.1500 m
0.8365 0.1730 l
s
n
0.8365 0.4500 m
0.8365 0.4270 l
s
n
0.8520 0.1500 m
0.8520 0.1730 l
s
n
0.8520 0.4500 m
0.8520 0.4270 l
s
n
0.8654 0.1500 m
0.8654 0.1730 l
s
n
0.8654 0.4500 m
0.8654 0.4270 l
s
n
0.8773 0.1500 m
0.8773 0.1730 l
s
n
0.8773 0.4500 m
0.8773 0.4270 l
s
n
0.8878 0.1500 m
0.8878 0.1730 l
s
n
0.8878 0.4500 m
0.8878 0.4270 l
s
n
0.9575 0.1500 m
0.9575 0.1730 l
s
n
0.9575 0.4500 m
0.9575 0.4270 l
s
n
0.9982 0.1500 m
0.9982 0.1730 l
s
n
0.9982 0.4500 m
0.9982 0.4270 l
s
n
1.0271 0.1500 m
1.0271 0.1730 l
s
n
1.0271 0.4500 m
1.0271 0.4270 l
s
n
1.0495 0.1500 m
1.0495 0.1730 l
s
n
1.0495 0.4500 m
1.0495 0.4270 l
s
n
1.0678 0.1500 m
1.0678 0.1730 l
s
n
1.0678 0.4500 m
1.0678 0.4270 l
s
n
1.0833 0.1500 m
1.0833 0.1730 l
s
n
1.0833 0.4500 m
1.0833 0.4270 l
s
n
1.0967 0.1500 m
1.0967 0.1730 l
s
n
1.0967 0.4500 m
1.0967 0.4270 l
s
n
1.1085 0.1500 m
1.1085 0.1730 l
s
n
1.1085 0.4500 m
1.1085 0.4270 l
s
n
1.1191 0.1500 m
1.1191 0.1730 l
s
n
1.1191 0.4500 m
1.1191 0.4270 l
s
n
1.1887 0.1500 m
1.1887 0.1730 l
s
n
1.1887 0.4500 m
1.1887 0.4270 l
s
n
1.2294 0.1500 m
1.2294 0.1730 l
s
n
1.2294 0.4500 m
1.2294 0.4270 l
s
n
0.1941 0.1500 m
0.1941 0.1830 l
s
n
0.1941 0.4500 m
0.1941 0.4170 l
s
n
0.4254 0.1500 m
0.4254 0.1830 l
s
n
0.4254 0.4500 m
0.4254 0.4170 l
s
n
0.6566 0.1500 m
0.6566 0.1830 l
s
n
0.6566 0.4500 m
0.6566 0.4170 l
s
n
0.8878 0.1500 m
0.8878 0.1830 l
s
n
0.8878 0.4500 m
0.8878 0.4170 l
s
n
1.1191 0.1500 m
1.1191 0.1830 l
s
n
1.1191 0.4500 m
1.1191 0.4170 l
s
/Font4 FFSF
0.1651 0.0997 m
GS
[0.0364 0.0000 0.0000 0.0364 0 0] CC
(10) show
GR
/Font4 FFSF
0.2055 0.1216 m
GS
[0.0257 0.0000 0.0000 0.0257 0 0] CC
(-1) show
GR
/Font4 FFSF
0.3987 0.0997 m
GS
[0.0364 0.0000 0.0000 0.0364 0 0] CC
(10) show
GR
/Font4 FFSF
0.4391 0.1216 m
GS
[0.0257 0.0000 0.0000 0.0257 0 0] CC
(0) show
GR
/Font4 FFSF
0.6319 0.0997 m
GS
[0.0364 0.0000 0.0000 0.0364 0 0] CC
(10) show
GR
/Font4 FFSF
0.6723 0.1216 m
GS
[0.0257 0.0000 0.0000 0.0257 0 0] CC
(1) show
GR
/Font4 FFSF
0.8610 0.0997 m
GS
[0.0364 0.0000 0.0000 0.0364 0 0] CC
(10) show
GR
/Font4 FFSF
0.9014 0.1216 m
GS
[0.0257 0.0000 0.0000 0.0257 0 0] CC
(2) show
GR
/Font4 FFSF
1.0924 0.0997 m
GS
[0.0364 0.0000 0.0000 0.0364 0 0] CC
(10) show
GR
/Font4 FFSF
1.1328 0.1216 m
GS
[0.0257 0.0000 0.0000 0.0257 0 0] CC
(3) show
GR
/Font12 FFSF
0.6990 0.0638 m
GS
[0.0490 0.0000 0.0000 0.0490 0 0] CC
(c) show
GR
n
0.1941 0.1500 m
0.1941 0.4500 l
s
n
1.2294 0.1500 m
1.2294 0.4500 l
s
n
0.1941 0.1728 m
0.2171 0.1728 l
s
n
1.2294 0.1728 m
1.2064 0.1728 l
s
n
0.1941 0.1862 m
0.2171 0.1862 l
s
n
1.2294 0.1862 m
1.2064 0.1862 l
s
n
0.1941 0.1957 m
0.2171 0.1957 l
s
n
1.2294 0.1957 m
1.2064 0.1957 l
s
n
0.1941 0.2030 m
0.2171 0.2030 l
s
n
1.2294 0.2030 m
1.2064 0.2030 l
s
n
0.1941 0.2090 m
0.2171 0.2090 l
s
n
1.2294 0.2090 m
1.2064 0.2090 l
s
n
0.1941 0.2141 m
0.2171 0.2141 l
s
n
1.2294 0.2141 m
1.2064 0.2141 l
s
n
0.1941 0.2185 m
0.2171 0.2185 l
s
n
1.2294 0.2185 m
1.2064 0.2185 l
s
n
0.1941 0.2224 m
0.2171 0.2224 l
s
n
1.2294 0.2224 m
1.2064 0.2224 l
s
n
0.1941 0.2259 m
0.2171 0.2259 l
s
n
1.2294 0.2259 m
1.2064 0.2259 l
s
n
0.1941 0.2487 m
0.2171 0.2487 l
s
n
1.2294 0.2487 m
1.2064 0.2487 l
s
n
0.1941 0.2621 m
0.2171 0.2621 l
s
n
1.2294 0.2621 m
1.2064 0.2621 l
s
n
0.1941 0.2715 m
0.2171 0.2715 l
s
n
1.2294 0.2715 m
1.2064 0.2715 l
s
n
0.1941 0.2789 m
0.2171 0.2789 l
s
n
1.2294 0.2789 m
1.2064 0.2789 l
s
n
0.1941 0.2849 m
0.2171 0.2849 l
s
n
1.2294 0.2849 m
1.2064 0.2849 l
s
n
0.1941 0.2900 m
0.2171 0.2900 l
s
n
1.2294 0.2900 m
1.2064 0.2900 l
s
n
0.1941 0.2944 m
0.2171 0.2944 l
s
n
1.2294 0.2944 m
1.2064 0.2944 l
s
n
0.1941 0.2983 m
0.2171 0.2983 l
s
n
1.2294 0.2983 m
1.2064 0.2983 l
s
n
0.1941 0.3017 m
0.2171 0.3017 l
s
n
1.2294 0.3017 m
1.2064 0.3017 l
s
n
0.1941 0.3246 m
0.2171 0.3246 l
s
n
1.2294 0.3246 m
1.2064 0.3246 l
s
n
0.1941 0.3379 m
0.2171 0.3379 l
s
n
1.2294 0.3379 m
1.2064 0.3379 l
s
n
0.1941 0.3474 m
0.2171 0.3474 l
s
n
1.2294 0.3474 m
1.2064 0.3474 l
s
n
0.1941 0.3548 m
0.2171 0.3548 l
s
n
1.2294 0.3548 m
1.2064 0.3548 l
s
n
0.1941 0.3608 m
0.2171 0.3608 l
s
n
1.2294 0.3608 m
1.2064 0.3608 l
s
n
0.1941 0.3659 m
0.2171 0.3659 l
s
n
1.2294 0.3659 m
1.2064 0.3659 l
s
n
0.1941 0.3703 m
0.2171 0.3703 l
s
n
1.2294 0.3703 m
1.2064 0.3703 l
s
n
0.1941 0.3741 m
0.2171 0.3741 l
s
n
1.2294 0.3741 m
1.2064 0.3741 l
s
n
0.1941 0.3776 m
0.2171 0.3776 l
s
n
1.2294 0.3776 m
1.2064 0.3776 l
s
n
0.1941 0.4004 m
0.2171 0.4004 l
s
n
1.2294 0.4004 m
1.2064 0.4004 l
s
n
0.1941 0.4138 m
0.2171 0.4138 l
s
n
1.2294 0.4138 m
1.2064 0.4138 l
s
n
0.1941 0.4233 m
0.2171 0.4233 l
s
n
1.2294 0.4233 m
1.2064 0.4233 l
s
n
0.1941 0.4306 m
0.2171 0.4306 l
s
n
1.2294 0.4306 m
1.2064 0.4306 l
s
n
0.1941 0.4366 m
0.2171 0.4366 l
s
n
1.2294 0.4366 m
1.2064 0.4366 l
s
n
0.1941 0.4417 m
0.2171 0.4417 l
s
n
1.2294 0.4417 m
1.2064 0.4417 l
s
n
0.1941 0.4461 m
0.2171 0.4461 l
s
n
1.2294 0.4461 m
1.2064 0.4461 l
s
n
0.1941 0.4500 m
0.2171 0.4500 l
s
n
1.2294 0.4500 m
1.2064 0.4500 l
s
n
0.1941 0.1500 m
0.2271 0.1500 l
s
n
1.2294 0.1500 m
1.1964 0.1500 l
s
n
0.1941 0.2259 m
0.2271 0.2259 l
s
n
1.2294 0.2259 m
1.1964 0.2259 l
s
n
0.1941 0.3017 m
0.2271 0.3017 l
s
n
1.2294 0.3017 m
1.1964 0.3017 l
s
n
0.1941 0.3776 m
0.2271 0.3776 l
s
n
1.2294 0.3776 m
1.1964 0.3776 l
s
/Font4 FFSF
0.1053 0.1252 m
GS
[0.0462 0.0000 0.0000 0.0462 0 0] CC
(10) show
GR
/Font4 FFSF
0.1567 0.1529 m
GS
[0.0327 0.0000 0.0000 0.0327 0 0] CC
(-3) show
GR
/Font4 FFSF
0.1049 0.2010 m
GS
[0.0462 0.0000 0.0000 0.0462 0 0] CC
(10) show
GR
/Font4 FFSF
0.1563 0.2287 m
GS
[0.0327 0.0000 0.0000 0.0327 0 0] CC
(-2) show
GR
/Font4 FFSF
0.1104 0.2769 m
GS
[0.0462 0.0000 0.0000 0.0462 0 0] CC
(10) show
GR
/Font4 FFSF
0.1618 0.3046 m
GS
[0.0327 0.0000 0.0000 0.0327 0 0] CC
(-1) show
GR
/Font4 FFSF
0.1163 0.3528 m
GS
[0.0462 0.0000 0.0000 0.0462 0 0] CC
(10) show
GR
/Font4 FFSF
0.1676 0.3805 m
GS
[0.0327 0.0000 0.0000 0.0327 0 0] CC
(0) show
GR
/Font4 FFSF
0.0937 0.1533 m
GS
[0.0000 0.0490 -0.0490 0.0000 0 0] CC
(Relative error) show
GR
n
0.1941 0.1500 m
0.1941 0.4500 l
1.2294 0.4500 l
1.2294 0.1500 l
0.1941 0.1500 l
c
s
%%Trailer
%%BoundingBox: 17 31 755 595
%%DocumentNeededResources: font Helvetica
%%+ font Symbol
%%EOF
